{
    "accessors" : [
        {
            "bufferView" : 0,
            "componentType" : 5123,
            "count" : 3852,
            "max" : [
                1013
            ],
            "min" : [
                0
            ],
            "type" : "SCALAR"
        },
        {
            "bufferView" : 1,
            "componentType" : 5126,
            "count" : 1014,
            "max" : [
                0.29634761810302734,
                7.6709089279174805,
                3.869291305541992
            ],
            "min" : [
                -0.32131481170654297,
                -7.6709089279174805,
                -1.8720722198486328
            ],
            "type" : "VEC3"
        },
        {
            "bufferView" : 2,
            "componentType" : 5126,
            "count" : 1014,
            "max" : [
                1.0,
                0.9856868386268616,
                0.9973754286766052
            ],
            "min" : [
                -1.0,
                -0.9765007495880127,
                -0.9797967672348022
            ],
            "type" : "VEC3"
        },
        {
            "bufferView" : 3,
            "componentType" : 5126,
            "count" : 1014,
            "max" : [
                0.9930427670478821,
                0.9998365640640259,
                0.9970062971115112,
                1.0
            ],
            "min" : [
                -0.9930442571640015,
                -0.999555766582489,
                -0.9996449947357178,
                -1.0
            ],
            "type" : "VEC4"
        },
        {
            "bufferView" : 4,
            "componentType" : 5126,
            "count" : 1014,
            "max" : [
                1.465093970298767,
                0.9995009999838658
            ],
            "min" : [
                -0.15508800745010376,
                0.0004990100860595703
            ],
            "type" : "VEC2"
        },
        {
            "bufferView" : 5,
            "componentType" : 5123,
            "count" : 9840,
            "max" : [
                3304
            ],
            "min" : [
                0
            ],
            "type" : "SCALAR"
        },
        {
            "bufferView" : 6,
            "componentType" : 5126,
            "count" : 3305,
            "max" : [
                0.36405467987060547,
                6.412750244140625,
                4.830705642700195
            ],
            "min" : [
                -0.36405467987060547,
                -6.353822708129883,
                -4.830705642700195
            ],
            "type" : "VEC3"
        },
        {
            "bufferView" : 7,
            "componentType" : 5126,
            "count" : 3305,
            "max" : [
                1.0,
                0.999969482421875,
                0.999847412109375
            ],
            "min" : [
                -1.0,
                -0.999969482421875,
                -0.999847412109375
            ],
            "type" : "VEC3"
        },
        {
            "bufferView" : 8,
            "componentType" : 5126,
            "count" : 3305,
            "max" : [
                1.0,
                0.9987530708312988,
                0.9987527132034302,
                1.0
            ],
            "min" : [
                -1.0,
                -0.999936044216156,
                -0.9987527132034302,
                -1.0
            ],
            "type" : "VEC4"
        },
        {
            "bufferView" : 9,
            "componentType" : 5126,
            "count" : 3305,
            "max" : [
                6.304323196411133,
                1.7701069712638855
            ],
            "min" : [
                -6.304324150085449,
                0.0
            ],
            "type" : "VEC2"
        },
        {
            "bufferView" : 10,
            "componentType" : 5123,
            "count" : 24264,
            "max" : [
                5535
            ],
            "min" : [
                0
            ],
            "type" : "SCALAR"
        },
        {
            "bufferView" : 11,
            "componentType" : 5126,
            "count" : 5536,
            "max" : [
                1.4749517440795898,
                6.517299652099609,
                21.42886734008789
            ],
            "min" : [
                -1.4749517440795898,
                -6.517299652099609,
                -21.42886734008789
            ],
            "type" : "VEC3"
        },
        {
            "bufferView" : 12,
            "componentType" : 5126,
            "count" : 5536,
            "max" : [
                1.0,
                0.999969482421875,
                0.9987487196922302
            ],
            "min" : [
                -1.0,
                -0.999481201171875,
                -0.999908447265625
            ],
            "type" : "VEC3"
        },
        {
            "bufferView" : 13,
            "componentType" : 5126,
            "count" : 5536,
            "max" : [
                1.0,
                0.9999882578849792,
                0.959128737449646,
                1.0
            ],
            "min" : [
                -1.0,
                -0.9999991059303284,
                -0.9117391705513,
                -1.0
            ],
            "type" : "VEC4"
        },
        {
            "bufferView" : 14,
            "componentType" : 5126,
            "count" : 5536,
            "max" : [
                2.1051740646362305,
                6.210011005401611
            ],
            "min" : [
                -1.105173945426941,
                -4.388487815856934
            ],
            "type" : "VEC2"
        },
        {
            "bufferView" : 15,
            "componentType" : 5123,
            "count" : 3600,
            "max" : [
                842
            ],
            "min" : [
                0
            ],
            "type" : "SCALAR"
        },
        {
            "bufferView" : 16,
            "componentType" : 5126,
            "count" : 843,
            "max" : [
                0.4894094467163086,
                -2.28505802154541,
                -15.763713836669922
            ],
            "min" : [
                0.35454845428466797,
                -2.891043186187744,
                -16.36752700805664
            ],
            "type" : "VEC3"
        },
        {
            "bufferView" : 17,
            "componentType" : 5126,
            "count" : 843,
            "max" : [
                0.999847412109375,
                0.99993896484375,
                0.9962462186813354
            ],
            "min" : [
                -0.766441822052002,
                -0.999908447265625,
                -0.9960325956344604
            ],
            "type" : "VEC3"
        },
        {
            "bufferView" : 18,
            "componentType" : 5126,
            "count" : 843,
            "max" : [
                0.9999880790710449,
                0.9999968409538269,
                0.7733330726623535,
                1.0
            ],
            "min" : [
                -0.9999972581863403,
                -0.9999833106994629,
                -0.7963998913764954,
                1.0
            ],
            "type" : "VEC4"
        },
        {
            "bufferView" : 19,
            "componentType" : 5126,
            "count" : 843,
            "max" : [
                1.2591960430145264,
                0.8234300017356873
            ],
            "min" : [
                -0.25906500220298767,
                -3.232327938079834
            ],
            "type" : "VEC2"
        }
    ],
    "asset" : {
        "generator" : "Khronos Blender glTF 2.0 exporter",
        "version" : "2.0"
    },
    "bufferViews" : [
        {
            "buffer" : 0,
            "byteLength" : 7704,
            "byteOffset" : 0,
            "target" : 34963
        },
        {
            "buffer" : 0,
            "byteLength" : 12168,
            "byteOffset" : 7704,
            "target" : 34962
        },
        {
            "buffer" : 0,
            "byteLength" : 12168,
            "byteOffset" : 19872,
            "target" : 34962
        },
        {
            "buffer" : 0,
            "byteLength" : 16224,
            "byteOffset" : 32040,
            "target" : 34962
        },
        {
            "buffer" : 0,
            "byteLength" : 8112,
            "byteOffset" : 48264,
            "target" : 34962
        },
        {
            "buffer" : 0,
            "byteLength" : 19680,
            "byteOffset" : 56376,
            "target" : 34963
        },
        {
            "buffer" : 0,
            "byteLength" : 39660,
            "byteOffset" : 76056,
            "target" : 34962
        },
        {
            "buffer" : 0,
            "byteLength" : 39660,
            "byteOffset" : 115716,
            "target" : 34962
        },
        {
            "buffer" : 0,
            "byteLength" : 52880,
            "byteOffset" : 155376,
            "target" : 34962
        },
        {
            "buffer" : 0,
            "byteLength" : 26440,
            "byteOffset" : 208256,
            "target" : 34962
        },
        {
            "buffer" : 0,
            "byteLength" : 48528,
            "byteOffset" : 234696,
            "target" : 34963
        },
        {
            "buffer" : 0,
            "byteLength" : 66432,
            "byteOffset" : 283224,
            "target" : 34962
        },
        {
            "buffer" : 0,
            "byteLength" : 66432,
            "byteOffset" : 349656,
            "target" : 34962
        },
        {
            "buffer" : 0,
            "byteLength" : 88576,
            "byteOffset" : 416088,
            "target" : 34962
        },
        {
            "buffer" : 0,
            "byteLength" : 44288,
            "byteOffset" : 504664,
            "target" : 34962
        },
        {
            "buffer" : 0,
            "byteLength" : 7200,
            "byteOffset" : 548952,
            "target" : 34963
        },
        {
            "buffer" : 0,
            "byteLength" : 10116,
            "byteOffset" : 556152,
            "target" : 34962
        },
        {
            "buffer" : 0,
            "byteLength" : 10116,
            "byteOffset" : 566268,
            "target" : 34962
        },
        {
            "buffer" : 0,
            "byteLength" : 13488,
            "byteOffset" : 576384,
            "target" : 34962
        },
        {
            "buffer" : 0,
            "byteLength" : 6744,
            "byteOffset" : 589872,
            "target" : 34962
        }
    ],
    "buffers" : [
        {
            "byteLength" : 596616,
            "uri" : "pants.bin"
        }
    ],
    "images" : [
        {
            "name" : "bttn_05",
            "uri" : "bttn_05.jpg"
        },
        {
            "name" : "hanger_wood",
            "uri" : "hanger_wood.jpg"
        },
        {
            "name" : "pants_lt_brown",
            "uri" : "pants_lt_brown.jpg"
        }
    ],
    "materials" : [
        {
            "alphaMode" : "BLEND",
            "name" : "button_01",
            "pbrMetallicRoughness" : {
                "baseColorFactor" : [
                    0.6000000238418579,
                    0.6000000238418579,
                    0.6000000238418579,
                    1.0
                ],
                "baseColorTexture" : {
                    "index" : 0
                },
                "metallicFactor" : 0.0
            }
        },
        {
            "alphaMode" : "BLEND",
            "name" : "dark_wood_hanger",
            "normalTexture" : {
                "index" : 6
            },
            "pbrMetallicRoughness" : {
                "baseColorFactor" : [
                    0.6000000238418579,
                    0.6000000238418579,
                    0.6000000238418579,
                    1.0
                ],
                "baseColorTexture" : {
                    "index" : 6
                },
                "metallicFactor" : 0.0
            }
        },
        {
            "alphaMode" : "BLEND",
            "name" : "hanger_ss",
            "pbrMetallicRoughness" : {
                "baseColorFactor" : [
                    0.20000000298023224,
                    0.20000000298023224,
                    0.20000000298023224,
                    1.0
                ],
                "metallicFactor" : 0.0
            }
        },
        {
            "alphaMode" : "BLEND",
            "name" : "pants_light_brown",
            "pbrMetallicRoughness" : {
                "baseColorFactor" : [
                    0.20000000298023224,
                    0.20000000298023224,
                    0.20000000298023224,
                    1.0
                ],
                "baseColorTexture" : {
                    "index" : 10
                },
                "metallicFactor" : 0.0
            }
        }
    ],
    "meshes" : [
        {
            "name" : "hanger13",
            "primitives" : [
                {
                    "attributes" : {
                        "NORMAL" : 2,
                        "POSITION" : 1,
                        "TANGENT" : 3,
                        "TEXCOORD_0" : 4
                    },
                    "indices" : 0,
                    "material" : 1
                },
                {
                    "attributes" : {
                        "NORMAL" : 7,
                        "POSITION" : 6,
                        "TANGENT" : 8,
                        "TEXCOORD_0" : 9
                    },
                    "indices" : 5,
                    "material" : 2
                }
            ]
        },
        {
            "name" : "pants_med",
            "primitives" : [
                {
                    "attributes" : {
                        "NORMAL" : 12,
                        "POSITION" : 11,
                        "TANGENT" : 13,
                        "TEXCOORD_0" : 14
                    },
                    "indices" : 10,
                    "material" : 3
                },
                {
                    "attributes" : {
                        "NORMAL" : 17,
                        "POSITION" : 16,
                        "TANGENT" : 18,
                        "TEXCOORD_0" : 19
                    },
                    "indices" : 15,
                    "material" : 0
                }
            ]
        }
    ],
    "nodes" : [
        {
            "mesh" : 0,
            "name" : "hanger13",
            "rotation" : [
                0.7071068286895752,
                0.0,
                -0.0,
                0.7071067094802856
            ],
            "scale" : [
                0.10000000149011612,
                0.10000000149011612,
                0.10000000149011612
            ],
            "translation" : [
                0.0,
                -0.4023258686065674,
                0.029173757880926132
            ]
        },
        {
            "mesh" : 1,
            "name" : "pants_med",
            "rotation" : [
                0.7071068286895752,
                0.0,
                -0.0,
                0.7071067094802856
            ],
            "scale" : [
                0.09999988228082657,
                0.10000000894069672,
                0.10000000894069672
            ],
            "translation" : [
                0.024706438183784485,
                -2.9372503757476807,
                0.029173757880926132
            ]
        }
    ],
    "samplers" : [
        {}
    ],
    "scene" : 0,
    "scenes" : [
        {
            "name" : "Scene",
            "nodes" : [
                0,
                1
            ]
        }
    ],
    "textures" : [
        {
            "sampler" : 0,
            "source" : 0
        },
        {
            "sampler" : 0,
            "source" : 0
        },
        {
            "sampler" : 0,
            "source" : 0
        },
        {
            "sampler" : 0,
            "source" : 0
        },
        {
            "sampler" : 0,
            "source" : 0
        },
        {
            "sampler" : 0,
            "source" : 0
        },
        {
            "sampler" : 0,
            "source" : 1
        },
        {
            "sampler" : 0,
            "source" : 1
        },
        {
            "sampler" : 0,
            "source" : 1
        },
        {
            "sampler" : 0,
            "source" : 1
        },
        {
            "sampler" : 0,
            "source" : 2
        }
    ]
}
