{
    "images": [],
    "geometries": [{
        "type": "Geometry",
        "data": {
            "vertices": [0.6,-0.242007,-0.64114,0.6,-0.28913,-0.645744,0.6,-0.242007,-0.643935,0.6,-0.242007,-0.62,0.6,-0.269355,-0.62,0.6,-0.242007,-0.647266,0.6,-0.242007,-0.643935,0.6,-0.292399,-0.65,0.6,-0.242007,-0.647266,0.6,-0.242007,-0.65,0.6,-0.4,-0.62,0.6,-0.4,-0.65,0.6,-0.139137,-0.631088,0.6,-0.139137,-0.639987,0.6,-0.139137,-0.631088,0.6,-0.139137,-0.62,0.6,-0.139137,-0.641684,0.6,-0.139137,-0.639987,0.6,-0.139137,-0.65,0.6,-0.036125,-0.649804,0.6,-0.036125,-0.645265,0.6,-0.038087,-0.65,0.6,-0.036125,-0.649804,0.6,-0.036125,-0.65,0.6,-0.036125,-0.621023,0.6,-0.036125,-0.636032,0.6,-0.036125,-0.621023,0.6,-0.036125,-0.62,0.6,-0.036125,-0.636094,0.6,-0.036125,-0.636032,0.6,-0.036125,-0.645265,0.6,-0.036125,-0.636094,0.6,0.086162,-0.627411,0.6,-0.032237,-0.635883,0.6,0.086162,-0.631338,0.6,0.086162,-0.627411,0.6,0.086162,-0.62,0.6,-0.025656,-0.62,0.6,0.086162,-0.637621,0.6,0.086162,-0.637621,0.6,0.086162,-0.65,0.6,0.18876,-0.6274,0.6,0.287779,-0.623599,0.6,0.287779,-0.62,0.6,0.189732,-0.62,0.6,0.287779,-0.634369,0.6,0.287779,-0.623599,0.6,0.185789,-0.65,0.6,0.287779,-0.634369,0.6,0.287779,-0.65,0.6,0.381538,-0.62,0.6,0.4,-0.65,0.6,0.4,-0.62,-0.6,-0.399739,0.65,-0.6,-0.399739,-0.5399,-0.6,-0.4,-0.541884,-0.6,-0.4,0.65,-0.6,-0.399739,-0.649576,-0.6,-0.399739,-0.65,-0.6,-0.4,-0.65,-0.6,-0.399739,-0.645559,-0.6,-0.399739,-0.649576,-0.6,-0.399739,-0.5399,-0.6,-0.399739,-0.645559,-0.6,0.399739,0.571443,-0.6,0.399739,0.649576,-0.6,0.4,0.65,-0.6,0.4,0.571477,-0.6,0.399739,0.649923,-0.6,0.399739,0.65,-0.6,0.399739,0.649923,-0.6,0.399739,0.649576,-0.6,0.399739,0.571249,-0.6,0.399739,0.571443,-0.6,0.399739,0.466357,-0.6,0.4,0.466323,-0.6,0.399739,0.466254,-0.6,0.399739,0.375217,-0.6,0.399739,0.466254,-0.6,0.4,0.375109,-0.6,0.399739,0.375157,-0.6,0.399739,0.375217,-0.6,0.399739,0.286871,-0.6,0.399739,0.375157,-0.6,0.4,0.286671,-0.6,0.399739,0.286845,-0.6,0.399739,0.286871,-0.6,0.399739,0.186715,-0.6,0.399739,0.286845,-0.6,0.4,0.186375,-0.6,0.399739,0.03118,-0.6,0.399739,0.186715,-0.6,0.4,0.030551,-0.6,0.399739,-0.5399,-0.6,0.399739,0.03118,-0.6,0.4,-0.541884,-0.6,0.399739,-0.647734,-0.6,0.399739,-0.5399,-0.6,0.4,-0.65,-0.6,0.399739,-0.647734,-0.6,0.399739,-0.65,-0.6,0.200261,0.623836,-0.6,0.200261,0.65,-0.6,0.263404,0.65,-0.6,0.347426,0.564567,-0.6,0.200261,0.590906,-0.6,0.200261,0.623836,-0.6,0.200261,0.545223,-0.6,0.200261,0.590906,-0.6,0.295427,0.480068,-0.6,0.200261,0.492577,-0.6,0.200261,0.545223,-0.6,0.265207,0.430962,-0.6,0.200261,0.457874,-0.6,0.200261,0.492577,-0.6,0.248177,0.403288,-0.6,0.200261,0.440094,-0.6,0.200261,0.457874,-0.6,0.241598,0.392597,-0.6,0.2121,0.431,-0.6,0.2598,0.3689,-0.6,0.2898,0.2965,-0.6,0.3,0.2189,-0.6,0.200261,-0.5399,-0.6,0.200261,-0.65,-0.6,0.200261,-0.074788,-0.6,0.2898,0.1413,-0.6,0.200261,-0.5399,-0.6,0.200261,-0.008613,-0.6,0.2598,0.0689,-0.6,0.200261,-0.074788,-0.6,0.200261,-0.002294,-0.6,0.2121,0.0068,-0.6,0.200261,-0.008613,-0.6,0.007535,0.599705,-0.6,0.007535,0.65,-0.6,0.073013,0.65,-0.6,0.007535,0.543977,-0.6,0.007535,0.599705,-0.6,0.007535,0.533888,-0.6,0.007535,0.543977,-0.6,0.007535,0.51989,-0.6,0.007535,0.533888,-0.6,0.007535,0.51791,-0.6,0.007535,0.51989,-0.6,0.0776,0.5087,-0.6,0.15,0.4787,-0.6,0.185789,-0.65,-0.6,0.007535,-0.5399,-0.6,0.007535,-0.65,-0.6,0.007535,-0.259521,-0.6,0.007535,-0.5399,-0.6,0.007535,-0.15033,-0.6,0.007535,-0.259521,-0.6,0.007535,-0.099933,-0.6,0.15,-0.0409,-0.6,0.007535,-0.15033,-0.6,0.007535,-0.08011,-0.6,0.0776,-0.0709,-0.6,0.007535,-0.099933,-0.6,-0.207829,0.494323,-0.6,-0.207829,0.65,-0.6,-0.143322,0.65,-0.6,-0.207829,0.43656,-0.6,-0.207829,0.494323,-0.6,-0.043883,0.65,-0.6,-0.207829,0.434281,-0.6,-0.207829,0.43656,-0.6,-0.15,0.4787,-0.6,-0.0776,0.5087,-0.6,-0,0.5189,-0.6,-0.038087,-0.65,-0.6,-0.207829,-0.5399,-0.6,-0.207829,-0.65,-0.6,-0.207829,-0.378398,-0.6,-0.182192,-0.296062,-0.6,-0.207829,-0.5399,-0.6,-0.207829,-0.337722,-0.6,-0.207829,-0.378398,-0.6,-0.207829,-0.315754,-0.6,-0.085124,-0.138327,-0.6,-0.207829,-0.266218,-0.6,-0.207829,-0.189172,-0.6,-0.207829,-0.266218,-0.6,-0.0543,-0.088237,-0.6,-0.207829,-0.170472,-0.6,-0.207829,-0.108418,-0.6,-0,-0.0811,-0.6,-0.046173,-0.075031,-0.6,-0.207829,-0.102837,-0.6,-0.207829,-0.053782,-0.6,-0.207829,-0.016938,-0.6,-0.0776,-0.0709,-0.6,-0.207829,-0.053782,-0.6,-0.207829,0.003519,-0.6,-0.15,-0.0409,-0.6,-0.207829,-0.016938,-0.6,-0.243335,0.65,-0.6,-0.2898,0.2965,-0.6,-0.2598,0.3689,-0.6,-0.2121,0.431,-0.6,-0.292399,-0.65,-0.6,-0.38852,-0.454546,-0.6,-0.362037,-0.25307,-0.6,-0.345401,-0.126501,-0.6,-0.333668,-0.037242,-0.6,-0.324637,0.031464,-0.6,-0.317262,0.087576,-0.6,-0.2121,0.0068,-0.6,-0.310962,0.135506,-0.6,-0.2598,0.0689,-0.6,-0.305287,0.178676,-0.6,-0.2898,0.1413,-0.6,-0.3,0.2189,-0.599988,-0.399738,0.65,-0.6,-0.399739,0.65,-0.599941,-0.399731,0.65,-0.599988,-0.399738,0.65,-0.5655,-0.395204,0.65,-0.599941,-0.399731,0.65,-0.5655,-0.4,0.65,-0.599942,0.399732,0.65,-0.599513,0.399675,0.65,-0.6,0.399739,0.65,-0.5655,0.395204,0.65,-0.5655,0.4,0.65,-0.593134,0.201163,0.65,-0.573191,0.203785,0.65,-0.570544,0.263404,0.65,-0.593134,0.201163,0.65,-0.6,0.200261,0.65,-0.568979,0.204338,0.65,-0.5655,0.204796,0.65,-0.5655,0.263404,0.65,-0.5655,0.377,0.65,-0.591613,0.01101,0.65,-0.581566,0.015173,0.65,-0.578997,0.073013,0.65,-0.591613,0.01101,0.65,-0.572741,0.01883,0.65,-0.5655,0.02183,0.65,-0.5655,0.073013,0.65,-0.572741,0.01883,0.65,-0.581566,0.015173,0.65,-0.595741,-0.204558,0.65,-0.591166,-0.201044,0.65,-0.588603,-0.143322,0.65,-0.595741,-0.204558,0.65,-0.577665,-0.190673,0.65,-0.5655,-0.181329,0.65,-0.5655,-0.143322,0.65,-0.577665,-0.190673,0.65,-0.584188,-0.043883,0.65,-0.5655,-0.043883,0.65,-0.593044,-0.243335,0.65,-0.5655,-0.243335,0.65,0.216631,-0.292399,-0.65,0.6,-0.242007,-0.65,-0.599923,-0.399729,-0.65,-0.599513,-0.399675,-0.65,-0.599923,-0.399729,-0.65,-0.6,-0.399739,-0.65,-0.5655,-0.395204,-0.65,-0.5655,-0.4,-0.65,-0.599513,-0.399675,-0.65,-0.556859,-0.394069,-0.65,-0.556859,-0.394069,-0.65,0.216631,-0.292399,-0.65,0.2364,-0.2898,-0.65,0.597446,-0.038087,-0.65,0.6,-0.036125,-0.65,0.596198,-0.039045,-0.65,0.597446,-0.038087,-0.65,0.3088,-0.2598,-0.65,0.596198,-0.039045,-0.65,0.504562,-0.038087,-0.65,0.6,0.086162,-0.65,0.481643,-0.067926,-0.65,0.504562,-0.038087,-0.65,0.3709,-0.2121,-0.65,0.481643,-0.067926,-0.65,0.557739,0.185789,-0.65,0.550552,0.168444,-0.65,0.464973,-0.038087,-0.65,0.550552,0.168444,-0.65,0.449222,-0.076099,-0.65,0.464973,-0.038087,-0.65,0.4186,-0.15,-0.65,0.449222,-0.076099,-0.65,0.502866,0.335244,-0.65,0.511377,0.4,-0.65,0.502589,0.333137,-0.65,0.502866,0.335244,-0.65,0.483221,0.185789,-0.65,0.502589,0.333137,-0.65,0.477576,0.142846,-0.65,0.453794,-0.038087,-0.65,0.477576,0.142846,-0.65,0.448783,-0.07621,-0.65,0.4486,-0.0776,-0.65,0.448783,-0.07621,-0.65,0.421835,0.281223,-0.65,0.406223,0.4,-0.65,0.422259,0.277998,-0.65,0.434379,0.185789,-0.65,0.422259,0.277998,-0.65,0.441679,0.130254,-0.65,0.434379,0.185789,-0.65,0.4588,-0,-0.65,0.441679,0.130254,-0.65,0.376695,0.25113,-0.65,0.315009,0.4,-0.65,0.378117,0.247699,-0.65,0.40377,0.185789,-0.65,0.378117,0.247699,-0.65,0.428672,0.125692,-0.65,0.40377,0.185789,-0.65,0.4486,0.0776,-0.65,0.428672,0.125692,-0.65,0.353036,0.235357,-0.65,0.226571,0.4,-0.65,0.355487,0.232166,-0.65,0.353036,0.235357,-0.65,0.39111,0.185789,-0.65,0.355487,0.232166,-0.65,0.4186,0.15,-0.65,0.34639,0.230927,-0.65,0.126275,0.4,-0.65,0.349831,0.228284,-0.65,0.34639,0.230927,-0.65,0.3709,0.2121,-0.65,0.349831,0.228284,-0.65,0.3088,0.2598,-0.65,-0.029549,0.4,-0.65,-0.599988,0.399738,-0.65,-0.6,0.399739,-0.65,-0.599957,0.399734,-0.65,-0.599988,0.399738,-0.65,-0.5655,0.395204,-0.65,-0.599957,0.399734,-0.65,-0.5655,0.4,-0.65,-0.52629,0.390051,-0.65,0.2364,0.2898,-0.65,-0.52629,0.390051,-0.65,-0.591183,0.20142,-0.65,-0.6,0.200261,-0.65,-0.568498,0.204402,-0.65,-0.591183,0.20142,-0.65,-0.5655,0.204796,-0.65,-0.568498,0.204402,-0.65,-0.058729,0.271407,-0.65,-0.5655,0.204796,-0.65,0.1588,0.3,-0.65,-0.058729,0.271407,-0.65,-0.590489,0.185789,-0.65,-0.5655,0.185789,-0.65,0.000525,0.256371,-0.65,-0.169813,0.185789,-0.65,0.0812,0.2898,-0.65,0.000525,0.256371,-0.65,-0.598027,0.008352,-0.65,-0.582889,0.014625,-0.65,-0.598027,0.008352,-0.65,-0.6,0.007535,-0.65,-0.576837,0.017133,-0.65,-0.5655,0.02183,-0.65,-0.576837,0.017133,-0.65,-0.582889,0.014625,-0.65,-0.5655,0.02183,-0.65,0.00339,0.255644,-0.65,-0.087554,0.185789,-0.65,0.0088,0.2598,-0.65,0.00339,0.255644,-0.65,-0.580548,-0.038087,-0.65,-0.5655,-0.038087,-0.65,-0.280678,0.037448,-0.65,-0.379015,-0.038087,-0.65,-0.087554,0.185789,-0.65,-0.280678,0.037448,-0.65,-0.593128,-0.20255,-0.65,-0.573902,-0.187782,-0.65,-0.593128,-0.20255,-0.65,-0.6,-0.207829,-0.65,-0.56764,-0.182973,-0.65,-0.5655,-0.181329,-0.65,-0.56764,-0.182973,-0.65,-0.573902,-0.187782,-0.65,-0.379015,-0.038087,-0.65,-0.5655,-0.181329,-0.65,-0.0533,0.2121,-0.65,-0.07351,0.185789,-0.65,-0.163605,0.068495,-0.65,-0.245472,-0.038087,-0.65,-0.163605,0.068495,-0.65,-0.569256,-0.292399,-0.65,-0.5655,-0.292399,-0.65,-0.363005,-0.1911,-0.65,-0.440813,-0.292399,-0.65,-0.363005,-0.1911,-0.65,-0.5655,-0.377,-0.65,-0.440813,-0.292399,-0.65,-0.443139,-0.295426,-0.65,-0.463524,-0.321966,-0.65,-0.476584,-0.338968,-0.65,-0.463524,-0.321966,-0.65,-0.443139,-0.295426,-0.65,-0.514646,-0.38852,-0.65,-0.476584,-0.338968,-0.65,-0.131213,0.077085,-0.65,-0.178936,-0.038087,-0.65,-0.101,0.15,-0.65,-0.131213,0.077085,-0.65,-0.210787,-0.114954,-0.65,-0.225427,-0.150285,-0.65,-0.438598,-0.292399,-0.65,-0.210787,-0.114954,-0.65,-0.229199,-0.159387,-0.65,-0.23486,-0.173048,-0.65,-0.408738,-0.292399,-0.65,-0.229199,-0.159387,-0.65,-0.225427,-0.150285,-0.65,-0.2698,-0.257371,-0.65,-0.23486,-0.173048,-0.65,-0.284314,-0.292399,-0.65,-0.2698,-0.257371,-0.65,-0.31317,-0.362037,-0.65,-0.131062,0.077125,-0.65,-0.146206,-0.038087,-0.65,-0.131,0.0776,-0.65,-0.131062,0.077125,-0.65,-0.152476,-0.085783,-0.65,-0.154762,-0.103174,-0.65,-0.146206,-0.038087,-0.65,-0.152476,-0.085783,-0.65,-0.156042,-0.112917,-0.65,-0.156914,-0.119546,-0.65,-0.154762,-0.103174,-0.65,-0.171782,-0.23266,-0.65,-0.156914,-0.119546,-0.65,-0.179634,-0.292399,-0.65,-0.171782,-0.23266,-0.65,-0.186601,-0.345401,-0.65,-0.179634,-0.292399,-0.65,-0.1412,0,-0.65,-0.136194,-0.038087,-0.65,-0.131316,-0.075198,-0.65,-0.129824,-0.086549,-0.65,-0.136194,-0.038087,-0.65,-0.131316,-0.075198,-0.65,-0.128645,-0.095514,-0.65,-0.128087,-0.09976,-0.65,-0.128645,-0.095514,-0.65,-0.129824,-0.086549,-0.65,-0.11258,-0.217735,-0.65,-0.128087,-0.09976,-0.65,-0.102766,-0.292399,-0.65,-0.11258,-0.217735,-0.65,-0.097342,-0.333668,-0.65,-0.102766,-0.292399,-0.65,-0.131,-0.0776,-0.65,-0.12784,-0.085227,-0.65,-0.124633,-0.092966,-0.65,-0.123206,-0.096409,-0.65,-0.124633,-0.092966,-0.65,-0.12784,-0.085227,-0.65,-0.076683,-0.208685,-0.65,-0.123206,-0.096409,-0.65,-0.041995,-0.292399,-0.65,-0.076683,-0.208685,-0.65,-0.028636,-0.324637,-0.65,-0.041995,-0.292399,-0.65,-0.059291,-0.2043,-0.65,-0.101,-0.15,-0.65,0.008379,-0.292399,-0.65,-0.059291,-0.2043,-0.65,0.027476,-0.317262,-0.65,0.008379,-0.292399,-0.65,0.05124,-0.292399,-0.65,-0.0533,-0.2121,-0.65,0.075407,-0.310962,-0.65,0.05124,-0.292399,-0.65,0.087471,-0.292399,-0.65,0.0088,-0.2598,-0.65,0.118576,-0.305287,-0.65,0.087471,-0.292399,-0.65,0.100969,-0.292399,-0.65,0.0812,-0.2898,-0.65,0.1588,-0.3,-0.65,0.100969,-0.292399,-0.65,-0.597046,-0.4,-0.541884,-0.5655,-0.4,0.612625,-0.5655,-0.4,-0.541884,0.572308,-0.4,-0.62,-0.5655,-0.4,-0.62,0.511377,0.4,-0.647719,0.511377,0.4,-0.62,0.511377,0.4,-0.647719,0.511377,0.4,-0.65,0.406223,0.4,-0.645012,0.406223,0.4,-0.62,0.315009,0.4,-0.642664,0.315009,0.4,-0.62,0.315009,0.4,-0.642664,0.315009,0.4,-0.65,0.226571,0.4,-0.640388,0.226571,0.4,-0.62,0.226571,0.4,-0.640388,0.226571,0.4,-0.65,0.126275,0.4,-0.637806,0.126275,0.4,-0.62,0.126275,0.4,-0.637806,0.126275,0.4,-0.65,-0.029549,0.4,-0.633795,-0.029549,0.4,-0.62,-0.029549,0.4,-0.633795,-0.029549,0.4,-0.65,-0.567584,0.4,0.571477,-0.5655,0.4,0.571477,-0.570375,0.4,0.466323,-0.5655,0.4,0.466323,-0.572795,0.4,0.375109,-0.5655,0.4,0.375109,-0.575142,0.4,0.286671,-0.5655,0.4,0.286671,-0.577804,0.4,0.186375,-0.5655,0.4,0.186375,-0.581939,0.4,0.030551,-0.5655,0.4,0.030551,-0.597131,0.4,-0.541884,-0.5655,0.4,-0.541884,-0.5655,0.4,-0.612625,-0.5655,0.4,-0.62,-0.5655,-0.395204,-0.5054,-0.5655,-0.395204,0.65,-0.5655,-0.395204,-0.615089,-0.5655,-0.395204,-0.612207,-0.5655,-0.395204,-0.615089,-0.5655,-0.395204,-0.62,-0.5655,-0.395204,-0.550884,-0.5655,-0.395204,-0.5054,-0.5655,-0.395204,-0.550884,-0.5655,0.395204,0.591875,-0.5655,0.395204,0.570847,-0.5655,0.395204,0.494863,-0.5655,0.395204,0.466953,-0.5655,0.395204,0.403386,-0.5655,0.395204,0.377096,-0.5655,0.395204,0.403386,-0.5655,0.395204,0.3178,-0.5655,0.395204,0.290355,-0.5655,0.395204,0.3178,-0.5655,0.395204,0.226145,-0.5655,0.395204,0.192619,-0.5655,0.395204,0.226145,-0.5655,0.395204,0.099338,-0.5655,0.395204,0.042124,-0.5655,0.395204,0.192619,-0.5655,0.395204,0.099338,-0.5655,0.395204,-0.5054,-0.5655,0.398723,-0.532171,-0.5655,0.395204,-0.290101,-0.5655,0.395204,-0.250209,-0.5655,0.395204,-0.290101,-0.5655,0.395204,-0.250209,-0.5655,0.395204,-0.53365,-0.5655,0.395204,-0.5054,-0.5655,0.395204,-0.62,-0.5655,0.204796,0.625715,-0.5655,0.204796,0.65,-0.5655,0.382713,0.569205,-0.5655,0.381538,0.65,-0.5655,0.327339,0.561927,-0.5655,0.204796,0.625715,-0.5655,0.204796,0.545819,-0.5655,0.384178,0.468402,-0.5655,0.278347,0.482313,-0.5655,0.204796,0.545819,-0.5655,0.204796,0.491981,-0.5655,0.385447,0.381139,-0.5655,0.250497,0.437058,-0.5655,0.204796,0.491981,-0.5655,0.204796,0.455995,-0.5655,0.386671,0.296909,-0.5655,0.235641,0.412917,-0.5655,0.204796,0.455995,-0.5655,0.204796,0.436611,-0.5655,0.388052,0.201931,-0.5655,0.231348,0.405941,-0.5655,0.2121,0.431,-0.5655,0.390199,0.054203,-0.5655,0.2598,0.3689,-0.5655,0.2898,0.2965,-0.5655,0.204796,-0.61367,-0.5655,0.3,0.2189,-0.5655,0.204796,-0.5054,-0.5655,0.204796,-0.62,-0.5655,0.204796,-0.5054,-0.5655,0.2898,0.1413,-0.5655,0.204796,-0.063844,-0.5655,0.204796,-0.063844,-0.5655,0.2598,0.0689,-0.5655,0.204796,-0.002709,-0.5655,0.204796,-0.00068,-0.5655,0.2121,0.0068,-0.5655,0.204796,0.001189,-0.5655,0.204796,-0.002709,-0.5655,0.204796,-0.00068,-0.5655,0.02183,0.610686,-0.5655,0.02183,0.65,-0.5655,0.02183,0.5499,-0.5655,0.02183,0.610686,-0.5655,0.02183,0.5499,-0.5655,0.02183,0.521769,-0.5655,0.02183,0.521769,-0.5655,0.02183,0.516031,-0.5655,0.0776,0.5087,-0.5655,0.15,0.4787,-0.5655,0.189732,-0.62,-0.5655,0.02183,-0.5054,-0.5655,0.02183,-0.62,-0.5655,0.02183,-0.5054,-0.5655,0.02183,-0.24091,-0.5655,0.02183,-0.188039,-0.5655,0.02183,-0.139349,-0.5655,0.02183,-0.24091,-0.5655,0.02183,-0.188039,-0.5655,0.02183,-0.139349,-0.5655,0.15,-0.0409,-0.5655,0.02183,-0.094009,-0.5655,0.02183,-0.094009,-0.5655,0.0776,-0.0709,-0.5655,0.02183,-0.078231,-0.5655,-0.181329,0.558277,-0.5655,-0.181329,0.65,-0.5655,-0.181329,0.47106,-0.5655,-0.181329,0.558277,-0.5655,-0.181329,0.454636,-0.5655,-0.181329,0.47106,-0.5655,-0.15,0.4787,-0.5655,-0.0776,0.5087,-0.5655,-0,0.5189,-0.5655,-0.025656,-0.62,-0.5655,-0.181329,-0.5054,-0.5655,-0.181329,-0.62,-0.5655,-0.181329,-0.396077,-0.5655,-0.181329,-0.295399,-0.5655,-0.181329,-0.5054,-0.5655,-0.181329,-0.396077,-0.5655,-0.181329,-0.295399,-0.5655,-0.109905,-0.148595,-0.5655,-0.181329,-0.26466,-0.5655,-0.181329,-0.178191,-0.5655,-0.181329,-0.26466,-0.5655,-0.074386,-0.090878,-0.5655,-0.181329,-0.141894,-0.5655,-0.181329,-0.178191,-0.5655,-0.181329,-0.104934,-0.5655,-0.181329,-0.141894,-0.5655,-0,-0.0811,-0.5655,-0.063253,-0.072786,-0.5655,-0.181329,-0.068755,-0.5655,-0.181329,-0.057266,-0.5655,-0.181329,-0.027918,-0.5655,-0.181329,-0.057266,-0.5655,-0.0776,-0.0709,-0.5655,-0.181329,-0.016836,-0.5655,-0.181329,-0.027918,-0.5655,-0.15,-0.0409,-0.5655,-0.2898,0.2965,-0.5655,-0.2598,0.3689,-0.5655,-0.2121,0.431,-0.5655,-0.269355,-0.62,-0.5655,-0.217203,-0.322954,-0.5655,-0.38852,-0.454546,-0.5655,-0.362037,-0.25307,-0.5655,-0.345401,-0.126501,-0.5655,-0.333668,-0.037242,-0.5655,-0.324637,0.031464,-0.5655,-0.317262,0.087576,-0.5655,-0.310962,0.135506,-0.5655,-0.2121,0.0068,-0.5655,-0.305287,0.178676,-0.5655,-0.2598,0.0689,-0.5655,-0.3,0.2189,-0.5655,-0.2898,0.1413,0.548876,-0.248727,-0.62,0.391942,-0.269355,-0.62,-0.55654,-0.394027,-0.62,0.006474,-0.320022,-0.62,0.391942,-0.269355,-0.62,0.006474,-0.320022,-0.62,-0.55654,-0.394027,-0.62,0.44078,-0.205112,-0.62,0.6,-0.139137,-0.62,0.28574,-0.269355,-0.62,0.44078,-0.205112,-0.62,0.2364,-0.2898,-0.62,0.28574,-0.269355,-0.62,0.40093,-0.189033,-0.62,0.6,-0.036125,-0.62,0.3088,-0.2598,-0.62,0.545947,0.015791,-0.62,0.514111,-0.025656,-0.62,0.545947,0.015791,-0.62,0.391531,-0.185241,-0.62,0.3709,-0.2121,-0.62,0.391531,-0.185241,-0.62,0.559373,0.189732,-0.62,0.6,0.287779,-0.62,0.501439,0.049918,-0.62,0.559373,0.189732,-0.62,0.470124,-0.025656,-0.62,0.501439,0.049918,-0.62,0.4186,-0.15,-0.62,0.470124,-0.025656,-0.62,0.508591,0.378804,-0.62,0.6,0.377,-0.62,0.511377,0.4,-0.62,0.499552,0.310035,-0.62,0.508591,0.378804,-0.62,0.483739,0.189732,-0.62,0.499552,0.310035,-0.62,0.468665,0.075049,-0.62,0.455428,-0.025656,-0.62,0.468665,0.075049,-0.62,0.4486,-0.0776,-0.62,0.40875,0.380774,-0.62,0.424615,0.260076,-0.62,0.40875,0.380774,-0.62,0.433861,0.189732,-0.62,0.446724,0.091872,-0.62,0.433861,0.189732,-0.62,0.4588,0,-0.62,0.446724,0.091872,-0.62,0.322268,0.382481,-0.62,0.315009,0.4,-0.62,0.384163,0.233109,-0.62,0.322268,0.382481,-0.62,0.402136,0.189732,-0.62,0.384163,0.233109,-0.62,0.440806,0.09641,-0.62,0.4486,0.0776,-0.62,0.440806,0.09641,-0.62,0.238762,0.384129,-0.62,0.226571,0.4,-0.62,0.364719,0.220146,-0.62,0.388081,0.189732,-0.62,0.364719,0.220146,-0.62,0.4186,0.15,-0.62,0.388081,0.189732,-0.62,0.144517,0.385989,-0.62,0.126275,0.4,-0.62,0.36242,0.218613,-0.62,0.144517,0.385989,-0.62,0.3709,0.2121,-0.62,0.36242,0.218613,-0.62,-0.002748,0.388895,-0.62,-0.029549,0.4,-0.62,0.3088,0.2598,-0.62,-0.002748,0.388895,-0.62,-0.520367,0.389272,-0.62,0.2364,0.2898,-0.62,-0.520367,0.389272,-0.62,0.1588,0.3,-0.62,-0.036694,0.274304,-0.62,-0.036694,0.274304,-0.62,0.0812,0.2898,-0.62,0.014459,0.262145,-0.62,-0.160297,0.189732,-0.62,0.014459,0.262145,-0.62,-0.355083,0.10902,-0.62,-0.355083,0.10902,-0.62,-0.5655,0.02183,-0.62,0.0088,0.2598,-0.62,-0.08242,0.189732,-0.62,-0.243314,0.066147,-0.62,-0.362831,-0.025656,-0.62,-0.243314,0.066147,-0.62,-0.488116,-0.121889,-0.62,-0.362831,-0.025656,-0.62,-0.0533,0.2121,-0.62,-0.070481,0.189732,-0.62,-0.183139,0.043065,-0.62,-0.070481,0.189732,-0.62,-0.235924,-0.025656,-0.62,-0.183139,0.043065,-0.62,-0.396937,-0.235276,-0.62,-0.235924,-0.025656,-0.62,-0.423113,-0.269355,-0.62,-0.479347,-0.342564,-0.62,-0.514646,-0.38852,-0.62,-0.101,0.15,-0.62,-0.150498,0.030545,-0.62,-0.173786,-0.025656,-0.62,-0.369533,-0.269355,-0.62,-0.238595,-0.182064,-0.62,-0.173786,-0.025656,-0.62,-0.274766,-0.269355,-0.62,-0.238595,-0.182064,-0.62,-0.279777,-0.28145,-0.62,-0.274766,-0.269355,-0.62,-0.31317,-0.362037,-0.62,-0.131,0.0776,-0.62,-0.137824,0.025683,-0.62,-0.144572,-0.025656,-0.62,-0.158075,-0.128383,-0.62,-0.144572,-0.025656,-0.62,-0.176605,-0.269355,-0.62,-0.179963,-0.2949,-0.62,-0.176605,-0.269355,-0.62,-0.186601,-0.345401,-0.62,-0.1412,-0,-0.62,-0.137828,-0.025656,-0.62,-0.127044,-0.107696,-0.62,-0.137828,-0.025656,-0.62,-0.105795,-0.269355,-0.62,-0.127044,-0.107696,-0.62,-0.10104,-0.305535,-0.62,-0.105795,-0.269355,-0.62,-0.097342,-0.333668,-0.62,-0.10104,-0.305535,-0.62,-0.131,-0.0776,-0.62,-0.120372,-0.103248,-0.62,-0.051543,-0.269355,-0.62,-0.120372,-0.103248,-0.62,-0.032738,-0.314738,-0.62,-0.051543,-0.269355,-0.62,-0.028636,-0.324637,-0.62,-0.032738,-0.314738,-0.62,-0.101,-0.15,-0.62,-0.009321,-0.269355,-0.62,0.027476,-0.317262,-0.62,-0.009321,-0.269355,-0.62,-0.0533,-0.2121,-0.62,0.02124,-0.269355,-0.62,0.075407,-0.310962,-0.62,0.02124,-0.269355,-0.62,0.0088,-0.2598,-0.62,0.03186,-0.269355,-0.62,0.118576,-0.305287,-0.62,0.03186,-0.269355,-0.62,0.0812,-0.2898,-0.62,0.1588,-0.3,-0.62,0.168306,-0.29875,-0.62,0.226506,-0.291101,-0.65,0.1588,-0.3,-0.65,0.1588,-0.3,-0.62,0.2364,-0.2898,-0.62,0.2364,-0.2898,-0.65,0.226506,-0.291101,-0.65,0.168306,-0.29875,-0.62,0.245269,-0.286125,-0.62,0.299569,-0.263625,-0.65,0.3088,-0.2598,-0.62,0.3088,-0.2598,-0.65,0.316407,-0.253957,-0.62,0.362982,-0.218182,-0.65,0.3709,-0.2121,-0.65,0.316407,-0.253957,-0.62,0.376743,-0.204493,-0.62,0.412518,-0.157918,-0.65,0.4186,-0.15,-0.62,0.4186,-0.15,-0.65,0.412518,-0.157918,-0.65,0.422275,-0.141131,-0.62,0.444775,-0.086831,-0.65,0.4486,-0.0776,-0.62,0.4486,-0.0776,-0.65,0.44985,-0.068094,-0.62,0.4575,-0.009894,-0.65,0.4588,0,-0.62,0.4588,0,-0.65,0.4575,-0.009894,-0.65,0.45755,0.009506,-0.62,0.449901,0.067706,-0.65,0.4486,0.0776,-0.62,0.45755,0.009506,-0.62,0.444925,0.086469,-0.62,0.422425,0.140769,-0.65,0.4186,0.15,-0.62,0.4186,0.15,-0.65,0.444925,0.086469,-0.62,0.412757,0.157607,-0.62,0.376982,0.204182,-0.65,0.3709,0.2121,-0.62,0.3709,0.2121,-0.65,0.363293,0.217943,-0.62,0.316718,0.253718,-0.65,0.3088,0.2598,-0.62,0.3088,0.2598,-0.65,0.299931,0.263475,-0.62,0.245631,0.285975,-0.65,0.2364,0.2898,-0.62,0.2364,0.2898,-0.65,0.226894,0.29105,-0.62,0.168694,0.298699,-0.65,0.1588,0.3,-0.62,0.1588,0.3,-0.65,0.168694,0.298699,-0.65,0.226894,0.29105,-0.62,0.149294,0.29875,-0.62,0.091094,0.291101,-0.65,0.0812,0.2898,-0.62,0.0812,0.2898,-0.65,0.149294,0.29875,-0.62,0.072331,0.286125,-0.62,0.018031,0.263625,-0.65,0.0088,0.2598,-0.62,0.0088,0.2598,-0.65,0.072331,0.286125,-0.62,0.001193,0.253957,-0.62,-0.045382,0.218182,-0.65,-0.0533,0.2121,-0.62,-0.0533,0.2121,-0.65,0.001193,0.253957,-0.62,-0.059143,0.204493,-0.62,-0.094918,0.157918,-0.65,-0.101,0.15,-0.62,-0.101,0.15,-0.65,-0.094918,0.157918,-0.65,-0.059143,0.204493,-0.62,-0.104675,0.141131,-0.62,-0.127175,0.086831,-0.65,-0.131,0.0776,-0.62,-0.131,0.0776,-0.65,-0.132249,0.068094,-0.62,-0.139899,0.009894,-0.65,-0.1412,0,-0.62,-0.1412,0,-0.65,-0.139899,0.009894,-0.65,-0.13995,-0.009506,-0.62,-0.1323,-0.067706,-0.65,-0.131,-0.0776,-0.62,-0.131,-0.0776,-0.65,-0.13995,-0.009506,-0.62,-0.127325,-0.086469,-0.62,-0.104825,-0.140769,-0.65,-0.101,-0.15,-0.62,-0.101,-0.15,-0.65,-0.127325,-0.086469,-0.62,-0.095157,-0.157607,-0.62,-0.059382,-0.204182,-0.65,-0.0533,-0.2121,-0.62,-0.0533,-0.2121,-0.65,-0.095157,-0.157607,-0.62,-0.045693,-0.217943,-0.62,0.000882,-0.253718,-0.65,0.0088,-0.2598,-0.62,0.0088,-0.2598,-0.65,0.000882,-0.253718,-0.65,-0.045693,-0.217943,-0.62,0.017669,-0.263475,-0.62,0.071969,-0.285975,-0.65,0.0812,-0.2898,-0.62,0.0812,-0.2898,-0.65,0.017669,-0.263475,-0.62,0.090706,-0.29105,-0.62,0.148906,-0.298699,-0.65,0.148906,-0.298699,-0.65,0.090706,-0.29105,-0.62,-0.6,-0.299439,0.223168,-0.5655,-0.290642,0.290098,-0.6,-0.28815,0.300482,-0.5655,-0.262275,0.362927,-0.6,-0.257177,0.372315,-0.5655,-0.216035,0.425877,-0.598909,-0.206991,0.434924,-0.5655,-0.155123,0.474765,-0.5655,-0.181329,0.454636,-0.6,-0.207829,0.434281,-0.598909,-0.206991,0.434924,-0.6,-0.208685,0.433623,-0.6,-0.146018,0.48035,-0.5655,-0.083573,0.506225,-0.6,-0.073332,0.509261,-0.5655,-0.006402,0.518058,-0.6,0,0.5189,-0.5655,0,0.5189,-0.597859,0.008422,0.517793,-0.5655,0.071198,0.509542,-0.5655,0.02183,0.516031,-0.6,0.007535,0.51791,-0.597859,0.008422,0.517793,-0.6,0.004268,0.518339,-0.6,0.081582,0.50705,-0.5655,0.144027,0.481175,-0.567035,0.204594,0.436766,-0.5655,0.206977,0.434935,-0.5655,0.204796,0.436611,-0.6,0.200261,0.440094,-0.567035,0.204594,0.436766,-0.6,0.153415,0.476077,-0.6,0.214723,0.427585,-0.5655,0.255865,0.374023,-0.6,0.26145,0.364918,-0.5655,0.287325,0.302473,-0.6,0.290361,0.292232,-0.5655,0.299158,0.225302,-0.6,0.299439,0.214632,-0.5655,0.290642,0.147702,-0.6,0.28815,0.137318,-0.5655,0.262275,0.074873,-0.6,0.257177,0.065485,-0.5655,0.216035,0.011923,-0.6,0.208685,0.004177,-0.594998,0.200918,-0.001789,-0.5655,0.204796,0.001189,-0.6,0.200261,-0.002294,-0.594998,0.200918,-0.001789,-0.5655,0.155123,-0.036965,-0.6,0.146018,-0.04255,-0.5655,0.083573,-0.068425,-0.6,0.073332,-0.071461,-0.572053,0.019115,-0.078587,-0.5655,0.02183,-0.078231,-0.6,0.007535,-0.08011,-0.572053,0.019115,-0.078587,-0.5655,0.006402,-0.080258,-0.6,0,-0.0811,-0.5655,0,-0.0811,-0.6,-0.004268,-0.080539,-0.5655,-0.071198,-0.071742,-0.6,-0.081582,-0.06925,-0.5655,-0.144027,-0.043375,-0.6,-0.153415,-0.038277,-0.576552,-0.189818,-0.010315,-0.5655,-0.181329,-0.016836,-0.6,-0.207829,0.003519,-0.576552,-0.189818,-0.010315,-0.5655,-0.206977,0.002865,-0.6,-0.214723,0.010215,-0.5655,-0.255865,0.063777,-0.6,-0.26145,0.072882,-0.5655,-0.287325,0.135327,-0.6,-0.290361,0.145568,-0.5655,-0.299158,0.212498],
            "uvs": [[0.197491,0.006816,0.138588,0.003274,0.197491,0.004665,0.197491,0.023077,0.163306,0.023077,0.197491,0.002103,0.134502,0,0.197491,0,-0,0.023077,-0,0,0.326079,0.014547,0.326079,0.007703,0.326079,0.023077,0.326079,0.006397,0.326079,0,0.454844,0.00015,0.454844,0.003643,0.452392,0,0.454844,0,0.454844,0.02229,0.454844,0.010744,0.454844,0.023077,0.454844,0.010697,0.607703,0.017376,0.459704,0.010859,0.607703,0.014355,0.607703,0.023077,0.46793,0.023077,0.607703,0.009522,0.607703,0,0.735949,0.017385,0.859723,0.020308,0.859723,0.023077,0.737165,0.023077,0.859723,0.012024,0.732236,0,0.859723,0,0.976923,0.023077,1,0,1,0.023077,0.999674,1,0.999674,0.084692,1,0.083166,1,1,0.999674,0.000326,0.999674,0,0.999674,0.003416,0.000326,0.939572,0.000326,0.999674,-0,1,-0,0.939598,0.000326,0.999941,0.000326,1,0.000326,0.939423,0.000326,0.858736,-0,0.85871,0.000326,0.858657,0.000326,0.788628,-0,0.788545,0.000326,0.788583,0.000326,0.72067,-0,0.720516,0.000326,0.72065,0.000326,0.643627,-0,0.643366,0.000326,0.523985,-0,0.523501,0.000326,0.084692,-0,0.083166,0.000326,0.001743,0.000326,0,0.249674,0.979874,0.249674,1,0.170745,1,0.065718,0.934282,0.249674,0.954543,0.249674,0.919402,0.130717,0.869283,0.249674,0.878905,0.168491,0.831509,0.249674,0.852211,0.189778,0.810222,0.249674,0.838534,0.198002,0.801998,0.234875,0.831538,0.17525,0.783769,0.13775,0.728077,0.125,0.668385,0.249674,0.084692,0.249674,0,0.249674,0.442471,0.13775,0.608692,0.249674,0.493374,0.17525,0.553,0.249674,0.498235,0.234875,0.505231,0.490582,0.961312,0.490582,1,0.408734,1,0.490582,0.918444,0.490582,0.910683,0.490582,0.899916,0.490582,0.898392,0.403,0.891308,0.3125,0.868231,0.267764,0,0.490582,0.084692,0.490582,0,0.490582,0.300369,0.490582,0.384362,0.490582,0.423129,0.3125,0.468538,0.490582,0.438377,0.403,0.445462,0.759786,0.880249,0.759786,1,0.679153,1,0.759786,0.835816,0.554853,1,0.759786,0.834062,0.6875,0.868231,0.597,0.891308,0.5,0.899154,0.547608,0,0.759786,0.084692,0.759786,0,0.759786,0.208925,0.72774,0.27226,0.759786,0.240214,0.759786,0.257112,0.606406,0.393594,0.759786,0.295217,0.759786,0.354483,0.567875,0.432125,0.759786,0.368868,0.759786,0.416602,0.5,0.437615,0.557716,0.442284,0.759786,0.420895,0.759786,0.458629,0.759786,0.486971,0.597,0.445462,0.759786,0.502707,0.6875,0.468538,0.804169,1,0.86225,0.728077,0.82475,0.783769,0.765125,0.831538,0.865498,0,0.98565,0.150349,0.952547,0.305331,0.931751,0.402692,0.917085,0.471353,0.905797,0.524203,0.896577,0.567366,0.765125,0.505231,0.888702,0.604236,0.82475,0.553,0.881609,0.637443,0.86225,0.608692,0.875,0.668385,1e-05,0.000328,-0,0.000326,-0,-0,4.9e-05,0.000336,0.02875,0.005995,0.02875,-0,4.8e-05,0.999664,0.000406,0.999594,-0,0.999674,0.02875,0.994006,0.02875,1,0.005722,0.751454,0.022341,0.754731,0.024547,0.829255,-0,0.829255,-0,0.750326,0.025851,0.755423,0.02875,0.755994,0.02875,0.829255,0.02875,0.97125,0.006989,0.513763,0.015362,0.518967,0.017502,0.591267,-0,0.591267,-0,0.509418,0.022716,0.523537,0.02875,0.527288,0.02875,0.591267,0.003549,0.244303,0.007362,0.248696,0.009497,0.320847,-0,0.320847,-0,0.240214,0.018613,0.261659,0.02875,0.273339,0.02875,0.320847,0.013177,0.445147,-0,0.445147,0.02875,0.445147,0.005797,0.195832,-0,0.195832,0.02875,0.195832,0.319474,0.134502,-0,0.197491,-0,0.134502,0.999936,0.000339,0.999594,0.000406,1,0.000326,0.97125,0.005995,0.97125,-0,0.964049,0.007414,0.303,0.13775,-0,0.326079,0.002129,0.452392,-0,0.454844,-0,0.452392,0.003169,0.451193,0.242667,0.17525,0.079531,0.452392,-0,0.607703,0.098631,0.415093,0.190917,0.234875,0.035217,0.732236,-0,0.859723,-0,0.732236,0.041207,0.710555,0.112523,0.452392,0.125648,0.404876,0.151167,0.3125,0.080945,0.919055,0.073852,1,-0,1,0.081176,0.916421,0.097316,0.732236,0.10202,0.678558,0.121839,0.452392,0.126014,0.404738,0.126167,0.403,0.148471,0.851529,0.161481,1,0.148118,0.847498,0.138017,0.732236,0.131934,0.662818,0.117667,0.5,0.186087,0.813913,0.237493,1,0.184903,0.809624,0.163525,0.732236,0.142773,0.657115,0.126167,0.597,0.205803,0.794196,0.311191,1,0.203761,0.790208,0.174075,0.732236,0.151167,0.6875,0.211342,0.788658,0.39477,1,0.208474,0.785355,0.190917,0.765125,0.242667,0.82475,0.524624,1,0.99999,0.999672,1,0.999674,0.999964,0.999667,0.97125,0.994006,0.97125,1,0.938575,0.987563,0.303,0.86225,0.992652,0.751775,1,0.750326,0.973748,0.755502,0.97125,0.755994,0.548941,0.839259,0.367667,0.875,0.992074,0.732236,1,0.732236,0.97125,0.732236,0.499562,0.820464,0.641511,0.732236,0.432333,0.86225,0.998356,0.51044,0.985741,0.518281,1,0.509418,0.980697,0.521416,0.97125,0.527288,0.497175,0.819556,0.572962,0.732236,0.492667,0.82475,0.98379,0.452392,1,0.452392,0.97125,0.452392,0.733898,0.546809,0.815846,0.452392,0.994273,0.246812,0.978251,0.265272,1,0.240214,0.973033,0.271284,0.97125,0.273339,0.544417,0.765125,0.561258,0.732236,0.636338,0.585619,0.70456,0.452392,0.97438,0.134502,1,0.134502,0.97125,0.134502,0.802504,0.261125,0.867344,0.134502,0.97125,0.02875,0.869282,0.130718,0.88627,0.097543,0.897153,0.07629,0.928871,0.01435,0.609344,0.596356,0.649114,0.452392,0.584167,0.6875,0.675656,0.356308,0.687856,0.312144,0.865498,0.134502,0.690999,0.300766,0.695717,0.28369,0.840615,0.134502,0.724833,0.178286,0.736929,0.134502,0.760975,0.047453,0.609219,0.596407,0.621839,0.452392,0.609167,0.597,0.627063,0.392771,0.628968,0.371032,0.630035,0.358854,0.630761,0.350568,0.643151,0.209175,0.649695,0.134502,0.6555,0.068249,0.617667,0.5,0.613495,0.452392,0.60943,0.406002,0.608186,0.391814,0.607204,0.380607,0.606739,0.3753,0.593817,0.227832,0.585638,0.134502,0.581118,0.082915,0.609167,0.403,0.606533,0.393467,0.603861,0.383793,0.602672,0.379489,0.563903,0.239144,0.534996,0.134502,0.523864,0.094203,0.549409,0.244625,0.584167,0.3125,0.493018,0.134502,0.477103,0.103423,0.4573,0.134502,0.544417,0.234875,0.437161,0.111298,0.427107,0.134502,0.492667,0.17525,0.401187,0.118391,0.415859,0.134502,0.432333,0.13775,0.367667,0.125,0.002462,0.083166,-0,0.083166,0.02875,0.083166,-0,0,0.02875,0,0.976923,0.023077,0.02875,0.023077,0.073852,0.001755,0.073852,0.023077,-0,0.023077,0.073852,0,0.161481,0.003837,0.161481,0.023077,0.161481,0,0.237493,0.005643,0.237493,0.023077,0.237493,0,0.311191,0.007394,0.311191,0.023077,0.311191,0,0.39477,0.00938,0.39477,0.023077,0.39477,0,0.524624,0.012465,0.524624,0.023077,0.524624,0,0.972987,0.939598,0.97125,0.939598,1,0.939598,0.975312,0.85871,0.97125,0.85871,1,0.85871,0.977329,0.788545,0.97125,0.788545,1,0.788545,0.979285,0.720516,0.97125,0.720516,1,0.720516,0.981503,0.643366,0.97125,0.643366,1,0.643366,0.984949,0.523501,0.97125,0.523501,1,0.523501,0.997609,0.083166,0.97125,0.083166,0.97125,0.02875,0.97125,0,0.97125,0.023077,0.005995,0.111231,0.005995,1,0.005995,0.026854,0.005995,0.029071,0.005995,0.023077,0.005995,0.076243,0.994006,0.955288,0.994006,0.939113,0.994006,1,0.994006,0.880664,0.994006,0.859195,0.994006,0.810297,0.994006,0.790074,0.994006,0.744462,0.994006,0.72335,0.994006,0.673958,0.994006,0.648168,0.994006,0.576414,0.994006,0.532403,0.994006,0.111231,0.998404,0.090638,0.994006,0.276845,0.994006,0.307532,0.994006,0.0895,0.994006,0.111231,0.994006,0.023077,0.755994,0.981319,0.829255,1,0.755994,1,0.978391,0.93785,0.976923,1,0.909174,0.932251,0.755994,0.919861,0.980223,0.860309,0.847933,0.87101,0.755994,0.878447,0.981808,0.793184,0.813121,0.836198,0.755994,0.850765,0.983339,0.728392,0.794552,0.817629,0.755994,0.835854,0.985065,0.655331,0.789185,0.812262,0.987749,0.541695,0.755994,0.027946,0.755994,0.111231,0.755994,0.023077,0.755994,0.111231,0.755994,0.450889,0.755994,0.497916,0.755994,0.499477,0.755994,0.500915,0.755994,0.497916,0.527288,0.969758,0.591267,1,0.527288,1,0.527288,0.923,0.527288,0.901361,0.527288,0.896947,0.527288,0.111231,0.527288,0.023077,0.527288,0.314685,0.527288,0.355355,0.527288,0.392808,0.527288,0.427685,0.527288,0.439823,0.273339,0.929444,0.320847,1,0.273339,1,0.273339,0.862354,0.445147,1,0.273339,0.84972,0.273339,0.111231,0.273339,0.023077,0.273339,0.195325,0.273339,0.27277,0.362619,0.385696,0.273339,0.296416,0.273339,0.36293,0.407017,0.430094,0.273339,0.390851,0.273339,0.419281,0.420934,0.444011,0.273339,0.447112,0.273339,0.45595,0.273339,0.478524,0.273339,0.487049,0.195832,1,0.228497,0.251574,0.01435,0.150349,0.047453,0.305331,0.068249,0.402692,0.082915,0.471353,0.094203,0.524203,0.103423,0.567366,0.111298,0.604236,0.118391,0.637443,0.957397,0.189091,1,0.163306,1,0.197491,0.826618,0.163306,0.036217,0.007467,0.505395,0.099972,1,-0,0.867317,0.24361,1,0.326079,0.738117,0.163306,0.697,0.13775,0.834109,0.263709,1,0.454844,0.757333,0.17525,0.954956,0.519739,1,0.46793,1,0.607703,0.928426,0.46793,0.826276,0.268449,0.809083,0.234875,0.966144,0.737165,1,0.737165,1,0.859723,0.917866,0.562398,0.89177,0.46793,0.848833,0.3125,0.923826,0.973505,1,0.97125,0.926148,1,0.916293,0.887543,0.903116,0.737165,0.890554,0.593811,0.879523,0.46793,0.873833,0.403,0.840625,0.975968,0.838519,1,0.853846,0.825096,0.861551,0.737165,0.87227,0.61484,0.882333,0.5,0.768557,0.978101,0.762507,1,0.820136,0.791386,0.835114,0.737165,0.867338,0.620513,0.873833,0.597,0.698968,0.980161,0.688809,1,0.803933,0.775183,0.823401,0.737165,0.848833,0.6875,0.620431,0.982486,0.60523,1,0.802017,0.773267,0.809083,0.765125,0.49771,0.986118,0.475376,1,0.757333,0.82475,0.066361,0.98659,0.697,0.86225,0.632333,0.875,0.469422,0.842879,0.567667,0.86225,0.512049,0.827681,0.366419,0.737165,0.02875,0.737165,0.204098,0.636275,0.507333,0.82475,0.431316,0.737165,0.297238,0.582684,0.197641,0.46793,0.02875,0.46793,0.093237,0.347639,0.455583,0.765125,0.441266,0.737165,0.347385,0.553831,0.303397,0.46793,0.169219,0.205905,0.147406,0.163306,0.02875,0.163306,0.100545,0.071795,0.071129,0.01435,0.415833,0.6875,0.374585,0.538181,0.355179,0.46793,0.192056,0.163306,0.30117,0.27242,0.271028,0.163306,0.266852,0.148188,0.239025,0.047453,0.390833,0.597,0.385147,0.532104,0.379523,0.46793,0.368271,0.339521,0.352829,0.163306,0.350031,0.131375,0.3445,0.068249,0.382333,0.5,0.385144,0.46793,0.39413,0.36538,0.411837,0.163306,0.4158,0.118082,0.418882,0.082915,0.390833,0.403,0.39969,0.37094,0.457047,0.163306,0.472718,0.106577,0.476136,0.094203,0.415833,0.3125,0.492232,0.163306,0.522897,0.103423,0.455583,0.234875,0.5177,0.163306,0.562839,0.111298,0.507333,0.17525,0.52655,0.163306,0.598813,0.118391,0.567667,0.13775,0.632333,0.125,0.359745,0.023077,0.311245,0,0.367667,0,0.640255,0.023077,0.632333,0,0.632333,0.023077,0.697,0.023077,0.697,0,0.688755,0,0.303,0.023077,0.704391,0.023077,0.749641,0,0.757333,0.023077,0.757333,0,0.242667,0.023077,0.250359,0,0.295609,0.023077,0.763673,0.023077,0.802485,0,0.809083,0.023077,0.809083,0,0.190917,0.023077,0.197515,0,0.236327,0.023077,0.755616,0.023077,0.697397,0,0.765125,0,0.244384,0.023077,0.234875,0,0.234875,0.023077,0.3125,0.023077,0.3125,0,0.302603,0,0.6875,0.023077,0.323586,0.023077,0.391461,0,0.403,0.023077,0.403,0,0.597,0.023077,0.608539,0,0.676414,0.023077,0.414882,0.023077,0.487632,0,0.5,0.023077,0.5,0,0.511882,0.023077,0.584632,0,0.488118,0.023077,0.415368,0,0.391914,0.023077,0.324039,0,0.675961,0,0.608086,0.023077,0.302991,0.023077,0.244772,0,0.765125,0.023077,0.755228,0,0.697009,0.023077,0.802744,0.023077,0.763932,0,0.197256,0.023077,0.190917,0,0.242667,0,0.236069,0,0.250057,0.023077,0.295307,0,0.303,0,0.704693,0,0.749943,0.023077,0.310922,0.023077,0.359422,0,0.367667,0.023077,0.375588,0.023077,0.424088,0,0.624412,0.023077,0.567667,0.023077,0.567667,0,0.575912,0,0.432333,0.023077,0.560276,0.023077,0.515026,0,0.507333,0.023077,0.507333,0,0.492667,0.023077,0.484974,0,0.439724,0.023077,0.500994,0.023077,0.462182,0,0.455583,0.023077,0.455583,0,0.544417,0.023077,0.537818,0,0.499006,0.023077,0.6875,0,0.597,0,0.585118,0.023077,0.512368,0,0.538077,0.023077,0.499265,0,0.544417,0,0.492667,0,0.500735,0,0.461923,0.023077,0.485276,0.023077,0.440026,0,0.432333,0,0.559974,0,0.514724,0.023077,0.424412,0.023077,0.375912,0,-0,0.671668,0.02875,0.723152,0.02875,0.668385,-0,0.668385,-0,0.728077,0.02875,0.728077,1,0.73114,0.97125,0.779175,0.97125,0.728077,-0,0.73114,-0,0.783769,0.02875,0.783769,0.02875,0.779175,1,0.783769,1,0.786397,0.97125,0.827597,0.97125,0.783769,-0,0.786397,-0,0.831538,0.02875,0.831538,0.02875,0.827597,0.999091,0.241261,0.97125,0.306096,-0,0.3125,0.02875,0.3125,0.02875,0.306096,0.000909,0.241261,1,0.239144,0.97125,0.234875,-0,0.239144,0.02875,0.234875,-0,0.234875,-0,0.317477,0.02875,0.395534,-0,0.403,0.02875,0.403,1,0.408335,0.97125,0.491997,0.97125,0.403,-0,0.408335,-0,0.5,0.02875,0.5,0.02875,0.491997,0.998216,0.510528,0.97125,0.588997,1,0.597,0.97125,0.597,-0,0.597,0.02875,0.588997,0.001784,0.510528,1,0.505335,0.97125,0.5,1,0.5,-0,0.505335,-0,0.601977,0.02875,0.680034,0.02875,0.597,1,0.601977,1,0.6875,0.97125,0.6875,0.97125,0.680034,-0,0.6875,0.972529,0.755742,0.97125,0.758721,1,0.765125,0.97125,0.765125,-0,0.765125,0.02875,0.758721,0.027471,0.755742,1,0.691769,-0,0.691769,0.02875,0.6875,-0,0.828911,0.02875,0.78771,1,0.828911,0.97125,0.831538,1,0.831538,0.97125,0.78771,1,0.780706,0.97125,0.732672,1,0.728077,0.02875,0.732672,-0,0.780706,-0,0.724794,0.02875,0.673309,1,0.724794,1,0.668385,0.97125,0.668385,0.97125,0.673309,-0,0.665102,0.02875,0.613617,-0,0.608692,0.02875,0.608692,-0,0.605629,0.02875,0.557595,-0,0.553,0.02875,0.553,1,0.550373,0.97125,0.509172,0.97125,0.553,-0,0.550373,-0,0.505231,0.02875,0.505231,0.02875,0.509172,-0,0.760856,0.004169,0.751148,0.02875,0.765125,0.995831,0.751148,1,0.760856,0.02875,0.693904,0.97125,0.693904,-0,0.682523,0.02875,0.604466,1,0.591665,0.976711,0.523894,-0,0.591665,0.023289,0.523894,0.97125,0.508003,0.02875,0.508003,1,0.494665,0.97125,0.411003,1,0.403,0.02875,0.411003,-0,0.494665,1,0.398023,0.97125,0.319966,1,0.3125,0.97125,0.3125,0.02875,0.319966,-0,0.398023,1,0.308231,0.98046,0.262727,0.01954,0.262727,-0,0.308231,0.97125,0.241279,1,0.234875,0.02875,0.241279,-0,0.507858,0.02875,0.549059,1,0.507858,0.97125,0.505231,1,0.505231,1,0.553,0.97125,0.549059,-0,0.556063,0.02875,0.604098,1,0.556063,1,0.608692,0.97125,0.608692,0.97125,0.604098,-0,0.611975,0.02875,0.66346,1,0.611975,0.97125,0.66346]],
            "animations": [],
            "faces": [42,0,1,2,0,0,1,2,0,0,1,42,1,0,3,0,1,0,3,0,0,2,42,1,3,4,0,1,3,4,0,2,2,42,5,6,1,0,5,2,1,1,1,0,42,5,1,7,0,5,1,6,1,0,3,42,8,7,9,0,5,6,7,0,3,1,42,1,4,10,0,1,4,8,0,2,4,42,1,10,11,0,1,8,9,0,4,5,42,1,11,7,0,1,9,6,0,5,3,42,12,0,2,0,10,0,2,1,0,1,42,12,2,13,0,10,2,11,1,1,1,42,0,14,15,0,0,10,12,0,0,1,42,0,15,3,0,0,12,3,0,1,2,42,5,16,17,0,5,13,11,1,1,1,42,5,17,6,0,5,11,2,1,1,1,42,16,8,9,0,13,5,7,1,0,1,42,16,9,18,0,13,7,14,1,1,3,42,19,20,21,0,15,16,17,1,6,3,42,22,21,23,0,15,17,18,1,3,1,42,24,12,13,0,19,10,11,0,1,1,42,24,13,25,0,19,11,20,0,1,1,42,14,26,27,0,10,19,21,0,0,1,42,14,27,15,0,10,21,12,0,1,1,42,16,28,29,0,13,22,20,1,1,7,42,16,29,17,0,13,20,11,1,7,1,42,30,31,16,0,16,22,13,0,0,1,42,30,16,18,0,16,13,14,0,1,3,42,30,18,21,0,16,14,17,0,3,3,42,32,33,34,0,23,24,25,0,1,0,42,33,35,36,0,24,23,26,1,1,2,42,33,36,37,0,24,26,27,1,2,2,42,19,38,34,0,15,28,25,1,0,0,42,19,34,33,0,15,25,24,1,0,1,42,19,33,20,0,15,24,16,1,1,6,42,39,22,23,0,28,15,18,1,1,1,42,39,23,40,0,28,18,29,1,1,1,42,24,25,33,0,19,20,24,0,1,1,42,24,33,37,0,19,24,27,0,1,2,42,26,37,27,0,19,27,21,0,2,1,42,28,33,29,0,22,24,20,1,1,7,42,30,33,31,0,16,24,22,0,1,0,42,41,42,43,0,30,31,32,0,1,1,42,41,43,44,0,30,32,33,0,1,2,42,45,46,41,0,34,31,30,0,1,0,42,45,41,47,0,34,30,35,0,0,3,42,48,47,49,0,34,35,36,1,3,3,42,32,34,41,0,23,25,30,0,0,0,42,32,41,44,0,23,30,33,0,0,2,42,35,44,36,0,23,33,26,1,2,2,42,38,41,34,0,28,30,25,0,0,0,42,41,39,40,0,30,28,29,0,1,1,42,41,40,47,0,30,29,35,0,1,3,42,42,50,43,0,31,37,32,1,1,1,42,45,50,46,0,34,37,31,0,1,1,42,50,48,49,0,37,34,36,1,1,3,42,50,49,51,0,37,36,38,1,3,8,42,50,51,52,0,37,38,39,1,8,9,42,53,54,55,0,40,41,42,10,11,12,42,53,55,56,0,40,42,43,10,12,13,42,57,58,59,0,44,45,38,10,10,14,42,60,61,59,0,46,44,38,10,15,14,42,62,63,59,0,41,46,38,10,16,14,42,62,59,55,0,41,38,42,10,14,12,42,64,65,66,0,47,48,49,10,17,18,42,64,66,67,0,47,49,50,10,18,19,42,68,69,66,0,51,52,49,10,10,18,42,70,66,71,0,51,49,48,10,18,10,42,72,73,67,0,53,47,50,20,21,19,42,74,72,67,0,54,53,50,22,20,19,42,74,67,75,0,54,50,55,22,19,23,42,76,74,75,0,56,54,55,10,22,23,42,77,78,75,0,57,56,55,10,24,23,42,77,75,79,0,57,55,58,10,23,23,42,80,81,79,0,59,57,58,25,26,23,42,82,83,79,0,60,59,58,27,10,23,42,82,79,84,0,60,58,61,27,23,19,42,85,86,84,0,62,60,61,28,29,19,42,87,88,84,0,63,62,61,10,24,19,42,87,84,89,0,63,61,64,10,19,30,42,90,91,89,0,65,63,64,31,10,30,42,90,89,92,0,65,64,66,31,30,32,42,93,94,92,0,67,65,66,33,34,32,42,93,92,95,0,67,66,68,33,32,35,42,96,97,95,0,69,67,68,36,10,35,42,96,95,98,0,69,68,9,36,35,37,42,99,98,100,0,69,9,70,22,37,22,42,101,102,103,0,71,72,73,10,10,38,42,64,104,65,0,47,74,48,10,10,17,42,68,105,106,0,51,75,71,10,10,10,42,68,106,103,0,51,71,73,10,10,38,42,68,103,69,0,51,73,52,10,38,10,42,107,108,70,0,76,75,51,22,10,10,42,107,70,71,0,76,51,48,22,10,10,42,107,71,104,0,76,48,74,22,10,10,42,72,109,104,0,53,77,74,20,10,10,42,72,104,73,0,53,74,47,20,10,21,42,74,109,72,0,54,77,53,22,10,20,42,110,111,104,0,78,76,74,22,10,10,42,110,104,109,0,78,74,77,22,10,10,42,76,112,109,0,56,79,77,10,10,10,42,76,109,74,0,56,77,54,10,10,22,42,77,112,78,0,57,79,56,10,10,24,42,113,114,109,0,80,78,77,10,22,10,42,113,109,112,0,80,77,79,10,10,10,42,80,115,112,0,59,81,79,25,22,10,42,80,112,81,0,59,79,57,25,10,26,42,82,115,83,0,60,81,59,27,22,10,42,116,117,112,0,82,80,79,10,22,10,42,116,112,115,0,82,79,81,10,10,22,42,85,118,115,0,62,83,81,28,10,22,42,85,115,86,0,62,81,60,28,22,29,42,87,118,88,0,63,83,62,10,10,24,42,119,115,118,0,84,81,83,39,22,10,42,90,120,91,0,65,85,63,31,40,10,42,93,121,94,0,67,86,65,33,41,34,42,96,122,97,0,69,87,67,36,42,10,42,123,122,99,0,88,87,69,10,42,22,42,123,99,100,0,88,69,70,10,22,22,42,123,100,124,0,88,70,89,10,22,10,42,125,126,127,0,90,91,88,10,43,22,42,128,129,130,0,92,93,90,10,44,10,42,131,132,133,0,94,95,92,10,45,10,42,134,135,136,0,96,97,98,10,46,46,42,101,137,138,0,71,99,96,10,10,10,42,101,138,136,0,71,96,98,10,10,46,42,101,136,102,0,71,98,72,10,46,10,42,105,139,140,0,75,100,99,10,10,10,42,105,140,106,0,75,99,71,10,10,10,42,107,141,142,0,76,101,100,22,22,10,42,107,142,108,0,76,100,75,22,10,10,42,110,143,144,0,78,102,101,22,10,10,42,110,144,111,0,78,101,76,22,10,10,42,113,145,114,0,80,103,78,10,47,22,42,116,146,117,0,82,104,80,10,48,22,42,123,124,147,0,88,89,105,10,10,49,42,148,125,127,0,106,90,88,10,10,22,42,148,127,147,0,106,88,105,10,22,49,42,148,147,149,0,106,105,107,10,49,10,42,150,128,130,0,108,92,90,10,10,10,42,150,130,151,0,108,90,106,10,10,10,42,152,131,133,0,109,94,92,22,10,10,42,152,133,153,0,109,92,108,22,10,10,42,154,155,156,0,110,111,109,10,50,10,42,157,158,159,0,112,113,110,10,51,10,42,160,161,162,0,114,115,116,10,46,46,42,163,164,162,0,117,114,116,10,10,46,42,163,162,165,0,117,116,118,10,46,46,42,134,166,167,0,96,119,117,10,10,10,42,134,167,165,0,96,117,118,10,10,46,42,134,165,135,0,96,118,97,10,46,46,42,137,168,138,0,99,120,96,10,52,10,42,139,169,140,0,100,121,99,10,53,10,42,141,169,142,0,101,121,100,22,53,10,42,143,170,144,0,102,122,101,10,22,10,42,148,149,171,0,106,107,123,10,10,49,42,172,150,151,0,124,108,106,10,10,10,42,172,151,171,0,124,106,123,10,10,49,42,172,171,173,0,124,123,125,10,49,10,42,174,175,152,0,126,127,109,10,10,22,42,174,152,153,0,126,109,108,10,22,10,42,174,153,176,0,126,108,124,10,10,22,42,177,175,178,0,128,127,126,10,10,22,42,179,175,177,0,129,127,128,10,10,10,42,154,156,175,0,110,109,127,10,10,10,42,154,175,180,0,110,127,130,10,10,10,42,181,182,180,0,131,132,130,10,10,10,42,179,183,180,0,129,131,130,10,10,10,42,179,180,175,0,129,130,127,10,10,10,42,157,159,180,0,112,110,130,10,10,10,42,157,180,184,0,112,130,133,10,10,10,42,185,186,184,0,134,135,133,10,10,10,42,182,185,184,0,132,134,133,10,10,10,42,182,184,180,0,132,133,130,10,10,10,42,187,184,188,0,136,133,137,10,10,10,42,189,190,188,0,138,139,137,10,10,10,42,186,189,188,0,135,138,137,10,10,10,42,186,188,184,0,135,137,133,10,10,10,42,191,192,193,0,140,141,139,10,54,10,42,194,195,196,0,142,143,140,22,55,10,42,53,197,54,0,40,144,41,10,56,11,42,160,198,197,0,114,145,144,10,57,56,42,160,197,161,0,114,144,115,10,56,46,42,163,199,164,0,117,146,114,10,58,10,42,166,200,167,0,119,147,117,10,59,10,42,172,173,201,0,124,125,148,10,10,49,42,174,176,201,0,126,124,148,10,22,49,42,57,177,178,0,44,128,126,10,10,22,42,57,178,201,0,44,126,148,10,22,49,42,57,201,58,0,44,148,45,10,49,10,42,60,202,179,0,46,149,129,10,10,10,42,60,179,177,0,46,129,128,10,10,10,42,60,177,61,0,46,128,44,10,10,15,42,62,202,63,0,41,149,46,10,10,16,42,181,202,203,0,131,149,150,10,10,10,42,181,203,182,0,131,150,132,10,10,10,42,179,202,183,0,129,149,131,10,10,10,42,185,203,204,0,134,150,151,10,10,10,42,185,204,186,0,134,151,135,10,10,10,42,182,203,185,0,132,150,134,10,10,10,42,189,204,205,0,138,151,152,10,10,10,42,189,205,190,0,138,152,139,10,10,10,42,186,204,189,0,135,151,138,10,10,10,42,191,193,205,0,140,139,152,10,10,10,42,191,205,206,0,140,152,153,10,10,10,42,194,196,206,0,142,140,153,22,10,10,42,194,206,207,0,142,153,154,22,10,22,42,208,207,209,0,155,154,156,60,22,10,42,210,209,211,0,157,156,158,61,10,10,42,212,211,213,0,159,158,160,62,10,63,42,214,215,56,0,161,162,163,64,65,13,42,216,217,56,0,164,161,163,66,66,13,42,218,219,56,0,165,164,163,66,66,13,42,218,56,220,0,165,163,166,66,13,67,42,221,222,66,0,167,168,49,66,66,18,42,221,66,223,0,167,49,169,66,18,66,42,224,225,66,0,170,171,49,2,9,18,42,224,66,222,0,170,49,168,2,18,66,42,226,227,228,0,172,173,174,66,66,66,42,226,228,103,0,172,174,175,66,66,38,42,229,103,230,0,172,175,176,68,38,66,42,231,232,233,0,177,178,179,66,66,2,42,231,233,228,0,177,179,174,66,2,66,42,231,228,227,0,177,174,173,66,66,66,42,221,228,234,0,167,174,180,66,66,66,42,221,234,222,0,167,180,168,66,66,66,42,228,221,223,0,174,167,169,66,66,66,42,228,223,103,0,174,169,175,66,66,38,42,233,234,228,0,179,180,174,2,66,66,42,224,222,234,0,170,168,180,2,66,66,42,235,236,237,0,181,182,183,66,66,66,42,235,237,136,0,181,183,184,66,66,46,42,238,136,135,0,181,184,185,68,46,46,42,239,240,241,0,186,187,188,66,66,2,42,239,241,237,0,186,188,183,66,2,66,42,242,237,243,0,186,183,182,68,66,66,42,226,237,227,0,172,183,173,66,66,66,42,237,229,230,0,183,172,176,66,68,66,42,237,230,136,0,183,176,184,66,66,46,42,231,241,232,0,177,188,178,66,2,66,42,241,231,227,0,188,177,173,2,66,66,42,241,227,237,0,188,173,183,2,66,66,42,244,245,246,0,189,190,191,66,66,66,42,244,246,162,0,189,191,192,66,66,46,42,247,162,161,0,189,192,193,68,46,46,42,248,249,250,0,194,195,196,66,66,2,42,248,250,246,0,194,196,191,66,2,66,42,251,246,245,0,194,191,190,66,66,66,42,246,252,165,0,191,197,198,66,66,46,42,246,165,162,0,191,198,192,66,46,46,42,250,253,252,0,196,199,197,2,2,66,42,250,252,246,0,196,197,191,2,66,66,42,235,252,236,0,181,197,182,66,66,66,42,252,238,135,0,197,181,185,66,68,46,42,252,135,165,0,197,185,198,66,46,46,42,239,253,240,0,186,199,187,66,2,66,42,253,242,243,0,199,186,182,2,68,66,42,253,243,252,0,199,182,197,2,66,66,42,214,254,197,0,161,200,201,64,66,56,42,214,197,215,0,161,201,162,64,56,65,42,216,255,254,0,164,202,200,66,2,66,42,216,254,217,0,164,200,161,66,66,66,42,218,255,219,0,165,202,164,66,2,66,42,244,254,245,0,189,200,190,66,66,66,42,254,247,161,0,200,189,193,66,68,46,42,254,161,197,0,200,193,201,66,46,56,42,248,255,249,0,194,202,195,66,2,66,42,255,251,245,0,202,194,190,2,66,66,42,255,245,254,0,202,190,200,2,66,66,42,256,257,7,0,203,204,205,69,70,3,42,258,259,59,0,206,207,38,71,72,14,42,260,59,261,0,206,38,208,73,14,74,42,262,263,59,0,209,210,38,70,75,14,42,262,59,264,0,209,38,207,70,14,70,42,265,263,262,0,211,210,209,69,75,70,42,263,266,267,0,210,211,203,75,70,70,42,263,267,7,0,210,203,205,75,70,3,42,263,7,11,0,210,205,9,75,3,5,42,268,18,257,0,212,213,204,70,3,70,42,269,270,21,0,214,215,216,70,70,3,42,271,272,21,0,217,214,216,70,69,3,42,273,274,21,0,218,217,216,70,69,3,42,273,21,18,0,218,216,213,70,3,3,42,269,275,276,0,214,219,220,70,70,70,42,269,276,270,0,214,220,215,70,70,70,42,271,277,278,0,217,221,219,70,70,69,42,271,278,272,0,217,219,214,70,69,69,42,279,280,274,0,222,221,217,70,69,69,42,281,49,47,0,223,224,225,70,3,3,42,282,281,47,0,226,223,225,70,70,3,42,275,283,284,0,219,227,226,70,70,70,42,275,284,47,0,219,226,225,70,70,3,42,275,47,276,0,219,225,220,70,3,70,42,277,285,286,0,221,228,227,70,70,70,42,277,286,278,0,221,227,219,70,70,69,42,287,288,280,0,229,228,221,70,70,69,42,289,290,51,0,230,231,232,70,70,8,42,291,292,51,0,233,230,232,76,69,8,42,281,293,294,0,223,234,233,70,70,70,42,281,294,51,0,223,233,232,70,70,8,42,281,51,49,0,223,232,224,70,8,3,42,282,295,293,0,226,235,234,70,70,70,42,282,293,281,0,226,234,223,70,70,70,42,283,296,297,0,227,236,235,70,70,70,42,283,297,284,0,227,235,226,70,70,70,42,285,298,296,0,228,237,236,70,70,70,42,285,296,286,0,228,236,227,70,70,70,42,299,300,288,0,238,237,228,70,70,70,42,289,301,302,0,230,239,240,70,70,77,42,289,302,290,0,230,240,231,70,77,70,42,291,303,301,0,233,241,239,76,70,70,42,291,301,292,0,233,239,230,76,70,69,42,293,304,305,0,234,242,241,70,70,70,42,293,305,294,0,234,241,233,70,70,70,42,295,306,307,0,235,243,242,70,70,70,42,295,307,293,0,235,242,234,70,70,70,42,308,309,297,0,244,243,235,70,70,70,42,301,310,311,0,239,245,246,70,70,70,42,301,311,302,0,239,246,240,70,70,77,42,303,312,310,0,241,247,245,70,69,70,42,303,310,301,0,241,245,239,70,70,70,42,304,313,314,0,242,248,247,70,70,70,42,304,314,305,0,242,247,241,70,70,70,42,306,315,316,0,243,249,248,70,70,69,42,306,316,307,0,243,248,242,70,69,70,42,317,318,309,0,250,249,243,78,70,70,42,310,319,320,0,245,251,252,70,70,69,42,310,320,311,0,245,252,246,70,69,70,42,312,321,322,0,247,253,251,69,70,69,42,312,322,310,0,247,251,245,69,69,70,42,313,323,324,0,248,254,253,70,70,70,42,313,324,314,0,248,253,247,70,70,70,42,325,323,316,0,255,254,248,70,70,69,42,319,326,327,0,251,256,257,70,70,70,42,319,327,320,0,251,257,252,70,70,69,42,321,328,329,0,253,258,256,70,70,70,42,321,329,322,0,253,256,251,70,70,69,42,330,331,324,0,259,258,253,70,70,70,42,332,333,327,0,260,261,257,70,70,70,42,334,335,98,0,262,263,43,79,80,37,42,336,337,98,0,264,262,43,70,70,37,42,338,339,98,0,265,264,43,70,70,37,42,338,98,340,0,265,43,266,70,37,77,42,341,338,340,0,267,265,266,70,70,77,42,342,343,340,0,268,267,266,70,70,77,42,342,340,333,0,268,266,261,70,77,70,42,334,344,345,0,262,269,270,79,70,70,42,334,345,335,0,262,270,263,79,70,80,42,336,346,347,0,264,271,269,70,70,70,42,336,347,337,0,264,269,262,70,70,70,42,338,348,349,0,265,272,271,70,70,70,42,338,349,339,0,265,271,264,70,70,70,42,341,350,351,0,267,273,272,70,70,69,42,341,351,338,0,267,272,265,70,69,70,42,352,353,343,0,274,273,267,70,70,70,42,344,354,147,0,269,275,276,70,70,49,42,344,147,345,0,269,276,270,70,49,70,42,346,355,354,0,271,277,275,70,70,70,42,346,354,347,0,271,275,269,70,70,70,42,348,355,349,0,272,277,271,70,70,70,42,350,356,357,0,273,278,279,70,70,70,42,350,357,355,0,273,279,277,70,70,70,42,350,355,351,0,273,277,272,70,70,69,42,358,359,353,0,280,278,273,70,70,70,42,360,354,361,0,281,275,282,70,70,70,42,354,362,363,0,275,281,283,70,70,70,42,354,363,147,0,275,283,276,70,70,49,42,364,355,365,0,284,277,285,70,70,70,42,355,366,367,0,277,284,282,70,70,70,42,355,367,354,0,277,282,275,70,70,70,42,357,368,355,0,279,285,277,70,70,70,42,356,369,370,0,278,286,287,70,70,70,42,356,370,357,0,278,287,279,70,70,70,42,371,372,359,0,288,286,278,70,70,70,42,360,361,373,0,281,282,289,70,70,70,42,360,373,171,0,281,289,290,70,70,49,42,362,171,363,0,281,290,283,70,49,70,42,364,365,374,0,284,285,291,70,70,70,42,364,374,373,0,284,291,289,70,70,70,42,366,373,367,0,284,289,282,70,70,70,42,375,376,374,0,292,293,291,70,70,70,42,357,377,378,0,279,287,292,70,70,70,42,357,378,374,0,279,292,291,70,70,70,42,357,374,368,0,279,291,285,70,70,70,42,379,373,380,0,294,289,295,69,70,70,42,373,381,382,0,289,294,296,70,70,69,42,373,382,171,0,289,296,290,70,69,49,42,383,374,384,0,297,291,298,81,70,70,42,374,385,386,0,291,297,295,70,70,70,42,374,386,373,0,291,295,289,70,70,70,42,387,388,374,0,293,298,291,70,70,70,42,389,390,370,0,299,300,287,70,70,70,42,375,391,392,0,292,301,302,70,70,70,42,375,392,376,0,292,302,293,70,70,70,42,377,390,393,0,287,300,301,70,70,70,42,377,393,378,0,287,301,292,70,70,70,42,379,380,394,0,294,295,303,69,70,70,42,379,394,201,0,294,303,304,69,70,49,42,381,201,382,0,294,304,296,70,49,69,42,383,384,395,0,297,298,305,81,70,69,42,383,395,394,0,297,305,303,81,69,70,42,385,394,386,0,297,303,295,70,70,70,42,396,397,395,0,306,307,305,70,70,69,42,387,392,398,0,293,302,306,70,70,70,42,387,398,395,0,293,306,305,70,70,69,42,387,395,388,0,293,305,298,70,69,70,42,258,394,399,0,206,303,308,71,70,70,42,258,399,259,0,206,308,207,71,70,72,42,394,260,261,0,303,206,208,70,73,74,42,394,261,201,0,303,208,304,70,74,49,42,395,399,394,0,305,308,303,69,70,70,42,262,264,399,0,209,207,308,70,70,70,42,400,401,399,0,307,309,308,70,70,70,42,400,399,395,0,307,308,305,70,70,69,42,402,403,265,0,310,311,211,70,70,69,42,402,265,262,0,310,211,209,70,69,70,42,402,262,399,0,310,209,308,70,70,70,42,404,399,405,0,310,308,309,70,70,70,42,406,266,407,0,312,211,311,70,70,70,42,391,408,409,0,301,313,314,70,82,70,42,391,409,392,0,301,314,302,70,70,70,42,410,411,393,0,315,313,301,70,72,70,42,396,412,413,0,306,316,317,70,70,69,42,396,413,414,0,306,317,318,70,69,70,42,396,414,397,0,306,318,307,70,70,70,42,392,409,415,0,302,314,316,70,70,70,42,392,415,398,0,302,316,306,70,70,70,42,416,417,418,0,319,320,321,70,70,70,42,416,418,414,0,319,321,318,70,70,70,42,419,414,420,0,319,318,317,70,70,69,42,421,418,422,0,322,321,320,70,70,70,42,423,418,424,0,323,321,322,70,70,70,42,400,414,401,0,307,318,309,70,70,70,42,402,418,403,0,310,321,311,70,70,70,42,418,404,405,0,321,310,309,70,70,70,42,418,405,414,0,321,309,318,70,70,70,42,425,406,407,0,324,312,311,70,70,70,42,425,407,418,0,324,311,321,70,70,70,42,425,418,423,0,324,321,323,70,70,70,42,408,426,427,0,313,325,326,82,83,70,42,408,427,409,0,313,326,314,82,70,70,42,428,429,411,0,327,325,313,84,84,72,42,412,430,431,0,316,328,329,70,69,69,42,412,431,413,0,316,329,317,70,69,69,42,409,432,433,0,314,326,328,70,70,70,42,409,433,415,0,314,328,316,70,70,70,42,416,434,435,0,319,330,331,70,70,70,42,416,435,417,0,319,331,320,70,70,70,42,434,419,420,0,330,319,317,70,70,69,42,434,420,436,0,330,317,329,70,69,70,42,437,421,422,0,332,322,320,70,70,70,42,437,422,438,0,332,320,331,70,70,69,42,439,423,424,0,333,323,322,69,70,70,42,439,424,440,0,333,322,332,69,70,70,42,441,425,423,0,334,324,323,70,70,70,42,441,423,442,0,334,323,333,70,70,70,42,443,444,427,0,335,336,326,70,70,70,42,430,445,446,0,328,337,338,69,69,69,42,430,446,431,0,328,338,329,69,69,69,42,432,447,448,0,326,336,337,70,70,69,42,432,448,433,0,326,337,328,70,69,70,42,434,449,450,0,330,339,340,70,70,70,42,434,450,435,0,330,340,331,70,70,70,42,451,434,436,0,339,330,329,69,70,70,42,451,436,452,0,339,329,338,69,70,70,42,453,437,438,0,341,332,331,70,70,69,42,453,438,454,0,341,331,340,70,69,70,42,455,439,440,0,342,333,332,70,69,70,42,455,440,456,0,342,332,341,70,70,69,42,457,441,442,0,343,334,333,69,70,70,42,457,442,458,0,343,333,342,69,70,70,42,459,460,446,0,344,345,338,70,70,69,42,449,461,462,0,339,346,347,70,70,70,42,449,462,450,0,339,347,340,70,70,70,42,463,451,452,0,346,339,338,70,69,70,42,463,452,464,0,346,338,345,70,70,70,42,465,453,454,0,348,341,340,70,70,70,42,465,454,466,0,348,340,347,70,70,70,42,467,455,456,0,349,342,341,70,70,69,42,467,456,468,0,349,341,348,70,69,70,42,469,457,458,0,350,343,342,70,69,70,42,469,458,470,0,350,342,349,70,70,70,42,471,465,472,0,351,348,352,70,70,70,42,473,467,468,0,353,349,348,70,70,70,42,473,468,474,0,353,348,351,70,70,70,42,475,469,470,0,354,350,349,69,70,70,42,475,470,476,0,354,349,353,69,70,69,42,477,473,478,0,355,353,356,70,70,70,42,479,475,476,0,357,354,353,69,69,69,42,479,476,480,0,357,353,355,69,69,70,42,481,477,482,0,358,355,359,70,70,70,42,483,479,480,0,360,357,355,70,69,70,42,483,480,484,0,360,355,358,70,70,70,42,485,481,486,0,361,358,362,70,70,70,42,487,483,484,0,363,360,358,70,70,70,42,487,484,488,0,363,358,361,70,70,70,42,489,490,56,0,364,180,232,85,85,13,42,489,56,55,0,364,232,365,85,13,12,42,491,490,489,0,366,180,364,86,85,85,42,220,56,490,0,171,232,180,67,13,85,42,489,55,59,0,364,365,367,85,12,14,42,491,489,59,0,366,364,367,86,85,14,42,491,59,263,0,366,367,368,86,14,75,42,492,493,263,0,369,370,368,85,67,75,42,492,263,11,0,369,368,38,85,75,5,42,492,11,10,0,369,38,39,85,5,4,42,494,495,52,0,371,372,373,87,87,9,42,494,52,51,0,371,373,367,87,9,8,42,496,51,497,0,371,367,374,88,8,87,42,494,498,499,0,371,375,376,87,87,89,42,494,499,495,0,371,376,372,87,89,87,42,498,496,497,0,375,371,374,87,88,87,42,498,497,302,0,375,374,377,87,87,77,42,498,500,501,0,375,378,379,87,88,87,42,498,501,499,0,375,379,376,87,87,89,42,502,498,302,0,378,375,377,87,87,77,42,502,302,503,0,378,377,380,87,77,87,42,500,504,505,0,378,381,382,88,87,87,42,500,505,501,0,378,382,379,88,87,87,42,506,502,503,0,381,378,380,88,87,87,42,506,503,507,0,381,380,383,88,87,87,42,504,508,509,0,381,384,385,87,88,87,42,504,509,505,0,381,385,382,87,87,87,42,510,506,507,0,384,381,383,87,88,87,42,510,507,511,0,384,383,386,87,87,87,42,508,512,513,0,384,387,388,88,87,87,42,508,513,509,0,384,388,385,88,87,87,42,514,510,511,0,387,384,386,87,87,87,42,514,511,515,0,387,386,389,87,87,88,42,516,225,517,0,390,266,391,87,9,90,42,225,516,67,0,266,390,392,9,87,19,42,225,67,66,0,266,392,43,9,19,18,42,518,516,517,0,393,390,391,87,87,90,42,518,517,519,0,393,391,394,87,90,90,42,516,518,75,0,390,393,395,87,87,23,42,516,75,67,0,390,395,392,87,23,19,42,520,518,519,0,396,393,394,87,87,90,42,520,519,521,0,396,394,397,87,90,90,42,518,520,79,0,393,396,398,87,87,23,42,518,79,75,0,393,398,395,87,23,23,42,522,520,521,0,399,396,397,87,87,90,42,522,521,523,0,399,397,400,87,90,90,42,520,522,84,0,396,399,401,87,87,19,42,520,84,79,0,396,401,398,87,19,23,42,524,522,523,0,402,399,400,88,87,90,42,524,523,525,0,402,400,403,88,90,90,42,522,524,89,0,399,402,404,87,88,30,42,522,89,84,0,399,404,401,87,30,19,42,526,524,525,0,405,402,403,87,88,90,42,526,525,527,0,405,403,406,87,90,91,42,524,526,92,0,402,405,407,88,87,32,42,524,92,89,0,402,407,404,88,32,30,42,528,526,527,0,408,405,406,87,87,91,42,528,527,529,0,408,406,409,87,91,92,42,526,528,95,0,405,408,42,87,87,35,42,526,95,92,0,405,42,407,87,35,32,42,530,340,98,0,410,411,38,87,77,37,42,528,529,530,0,408,409,410,87,92,87,42,528,530,98,0,408,410,38,87,87,37,42,528,98,95,0,408,38,42,87,37,35,42,512,531,513,0,387,412,388,87,93,87,42,531,514,515,0,412,387,389,93,87,88,42,531,515,340,0,412,389,411,93,88,77,42,532,533,220,0,413,414,49,0,1,67,42,532,220,491,0,413,49,68,0,67,86,42,534,535,493,0,415,416,8,1,1,67,42,536,493,537,0,415,8,417,1,67,2,42,538,539,491,0,418,413,68,0,1,86,42,538,491,493,0,418,68,8,0,86,67,42,540,493,535,0,418,8,416,0,67,1,42,541,542,517,0,419,420,392,1,1,90,42,224,541,517,0,421,419,392,2,1,90,42,224,517,225,0,421,392,43,2,90,9,42,543,544,519,0,422,423,395,1,0,90,42,542,543,519,0,420,422,395,1,1,90,42,542,519,517,0,420,395,392,1,90,90,42,545,546,521,0,424,425,398,1,1,90,42,544,547,521,0,423,424,398,0,0,90,42,544,521,519,0,423,398,395,0,90,90,42,548,549,523,0,426,427,401,1,0,90,42,546,550,523,0,425,426,401,1,1,90,42,546,523,521,0,425,401,398,1,90,90,42,551,552,525,0,428,429,404,1,1,90,42,549,553,525,0,427,428,404,0,1,90,42,549,525,523,0,427,404,401,0,90,90,42,554,555,527,0,430,431,407,0,1,91,42,556,557,527,0,429,430,407,1,1,91,42,556,527,525,0,429,407,404,1,91,90,42,558,559,560,0,432,433,434,1,1,1,42,561,562,559,0,435,434,433,1,0,1,42,561,559,529,0,435,433,42,1,1,92,42,555,563,529,0,431,435,42,1,1,92,42,555,529,527,0,431,42,407,1,92,91,42,564,559,565,0,436,433,437,0,1,1,42,559,564,566,0,433,436,438,1,0,2,42,559,566,531,0,433,438,39,1,2,93,42,559,531,529,0,433,39,42,1,93,92,42,567,233,568,0,439,440,441,0,2,1,42,569,570,571,0,442,443,444,1,1,1,42,541,570,569,0,419,443,442,1,1,1,42,541,569,542,0,419,442,420,1,1,1,42,224,570,541,0,421,443,419,2,1,1,42,233,572,573,0,440,439,445,2,0,1,42,233,573,571,0,440,445,444,2,1,1,42,233,571,570,0,440,444,443,2,1,1,42,574,569,571,0,446,442,444,0,1,1,42,574,571,575,0,446,444,447,0,1,1,42,543,569,574,0,422,442,446,1,1,0,42,543,574,544,0,422,446,423,1,0,0,42,542,569,543,0,420,442,422,1,1,1,42,576,577,575,0,445,448,447,1,1,1,42,576,575,571,0,445,447,444,1,1,1,42,578,574,575,0,449,446,447,1,0,1,42,578,575,579,0,449,447,450,1,1,1,42,545,574,578,0,424,446,449,1,0,1,42,545,578,546,0,424,449,425,1,1,1,42,544,574,547,0,423,446,424,0,0,0,42,580,581,579,0,448,451,450,1,0,1,42,580,579,575,0,448,450,447,1,1,1,42,582,578,579,0,452,449,450,1,1,1,42,582,579,583,0,452,450,453,1,1,0,42,548,578,582,0,426,449,452,1,1,1,42,548,582,549,0,426,452,427,1,1,0,42,546,578,550,0,425,449,426,1,1,1,42,584,585,583,0,451,454,453,0,1,0,42,584,583,579,0,451,453,450,0,0,1,42,586,582,583,0,455,452,453,1,1,0,42,586,583,587,0,455,453,456,1,0,1,42,551,582,586,0,428,452,455,1,1,1,42,551,586,552,0,428,455,429,1,1,1,42,549,582,553,0,427,452,428,0,1,1,42,588,587,583,0,147,456,453,94,1,0,42,589,586,590,0,457,455,146,1,1,95,42,554,586,589,0,430,455,457,0,1,1,42,554,589,555,0,430,457,431,0,1,1,42,556,586,557,0,429,455,430,1,1,1,42,558,560,589,0,432,434,457,1,1,1,42,558,589,591,0,432,457,145,1,1,96,42,561,589,562,0,435,457,434,1,1,0,42,555,589,563,0,431,457,435,1,1,1,42,592,564,565,0,458,436,437,0,0,1,42,592,565,593,0,458,437,160,0,1,97,42,592,593,594,0,458,160,459,0,97,1,42,564,592,595,0,436,458,460,0,0,2,42,564,595,566,0,436,460,438,0,2,2,42,596,597,598,0,461,159,462,1,98,1,42,599,600,601,0,462,157,463,0,99,0,42,602,603,604,0,464,155,465,1,100,0,42,605,603,606,0,466,155,464,7,100,1,42,607,241,608,0,467,468,469,1,2,1,42,609,567,568,0,470,439,441,1,0,1,42,609,568,241,0,470,441,468,1,1,2,42,609,241,610,0,470,468,467,1,2,1,42,572,611,612,0,439,470,471,0,0,0,42,572,612,573,0,439,471,445,0,0,1,42,576,613,614,0,445,471,472,1,1,0,42,576,614,577,0,445,472,448,1,0,1,42,580,615,581,0,448,121,451,1,101,0,42,584,616,585,0,451,120,454,0,102,1,42,592,594,617,0,458,459,33,0,1,2,42,592,617,595,0,458,33,460,0,2,2,42,596,598,618,0,461,462,473,1,1,1,42,596,618,619,0,461,473,474,1,1,1,42,596,619,617,0,461,474,33,1,1,2,42,620,599,601,0,473,462,463,1,0,0,42,620,601,621,0,473,463,475,1,0,1,42,622,602,604,0,476,464,465,1,1,0,42,622,604,623,0,476,465,477,1,0,1,42,624,605,606,0,475,466,464,1,7,1,42,624,606,625,0,475,464,476,1,1,1,42,626,627,628,0,477,143,478,1,103,1,42,629,630,631,0,478,141,479,1,104,1,42,632,250,633,0,480,481,482,1,2,1,42,634,253,250,0,483,484,481,0,2,2,42,634,250,635,0,483,481,480,0,2,1,42,636,607,608,0,485,467,469,0,1,1,42,636,608,253,0,485,469,484,0,1,2,42,636,253,637,0,485,484,483,0,2,1,42,609,610,638,0,470,467,104,1,1,105,42,611,639,612,0,470,103,471,0,106,0,42,613,640,614,0,471,122,472,1,1,0,42,618,641,619,0,473,27,474,1,2,1,42,620,621,642,0,473,475,486,1,1,1,42,620,642,643,0,473,486,487,1,1,2,42,620,643,641,0,473,487,27,1,2,2,42,644,622,623,0,488,476,477,0,1,1,42,644,623,645,0,488,477,489,0,1,1,42,646,624,625,0,486,475,476,1,1,1,42,646,625,647,0,486,476,488,1,1,1,42,648,626,628,0,489,477,478,1,1,1,42,648,628,649,0,489,478,490,1,1,1,42,648,649,650,0,489,490,491,1,1,1,42,651,652,649,0,492,491,490,1,1,1,42,629,631,653,0,478,479,493,1,1,1,42,629,653,649,0,478,493,490,1,1,1,42,654,655,649,0,494,492,490,1,0,1,42,656,657,649,0,495,494,490,1,1,1,42,656,649,653,0,495,490,493,1,1,1,42,658,659,653,0,136,496,493,1,1,1,42,660,656,653,0,497,495,493,1,1,1,42,661,660,653,0,498,497,493,1,1,1,42,661,653,659,0,498,493,496,1,1,1,42,662,663,664,0,499,498,113,1,1,107,42,665,666,667,0,500,499,111,1,1,108,42,532,255,533,0,413,501,414,0,2,1,42,632,633,255,0,480,482,501,1,1,2,42,632,255,668,0,480,501,86,1,2,109,42,634,635,669,0,483,480,85,0,1,110,42,636,637,670,0,485,483,84,0,1,111,42,642,671,643,0,486,4,487,1,2,2,42,534,644,645,0,415,488,489,1,0,1,42,534,645,672,0,415,489,502,1,1,1,42,534,672,535,0,415,502,416,1,1,1,42,646,647,536,0,486,488,415,1,1,1,42,646,536,537,0,486,415,417,1,1,2,42,646,537,671,0,486,417,4,1,2,2,42,538,673,539,0,418,503,413,0,1,1,42,673,540,535,0,503,418,416,1,0,1,42,673,535,672,0,503,416,502,1,1,1,42,648,650,672,0,489,491,502,1,1,1,42,674,673,672,0,504,503,502,0,1,1,42,651,674,672,0,492,504,502,1,0,1,42,651,672,652,0,492,502,491,1,1,1,42,654,675,674,0,494,505,504,1,1,0,42,654,674,655,0,494,504,492,1,0,0,42,656,675,657,0,495,505,494,1,1,1,42,660,676,675,0,497,506,505,1,1,1,42,660,675,656,0,497,505,495,1,1,1,42,661,676,660,0,498,506,497,1,1,1,42,662,677,676,0,499,507,506,1,1,1,42,662,676,663,0,499,506,498,1,1,1,42,665,678,677,0,500,508,507,1,0,1,42,665,677,666,0,500,507,499,1,1,1,42,679,678,680,0,509,508,95,1,0,112,42,681,679,682,0,510,509,93,0,1,113,42,683,681,684,0,87,510,91,114,0,115,42,685,4,3,0,511,512,513,66,2,2,42,686,4,685,0,514,512,511,66,2,66,42,687,537,493,0,515,165,166,66,2,67,42,688,10,4,0,516,517,512,66,4,2,42,688,4,689,0,516,512,514,66,2,66,42,10,690,691,0,517,516,515,4,66,68,42,10,691,493,0,517,515,166,4,68,67,42,692,685,3,0,518,511,513,68,66,2,42,692,3,693,0,518,513,519,68,2,66,42,694,686,685,0,520,514,511,66,66,66,42,694,685,695,0,520,511,518,66,66,66,42,696,689,697,0,521,514,520,66,66,66,42,698,692,693,0,522,518,519,66,68,66,42,698,693,699,0,522,519,523,66,66,66,42,700,695,698,0,524,518,522,66,66,66,42,701,37,36,0,525,526,527,66,2,2,42,702,37,703,0,528,526,525,66,2,66,42,704,698,699,0,529,522,523,66,66,66,42,704,699,37,0,529,523,526,66,66,2,42,704,37,702,0,529,526,528,66,2,66,42,705,698,706,0,530,522,529,116,66,66,42,707,44,708,0,531,532,533,66,2,66,42,709,701,36,0,534,525,527,66,66,2,42,709,36,44,0,534,527,532,66,2,2,42,709,44,710,0,534,532,531,66,2,66,42,711,702,703,0,535,528,525,66,66,66,42,711,703,712,0,535,525,534,66,66,66,42,713,702,714,0,536,528,535,66,66,66,42,715,716,52,0,537,538,43,66,66,9,42,715,52,717,0,537,43,539,66,9,66,42,718,716,719,0,540,538,537,68,66,66,42,720,707,708,0,541,531,533,66,66,66,42,720,708,716,0,541,533,538,66,66,66,42,720,716,721,0,541,538,540,66,66,66,42,722,709,710,0,542,534,531,66,66,66,42,722,710,720,0,542,531,541,66,66,66,42,723,711,712,0,543,535,534,66,66,66,42,723,712,724,0,543,534,542,66,66,66,42,725,714,723,0,544,535,543,66,66,66,42,726,715,717,0,545,537,539,66,66,66,42,726,717,499,0,545,539,546,66,66,89,42,727,718,719,0,547,540,537,66,68,66,42,727,719,728,0,547,537,545,66,66,66,42,729,720,721,0,548,541,540,66,66,66,42,729,721,727,0,548,540,547,66,66,66,42,730,722,720,0,549,542,541,68,66,66,42,730,720,731,0,549,541,548,68,66,66,42,732,724,733,0,550,542,549,66,66,66,42,734,726,499,0,551,545,546,66,66,89,42,734,499,735,0,551,546,552,66,89,66,42,736,727,728,0,553,547,545,66,66,66,42,736,728,737,0,553,545,551,66,66,66,42,738,729,727,0,554,548,547,66,66,66,42,738,727,739,0,554,547,553,66,66,66,42,740,730,731,0,555,549,548,66,68,66,42,740,731,738,0,555,548,554,66,66,66,42,741,733,742,0,556,549,555,66,66,68,42,743,734,735,0,557,551,552,68,66,66,42,743,735,744,0,557,552,558,68,66,66,42,745,736,737,0,559,553,551,68,66,66,42,745,737,743,0,559,551,557,68,66,68,42,746,738,739,0,560,554,553,66,66,66,42,746,739,747,0,560,553,559,66,66,68,42,748,738,749,0,561,554,560,66,66,68,42,750,743,744,0,562,557,558,66,68,66,42,750,744,751,0,562,558,563,66,66,66,42,752,745,743,0,564,559,557,66,68,68,42,752,743,753,0,564,557,562,66,68,66,42,754,747,755,0,565,559,564,66,68,66,42,756,750,751,0,566,562,563,66,66,66,42,756,751,757,0,566,563,567,66,66,66,42,758,753,759,0,568,562,566,66,66,68,42,756,757,531,0,566,567,171,66,66,93,42,760,761,759,0,569,570,566,66,66,68,42,760,759,531,0,569,566,171,66,68,93,42,762,531,566,0,569,171,170,66,93,2,42,763,760,764,0,571,569,572,66,66,66,42,765,762,566,0,572,569,170,68,66,2,42,765,566,595,0,572,170,178,68,2,2,42,766,764,767,0,573,572,574,66,66,66,42,768,769,765,0,575,574,572,68,66,68,42,768,765,595,0,575,572,178,68,68,2,42,768,595,617,0,575,178,576,68,2,2,42,770,768,617,0,577,575,576,66,68,2,42,771,617,772,0,577,576,187,66,2,66,42,773,768,774,0,578,575,579,66,68,66,42,770,775,774,0,577,580,579,66,66,66,42,770,774,768,0,577,579,575,66,66,68,42,776,777,771,0,581,580,577,66,66,66,42,776,771,772,0,581,577,187,66,66,66,42,776,772,641,0,581,187,582,66,66,2,42,778,779,641,0,583,581,582,66,66,2,42,778,641,643,0,583,582,195,66,2,2,42,780,774,781,0,584,579,585,66,66,66,42,775,782,783,0,580,586,585,66,66,66,42,775,783,774,0,580,585,579,66,66,66,42,776,784,785,0,581,587,586,66,66,66,42,776,785,777,0,581,586,580,66,66,66,42,778,786,787,0,583,588,587,66,66,66,42,778,787,779,0,583,587,581,66,66,66,42,788,786,778,0,589,588,583,66,66,66,42,788,778,643,0,589,583,195,66,66,2,42,788,643,671,0,589,195,590,66,2,2,42,687,789,788,0,515,591,589,66,66,66,42,687,788,671,0,515,589,590,66,66,2,42,687,671,537,0,515,590,165,66,2,2,42,790,789,691,0,592,591,515,68,66,68,42,791,782,792,0,593,586,594,66,66,66,42,784,793,792,0,587,595,594,66,66,66,42,784,792,785,0,587,594,586,66,66,66,42,786,794,795,0,588,596,597,66,66,66,42,786,795,796,0,588,597,595,66,66,66,42,786,796,787,0,588,595,587,66,66,66,42,788,794,786,0,589,596,588,66,66,66,42,797,798,794,0,598,597,596,66,66,66,42,789,794,788,0,591,596,589,66,66,66,42,799,800,794,0,599,598,596,66,66,66,42,790,801,799,0,592,600,599,68,68,66,42,790,799,794,0,592,599,596,68,66,66,42,790,794,789,0,592,596,591,68,66,66,42,802,792,803,0,601,594,602,66,66,66,42,793,804,803,0,595,603,602,66,66,66,42,793,803,792,0,595,602,594,66,66,66,42,795,805,806,0,597,604,603,66,66,66,42,795,806,796,0,597,603,595,66,66,66,42,797,807,805,0,598,605,604,66,66,66,42,797,805,798,0,598,604,597,66,66,66,42,799,808,809,0,599,606,605,66,66,66,42,799,809,800,0,599,605,598,66,66,66,42,801,810,808,0,600,607,606,68,66,66,42,801,808,799,0,600,606,599,68,66,66,42,811,804,812,0,608,603,609,66,66,68,42,805,813,814,0,604,610,609,66,66,66,42,805,814,806,0,604,609,603,66,66,66,42,807,815,816,0,605,611,610,66,66,66,42,807,816,805,0,605,610,604,66,66,66,42,808,817,818,0,606,612,611,66,66,66,42,808,818,809,0,606,611,605,66,66,66,42,810,819,820,0,607,613,612,66,66,66,42,810,820,808,0,607,612,606,66,66,66,42,821,813,822,0,614,610,615,66,66,66,42,815,823,824,0,611,616,615,66,66,66,42,815,824,816,0,611,615,610,66,66,66,42,817,825,826,0,612,617,616,66,68,66,42,817,826,818,0,612,616,611,66,66,66,42,819,827,828,0,613,618,617,66,66,68,42,819,828,820,0,613,617,612,66,68,66,42,829,823,830,0,619,616,620,66,66,66,42,825,688,831,0,617,516,621,68,66,66,42,825,831,832,0,617,621,620,68,66,66,42,825,832,826,0,617,620,616,68,66,66,42,827,690,828,0,618,516,617,66,66,68,42,833,830,834,0,622,620,623,66,66,66,42,831,835,836,0,621,624,623,66,66,66,42,831,836,832,0,621,623,620,66,66,66,42,837,834,838,0,625,623,626,66,66,66,42,835,839,840,0,624,627,626,66,66,66,42,835,840,836,0,624,626,623,66,66,66,42,841,839,842,0,628,627,629,66,66,66,42,843,844,845,0,630,631,632,117,117,87,42,843,845,846,0,633,634,635,117,87,87,42,847,848,849,0,636,637,638,118,118,117,42,847,849,850,0,639,631,630,118,117,117,42,851,852,848,0,640,641,637,119,119,118,42,851,848,847,0,640,637,636,119,118,118,42,853,854,852,0,642,643,641,120,120,119,42,853,852,851,0,644,645,646,120,119,119,42,855,856,854,0,647,648,643,121,121,120,42,855,854,853,0,647,643,642,121,120,120,42,705,857,856,0,649,650,648,116,122,121,42,705,856,858,0,651,652,653,116,121,121,42,859,860,857,0,654,655,656,123,123,122,42,859,857,705,0,657,658,659,123,122,116,42,861,862,863,0,660,661,662,124,124,123,42,861,863,859,0,663,655,654,124,123,123,42,864,865,862,0,664,665,661,125,125,124,42,864,862,861,0,664,661,660,125,124,124,42,866,867,865,0,666,667,665,126,126,125,42,866,865,864,0,668,669,670,126,125,125,42,868,869,867,0,671,672,667,127,127,126,42,868,867,866,0,671,667,666,127,126,126,42,870,871,872,0,673,674,672,22,22,127,42,870,872,868,0,673,672,671,22,127,127,42,873,874,871,0,675,676,674,128,128,22,42,873,871,870,0,677,674,673,128,22,22,42,875,317,874,0,666,667,678,129,78,128,42,875,874,876,0,668,676,675,129,128,128,42,877,878,317,0,679,680,667,130,130,78,42,877,317,875,0,679,667,666,130,78,129,42,879,880,878,0,660,661,680,131,131,130,42,879,878,881,0,663,681,682,131,130,130,42,882,883,880,0,683,684,661,132,132,131,42,882,880,879,0,683,661,660,132,131,131,42,884,885,883,0,659,658,684,133,133,132,42,884,883,882,0,685,686,687,133,132,132,42,886,887,885,0,688,689,650,134,134,133,42,886,885,884,0,690,691,651,134,133,133,42,888,889,887,0,644,692,693,135,135,134,42,888,887,886,0,642,689,688,135,134,134,42,890,891,889,0,694,695,692,136,136,135,42,890,889,888,0,694,692,644,136,135,135,42,892,893,891,0,639,696,695,137,137,136,42,892,891,890,0,636,697,698,137,136,136,42,894,895,893,0,699,700,696,138,138,137,42,894,893,892,0,699,696,639,138,137,137,42,896,897,898,0,701,632,700,85,85,138,42,896,898,899,0,701,700,699,85,138,138,42,900,901,897,0,702,703,632,139,139,85,42,900,897,896,0,704,634,635,139,85,85,42,902,903,901,0,705,706,707,140,140,139,42,902,901,904,0,708,703,702,140,139,139,42,905,906,903,0,709,710,706,141,141,140,42,905,903,902,0,709,706,705,141,140,140,42,907,908,906,0,711,712,710,142,142,141,42,907,906,909,0,713,714,715,142,141,141,42,910,911,908,0,716,717,712,143,143,142,42,910,908,907,0,716,712,711,143,142,142,42,912,913,911,0,718,719,717,86,86,143,42,912,911,914,0,720,721,722,86,143,143,42,915,916,913,0,657,662,658,144,144,86,42,915,913,912,0,654,656,685,144,86,86,42,917,918,919,0,663,723,655,145,145,144,42,917,919,920,0,663,655,654,145,144,144,42,921,922,918,0,664,665,661,146,146,145,42,921,918,917,0,670,723,663,146,145,145,42,923,924,922,0,668,724,669,147,147,146,42,923,922,921,0,668,669,670,147,146,146,42,925,926,924,0,671,672,667,148,148,147,42,925,924,923,0,725,724,668,148,147,147,42,927,928,929,0,673,674,726,1,1,148,42,927,929,925,0,673,672,671,1,148,148,42,930,931,928,0,675,676,674,149,149,1,42,930,928,927,0,675,674,673,149,1,1,42,932,933,931,0,668,724,676,150,150,149,42,932,931,934,0,668,676,675,150,149,149,42,935,936,933,0,679,680,667,151,151,150,42,935,933,932,0,682,724,668,151,150,150,42,937,938,936,0,663,723,681,152,152,151,42,937,936,939,0,663,681,682,152,151,151,42,940,941,938,0,683,684,661,153,153,152,42,940,938,937,0,687,723,663,153,152,152,42,942,943,941,0,685,656,686,90,90,153,42,942,941,944,0,659,684,683,90,153,153,42,945,946,943,0,727,728,729,154,154,90,42,945,943,942,0,727,729,720,154,90,90,42,947,948,949,0,713,730,728,155,155,154,42,947,949,950,0,711,731,732,155,154,154,42,951,952,948,0,733,734,730,156,156,155,42,951,948,947,0,733,730,713,156,155,155,42,953,954,952,0,708,735,734,157,157,156,42,953,952,955,0,705,736,737,157,156,156,42,956,957,954,0,738,739,735,158,158,157,42,956,954,953,0,738,735,708,158,157,157,42,846,845,958,0,701,632,739,87,87,158,42,846,958,959,0,701,739,738,87,158,158,42,960,961,683,0,740,741,742,159,159,114,42,960,683,213,0,740,742,743,159,114,63,42,198,668,961,0,744,745,741,57,109,159,42,198,961,960,0,744,741,740,57,159,159,42,962,963,668,0,746,747,748,160,160,109,42,962,668,198,0,749,745,744,160,109,57,42,199,669,963,0,750,751,752,58,110,160,42,199,963,962,0,753,747,746,58,160,160,42,964,965,669,0,754,755,756,161,161,110,42,964,669,199,0,757,751,750,161,110,58,42,200,670,965,0,758,759,760,59,111,161,42,200,965,964,0,758,760,757,59,161,161,42,966,967,968,0,761,762,298,162,162,162,42,168,638,967,0,763,764,765,52,105,162,42,969,168,967,0,193,763,765,163,52,162,42,969,967,970,0,193,765,766,163,162,164,42,971,966,968,0,767,761,298,162,162,162,42,971,968,670,0,767,298,768,162,162,111,42,971,670,200,0,769,770,771,162,111,59,42,969,970,971,0,193,766,769,163,164,162,42,972,973,638,0,772,773,764,165,165,105,42,972,638,168,0,772,764,763,165,105,52,42,169,639,973,0,774,775,773,53,106,165,42,169,973,972,0,774,773,772,53,165,165,42,974,975,639,0,776,777,778,166,166,106,42,974,639,169,0,779,775,774,166,106,53,42,976,977,975,0,780,781,782,70,70,166,42,976,975,974,0,780,782,779,70,166,166,42,978,979,980,0,783,784,285,167,167,167,42,145,615,979,0,785,786,784,47,101,167,42,981,145,979,0,185,787,788,167,47,167,42,981,979,982,0,185,788,789,167,167,167,42,983,978,980,0,790,783,285,167,167,167,42,983,980,977,0,790,285,791,167,167,70,42,983,977,976,0,790,791,792,167,70,70,42,981,982,983,0,185,789,793,167,167,167,42,984,985,615,0,794,795,796,168,168,101,42,984,615,145,0,797,786,785,168,101,47,42,146,616,985,0,798,799,800,48,102,168,42,146,985,984,0,801,795,794,48,168,168,42,986,987,988,0,802,803,272,169,170,169,42,119,588,987,0,804,805,803,39,94,170,42,989,119,987,0,176,806,807,170,39,170,42,989,987,990,0,176,807,808,170,170,170,42,991,986,988,0,809,802,272,170,169,169,42,991,988,616,0,810,178,811,170,169,102,42,991,616,146,0,809,799,798,170,102,48,42,989,990,991,0,176,808,810,170,170,170,42,992,993,588,0,812,813,759,171,171,94,42,992,588,119,0,814,815,816,171,94,39,42,120,590,993,0,753,756,817,40,95,171,42,120,993,992,0,750,813,812,40,171,171,42,994,995,590,0,818,819,756,172,172,95,42,994,590,120,0,818,756,753,172,95,40,42,121,591,995,0,820,748,819,41,96,172,42,121,995,994,0,744,821,822,41,172,172,42,996,997,591,0,823,824,745,173,173,96,42,996,591,121,0,825,748,820,173,96,41,42,122,593,997,0,826,827,828,42,97,173,42,122,997,996,0,743,824,823,42,173,173,42,998,999,593,0,829,830,742,174,174,97,42,998,593,122,0,829,742,743,174,97,42,42,126,597,999,0,831,832,830,43,98,174,42,126,999,998,0,831,830,829,43,174,174,42,1000,1001,597,0,833,834,832,175,175,98,42,1000,597,126,0,833,832,831,175,98,43,42,129,600,1001,0,835,836,834,44,99,175,42,129,1001,1000,0,835,834,833,44,175,175,42,1002,1003,600,0,837,838,839,176,176,99,42,1002,600,129,0,840,836,835,176,99,44,42,132,603,1003,0,841,842,843,45,100,176,42,132,1003,1002,0,841,843,840,45,176,176,42,1004,1005,1006,0,844,845,178,177,177,177,42,1004,1006,603,0,844,178,846,177,177,100,42,1004,603,132,0,844,846,806,177,100,45,42,1007,1008,1004,0,270,847,848,177,177,177,42,1005,1009,1006,0,845,849,178,177,177,177,42,155,627,1009,0,801,811,849,50,103,177,42,1007,155,1009,0,270,798,850,177,50,177,42,1007,1009,1008,0,270,850,847,177,177,177,42,1010,1011,627,0,851,852,811,178,178,103,42,1010,627,155,0,851,811,801,178,103,50,42,158,630,1011,0,787,796,852,51,104,178,42,158,1011,1010,0,787,852,851,51,178,178,42,1012,1013,1014,0,853,854,285,179,179,179,42,1012,1014,630,0,853,285,786,179,179,104,42,1012,630,158,0,855,796,787,179,104,51,42,1015,1016,1012,0,185,856,855,179,179,179,42,1013,1017,1014,0,854,857,285,179,179,179,42,1018,1019,1017,0,780,781,858,68,66,179,42,1015,1018,1017,0,185,780,858,179,68,179,42,1015,1017,1016,0,185,858,856,179,179,179,42,1020,1021,1019,0,859,860,791,180,180,66,42,1020,1019,1018,0,859,791,792,180,66,68,42,192,664,1021,0,861,778,860,54,107,180,42,192,1021,1020,0,774,862,863,54,180,180,42,1022,1023,664,0,864,865,778,181,181,107,42,1022,664,192,0,864,778,861,181,107,54,42,195,667,1023,0,866,867,865,55,108,181,42,195,1023,1022,0,763,868,869,55,181,181,42,1024,1025,1026,0,870,871,298,182,182,182,42,1024,1026,667,0,870,298,867,182,182,108,42,1024,667,195,0,870,867,866,182,108,55,42,1027,1028,1024,0,193,872,873,182,182,182,42,1025,1029,1026,0,871,874,298,182,182,182,42,208,680,1029,0,875,768,874,60,112,182,42,1027,208,1029,0,193,771,876,182,60,182,42,1027,1029,1028,0,193,876,872,182,182,182,42,1030,1031,680,0,877,878,842,183,183,112,42,1030,680,208,0,879,880,881,183,112,60,42,210,682,1031,0,882,839,883,61,113,183,42,210,1031,1030,0,882,883,879,61,183,183,42,1032,1033,682,0,884,885,836,184,184,113,42,1032,682,210,0,886,839,882,184,113,61,42,212,684,1033,0,887,888,889,62,115,184,42,212,1033,1032,0,887,889,886,62,184,184,42,1034,1035,684,0,890,891,832,185,185,115,42,1034,684,212,0,892,888,887,185,115,62,42,213,683,1035,0,826,827,893,63,114,185,42,213,1035,1034,0,743,891,890,63,185,185],
            "bones": [],
            "name": "buchhalterGeometry",
            "skinIndices": [],
            "skinWeights": [],
            "influencesPerVertex": 2,
            "normals": [0.999969,0,0,1,0,0,0.707083,0,0.707083,0.707083,0,-0.707083,0.577349,-0.577349,0.577319,0.577349,-0.577349,-0.577349,1,3.1e-05,0,1,-3.1e-05,0,0.577349,0.577349,-0.577349,0.577349,0.577349,0.577349,-1,0,0,-1,-6.1e-05,0,-0.707236,-0.706931,0,-0.577319,-0.577349,0.577349,-0.577349,-0.577349,-0.577288,-0.999969,-0.000214,0,-1,-0.000214,0,-0.999969,-9.2e-05,0,-0.577349,0.577319,0.577349,-0.707083,0.707114,0,-1,3.1e-05,0,-1,0.000153,0,-0.999969,0,0,-0.707114,0.707083,0,-1,-3.1e-05,0,-0.999969,-0.000336,0,-0.999969,-0.00058,0,-0.999969,0.000214,0,-0.999969,-0.001099,0,-0.999969,-0.002686,0,-0.707053,0.707144,0,-1,-0.000305,0,-0.707205,0.706992,0,-0.999969,-0.000366,0,-0.999969,-3.1e-05,0,-0.707022,0.707144,0,-0.999969,-0.000488,0,-0.577349,0.577319,-0.577349,-0.707083,0,0.707114,-0.083407,-0.704611,-0.704642,-0.083865,-0.862789,-0.498489,-0.083865,-0.962523,-0.257851,-0.083621,-0.99649,0,-0.083865,-0.962523,0.257851,-0.083865,-0.862789,0.498489,-0.083407,-0.704611,0.704611,-0.707083,0,0.707083,-0.083865,-0.257851,-0.962523,-0.083865,-0.498489,-0.862789,-0.707083,0,-0.707083,-0.083865,-0.498489,0.862789,-0.083865,-0.257851,0.962523,-0.083865,0.498489,-0.862789,-0.083865,0.257851,-0.962523,-0.083834,0.257851,0.962523,-0.083865,0.498489,0.862789,-0.707114,0,0.707083,-0.083865,0.962523,-0.257851,-0.083865,0.862789,-0.498489,-0.083407,0.704642,-0.704611,-0.083407,0.704611,0.704611,-0.083865,0.862789,0.498489,-0.083865,0.962523,0.257851,-0.083621,0.99649,0,-0.004425,0,0.999969,-0.003754,0,0.999969,0,0,1,0.577349,-0.577349,0.577349,0,0,0.999969,0,0,-0.999969,0,0,-1,-0.000122,0,-1,0.000153,0,-1,0.000458,0,-0.999969,0.000275,0,-0.999969,0,-0.707083,-0.707083,3.1e-05,0,-1,0,0.707083,-0.707083,-0.962523,-0.257851,-0.083865,0.006928,0,-0.999969,0.00589,0,-0.999969,-3.1e-05,0,-1,-0.000549,0,-0.999969,-0.000885,0,-0.999969,0.000519,0,-0.999969,0,-1,0,0.707083,-0.707083,0,0,1,0,0,0.999969,0,0,0.707083,0.707083,0.707083,0.707083,0,0.707083,0.707114,0,0.707114,0.707053,0,0.577349,0.577319,0.577349,0.083407,-0.704611,-0.704642,0.083865,-0.862789,-0.498489,0.083865,-0.962523,-0.257851,0.083621,-0.99649,0,0.083865,-0.962523,0.257851,0.083865,-0.862789,0.498489,0.083407,-0.704642,0.704611,0.083865,-0.257851,-0.962523,0.083865,-0.498489,-0.862789,0.083865,-0.498489,0.862789,0.083865,-0.257851,0.962523,0.083865,0.498489,-0.862789,0.083834,0.257851,-0.962523,0.083865,0.257851,0.962523,0.083865,0.498489,0.862789,0.083865,0.962523,-0.257851,0.083865,0.862789,-0.498489,0.083407,0.704611,-0.704611,0.083407,0.704611,0.704611,0.083865,0.862789,0.498489,0.083621,0.99649,0,0.083865,0.962523,0.257851,-0.704611,0.704611,0.083407,-0.130314,0.991455,0,-0.258766,0.965911,0,-0.382794,0.923826,0,-0.500259,0.865841,0,-0.609149,0.793023,0,-0.707083,0.707083,0,-0.793023,0.609149,0,-0.865841,0.500259,0,-0.923826,0.382794,0,-0.965911,0.258766,0,-0.991455,0.130314,0,-0.991455,-0.130314,0,-0.965911,-0.258766,0,-0.923826,-0.382794,0,-0.865841,-0.500259,0,-0.793023,-0.609149,0,-0.707083,-0.707083,0,-0.609149,-0.793023,0,-0.500259,-0.865841,0,-0.382794,-0.923826,0,-0.258766,-0.965911,0,-0.130314,-0.991455,0,0.130314,-0.991455,0,0.258766,-0.965911,0,0.382794,-0.923826,0,0.500259,-0.865841,0,0.609149,-0.793023,0,0.793023,-0.609149,0,0.865841,-0.500259,0,0.923826,-0.382794,0,0.965911,-0.258766,0,0.991455,-0.130314,0,0.991455,0.130314,0,0.965911,0.258766,0,0.923826,0.382794,0,0.865841,0.500259,0,0.793023,0.609149,0,0.609149,0.793023,0,0.500259,0.865841,0,0.382794,0.923826,0,0.258766,0.965911,0,0.130314,0.991455,0,0,0.991455,-0.130314,0,0.923826,-0.382794,0,0.793023,-0.609149,0,0.609149,-0.793023,0,0.60918,-0.792993,0,0.609119,-0.793054,0,0.382794,-0.923826,0,0.130314,-0.991455,0,-0.130314,-0.991455,0,-0.382794,-0.923826,0,-0.609119,-0.793054,0,-0.609149,-0.793023,0,-0.793023,-0.609149,0,-0.923826,-0.382794,0,-0.991455,-0.130314,0,-0.991455,0.130314,0,-0.923826,0.382794,0,-0.793023,0.609149,0,-0.609149,0.793023,0,-0.382794,0.923826,0,-0.130314,0.991455,0,0.130314,0.991455,0,0.382794,0.923826,0,0.609149,0.793023,0,0.793023,0.609149,0,0.923826,0.382794,0,0.991455,0.130314],
            "metadata": {
                "vertices": 1036,
                "normals": 186,
                "generator": "io_three",
                "bones": 0,
                "uvs": 1,
                "faces": 1110,
                "morphTargets": 0,
                "version": 3,
                "materials": 1
            },
            "morphTargets": []
        },
        "uuid": "4C883DEB-454F-37F4-95BA-8976A1638926",
        "materials": [{
            "colorAmbient": [0.690196,0.690196,0.690196],
            "depthTest": true,
            "opacity": 1,
            "shading": "phong",
            "DbgIndex": 0,
            "transparent": false,
            "DbgColor": 15658734,
            "DbgName": "Standard",
            "blending": "NormalBlending",
            "colorDiffuse": [0.690196,0.690196,0.690196],
            "depthWrite": true,
            "wireframe": false,
            "specularCoef": 50,
            "colorSpecular": [0.012549,0.012549,0.012549],
            "colorEmissive": [0,0,0],
            "visible": true
        }]
    }],
    "animations": [{
        "name": "default",
        "tracks": [],
        "fps": 29
    }],
    "metadata": {
        "type": "Object",
        "generator": "io_three",
        "version": 4.4
    },
    "textures": [],
    "object": {
        "matrix": [1,0,0,0,0,1,0,0,0,0,1,0,0,0,0,1],
        "type": "Scene",
        "children": [{
            "name": "buchhalter",
            "uuid": "FB219BAA-9619-3AD4-9CC4-A9A7457D86B9",
            "matrix": [-1,0,0,0,0,0,1,0,0,1,0,0,0,0,0,1],
            "visible": true,
            "type": "Mesh",
            "material": "93831B89-11B9-31B1-A879-E029ECAF81F2",
            "castShadow": true,
            "receiveShadow": true,
            "geometry": "4C883DEB-454F-37F4-95BA-8976A1638926"
        }],
        "uuid": "10213D91-30F8-407F-8F20-67ACDB9C22DE"
    },
    "materials": [{
        "specular": 197379,
        "depthTest": true,
        "ambient": 11579568,
        "color": 11579568,
        "uuid": "93831B89-11B9-31B1-A879-E029ECAF81F2",
        "blending": "NormalBlending",
        "vertexColors": false,
        "name": "Standard",
        "shininess": 50,
        "depthWrite": true,
        "type": "MeshPhongMaterial",
        "emissive": 0
    }]
}