{
    "metadata": {
        "version": 4.4,
        "type": "Object",
        "generator": "io_three"
    },
    "geometries": [{
        "type": "Geometry",
        "data": {
            "normals": [1,0,0,0.577349,-0.577349,-0.577349,0.577349,0.577349,-0.577319,0.577349,0.577349,0.577349,0.577349,-0.577349,0.577349,0.577349,0.577349,-0.577349,0.577349,0.577319,0.577349,0.577349,-0.577349,-0.577319,0.577319,-0.577319,0.577349,-1,0,0,-0.707083,0.707083,0,-0.577349,0.577349,-0.577349,-0.707083,-0.707083,0,-0.577349,-0.577349,-0.577349,-0.577349,-0.577349,0.577349,-0.577319,0.577319,0.577349,0,-1,0,0,-0.999969,0,0,-0.707083,-0.707083,0,-0.707083,0.707083,0.577349,-0.577319,-0.577319,0,1,0,0,0.999969,0,0,0.707083,0.707083,0,0.707083,-0.707083,0,0,-1,0,0,1,0,0,0.999969,-0.707083,0,-0.707083,-0.707083,0,0.707083],
            "bones": [],
            "skinWeights": [],
            "faces": [42,0,1,2,0,0,1,2,0,1,2,42,0,2,3,0,0,2,3,0,2,3,42,4,1,0,0,4,1,0,4,1,0,42,5,6,7,0,5,6,7,0,5,6,42,8,5,7,0,8,5,7,7,0,6,42,8,7,9,0,8,7,9,7,6,8,42,10,11,12,0,10,11,12,9,10,11,42,13,10,12,0,13,10,12,12,9,11,42,13,12,14,0,13,12,14,12,11,13,42,15,16,17,0,15,16,17,9,14,15,42,15,17,18,0,15,17,18,9,15,10,42,19,16,15,0,19,16,15,12,14,9,42,20,21,22,0,20,21,22,16,17,16,42,21,20,23,0,21,20,23,17,16,18,42,21,23,24,0,21,23,24,17,18,18,42,25,26,27,0,25,26,22,19,19,17,42,25,27,21,0,25,22,21,19,17,17,42,21,24,1,0,21,24,27,17,18,1,42,28,21,1,0,28,21,27,8,17,1,42,28,1,4,0,28,27,29,8,1,4,42,25,29,8,0,25,30,31,19,20,7,42,25,8,9,0,25,31,32,19,7,8,42,20,30,13,0,20,33,34,16,16,12,42,20,13,14,0,20,34,35,16,12,13,42,20,14,23,0,20,35,23,16,13,18,42,31,22,16,0,36,22,37,16,16,14,42,31,16,19,0,36,37,38,16,14,12,42,26,16,27,0,26,37,22,19,14,17,42,32,33,34,0,39,40,41,21,22,21,42,33,32,35,0,40,39,42,22,21,23,42,33,35,36,0,40,42,43,22,23,23,42,37,38,39,0,44,45,41,24,24,22,42,37,39,33,0,44,41,40,24,22,22,42,37,40,3,0,44,46,47,24,6,3,42,37,3,2,0,44,47,48,24,3,2,42,33,36,7,0,40,43,49,22,23,6,42,41,33,7,0,50,40,49,2,22,6,42,41,7,6,0,50,49,51,2,6,5,42,42,34,12,0,52,41,53,21,21,11,42,42,12,11,0,52,53,54,21,11,10,42,38,12,39,0,45,53,41,24,11,22,42,32,43,18,0,39,55,56,21,21,10,42,32,18,17,0,39,56,57,21,10,15,42,32,17,35,0,39,57,42,21,15,23,42,44,45,46,0,58,59,60,25,25,25,42,45,44,38,0,59,58,61,25,25,24,42,45,38,37,0,59,61,61,25,24,24,42,24,23,46,0,62,62,60,18,18,25,42,24,46,45,0,62,60,59,18,25,25,42,45,37,2,0,59,61,61,25,24,2,42,24,45,2,0,62,59,61,18,25,2,42,24,2,1,0,62,61,62,18,2,1,42,44,46,14,0,58,60,62,25,25,13,42,44,14,12,0,58,62,61,25,13,11,42,44,12,38,0,58,61,61,25,11,24,42,23,14,46,0,62,62,60,18,13,25,42,47,48,36,0,63,64,65,26,26,23,42,47,36,35,0,63,65,65,26,23,23,42,49,25,48,0,66,67,64,27,19,26,42,49,48,47,0,66,64,63,27,26,26,42,26,25,50,0,67,67,66,19,19,27,42,48,9,7,0,64,67,65,26,8,6,42,48,7,36,0,64,65,65,26,6,23,42,25,9,48,0,67,67,64,19,8,26,42,47,35,17,0,63,65,65,26,23,15,42,49,47,17,0,66,63,65,27,26,15,42,26,50,17,0,67,66,65,19,27,15,42,26,17,16,0,67,65,67,19,15,14,42,40,41,29,0,68,69,70,6,2,20,42,28,40,29,0,71,68,70,8,6,20,42,51,3,40,0,72,73,73,27,3,6,42,51,40,28,0,72,73,74,27,6,8,42,4,51,28,0,74,72,74,4,27,8,42,52,41,6,0,75,76,76,25,2,5,42,8,29,41,0,77,77,76,7,20,2,42,8,41,52,0,77,76,75,7,2,25,42,53,54,55,0,78,79,80,28,29,29,42,56,53,55,0,81,78,80,28,28,29,42,57,54,58,0,82,73,73,26,29,26,42,59,55,54,0,74,74,73,26,29,29,42,59,54,60,0,74,73,82,26,29,27,42,61,62,53,0,83,76,76,25,25,28,42,61,53,56,0,83,76,77,25,28,28,42,63,64,56,0,77,83,77,25,25,28],
            "vertices": [0.13,-2.30833,-0.05,0.13,-13.85,-0.3,0.13,13.85,-0.3,0.13,13.85,-0.05,0.13,-13.85,-0.05,0.13,2.30833,0.05,0.13,13.85,0.05,0.13,13.85,0.3,0.13,-13.85,0.05,0.13,-13.85,0.3,-0.13,2.30833,-0.05,-0.13,13.85,-0.05,-0.13,13.85,-0.3,-0.13,-13.85,-0.05,-0.13,-13.85,-0.3,-0.13,-2.30833,0.05,-0.13,-13.85,0.3,-0.13,13.85,0.3,-0.13,13.85,0.05,-0.13,-13.85,0.05,-0.0736,-13.85,-0.267383,0.0779,-13.85,-0.179769,-0.0736,-13.85,0.169846,-0.0736,-13.85,-0.3,0.0779,-13.85,-0.3,0.0779,-13.85,0.3,-0.0736,-13.85,0.3,-0.0736,-13.85,0.169846,0.0779,-13.85,-0.05,0.0779,-13.85,0.05,-0.0736,-13.85,-0.05,-0.0736,-13.85,0.05,-0.0736,13.85,0.267383,0.0779,13.85,0.179769,-0.0736,13.85,-0.169846,-0.0736,13.85,0.3,0.0779,13.85,0.3,0.0779,13.85,-0.3,-0.0736,13.85,-0.3,-0.0736,13.85,-0.169846,0.0779,13.85,-0.05,0.0779,13.85,0.05,-0.0736,13.85,-0.05,-0.0736,13.85,0.05,-0.0736,12.3442,-0.3,0.0779,8.29935,-0.3,-0.0736,-7.84123,-0.3,-0.0736,7.84123,0.3,0.0779,-8.29935,0.3,-0.0736,6.33543,0.3,-0.0736,6.33543,0.3,0.13,-0.730273,-0.05,0.13,0.730273,0.05,-0.0736,13.85,0.05,-0.0736,13.85,-0.05,-0.0736,-13.85,-0.05,-0.0736,-13.85,0.05,-0.13,-0.352544,-0.05,-0.13,13.85,-0.05,-0.13,-13.85,-0.05,-0.13,-0.352544,-0.05,-0.13,0.352544,0.05,-0.13,13.85,0.05,-0.13,-13.85,0.05,-0.13,0.352544,0.05],
            "skinIndices": [],
            "metadata": {
                "version": 3,
                "normals": 30,
                "generator": "io_three",
                "materials": 1,
                "bones": 0,
                "faces": 84,
                "vertices": 65,
                "morphTargets": 0,
                "uvs": 1
            },
            "influencesPerVertex": 2,
            "name": "meshGeometry",
            "animations": [],
            "morphTargets": [],
            "uvs": [[1e-05,0.416667,6.1e-05,0,-6.1e-05,0.999531,-6.1e-05,0.999726,6.1e-05,0.000195,-1e-05,0.583333,-6.1e-05,0.999805,-6.1e-05,1,6.1e-05,0.000274,6.1e-05,0.000469,1e-05,0.583255,6.1e-05,0.999726,6.1e-05,0.999531,-6.1e-05,0.000195,-6.1e-05,0,-1e-05,0.416745,-6.1e-05,0.000469,6.1e-05,1,6.1e-05,0.999805,-6.1e-05,0.000274,0.472832,0.783138,0.399819,0.200445,0.108469,0.783138,0.500013,0.783138,0.500013,0.200445,5e-06,0.200445,5e-06,0.783138,0.500013,6.1e-05,0.291677,0.200445,0.291677,6.1e-05,0.208342,0.200445,0.208342,6.1e-05,5e-06,6.1e-05,0.291677,0.783138,0.291677,1.00006,0.500013,1.00006,0.208342,0.783138,5e-06,1.00006,0.208342,1.00006,0.472832,0.783016,0.399819,0.200324,0.108469,0.783016,0.500013,0.783016,0.500013,0.200324,5e-06,0.200324,5e-06,0.783016,0.208342,0.200324,0.208342,-6.1e-05,5e-06,-6.1e-05,0.500013,-6.1e-05,0.291677,0.200324,0.291677,-6.1e-05,0.208342,0.783016,5e-06,0.999939,0.208342,0.999939,0.291677,0.783016,0.291677,0.999939,0.500013,0.999939,0.972815,0.945195,0.899806,0.79924,0.608471,0.216821,0.999995,0.999531,0.500013,0,0.608471,0.783179,0.899806,0.20076,0.500013,1,0.63565,0.728843,0.999995,0.000469,0.200324,0.999726,0.200324,0.999805,0.200445,0.000274,0.200445,0.000195,0.471514,0.47361,0.208342,0.999726,0.708323,0.000195,0.471514,0.52639,0.708323,0.999805,0.208342,0.000274,0.216984,0.999805,0.216984,0.999726,0.216862,0.000195,0.216862,0.000274,0.464696,0.48724,0.464696,0.51276]]
        },
        "materials": [{
            "colorSpecular": [0.009961,0.009961,0.009961],
            "visible": true,
            "colorAmbient": [0.690196,0.690196,0.690196],
            "colorEmissive": [0,0,0],
            "depthTest": true,
            "opacity": 1,
            "shading": "phong",
            "DbgName": "b0b0b0",
            "depthWrite": true,
            "DbgIndex": 0,
            "blending": "NormalBlending",
            "wireframe": false,
            "DbgColor": 15658734,
            "transparent": false,
            "specularCoef": 50,
            "colorDiffuse": [0.690196,0.690196,0.690196]
        }],
        "uuid": "67E85D06-5020-32D9-9E5A-26AD17559292"
    },{
        "type": "Geometry",
        "data": {
            "normals": [0,-0.678823,-0.734275,0,0.678823,-0.734275,0.189734,0.678976,-0.709189,0.189734,-0.678945,-0.709189,0.365093,0.679281,-0.636586,0.365093,-0.679281,-0.636586,0.519852,0.677877,-0.519822,0.519822,-0.677847,-0.519852,0.636586,0.679281,-0.365123,0.636586,-0.679281,-0.365123,0.709189,0.678945,-0.189734,0.709189,-0.678945,-0.189734,0.734275,0.678823,0,0.734275,-0.678823,0,0.709189,0.678945,0.189734,0.709189,-0.678945,0.189734,0.636586,0.679281,0.365123,0.636586,-0.679281,0.365123,0.519822,0.677847,0.519822,0.519822,-0.677847,0.519852,0.365093,0.679281,0.636586,0.365093,-0.679281,0.636586,0.189734,0.678945,0.709189,0.189734,-0.678945,0.709189,0,0.678823,0.734275,0,-0.678823,0.734275,-0.189734,0.678976,0.709189,-0.189734,-0.678945,0.709189,-0.365093,0.679281,0.636586,-0.365093,-0.679281,0.636586,-0.519852,0.677877,0.519822,-0.519822,-0.677847,0.519852,-0.636586,0.679281,0.365123,-0.636586,-0.679281,0.365123,-0.709189,0.678945,0.189734,-0.709189,-0.678945,0.189734,-0.734275,0.678823,0,-0.734275,-0.678823,0,-0.709189,0.678945,-0.189734,-0.709189,-0.678945,-0.189734,-0.636586,0.679281,-0.365123,-0.636586,-0.679281,-0.365123,-0.519822,0.677847,-0.519822,-0.519822,-0.677847,-0.519852,-0.365093,0.679281,-0.636586,-0.365093,-0.679281,-0.636586,-0.189734,0.678945,-0.709189,-0.189734,-0.678945,-0.709189,0,-1,0,0,1,0,0.190283,0.678823,-0.709189,0.190283,-0.678823,-0.709189,0.366832,0.679037,-0.635853,0.366832,-0.679037,-0.635853,0.519333,0.67861,-0.519333,0.519333,-0.67861,-0.519333,0.635853,0.679037,-0.366832,0.635853,-0.679037,-0.366802,0.709189,0.678823,-0.190313,0.709189,-0.678823,-0.190283,0.709189,0.678823,0.190313,0.709189,-0.678823,0.190283,0.635853,0.679037,0.366832,0.635853,-0.679037,0.366802,0.519333,0.67861,0.519333,0.519333,-0.67861,0.519333,0.366832,0.679037,0.635853,0.366832,-0.679037,0.635853,0.190283,0.678823,0.709189,0.190283,-0.678823,0.709189,-0.190283,0.678823,0.709189,-0.190283,-0.678823,0.709189,-0.366832,0.679037,0.635853,-0.366832,-0.679037,0.635853,-0.519333,0.67861,0.519333,-0.519333,-0.67861,0.519333,-0.635853,0.679037,0.366832,-0.635853,-0.679037,0.366802,-0.709189,0.678823,0.190313,-0.709189,-0.678823,0.190283,-0.709189,0.678823,-0.190313,-0.709189,-0.678823,-0.190283,-0.635853,0.679037,-0.366832,-0.635853,-0.679037,-0.366802,-0.519333,0.67861,-0.519333,-0.519333,-0.67861,-0.519333,-0.366832,0.679037,-0.635853,-0.366832,-0.679037,-0.635853,-0.190283,0.678823,-0.709189,-0.190283,-0.678823,-0.709189],
            "bones": [],
            "skinWeights": [],
            "faces": [42,0,24,25,0,0,1,2,0,1,2,42,0,25,1,0,0,2,3,0,2,3,42,1,25,26,0,3,2,4,3,2,4,42,1,26,2,0,3,4,5,3,4,5,42,2,26,27,0,5,4,6,5,4,6,42,2,27,3,0,5,6,7,5,6,7,42,3,27,28,0,8,9,10,7,6,8,42,3,28,4,0,8,10,11,7,8,9,42,4,28,29,0,11,10,12,9,8,10,42,4,29,5,0,11,12,13,9,10,11,42,5,29,30,0,13,12,1,11,10,12,42,5,30,6,0,13,1,0,11,12,13,42,6,30,31,0,0,1,12,13,12,14,42,6,31,7,0,0,12,13,13,14,15,42,7,31,32,0,13,12,10,15,14,16,42,7,32,8,0,13,10,11,15,16,17,42,8,32,33,0,11,10,14,17,16,18,42,8,33,9,0,11,14,15,17,18,19,42,9,33,34,0,15,14,10,19,18,20,42,9,34,10,0,15,10,11,19,20,21,42,10,34,35,0,11,10,12,21,20,22,42,10,35,11,0,11,12,13,21,22,23,42,11,35,36,0,13,12,1,23,22,24,42,11,36,12,0,13,1,0,23,24,25,42,12,36,37,0,0,1,12,25,24,26,42,12,37,13,0,0,12,13,25,26,27,42,13,37,38,0,13,12,10,27,26,28,42,13,38,14,0,13,10,11,27,28,29,42,14,38,39,0,11,10,14,29,28,30,42,14,39,15,0,11,14,15,29,30,31,42,15,39,40,0,16,17,4,31,30,32,42,15,40,16,0,16,4,5,31,32,33,42,16,40,41,0,5,4,2,33,32,34,42,16,41,17,0,5,2,3,33,34,35,42,17,41,42,0,3,2,1,35,34,36,42,17,42,18,0,3,1,0,35,36,37,42,18,42,43,0,0,1,2,37,36,38,42,18,43,19,0,0,2,3,37,38,39,42,19,43,44,0,3,2,4,39,38,40,42,19,44,20,0,3,4,5,39,40,41,42,20,44,45,0,5,4,6,41,40,42,42,20,45,21,0,5,6,7,41,42,43,42,21,45,46,0,7,6,4,43,42,44,42,21,46,22,0,7,4,5,43,44,45,42,22,46,47,0,5,4,2,45,44,46,42,22,47,23,0,5,2,3,45,46,47,42,23,47,24,0,3,2,1,47,46,1,42,23,24,0,0,3,1,0,47,1,0,42,0,1,48,0,18,19,20,0,3,48,42,1,2,48,0,19,21,20,3,5,48,42,2,3,48,0,21,22,20,5,7,48,42,3,4,48,0,22,23,20,7,9,48,42,4,5,48,0,23,24,20,9,11,48,42,5,6,48,0,24,25,20,11,13,48,42,6,7,48,0,25,26,20,13,15,48,42,7,8,48,0,26,27,20,15,17,48,42,8,9,48,0,27,28,20,17,19,48,42,9,10,48,0,28,29,20,19,21,48,42,10,11,48,0,29,30,20,21,23,48,42,11,12,48,0,30,31,20,23,25,48,42,12,13,48,0,31,32,20,25,27,48,42,13,14,48,0,32,33,20,27,29,48,42,14,15,48,0,33,34,20,29,31,48,42,15,16,48,0,34,35,20,31,33,48,42,16,17,48,0,35,36,20,33,35,48,42,17,18,48,0,36,37,20,35,37,48,42,18,19,48,0,37,38,20,37,39,48,42,19,20,48,0,38,39,20,39,41,48,42,20,21,48,0,39,40,20,41,43,48,42,21,22,48,0,40,41,20,43,45,48,42,22,23,48,0,41,42,20,45,47,48,42,23,0,48,0,42,18,20,47,0,48,42,25,24,49,0,42,18,20,2,1,49,42,26,25,49,0,41,42,20,4,2,49,42,27,26,49,0,40,41,20,6,4,49,42,28,27,49,0,39,40,20,8,6,49,42,29,28,49,0,38,39,20,10,8,49,42,30,29,49,0,37,38,20,12,10,49,42,31,30,49,0,36,37,20,14,12,49,42,32,31,49,0,35,36,20,16,14,49,42,33,32,49,0,34,35,20,18,16,49,42,34,33,49,0,33,34,20,20,18,49,42,35,34,49,0,32,33,20,22,20,49,42,36,35,49,0,31,32,20,24,22,49,42,37,36,49,0,30,31,20,26,24,49,42,38,37,49,0,29,30,20,28,26,49,42,39,38,49,0,28,29,20,30,28,49,42,40,39,49,0,27,28,20,32,30,49,42,41,40,49,0,26,27,20,34,32,49,42,42,41,49,0,25,26,20,36,34,49,42,43,42,49,0,24,25,20,38,36,49,42,44,43,49,0,23,24,20,40,38,49,42,45,44,49,0,22,23,20,42,40,49,42,46,45,49,0,21,22,20,44,42,49,42,47,46,49,0,19,21,20,46,44,49,42,24,47,49,0,18,19,20,1,46,49,42,50,74,75,0,43,0,44,0,1,50,42,50,75,51,0,43,44,45,0,50,51,42,51,75,76,0,45,44,46,51,50,52,42,51,76,52,0,45,46,47,51,52,53,42,52,76,77,0,47,46,48,53,52,54,42,52,77,53,0,47,48,49,53,54,55,42,53,77,78,0,50,51,52,55,54,56,42,53,78,54,0,50,52,53,55,56,57,42,54,78,79,0,53,52,54,57,56,58,42,54,79,55,0,53,54,55,57,58,59,42,55,79,80,0,55,54,0,59,58,12,42,55,80,56,0,55,0,43,59,12,13,42,56,80,81,0,43,0,54,13,12,60,42,56,81,57,0,43,54,55,13,60,61,42,57,81,82,0,55,54,52,61,60,62,42,57,82,58,0,55,52,53,61,62,63,42,58,82,83,0,53,52,51,63,62,64,42,58,83,59,0,53,51,50,63,64,65,42,59,83,84,0,50,51,52,65,64,66,42,59,84,60,0,50,52,53,65,66,67,42,60,84,85,0,53,52,54,67,66,68,42,60,85,61,0,53,54,55,67,68,69,42,61,85,86,0,55,54,0,69,68,24,42,61,86,62,0,55,0,43,69,24,25,42,62,86,87,0,43,0,54,25,24,70,42,62,87,63,0,43,54,55,25,70,71,42,63,87,88,0,55,54,52,71,70,72,42,63,88,64,0,55,52,53,71,72,73,42,64,88,89,0,53,52,51,73,72,74,42,64,89,65,0,53,51,50,73,74,75,42,65,89,90,0,49,48,46,75,74,76,42,65,90,66,0,49,46,47,75,76,77,42,66,90,91,0,47,46,44,77,76,78,42,66,91,67,0,47,44,45,77,78,79,42,67,91,92,0,45,44,0,79,78,36,42,67,92,68,0,45,0,43,79,36,37,42,68,92,93,0,43,0,44,37,36,80,42,68,93,69,0,43,44,45,37,80,81,42,69,93,94,0,45,44,46,81,80,82,42,69,94,70,0,45,46,47,81,82,83,42,70,94,95,0,47,46,48,83,82,84,42,70,95,71,0,47,48,49,83,84,85,42,71,95,96,0,49,48,46,85,84,86,42,71,96,72,0,49,46,47,85,86,87,42,72,96,97,0,47,46,44,87,86,88,42,72,97,73,0,47,44,45,87,88,89,42,73,97,74,0,45,44,0,89,88,1,42,73,74,50,0,45,0,43,89,1,0,42,50,51,98,0,1,56,20,0,51,48,42,51,52,98,0,56,57,20,51,53,48,42,52,53,98,0,57,58,20,53,55,48,42,53,54,98,0,58,59,20,55,57,48,42,54,55,98,0,59,60,20,57,59,48,42,55,56,98,0,60,61,20,59,13,48,42,56,57,98,0,61,62,20,13,61,48,42,57,58,98,0,62,63,20,61,63,48,42,58,59,98,0,63,64,20,63,65,48,42,59,60,98,0,64,65,20,65,67,48,42,60,61,98,0,65,66,20,67,69,48,42,61,62,98,0,66,43,20,69,25,48,42,62,63,98,0,43,67,20,25,71,48,42,63,64,98,0,67,68,20,71,73,48,42,64,65,98,0,68,69,20,73,75,48,42,65,66,98,0,69,70,20,75,77,48,42,66,67,98,0,70,71,20,77,79,48,42,67,68,98,0,71,72,20,79,37,48,42,68,69,98,0,72,73,20,37,81,48,42,69,70,98,0,73,74,20,81,83,48,42,70,71,98,0,74,75,20,83,85,48,42,71,72,98,0,75,76,20,85,87,48,42,72,73,98,0,76,77,20,87,89,48,42,73,50,98,0,77,1,20,89,0,48,42,75,74,99,0,77,1,20,50,1,49,42,76,75,99,0,76,77,20,52,50,49,42,77,76,99,0,75,76,20,54,52,49,42,78,77,99,0,74,75,20,56,54,49,42,79,78,99,0,73,74,20,58,56,49,42,80,79,99,0,72,73,20,12,58,49,42,81,80,99,0,71,72,20,60,12,49,42,82,81,99,0,70,71,20,62,60,49,42,83,82,99,0,69,70,20,64,62,49,42,84,83,99,0,68,69,20,66,64,49,42,85,84,99,0,67,68,20,68,66,49,42,86,85,99,0,43,67,20,24,68,49,42,87,86,99,0,66,43,20,70,24,49,42,88,87,99,0,65,66,20,72,70,49,42,89,88,99,0,64,65,20,74,72,49,42,90,89,99,0,63,64,20,76,74,49,42,91,90,99,0,62,63,20,78,76,49,42,92,91,99,0,61,62,20,36,78,49,42,93,92,99,0,60,61,20,80,36,49,42,94,93,99,0,59,60,20,82,80,49,42,95,94,99,0,58,59,20,84,82,49,42,96,95,99,0,57,58,20,86,84,49,42,97,96,99,0,56,57,20,88,86,49,42,74,97,99,0,1,56,20,1,88,49],
            "vertices": [0,-6.8251,-0.0408,0.0129,-6.8251,-0.0391,0.025,-6.8251,-0.0341,0.0354,-6.8251,-0.0262,0.0433,-6.8251,-0.0158,0.0483,-6.8251,-0.0037,0.05,-6.8251,0.0092,0.0483,-6.8251,0.0221,0.0433,-6.8251,0.0342,0.0354,-6.8251,0.0446,0.025,-6.8251,0.0525,0.0129,-6.8251,0.0575,0,-6.8251,0.0592,-0.0129,-6.8251,0.0575,-0.025,-6.8251,0.0525,-0.0354,-6.8251,0.0446,-0.0433,-6.8251,0.0342,-0.0483,-6.8251,0.0221,-0.05,-6.8251,0.0092,-0.0483,-6.8251,-0.0037,-0.0433,-6.8251,-0.0158,-0.0354,-6.8251,-0.0262,-0.025,-6.8251,-0.0341,-0.0129,-6.8251,-0.0391,0,-6.6251,-0.0408,0.0129,-6.6251,-0.0391,0.025,-6.6251,-0.0341,0.0354,-6.6251,-0.0262,0.0433,-6.6251,-0.0158,0.0483,-6.6251,-0.0037,0.05,-6.6251,0.0092,0.0483,-6.6251,0.0221,0.0433,-6.6251,0.0342,0.0354,-6.6251,0.0446,0.025,-6.6251,0.0525,0.0129,-6.6251,0.0575,0,-6.6251,0.0592,-0.0129,-6.6251,0.0575,-0.025,-6.6251,0.0525,-0.0354,-6.6251,0.0446,-0.0433,-6.6251,0.0342,-0.0483,-6.6251,0.0221,-0.05,-6.6251,0.0092,-0.0483,-6.6251,-0.0037,-0.0433,-6.6251,-0.0158,-0.0354,-6.6251,-0.0262,-0.025,-6.6251,-0.0341,-0.0129,-6.6251,-0.0391,0,-6.8251,0.0092,0,-6.6251,0.0092,0,-6.9251,-0.2808,0.0751,-6.9251,-0.2709,0.145,-6.9251,-0.2419,0.2051,-6.9251,-0.1959,0.2511,-6.9251,-0.1358,0.2801,-6.9251,-0.0659,0.29,-6.9251,0.0092,0.2801,-6.9251,0.0843,0.2511,-6.9251,0.1542,0.2051,-6.9251,0.2143,0.145,-6.9251,0.2603,0.0751,-6.9251,0.2893,0,-6.9251,0.2992,-0.0751,-6.9251,0.2893,-0.145,-6.9251,0.2603,-0.2051,-6.9251,0.2143,-0.2511,-6.9251,0.1542,-0.2801,-6.9251,0.0843,-0.29,-6.9251,0.0092,-0.2801,-6.9251,-0.0659,-0.2511,-6.9251,-0.1358,-0.2051,-6.9251,-0.1959,-0.145,-6.9251,-0.2419,-0.0751,-6.9251,-0.2709,0,-6.8251,-0.2808,0.0751,-6.8251,-0.2709,0.145,-6.8251,-0.2419,0.2051,-6.8251,-0.1959,0.2511,-6.8251,-0.1358,0.2801,-6.8251,-0.0659,0.29,-6.8251,0.0092,0.2801,-6.8251,0.0843,0.2511,-6.8251,0.1542,0.2051,-6.8251,0.2143,0.145,-6.8251,0.2603,0.0751,-6.8251,0.2893,0,-6.8251,0.2992,-0.0751,-6.8251,0.2893,-0.145,-6.8251,0.2603,-0.2051,-6.8251,0.2143,-0.2511,-6.8251,0.1542,-0.2801,-6.8251,0.0843,-0.29,-6.8251,0.0092,-0.2801,-6.8251,-0.0659,-0.2511,-6.8251,-0.1358,-0.2051,-6.8251,-0.1959,-0.145,-6.8251,-0.2419,-0.0751,-6.8251,-0.2709,0,-6.9251,0.0092,0,-6.8251,0.0092],
            "skinIndices": [],
            "metadata": {
                "version": 3,
                "normals": 90,
                "generator": "io_three",
                "materials": 1,
                "bones": 0,
                "faces": 192,
                "vertices": 100,
                "morphTargets": 0,
                "uvs": 1
            },
            "influencesPerVertex": 2,
            "name": "halterGeometry",
            "animations": [],
            "morphTargets": [],
            "uvs": [[0.5,0.666666,0.5,0,0.522241,0,0.522241,0.666666,0.543103,0,0.543103,0.666666,0.561035,0,0.561035,0.666666,0.438965,0.666666,0.438965,0,0.456897,0,0.456897,0.666666,0.477759,0,0.477759,0.666666,0.438966,0,0.438966,0.666666,0.561034,0.666666,0.561034,0,0.5,0.413793,0.522241,0.416724,0.5,0.5,0.543103,0.425345,0.561035,0.438965,0.574655,0.456897,0.583276,0.477759,0.586207,0.5,0.583276,0.522241,0.574655,0.543103,0.561035,0.561034,0.543103,0.574655,0.522241,0.583276,0.5,0.586207,0.477759,0.583276,0.456897,0.574655,0.438966,0.561034,0.425345,0.543103,0.416724,0.522241,0.413793,0.5,0.416724,0.477759,0.425345,0.456897,0.438966,0.438965,0.456897,0.425345,0.477759,0.416724,0.5,1,0.629483,0.666666,0.629483,1,0.75,0.666666,0.75,1,0.853621,0.666666,0.853621,1,0.146379,1,0.146379,0.666666,0.25,0.666666,0.25,1,0.370517,0.666666,0.370517,1,0.629483,0.017069,0.75,0.067069,0.853621,0.146379,0.932931,0.25,0.982931,0.370517,1,0.5,0.982931,0.629483,0.932931,0.75,0.853621,0.853621,0.75,0.932931,0.629483,0.982931,0.370517,0.982931,0.25,0.932931,0.146379,0.853621,0.067069,0.75,0.017069,0.629483,0,0.5,0.017069,0.370517,0.067069,0.25,0.146379,0.146379,0.25,0.067069,0.370517,0.017069]]
        },
        "materials": [{
            "colorSpecular": [0.009961,0.009961,0.009961],
            "visible": true,
            "colorAmbient": [0.690196,0.690196,0.690196],
            "colorEmissive": [0,0,0],
            "depthTest": true,
            "opacity": 1,
            "shading": "phong",
            "DbgName": "b0b0b0",
            "depthWrite": true,
            "DbgIndex": 0,
            "blending": "NormalBlending",
            "wireframe": false,
            "DbgColor": 15658734,
            "transparent": false,
            "specularCoef": 50,
            "colorDiffuse": [0.690196,0.690196,0.690196]
        }],
        "uuid": "D7E13E5F-692D-38E5-AA71-493556ECD579"
    },{
        "type": "Geometry",
        "data": {
            "normals": [0,-0.678823,-0.734275,0,0.678823,-0.734275,0.189734,0.678976,-0.709189,0.189734,-0.678945,-0.709189,0.365093,0.679281,-0.636586,0.365093,-0.679281,-0.636586,0.519852,0.677877,-0.519822,0.519822,-0.677847,-0.519852,0.636586,0.679281,-0.365123,0.636586,-0.679281,-0.365123,0.709189,0.678945,-0.189734,0.709189,-0.678945,-0.189734,0.734275,0.678823,0,0.734275,-0.678823,0,0.709189,0.678945,0.189734,0.709189,-0.678945,0.189734,0.636586,0.679281,0.365123,0.636586,-0.679281,0.365123,0.519822,0.677847,0.519822,0.519822,-0.677847,0.519852,0.365093,0.679281,0.636586,0.365093,-0.679281,0.636586,0.189734,0.678945,0.709189,0.189734,-0.678945,0.709189,0,0.678823,0.734275,0,-0.678823,0.734275,-0.189734,0.678976,0.709189,-0.189734,-0.678945,0.709189,-0.365093,0.679281,0.636586,-0.365093,-0.679281,0.636586,-0.519852,0.677877,0.519822,-0.519822,-0.677847,0.519852,-0.636586,0.679281,0.365123,-0.636586,-0.679281,0.365123,-0.709189,0.678945,0.189734,-0.709189,-0.678945,0.189734,-0.734275,0.678823,0,-0.734275,-0.678823,0,-0.709189,0.678945,-0.189734,-0.709189,-0.678945,-0.189734,-0.636586,0.679281,-0.365123,-0.636586,-0.679281,-0.365123,-0.519822,0.677847,-0.519822,-0.519822,-0.677847,-0.519852,-0.365093,0.679281,-0.636586,-0.365093,-0.679281,-0.636586,-0.189734,0.678945,-0.709189,-0.189734,-0.678945,-0.709189,0,-1,0,0,1,0,0.190283,0.678823,-0.709189,0.190283,-0.678823,-0.709189,0.366832,0.679037,-0.635853,0.366832,-0.679037,-0.635853,0.519333,0.67861,-0.519333,0.519333,-0.67861,-0.519333,0.635853,0.679037,-0.366832,0.635853,-0.679037,-0.366802,0.709189,0.678823,-0.190313,0.709189,-0.678823,-0.190283,0.709189,0.678823,0.190313,0.709189,-0.678823,0.190283,0.635853,0.679037,0.366832,0.635853,-0.679037,0.366802,0.519333,0.67861,0.519333,0.519333,-0.67861,0.519333,0.366832,0.679037,0.635853,0.366832,-0.679037,0.635853,0.190283,0.678823,0.709189,0.190283,-0.678823,0.709189,-0.190283,0.678823,0.709189,-0.190283,-0.678823,0.709189,-0.366832,0.679037,0.635853,-0.366832,-0.679037,0.635853,-0.519333,0.67861,0.519333,-0.519333,-0.67861,0.519333,-0.635853,0.679037,0.366832,-0.635853,-0.679037,0.366802,-0.709189,0.678823,0.190313,-0.709189,-0.678823,0.190283,-0.709189,0.678823,-0.190313,-0.709189,-0.678823,-0.190283,-0.635853,0.679037,-0.366832,-0.635853,-0.679037,-0.366802,-0.519333,0.67861,-0.519333,-0.519333,-0.67861,-0.519333,-0.366832,0.679037,-0.635853,-0.366832,-0.679037,-0.635853,-0.190283,0.678823,-0.709189,-0.190283,-0.678823,-0.709189],
            "bones": [],
            "skinWeights": [],
            "faces": [42,0,24,25,0,0,1,2,0,1,2,42,0,25,1,0,0,2,3,0,2,3,42,1,25,26,0,3,2,4,3,2,4,42,1,26,2,0,3,4,5,3,4,5,42,2,26,27,0,5,4,6,5,4,6,42,2,27,3,0,5,6,7,5,6,7,42,3,27,28,0,8,9,10,7,6,8,42,3,28,4,0,8,10,11,7,8,9,42,4,28,29,0,11,10,12,9,8,10,42,4,29,5,0,11,12,13,9,10,11,42,5,29,30,0,13,12,1,11,10,12,42,5,30,6,0,13,1,0,11,12,13,42,6,30,31,0,0,1,12,13,12,14,42,6,31,7,0,0,12,13,13,14,15,42,7,31,32,0,13,12,10,15,14,16,42,7,32,8,0,13,10,11,15,16,17,42,8,32,33,0,11,10,14,17,16,18,42,8,33,9,0,11,14,15,17,18,19,42,9,33,34,0,15,14,10,19,18,20,42,9,34,10,0,15,10,11,19,20,21,42,10,34,35,0,11,10,12,21,20,22,42,10,35,11,0,11,12,13,21,22,23,42,11,35,36,0,13,12,1,23,22,24,42,11,36,12,0,13,1,0,23,24,25,42,12,36,37,0,0,1,12,25,24,26,42,12,37,13,0,0,12,13,25,26,27,42,13,37,38,0,13,12,10,27,26,28,42,13,38,14,0,13,10,11,27,28,29,42,14,38,39,0,11,10,14,29,28,30,42,14,39,15,0,11,14,15,29,30,31,42,15,39,40,0,16,17,4,31,30,32,42,15,40,16,0,16,4,5,31,32,33,42,16,40,41,0,5,4,2,33,32,34,42,16,41,17,0,5,2,3,33,34,35,42,17,41,42,0,3,2,1,35,34,36,42,17,42,18,0,3,1,0,35,36,37,42,18,42,43,0,0,1,2,37,36,38,42,18,43,19,0,0,2,3,37,38,39,42,19,43,44,0,3,2,4,39,38,40,42,19,44,20,0,3,4,5,39,40,41,42,20,44,45,0,5,4,6,41,40,42,42,20,45,21,0,5,6,7,41,42,43,42,21,45,46,0,7,6,4,43,42,44,42,21,46,22,0,7,4,5,43,44,45,42,22,46,47,0,5,4,2,45,44,46,42,22,47,23,0,5,2,3,45,46,47,42,23,47,24,0,3,2,1,47,46,1,42,23,24,0,0,3,1,0,47,1,0,42,0,1,48,0,18,19,20,0,3,48,42,1,2,48,0,19,21,20,3,5,48,42,2,3,48,0,21,22,20,5,7,48,42,3,4,48,0,22,23,20,7,9,48,42,4,5,48,0,23,24,20,9,11,48,42,5,6,48,0,24,25,20,11,13,48,42,6,7,48,0,25,26,20,13,15,48,42,7,8,48,0,26,27,20,15,17,48,42,8,9,48,0,27,28,20,17,19,48,42,9,10,48,0,28,29,20,19,21,48,42,10,11,48,0,29,30,20,21,23,48,42,11,12,48,0,30,31,20,23,25,48,42,12,13,48,0,31,32,20,25,27,48,42,13,14,48,0,32,33,20,27,29,48,42,14,15,48,0,33,34,20,29,31,48,42,15,16,48,0,34,35,20,31,33,48,42,16,17,48,0,35,36,20,33,35,48,42,17,18,48,0,36,37,20,35,37,48,42,18,19,48,0,37,38,20,37,39,48,42,19,20,48,0,38,39,20,39,41,48,42,20,21,48,0,39,40,20,41,43,48,42,21,22,48,0,40,41,20,43,45,48,42,22,23,48,0,41,42,20,45,47,48,42,23,0,48,0,42,18,20,47,0,48,42,25,24,49,0,42,18,20,2,1,49,42,26,25,49,0,41,42,20,4,2,49,42,27,26,49,0,40,41,20,6,4,49,42,28,27,49,0,39,40,20,8,6,49,42,29,28,49,0,38,39,20,10,8,49,42,30,29,49,0,37,38,20,12,10,49,42,31,30,49,0,36,37,20,14,12,49,42,32,31,49,0,35,36,20,16,14,49,42,33,32,49,0,34,35,20,18,16,49,42,34,33,49,0,33,34,20,20,18,49,42,35,34,49,0,32,33,20,22,20,49,42,36,35,49,0,31,32,20,24,22,49,42,37,36,49,0,30,31,20,26,24,49,42,38,37,49,0,29,30,20,28,26,49,42,39,38,49,0,28,29,20,30,28,49,42,40,39,49,0,27,28,20,32,30,49,42,41,40,49,0,26,27,20,34,32,49,42,42,41,49,0,25,26,20,36,34,49,42,43,42,49,0,24,25,20,38,36,49,42,44,43,49,0,23,24,20,40,38,49,42,45,44,49,0,22,23,20,42,40,49,42,46,45,49,0,21,22,20,44,42,49,42,47,46,49,0,19,21,20,46,44,49,42,24,47,49,0,18,19,20,1,46,49,42,50,74,75,0,43,0,44,0,1,50,42,50,75,51,0,43,44,45,0,50,51,42,51,75,76,0,45,44,46,51,50,52,42,51,76,52,0,45,46,47,51,52,53,42,52,76,77,0,47,46,48,53,52,54,42,52,77,53,0,47,48,49,53,54,55,42,53,77,78,0,50,51,52,55,54,56,42,53,78,54,0,50,52,53,55,56,57,42,54,78,79,0,53,52,54,57,56,58,42,54,79,55,0,53,54,55,57,58,59,42,55,79,80,0,55,54,0,59,58,12,42,55,80,56,0,55,0,43,59,12,13,42,56,80,81,0,43,0,54,13,12,60,42,56,81,57,0,43,54,55,13,60,61,42,57,81,82,0,55,54,52,61,60,62,42,57,82,58,0,55,52,53,61,62,63,42,58,82,83,0,53,52,51,63,62,64,42,58,83,59,0,53,51,50,63,64,65,42,59,83,84,0,50,51,52,65,64,66,42,59,84,60,0,50,52,53,65,66,67,42,60,84,85,0,53,52,54,67,66,68,42,60,85,61,0,53,54,55,67,68,69,42,61,85,86,0,55,54,0,69,68,24,42,61,86,62,0,55,0,43,69,24,25,42,62,86,87,0,43,0,54,25,24,70,42,62,87,63,0,43,54,55,25,70,71,42,63,87,88,0,55,54,52,71,70,72,42,63,88,64,0,55,52,53,71,72,73,42,64,88,89,0,53,52,51,73,72,74,42,64,89,65,0,53,51,50,73,74,75,42,65,89,90,0,49,48,46,75,74,76,42,65,90,66,0,49,46,47,75,76,77,42,66,90,91,0,47,46,44,77,76,78,42,66,91,67,0,47,44,45,77,78,79,42,67,91,92,0,45,44,0,79,78,36,42,67,92,68,0,45,0,43,79,36,37,42,68,92,93,0,43,0,44,37,36,80,42,68,93,69,0,43,44,45,37,80,81,42,69,93,94,0,45,44,46,81,80,82,42,69,94,70,0,45,46,47,81,82,83,42,70,94,95,0,47,46,48,83,82,84,42,70,95,71,0,47,48,49,83,84,85,42,71,95,96,0,49,48,46,85,84,86,42,71,96,72,0,49,46,47,85,86,87,42,72,96,97,0,47,46,44,87,86,88,42,72,97,73,0,47,44,45,87,88,89,42,73,97,74,0,45,44,0,89,88,1,42,73,74,50,0,45,0,43,89,1,0,42,50,51,98,0,1,56,20,0,51,48,42,51,52,98,0,56,57,20,51,53,48,42,52,53,98,0,57,58,20,53,55,48,42,53,54,98,0,58,59,20,55,57,48,42,54,55,98,0,59,60,20,57,59,48,42,55,56,98,0,60,61,20,59,13,48,42,56,57,98,0,61,62,20,13,61,48,42,57,58,98,0,62,63,20,61,63,48,42,58,59,98,0,63,64,20,63,65,48,42,59,60,98,0,64,65,20,65,67,48,42,60,61,98,0,65,66,20,67,69,48,42,61,62,98,0,66,43,20,69,25,48,42,62,63,98,0,43,67,20,25,71,48,42,63,64,98,0,67,68,20,71,73,48,42,64,65,98,0,68,69,20,73,75,48,42,65,66,98,0,69,70,20,75,77,48,42,66,67,98,0,70,71,20,77,79,48,42,67,68,98,0,71,72,20,79,37,48,42,68,69,98,0,72,73,20,37,81,48,42,69,70,98,0,73,74,20,81,83,48,42,70,71,98,0,74,75,20,83,85,48,42,71,72,98,0,75,76,20,85,87,48,42,72,73,98,0,76,77,20,87,89,48,42,73,50,98,0,77,1,20,89,0,48,42,75,74,99,0,77,1,20,50,1,49,42,76,75,99,0,76,77,20,52,50,49,42,77,76,99,0,75,76,20,54,52,49,42,78,77,99,0,74,75,20,56,54,49,42,79,78,99,0,73,74,20,58,56,49,42,80,79,99,0,72,73,20,12,58,49,42,81,80,99,0,71,72,20,60,12,49,42,82,81,99,0,70,71,20,62,60,49,42,83,82,99,0,69,70,20,64,62,49,42,84,83,99,0,68,69,20,66,64,49,42,85,84,99,0,67,68,20,68,66,49,42,86,85,99,0,43,67,20,24,68,49,42,87,86,99,0,66,43,20,70,24,49,42,88,87,99,0,65,66,20,72,70,49,42,89,88,99,0,64,65,20,74,72,49,42,90,89,99,0,63,64,20,76,74,49,42,91,90,99,0,62,63,20,78,76,49,42,92,91,99,0,61,62,20,36,78,49,42,93,92,99,0,60,61,20,80,36,49,42,94,93,99,0,59,60,20,82,80,49,42,95,94,99,0,58,59,20,84,82,49,42,96,95,99,0,57,58,20,86,84,49,42,97,96,99,0,56,57,20,88,86,49,42,74,97,99,0,1,56,20,1,88,49],
            "vertices": [0,-6.8251,-0.0408,0.0129,-6.8251,-0.0391,0.025,-6.8251,-0.0341,0.0354,-6.8251,-0.0262,0.0433,-6.8251,-0.0158,0.0483,-6.8251,-0.0037,0.05,-6.8251,0.0092,0.0483,-6.8251,0.0221,0.0433,-6.8251,0.0342,0.0354,-6.8251,0.0446,0.025,-6.8251,0.0525,0.0129,-6.8251,0.0575,0,-6.8251,0.0592,-0.0129,-6.8251,0.0575,-0.025,-6.8251,0.0525,-0.0354,-6.8251,0.0446,-0.0433,-6.8251,0.0342,-0.0483,-6.8251,0.0221,-0.05,-6.8251,0.0092,-0.0483,-6.8251,-0.0037,-0.0433,-6.8251,-0.0158,-0.0354,-6.8251,-0.0262,-0.025,-6.8251,-0.0341,-0.0129,-6.8251,-0.0391,0,-6.6251,-0.0408,0.0129,-6.6251,-0.0391,0.025,-6.6251,-0.0341,0.0354,-6.6251,-0.0262,0.0433,-6.6251,-0.0158,0.0483,-6.6251,-0.0037,0.05,-6.6251,0.0092,0.0483,-6.6251,0.0221,0.0433,-6.6251,0.0342,0.0354,-6.6251,0.0446,0.025,-6.6251,0.0525,0.0129,-6.6251,0.0575,0,-6.6251,0.0592,-0.0129,-6.6251,0.0575,-0.025,-6.6251,0.0525,-0.0354,-6.6251,0.0446,-0.0433,-6.6251,0.0342,-0.0483,-6.6251,0.0221,-0.05,-6.6251,0.0092,-0.0483,-6.6251,-0.0037,-0.0433,-6.6251,-0.0158,-0.0354,-6.6251,-0.0262,-0.025,-6.6251,-0.0341,-0.0129,-6.6251,-0.0391,0,-6.8251,0.0092,0,-6.6251,0.0092,0,-6.9251,-0.2808,0.0751,-6.9251,-0.2709,0.145,-6.9251,-0.2419,0.2051,-6.9251,-0.1959,0.2511,-6.9251,-0.1358,0.2801,-6.9251,-0.0659,0.29,-6.9251,0.0092,0.2801,-6.9251,0.0843,0.2511,-6.9251,0.1542,0.2051,-6.9251,0.2143,0.145,-6.9251,0.2603,0.0751,-6.9251,0.2893,0,-6.9251,0.2992,-0.0751,-6.9251,0.2893,-0.145,-6.9251,0.2603,-0.2051,-6.9251,0.2143,-0.2511,-6.9251,0.1542,-0.2801,-6.9251,0.0843,-0.29,-6.9251,0.0092,-0.2801,-6.9251,-0.0659,-0.2511,-6.9251,-0.1358,-0.2051,-6.9251,-0.1959,-0.145,-6.9251,-0.2419,-0.0751,-6.9251,-0.2709,0,-6.8251,-0.2808,0.0751,-6.8251,-0.2709,0.145,-6.8251,-0.2419,0.2051,-6.8251,-0.1959,0.2511,-6.8251,-0.1358,0.2801,-6.8251,-0.0659,0.29,-6.8251,0.0092,0.2801,-6.8251,0.0843,0.2511,-6.8251,0.1542,0.2051,-6.8251,0.2143,0.145,-6.8251,0.2603,0.0751,-6.8251,0.2893,0,-6.8251,0.2992,-0.0751,-6.8251,0.2893,-0.145,-6.8251,0.2603,-0.2051,-6.8251,0.2143,-0.2511,-6.8251,0.1542,-0.2801,-6.8251,0.0843,-0.29,-6.8251,0.0092,-0.2801,-6.8251,-0.0659,-0.2511,-6.8251,-0.1358,-0.2051,-6.8251,-0.1959,-0.145,-6.8251,-0.2419,-0.0751,-6.8251,-0.2709,0,-6.9251,0.0092,0,-6.8251,0.0092],
            "skinIndices": [],
            "metadata": {
                "version": 3,
                "normals": 90,
                "generator": "io_three",
                "materials": 1,
                "bones": 0,
                "faces": 192,
                "vertices": 100,
                "morphTargets": 0,
                "uvs": 1
            },
            "influencesPerVertex": 2,
            "name": "halter1Geometry",
            "animations": [],
            "morphTargets": [],
            "uvs": [[0.5,0.666666,0.5,0,0.522241,0,0.522241,0.666666,0.543103,0,0.543103,0.666666,0.561035,0,0.561035,0.666666,0.438965,0.666666,0.438965,0,0.456897,0,0.456897,0.666666,0.477759,0,0.477759,0.666666,0.438966,0,0.438966,0.666666,0.561034,0.666666,0.561034,0,0.5,0.413793,0.522241,0.416724,0.5,0.5,0.543103,0.425345,0.561035,0.438965,0.574655,0.456897,0.583276,0.477759,0.586207,0.5,0.583276,0.522241,0.574655,0.543103,0.561035,0.561034,0.543103,0.574655,0.522241,0.583276,0.5,0.586207,0.477759,0.583276,0.456897,0.574655,0.438966,0.561034,0.425345,0.543103,0.416724,0.522241,0.413793,0.5,0.416724,0.477759,0.425345,0.456897,0.438966,0.438965,0.456897,0.425345,0.477759,0.416724,0.5,1,0.629483,0.666666,0.629483,1,0.75,0.666666,0.75,1,0.853621,0.666666,0.853621,1,0.146379,1,0.146379,0.666666,0.25,0.666666,0.25,1,0.370517,0.666666,0.370517,1,0.629483,0.017069,0.75,0.067069,0.853621,0.146379,0.932931,0.25,0.982931,0.370517,1,0.5,0.982931,0.629483,0.932931,0.75,0.853621,0.853621,0.75,0.932931,0.629483,0.982931,0.370517,0.982931,0.25,0.932931,0.146379,0.853621,0.067069,0.75,0.017069,0.629483,0,0.5,0.017069,0.370517,0.067069,0.25,0.146379,0.146379,0.25,0.067069,0.370517,0.017069]]
        },
        "materials": [{
            "colorSpecular": [0.009961,0.009961,0.009961],
            "visible": true,
            "colorAmbient": [0.690196,0.690196,0.690196],
            "colorEmissive": [0,0,0],
            "depthTest": true,
            "opacity": 1,
            "shading": "phong",
            "DbgName": "b0b0b0",
            "depthWrite": true,
            "DbgIndex": 0,
            "blending": "NormalBlending",
            "wireframe": false,
            "DbgColor": 15658734,
            "transparent": false,
            "specularCoef": 50,
            "colorDiffuse": [0.690196,0.690196,0.690196]
        }],
        "uuid": "06F86342-7528-3807-B194-35D5635B475B"
    }],
    "images": [],
    "materials": [{
        "type": "MeshPhongMaterial",
        "depthTest": true,
        "color": 11579568,
        "vertexColors": false,
        "depthWrite": true,
        "specular": 131586,
        "ambient": 11579568,
        "name": "b0b0b0",
        "blending": "NormalBlending",
        "shininess": 50,
        "uuid": "B92F5ACA-E24A-3A69-B2DD-69B8C9C5682C",
        "emissive": 0
    }],
    "object": {
        "children": [{
            "name": "halter",
            "uuid": "194CBDF5-7923-3595-8ED9-4159C6EA139D",
            "matrix": [0.79,-0,0,0,0,0.9,-0,0,0,-0,1,0,0,-7.6797,-0.0092,1],
            "visible": true,
            "type": "Mesh",
            "material": "B92F5ACA-E24A-3A69-B2DD-69B8C9C5682C",
            "castShadow": true,
            "receiveShadow": true,
            "geometry": "D7E13E5F-692D-38E5-AA71-493556ECD579"
        },{
            "name": "halter1",
            "uuid": "660A53DC-2785-3A65-80B4-861D0FECA711",
            "matrix": [0.79,0,0,0,0,-0.9,-0,0,0,-0,-1,0,0,7.6797,0.0092,1],
            "visible": true,
            "type": "Mesh",
            "material": "B92F5ACA-E24A-3A69-B2DD-69B8C9C5682C",
            "castShadow": true,
            "receiveShadow": true,
            "geometry": "06F86342-7528-3807-B194-35D5635B475B"
        },{
            "name": "mesh",
            "uuid": "3D4991D5-0680-36C2-A042-C57551BF6F98",
            "matrix": [1,-0,0,0,0,0.985,-0,0,0,-0,1,0,0,0,0,1],
            "visible": true,
            "type": "Mesh",
            "material": "B92F5ACA-E24A-3A69-B2DD-69B8C9C5682C",
            "castShadow": true,
            "receiveShadow": true,
            "geometry": "67E85D06-5020-32D9-9E5A-26AD17559292"
        }],
        "matrix": [1,0,0,0,0,1,0,0,0,0,1,0,0,0,0,1],
        "uuid": "816EE058-8FF7-4901-96DE-A1F9F63C07F9",
        "type": "Scene"
    },
    "animations": [{
        "fps": 29,
        "tracks": [],
        "name": "default"
    }],
    "textures": []
}