{
    "geometries": [{
        "type": "Geometry",
        "data": {
            "name": "stangeGeometry",
            "morphTargets": [],
            "bones": [],
            "animations": [],
            "vertices": [0.13,-0.05,1.875,0.13,-0.3,11.25,0.13,-0.3,-11.25,0.13,-0.05,-11.25,0.13,-0.05,11.25,0.13,0.05,-1.875,0.13,0.05,-11.25,0.13,0.3,-11.25,0.13,0.05,11.25,0.13,0.3,11.25,-0.13,-0.05,-1.875,-0.13,-0.05,-11.25,-0.13,-0.3,-11.25,-0.13,-0.05,11.25,-0.13,-0.3,11.25,-0.13,0.05,1.875,-0.13,0.3,11.25,-0.13,0.3,-11.25,-0.13,0.05,-11.25,-0.13,0.05,11.25,-0.13,0.05,1.875,-0.0814,-0.274086,11.25,0.0812,-0.187385,11.25,-0.0814,0.187846,11.25,-0.0814,-0.274086,11.25,-0.0814,-0.3,11.25,0.0812,-0.3,11.25,0.0812,0.3,11.25,-0.0814,0.3,11.25,-0.0814,0.187846,11.25,0.0812,-0.05,11.25,0.0812,0.05,11.25,-0.0814,-0.05,11.25,-0.0814,0.05,11.25,-0.0814,0.274086,-11.25,0.0812,0.187385,-11.25,-0.0814,-0.187846,-11.25,-0.0814,0.274086,-11.25,-0.0814,0.3,-11.25,0.0812,0.3,-11.25,0.0812,-0.3,-11.25,-0.0814,-0.3,-11.25,-0.0814,-0.187846,-11.25,0.0812,-0.05,-11.25,0.0812,0.05,-11.25,-0.0814,-0.05,-11.25,-0.0814,0.05,-11.25,-0.0814,-0.3,-10.2782,0.0812,-0.3,-7.02692,-0.0814,-0.3,7.04423,-0.0814,-0.3,-10.2782,-0.0814,-0.3,-11.25,-0.0814,-0.3,11.25,-0.0814,-0.3,7.04423,-0.0814,0.3,-7.04423,0.0812,0.3,7.02692,-0.0814,0.3,-11.25,-0.0814,0.3,-6.07244,-0.0814,0.3,-7.04423,-0.0814,0.3,11.25,-0.0814,0.3,-6.07244,0.13,-0.05,0.27,0.13,0.05,-0.27,-0.0814,-0.05,-11.25,-0.0814,-0.05,11.25,-0.0814,0.05,11.25,-0.13,-0.05,-0.315002,-0.13,-0.05,-11.25,-0.13,-0.05,11.25,-0.13,0.05,0.315002,-0.13,0.05,-11.25,-0.13,0.05,11.25],
            "uvs": [[0.416667,0.583333,-0,1,-0,0,0.416667,0,0.416667,1,0.583333,0.416667,0.583333,0,1,0,0.583333,1,1,1,0.583333,0.416667,0.186923,0.043191,0.812308,0.187692,0.186923,0.813077,0.186923,-0,0.812308,-0,0.812308,1,0.186923,1,1,-0,0.812308,0.416667,1,0.416667,0.812308,0.583333,1,0.583333,0.186923,0.416667,0,0.416667,0,-0,0.186923,0.583333,0,0.583333,0.813077,0.956809,0.187692,0.812308,0.813077,0.186923,0.813077,1,0.187692,1,0.187692,-0,0.813077,-0,0.187692,0.416667,0,1,0.187692,0.583333,0.813077,0.416667,0.813077,0.583333,0.186923,0.043191,0.186923,0,0.812308,0,0,0,0.813077,0.186923,0.187692,0,0.813077,0,0.813077,0.230114,0,0.512,1,0.488,1,0.486,0,0.514]],
            "skinWeights": [],
            "influencesPerVertex": 2,
            "faces": [42,0,1,2,0,0,1,2,0,1,2,42,0,2,3,0,0,2,3,0,2,3,42,4,1,0,0,4,1,0,4,1,0,42,5,6,7,0,5,6,7,0,5,6,42,8,5,7,0,8,5,7,7,0,6,42,8,7,9,0,8,7,9,7,6,8,42,10,11,12,0,10,6,7,9,10,11,42,13,10,12,0,8,10,7,12,9,11,42,13,12,14,0,8,7,9,12,11,13,42,15,16,17,0,0,1,2,9,14,15,42,15,17,18,0,0,2,3,9,15,10,42,19,16,20,0,4,1,0,12,14,16,42,21,22,23,0,11,12,13,17,18,17,42,22,24,25,0,12,11,14,18,19,19,42,22,25,26,0,12,14,15,18,19,20,42,27,28,29,0,16,17,13,21,19,19,42,27,29,22,0,16,13,12,21,19,18,42,22,26,1,0,12,15,18,18,20,1,42,30,22,1,0,19,12,18,22,18,1,42,30,1,4,0,19,18,20,22,1,4,42,27,31,8,0,16,21,22,21,1,7,42,27,8,9,0,16,22,9,21,7,8,42,21,32,13,0,11,23,24,17,19,12,42,21,13,14,0,11,24,25,17,12,13,42,24,14,25,0,11,25,14,19,13,19,42,33,23,16,0,26,13,1,19,17,14,42,33,16,19,0,26,1,27,19,14,12,42,28,16,29,0,17,1,13,19,14,19,42,34,35,36,0,28,29,30,23,24,23,42,35,37,38,0,29,28,31,24,25,25,42,35,38,39,0,29,31,32,24,25,26,42,40,41,42,0,33,34,30,27,25,25,42,40,42,35,0,33,30,29,27,25,24,42,40,43,3,0,33,35,24,27,6,3,42,40,3,2,0,33,24,2,27,3,2,42,35,39,7,0,29,32,36,24,26,6,42,44,35,7,0,37,29,36,28,24,6,42,44,7,6,0,37,36,27,28,6,5,42,45,36,12,0,38,30,7,25,23,11,42,45,12,11,0,38,7,20,25,11,10,42,41,12,42,0,34,7,30,25,11,25,42,34,46,18,0,28,39,22,23,29,10,42,34,18,17,0,28,22,9,23,10,15,42,37,17,38,0,28,9,31,25,15,25,42,47,48,49,0,40,12,13,30,30,30,42,48,50,51,0,12,40,41,30,30,30,42,48,51,40,0,12,41,42,30,30,27,42,26,52,53,0,16,17,13,20,30,30,42,26,53,48,0,16,13,12,20,30,30,42,48,40,2,0,12,42,7,30,27,2,42,26,48,2,0,16,12,7,20,30,2,42,26,2,1,0,16,7,9,20,2,1,42,47,49,14,0,40,13,36,30,30,13,42,47,14,12,0,40,36,43,30,13,11,42,50,12,51,0,40,43,41,30,11,30,42,52,14,53,0,17,36,13,30,13,30,42,54,55,39,0,44,29,45,31,31,26,42,54,39,56,0,44,45,46,31,26,31,42,57,27,55,0,47,32,29,32,21,31,42,57,55,58,0,47,29,44,32,31,31,42,59,27,60,0,31,32,47,31,21,31,42,55,9,7,0,29,36,43,31,8,6,42,55,7,39,0,29,43,45,31,6,26,42,27,9,55,0,32,36,29,21,8,31,42,54,56,17,0,44,46,7,31,31,15,42,57,58,17,0,47,44,7,32,31,15,42,59,60,17,0,31,47,7,31,31,15,42,59,17,16,0,31,7,9,31,15,14,42,43,44,31,0,3,6,8,6,28,1,42,30,43,31,0,4,3,8,22,6,1,42,61,3,43,0,48,43,45,31,3,6,42,61,43,30,0,48,45,32,31,6,22,42,4,61,30,0,36,48,32,4,31,22,42,62,44,6,0,49,42,7,30,28,5,42,8,31,44,0,9,16,42,7,1,28,42,8,44,62,0,9,42,49,7,28,30,42,46,63,64,0,3,6,8,29,33,33,42,65,46,64,0,4,3,8,34,29,33,42,66,63,67,0,50,46,7,31,33,31,42,68,64,63,0,9,31,46,31,33,33,42,68,63,66,0,9,46,50,31,33,31,42,69,70,46,0,51,43,41,30,30,29,42,69,46,65,0,51,41,17,30,29,34,42,71,69,65,0,36,51,17,30,30,34],
            "metadata": {
                "uvs": 1,
                "materials": 1,
                "bones": 0,
                "generator": "io_three",
                "faces": 84,
                "morphTargets": 0,
                "normals": 35,
                "vertices": 72,
                "version": 3
            },
            "normals": [1,0,0,0.577349,-0.577319,0.577319,0.577319,-0.577349,-0.577319,0.577349,0.577349,-0.577349,0.577349,0.577349,0.577349,0.577349,-0.577349,-0.577349,0.577349,0.577319,-0.577319,0.577319,-0.577349,0.577319,0.577349,0.577319,0.577349,-1,0,0,-0.707083,0,-0.707083,-0.577349,-0.577319,-0.577319,-0.707083,0,0.707083,-0.577349,-0.577349,0.577319,-0.577349,0.577319,0.577319,-0.577349,0.577319,-0.577349,-0.999969,0,0,0,0,0.999969,3.1e-05,0,0.999969,0,0,1,0,-0.707083,0.707083,0,0.707083,0.707083,0.577349,0.577349,0.577319,0,0,-0.999969,3.1e-05,0,-0.999969,0,0,-1,0,0.707083,-0.707083,0,-0.707083,-0.707083,0.577349,-0.577349,-0.577319,-0.577349,-0.577319,-0.577349,0,-1,0,0,1,0,0,0.999969,0,-0.707083,0.707083,0,-0.707083,-0.707083,0],
            "skinIndices": []
        },
        "uuid": "0C2AF9BB-3A43-322C-BE1E-174920572AA2",
        "materials": [{
            "visible": true,
            "colorAmbient": [0.690196,0.690196,0.690196],
            "depthTest": true,
            "specularCoef": 50,
            "transparent": false,
            "blending": "NormalBlending",
            "colorDiffuse": [0.690196,0.690196,0.690196],
            "colorEmissive": [0,0,0],
            "DbgName": "b0b0b0",
            "depthWrite": true,
            "opacity": 1,
            "DbgIndex": 0,
            "colorSpecular": [0.009961,0.009961,0.009961],
            "wireframe": false,
            "DbgColor": 15658734,
            "shading": "phong"
        }]
    }],
    "materials": [{
        "name": "b0b0b0",
        "type": "MeshPhongMaterial",
        "emissive": 0,
        "shininess": 50,
        "blending": "NormalBlending",
        "ambient": 11579568,
        "depthWrite": true,
        "specular": 131586,
        "color": 11579568,
        "uuid": "B92F5ACA-E24A-3A69-B2DD-69B8C9C5682C",
        "vertexColors": false,
        "depthTest": true
    }],
    "object": {
        "type": "Scene",
        "uuid": "9B73F52F-25EC-474A-A0DC-1191666CA49F",
        "children": [{
            "name": "stange",
            "uuid": "8829E8E7-6F2F-3090-91EA-81698B20D70A",
            "matrix": [0,1,0,0,0,0,1,0,0.2,-0,0,0,-2.3807,0,0,1],
            "visible": true,
            "type": "Mesh",
            "material": "B92F5ACA-E24A-3A69-B2DD-69B8C9C5682C",
            "castShadow": true,
            "receiveShadow": true,
            "geometry": "0C2AF9BB-3A43-322C-BE1E-174920572AA2"
        }],
        "matrix": [1,0,0,0,0,1,0,0,0,0,1,0,0,0,0,1]
    },
    "metadata": {
        "type": "Object",
        "version": 4.4,
        "generator": "io_three"
    },
    "textures": [],
    "animations": [{
        "name": "default",
        "tracks": [],
        "fps": 29
    }],
    "images": []
}