{
    "geometries": [{
        "uuid": "67E85D06-5020-32D9-9E5A-26AD17559292",
        "materials": [{
            "depthTest": true,
            "DbgColor": 15658734,
            "colorSpecular": [0.012549,0.012549,0.012549],
            "DbgIndex": 0,
            "mapDiffuseAnisotropy": 1,
            "DbgName": "Standard",
            "colorEmissive": [0,0,0],
            "mapDiffuseWrap": ["RepeatWrapping","RepeatWrapping"],
            "mapDiffuse": "gitter.png",
            "depthWrite": true,
            "colorDiffuse": [1,1,1],
            "opacity": 1,
            "colorAmbient": [1,1,1],
            "shading": "phong",
            "specularCoef": 50,
            "wireframe": false,
            "mapDiffuseRepeat": [1,1],
            "transparent": false,
            "visible": true,
            "blending": "NormalBlending"
        }],
        "type": "Geometry",
        "data": {
            "skinWeights": [],
            "vertices": [3.95,-2.03,0.015,3.95,2.03,0.015,3.95,-2.03,-0.015,3.95,2.03,-0.015,-3.95,2.03,0.015,-3.95,-2.03,0.015,-3.95,2.03,-0.015,-3.95,-2.03,-0.015],
            "influencesPerVertex": 2,
            "normals": [0.577319,-0.577349,0.577349,0.577349,-0.577319,-0.577349,0.577319,0.577349,-0.577349,0.577349,0.577319,0.577349,-0.577319,0.577349,0.577349,-0.577349,0.577319,-0.577349,-0.577319,-0.577349,-0.577349,-0.577349,-0.577319,0.577349],
            "bones": [],
            "faces": [42,0,2,3,0,0,1,2,0,1,2,42,0,3,1,0,0,2,3,0,2,3,42,4,6,7,0,0,1,2,4,5,6,42,4,7,5,0,0,2,3,4,6,7,42,4,5,0,0,4,5,6,4,7,0,42,4,0,1,0,4,6,7,4,0,3,42,7,6,3,0,6,7,4,6,5,2,42,7,3,2,0,6,4,5,6,2,1,42,5,7,2,0,0,1,2,7,6,1,42,5,2,0,0,0,2,3,7,1,0,42,1,3,6,0,0,1,2,3,2,5,42,1,6,4,0,0,2,3,3,5,4],
            "metadata": {
                "faces": 12,
                "generator": "io_three",
                "vertices": 8,
                "morphTargets": 0,
                "materials": 1,
                "uvs": 1,
                "normals": 8,
                "bones": 0,
                "version": 3
            },
            "name": "meshGeometry",
            "uvs": [[0,0.65,0,0.35,1,0.35,1,0.65,0,1,0,0,1,0,1,1]],
            "morphTargets": [],
            "skinIndices": [],
            "animations": []
        }
    },{
        "uuid": "20CCF8E8-F768-3A13-B58B-EB33E2D6AC6B",
        "materials": [{
            "depthTest": true,
            "DbgColor": 15658734,
            "colorSpecular": [0.012,0.012,0.012],
            "DbgIndex": 0,
            "DbgName": "Physical1",
            "colorEmissive": [0,0,0],
            "depthWrite": true,
            "colorDiffuse": [0.603922,0.584314,0.568627],
            "opacity": 1,
            "colorAmbient": [0.603922,0.584314,0.568627],
            "shading": "phong",
            "specularCoef": 50,
            "wireframe": false,
            "transparent": false,
            "visible": true,
            "blending": "NormalBlending"
        }],
        "type": "Geometry",
        "data": {
            "skinWeights": [],
            "vertices": [-4.0404,-0.0615,-0.0933,-4.0404,-0.097242,-0.09007,-4.0404,-0.1305,-0.08057,-4.0404,-0.159066,-0.065465,-4.0404,-0.181008,-0.0458,-4.0404,-0.194808,-0.022905,-4.0404,-0.1995,0.0017,-4.0404,-0.194808,0.026305,-4.0404,-0.181008,0.0492,-4.0404,-0.159066,0.068865,-4.0404,-0.1305,0.08397,-4.0404,-0.097242,0.09347,-4.0404,-0.0615,0.0967,-4.0404,-0.025758,0.09347,-4.0404,0.0075,0.08397,-4.0404,0.036066,0.068865,-4.0404,0.058008,0.0492,-4.0404,0.071808,0.026305,-4.0404,0.0765,0.0017,-4.0404,0.071808,-0.022905,-4.0404,0.058008,-0.0458,-4.0404,0.036066,-0.065465,-4.0404,0.0075,-0.08057,-4.0404,-0.025758,-0.09007,-4.0184,-0.0615,-0.0933,-4.0184,-0.097242,-0.09007,-4.0184,-0.1305,-0.08057,-4.0184,-0.159066,-0.065465,-4.0184,-0.181008,-0.0458,-4.0184,-0.194808,-0.022905,-4.0184,-0.1995,0.0017,-4.0184,-0.194808,0.026305,-4.0184,-0.181008,0.0492,-4.0184,-0.159066,0.068865,-4.0184,-0.1305,0.08397,-4.0184,-0.097242,0.09347,-4.0184,-0.0615,0.0967,-4.0184,-0.025758,0.09347,-4.0184,0.0075,0.08397,-4.0184,0.036066,0.068865,-4.0184,0.058008,0.0492,-4.0184,0.071808,0.026305,-4.0184,0.0765,0.0017,-4.0184,0.071808,-0.022905,-4.0184,0.058008,-0.0458,-4.0184,0.036066,-0.065465,-4.0184,0.0075,-0.08057,-4.0184,-0.025758,-0.09007,-4.0404,-0.0615,0.0017,-4.0184,-0.0615,0.0017,-4.0397,-0.097536,-0.0833,-4.04053,-0.133268,-0.08041,-4.04131,-0.166517,-0.07191,-4.04197,-0.195075,-0.058395,-4.04249,-0.217012,-0.0408,-4.04281,-0.230808,-0.020315,-4.04292,-0.235498,0.0017,-4.04281,-0.230808,0.023715,-4.04249,-0.217012,0.0442,-4.04197,-0.195075,0.061795,-4.04131,-0.166517,0.07531,-4.04053,-0.133268,0.08381,-4.0397,-0.097536,0.0867,-4.03886,-0.061804,0.08381,-4.03808,-0.028555,0.07531,-4.03742,3e-06,0.061795,-4.03691,0.021939,0.0442,-4.03658,0.035736,0.023715,-4.03647,0.040426,0.0017,-4.03658,0.035736,-0.020315,-4.03691,0.021939,-0.0408,-4.03742,3e-06,-0.058395,-4.03808,-0.028555,-0.07191,-4.03886,-0.061804,-0.08041,-4.0172,-0.098062,-0.0833,-4.01804,-0.133794,-0.08041,-4.01882,-0.167043,-0.07191,-4.01948,-0.195601,-0.058395,-4.01999,-0.217537,-0.0408,-4.02032,-0.231333,-0.020315,-4.02043,-0.236024,0.0017,-4.02032,-0.231333,0.023715,-4.01999,-0.217537,0.0442,-4.01948,-0.195601,0.061795,-4.01882,-0.167043,0.07531,-4.01804,-0.133794,0.08381,-4.0172,-0.098062,0.0867,-4.01637,-0.062329,0.08381,-4.01559,-0.02908,0.07531,-4.01492,-0.000522,0.061795,-4.01441,0.021414,0.0442,-4.01409,0.03521,0.023715,-4.01398,0.039901,0.0017,-4.01409,0.03521,-0.020315,-4.01441,0.021414,-0.0408,-4.01492,-0.000522,-0.058395,-4.01559,-0.02908,-0.07191,-4.01637,-0.062329,-0.08041,-4.03965,-0.097537,0.0017,-4.01715,-0.098063,0.0017],
            "influencesPerVertex": 2,
            "normals": [-0.687399,0,-0.726279,0.687399,0,-0.726279,-0.686544,-0.133152,-0.714743,0.686544,-0.133122,-0.714743,-0.684439,-0.271981,-0.676412,0.684439,-0.271981,-0.676412,-0.680654,-0.418806,-0.601032,0.680654,-0.418806,-0.601032,-0.675192,-0.568285,-0.470229,0.675192,-0.568285,-0.470229,-0.669515,-0.693716,-0.265419,0.669515,-0.693716,-0.265419,-0.667257,-0.744804,0,0.667257,-0.744804,0,-0.669515,-0.693716,0.265419,0.669515,-0.693716,0.265419,-0.675192,-0.568285,0.470229,0.675192,-0.568285,0.470229,-0.680654,-0.418806,0.601032,0.680654,-0.418806,0.601032,-0.684439,-0.271981,0.676412,0.684439,-0.271981,0.676412,-0.686544,-0.133152,0.714743,0.686544,-0.133122,0.714743,-0.687399,0,0.726279,0.687399,0,0.726279,-0.686544,0.133152,0.714743,0.686544,0.133122,0.714743,-0.684439,0.271981,0.676412,0.684439,0.271981,0.676412,-0.680654,0.418806,0.601032,0.680654,0.418806,0.601032,-0.675192,0.568285,0.470229,0.675192,0.568285,0.470229,-0.669515,0.693716,0.265419,0.669515,0.693716,0.265419,-0.667257,0.744804,0,0.667257,0.744804,0,-0.669515,0.693716,-0.265419,0.669515,0.693716,-0.265419,-0.675192,0.568285,-0.470229,0.675192,0.568285,-0.470229,-0.680654,0.418806,-0.601032,0.680654,0.418806,-0.601032,-0.684439,0.271981,-0.676412,0.684439,0.271981,-0.676412,-0.686544,0.133152,-0.714743,0.686544,0.133122,-0.714743,-1,0,0,1,0,0,-0.689444,0.016083,-0.724143,0.689047,-0.016083,-0.724509,-0.691275,-0.103275,-0.71514,0.685324,-0.135594,-0.715476,-0.691977,-0.230628,-0.684042,0.679952,-0.262703,-0.68453,-0.690695,-0.371776,-0.620228,0.672323,-0.403729,-0.620441,-0.687399,-0.527024,-0.499649,0.661794,-0.558794,-0.49971,-0.682607,-0.670247,-0.291147,0.650288,-0.701621,-0.291177,-0.680471,-0.732749,0,0.645222,-0.76397,0,-0.682607,-0.670247,0.291147,0.650319,-0.701621,0.291177,-0.687399,-0.527024,0.49968,0.661794,-0.558794,0.49971,-0.690664,-0.371776,0.620228,0.672323,-0.40376,0.620441,-0.691977,-0.230598,0.684042,0.679952,-0.262703,0.68453,-0.691275,-0.103275,0.71514,0.685324,-0.135594,0.715476,-0.689444,0.016083,0.724143,0.689047,-0.016083,0.724509,-0.68572,0.135502,0.71511,0.690878,0.103366,0.715506,-0.680319,0.262581,0.684225,0.691549,0.230659,0.684469,-0.672658,0.403577,0.620167,0.690481,0.37199,0.62035,-0.662099,0.55858,0.499557,0.687094,0.527299,0.499771,-0.650533,0.701437,0.291086,0.682363,0.670461,0.291208,-0.645497,0.763726,0,0.680227,0.732963,0,-0.650533,0.701437,-0.291116,0.682363,0.670431,-0.291238,-0.662099,0.558611,-0.499557,0.687094,0.527329,-0.499771,-0.672658,0.403577,-0.620167,0.690481,0.37199,-0.62035,-0.680319,0.262581,-0.684225,0.691549,0.230659,-0.684469,-0.68572,0.135502,-0.71511,0.690878,0.103366,-0.715506,-0.999725,0.023347,0,0.999725,-0.023347,0],
            "bones": [],
            "faces": [42,0,24,1,0,0,1,2,0,1,2,42,24,25,1,0,1,3,2,1,3,2,42,1,25,2,0,2,3,4,2,3,4,42,25,26,2,0,3,5,4,3,5,4,42,2,26,3,0,4,5,6,4,5,6,42,26,27,3,0,5,7,6,5,7,6,42,3,27,4,0,6,7,8,6,7,8,42,27,28,4,0,7,9,8,7,9,8,42,4,28,5,0,8,9,10,8,9,10,42,28,29,5,0,9,11,10,9,11,10,42,5,29,6,0,10,11,12,10,11,12,42,29,30,6,0,11,13,12,11,13,12,42,6,30,7,0,12,13,14,12,13,14,42,30,31,7,0,13,15,14,13,15,14,42,7,31,8,0,14,15,16,14,15,16,42,31,32,8,0,15,17,16,15,17,16,42,8,32,9,0,16,17,18,16,17,18,42,32,33,9,0,17,19,18,17,19,18,42,9,33,10,0,18,19,20,18,19,20,42,33,34,10,0,19,21,20,19,21,20,42,10,34,11,0,20,21,22,20,21,22,42,34,35,11,0,21,23,22,21,23,22,42,11,35,12,0,22,23,24,22,23,24,42,35,36,12,0,23,25,24,23,25,24,42,12,36,13,0,24,25,26,24,25,26,42,36,37,13,0,25,27,26,25,27,26,42,13,37,14,0,26,27,28,26,27,28,42,37,38,14,0,27,29,28,27,29,28,42,14,38,15,0,28,29,30,28,29,30,42,38,39,15,0,29,31,30,29,31,30,42,15,39,16,0,30,31,32,30,31,32,42,39,40,16,0,31,33,32,31,33,32,42,16,40,17,0,32,33,34,32,33,34,42,40,41,17,0,33,35,34,33,35,34,42,17,41,18,0,34,35,36,34,35,36,42,41,42,18,0,35,37,36,35,37,36,42,18,42,19,0,36,37,38,36,37,38,42,42,43,19,0,37,39,38,37,39,38,42,19,43,20,0,38,39,40,38,39,40,42,43,44,20,0,39,41,40,39,41,40,42,20,44,21,0,40,41,42,40,41,42,42,44,45,21,0,41,43,42,41,43,42,42,21,45,22,0,42,43,44,42,43,44,42,45,46,22,0,43,45,44,43,45,44,42,22,46,23,0,44,45,46,44,45,46,42,46,47,23,0,45,47,46,45,47,46,42,24,0,47,0,48,49,47,1,0,47,42,0,23,47,0,49,46,47,0,46,47,42,0,1,48,0,1,3,0,0,2,48,42,1,2,48,0,3,5,0,2,4,48,42,2,3,48,0,5,7,0,4,6,48,42,3,4,48,0,7,9,0,6,8,48,42,4,5,48,0,9,11,0,8,10,48,42,5,6,48,0,11,13,0,10,12,48,42,6,7,48,0,13,15,0,12,14,48,42,7,8,48,0,15,17,0,14,16,48,42,8,9,48,0,17,19,0,16,18,48,42,9,10,48,0,19,21,0,18,20,48,42,10,11,48,0,21,23,0,20,22,48,42,11,12,48,0,23,25,0,22,24,48,42,12,13,48,0,25,27,0,24,26,48,42,13,14,48,0,27,29,0,26,28,48,42,14,15,48,0,29,31,0,28,30,48,42,15,16,48,0,31,33,0,30,32,48,42,16,17,48,0,33,35,0,32,34,48,42,17,18,48,0,35,37,0,34,36,48,42,18,19,48,0,37,39,0,36,38,48,42,19,20,48,0,39,41,0,38,40,48,42,20,21,48,0,41,43,0,40,42,48,42,21,22,48,0,43,45,0,42,44,48,42,22,23,48,0,45,47,0,44,46,48,42,23,0,48,0,47,48,0,46,0,48,42,25,24,49,0,2,0,1,3,1,49,42,26,25,49,0,4,2,1,5,3,49,42,27,26,49,0,6,4,1,7,5,49,42,28,27,49,0,8,6,1,9,7,49,42,29,28,49,0,10,8,1,11,9,49,42,30,29,49,0,12,10,1,13,11,49,42,31,30,49,0,14,12,1,15,13,49,42,32,31,49,0,16,14,1,17,15,49,42,33,32,49,0,18,16,1,19,17,49,42,34,33,49,0,20,18,1,21,19,49,42,35,34,49,0,22,20,1,23,21,49,42,36,35,49,0,24,22,1,25,23,49,42,37,36,49,0,26,24,1,27,25,49,42,38,37,49,0,28,26,1,29,27,49,42,39,38,49,0,30,28,1,31,29,49,42,40,39,49,0,32,30,1,33,31,49,42,41,40,49,0,34,32,1,35,33,49,42,42,41,49,0,36,34,1,37,35,49,42,43,42,49,0,38,36,1,39,37,49,42,44,43,49,0,40,38,1,41,39,49,42,45,44,49,0,42,40,1,43,41,49,42,46,45,49,0,44,42,1,45,43,49,42,47,46,49,0,46,44,1,47,45,49,42,24,47,49,0,49,46,1,1,47,49,42,50,74,51,0,0,1,2,50,51,52,42,74,75,51,0,1,3,2,51,53,52,42,51,75,52,0,2,3,4,52,53,54,42,75,76,52,0,3,5,4,53,55,54,42,52,76,53,0,4,5,6,54,55,56,42,76,77,53,0,5,7,6,55,57,56,42,53,77,54,0,6,7,8,56,57,58,42,77,78,54,0,7,9,8,57,59,58,42,54,78,55,0,8,9,10,58,59,60,42,78,79,55,0,9,11,10,59,61,60,42,55,79,56,0,10,11,12,60,61,62,42,79,80,56,0,11,13,12,61,63,62,42,56,80,57,0,12,13,14,62,63,64,42,80,81,57,0,13,15,14,63,65,64,42,57,81,58,0,14,15,16,64,65,66,42,81,82,58,0,15,17,16,65,67,66,42,58,82,59,0,16,17,18,66,67,68,42,82,83,59,0,17,19,18,67,69,68,42,59,83,60,0,18,19,20,68,69,70,42,83,84,60,0,19,21,20,69,71,70,42,60,84,61,0,20,21,22,70,71,72,42,84,85,61,0,21,23,22,71,73,72,42,61,85,62,0,22,23,24,72,73,74,42,85,86,62,0,23,25,24,73,75,74,42,62,86,63,0,24,25,26,74,75,76,42,86,87,63,0,25,27,26,75,77,76,42,63,87,64,0,26,27,28,76,77,78,42,87,88,64,0,27,29,28,77,79,78,42,64,88,65,0,28,29,30,78,79,80,42,88,89,65,0,29,31,30,79,81,80,42,65,89,66,0,30,31,32,80,81,82,42,89,90,66,0,31,33,32,81,83,82,42,66,90,67,0,32,33,34,82,83,84,42,90,91,67,0,33,35,34,83,85,84,42,67,91,68,0,34,35,36,84,85,86,42,91,92,68,0,35,37,36,85,87,86,42,68,92,69,0,36,37,38,86,87,88,42,92,93,69,0,37,39,38,87,89,88,42,69,93,70,0,38,39,40,88,89,90,42,93,94,70,0,39,41,40,89,91,90,42,70,94,71,0,40,41,42,90,91,92,42,94,95,71,0,41,43,42,91,93,92,42,71,95,72,0,42,43,44,92,93,94,42,95,96,72,0,43,45,44,93,95,94,42,72,96,73,0,44,45,46,94,95,96,42,96,97,73,0,45,47,46,95,97,96,42,73,97,50,0,46,47,49,96,97,50,42,97,74,50,0,47,48,49,97,51,50,42,50,51,98,0,1,3,0,50,52,98,42,51,52,98,0,3,5,0,52,54,98,42,52,53,98,0,5,7,0,54,56,98,42,53,54,98,0,7,9,0,56,58,98,42,54,55,98,0,9,11,0,58,60,98,42,55,56,98,0,11,13,0,60,62,98,42,56,57,98,0,13,15,0,62,64,98,42,57,58,98,0,15,17,0,64,66,98,42,58,59,98,0,17,19,0,66,68,98,42,59,60,98,0,19,21,0,68,70,98,42,60,61,98,0,21,23,0,70,72,98,42,61,62,98,0,23,25,0,72,74,98,42,62,63,98,0,25,27,0,74,76,98,42,63,64,98,0,27,29,0,76,78,98,42,64,65,98,0,29,31,0,78,80,98,42,65,66,98,0,31,33,0,80,82,98,42,66,67,98,0,33,35,0,82,84,98,42,67,68,98,0,35,37,0,84,86,98,42,68,69,98,0,37,39,0,86,88,98,42,69,70,98,0,39,41,0,88,90,98,42,70,71,98,0,41,43,0,90,92,98,42,71,72,98,0,43,45,0,92,94,98,42,72,73,98,0,45,47,0,94,96,98,42,73,50,98,0,47,48,0,96,50,98,42,75,74,99,0,2,0,1,53,51,99,42,76,75,99,0,4,2,1,55,53,99,42,77,76,99,0,6,4,1,57,55,99,42,78,77,99,0,8,6,1,59,57,99,42,79,78,99,0,10,8,1,61,59,99,42,80,79,99,0,12,10,1,63,61,99,42,81,80,99,0,14,12,1,65,63,99,42,82,81,99,0,16,14,1,67,65,99,42,83,82,99,0,18,16,1,69,67,99,42,84,83,99,0,20,18,1,71,69,99,42,85,84,99,0,22,20,1,73,71,99,42,86,85,99,0,24,22,1,75,73,99,42,87,86,99,0,26,24,1,77,75,99,42,88,87,99,0,28,26,1,79,77,99,42,89,88,99,0,30,28,1,81,79,99,42,90,89,99,0,32,30,1,83,81,99,42,91,90,99,0,34,32,1,85,83,99,42,92,91,99,0,36,34,1,87,85,99,42,93,92,99,0,38,36,1,89,87,99,42,94,93,99,0,40,38,1,91,89,99,42,95,94,99,0,42,40,1,93,91,99,42,96,95,99,0,44,42,1,95,93,99,42,97,96,99,0,46,44,1,97,95,99,42,74,97,99,0,49,46,1,51,97,99],
            "metadata": {
                "faces": 192,
                "generator": "io_three",
                "vertices": 100,
                "morphTargets": 0,
                "materials": 1,
                "uvs": 1,
                "normals": 100,
                "bones": 0,
                "version": 3
            },
            "name": "klappeGeometry",
            "uvs": [[0,1,0,0,0.041667,1,0.041667,0,0.083333,1,0.083333,0,0.125,1,0.125,0,0.166667,1,0.166667,0,0.208333,1,0.208333,0,0.25,1,0.25,0,0.291667,1,0.291667,0,0.333333,1,0.333333,0,0.375,1,0.375,0,0.416667,1,0.416667,0,0.458333,1,0.458333,0,0.5,1,0.5,0,0.541667,1,0.541667,0,0.583333,1,0.583333,0,0.625,1,0.625,0,0.666667,1,0.666667,0,0.708333,1,0.708333,0,0.75,1,0.75,0,0.791667,1,0.791667,0,0.833333,1,0.833333,0,0.875,1,0.875,0,0.916667,1,0.916667,0,0.958333,1,0.958333,0,1,0,1,1]],
            "morphTargets": [],
            "skinIndices": [],
            "animations": []
        }
    },{
        "uuid": "1DE15967-D6F1-3ED6-9C6F-81AF78B5FEEA",
        "materials": [{
            "depthTest": true,
            "DbgColor": 15658734,
            "colorSpecular": [0.009961,0.009961,0.009961],
            "DbgIndex": 0,
            "DbgName": "Physical",
            "colorEmissive": [0,0,0],
            "depthWrite": true,
            "colorDiffuse": [0.690196,0.690196,0.690196],
            "opacity": 1,
            "colorAmbient": [0.690196,0.690196,0.690196],
            "shading": "phong",
            "specularCoef": 50,
            "wireframe": false,
            "transparent": false,
            "visible": true,
            "blending": "NormalBlending"
        }],
        "type": "Geometry",
        "data": {
            "skinWeights": [],
            "vertices": [-3.9282,-0.1993,-1.21972,-3.9282,-0.25,-1.53,-3.9282,-0.1993,-1.53,-3.9282,-0.1993,1.53,-3.9282,-0.25,1.53,-3.9282,0.242141,1.4819,-3.9282,0.25,1.4819,-3.9282,0.25,1.53,-3.9282,-0.1993,1.4819,-3.9782,-0.1993,1.21972,-3.9782,-0.25,1.53,-3.9782,-0.1993,1.53,-3.9782,-0.1993,-1.53,-3.9782,-0.25,-1.53,-3.9782,-0.1993,1.4819,-3.9782,0.25,1.53,-3.9782,0.25,1.4819,-3.92899,0.25,1.4819,-3.97313,-0.1993,-1.53,-3.93327,-0.1993,1.53,-3.9782,-0.1993,-1.53,-3.9782,-0.1993,0.7169,-3.9282,-0.1993,-0.8131,-3.9282,-0.1993,-0.8131,-3.9782,-0.1993,0.7169,-3.9282,-0.0743,1.4819,-3.9782,0.1757,1.4819],
            "influencesPerVertex": 2,
            "normals": [1,0,0,0.577349,-0.577349,-0.577349,0.577349,0.577349,-0.577349,0.707083,0,0.707083,0.577349,-0.577349,0.577349,0.577349,0.577349,0.577349,-1,0,0,-0.577349,-0.577349,0.577349,-0.707083,0,0.707083,-0.707083,0,-0.707083,-0.577349,-0.577349,-0.577349,-0.577349,0.577349,-0.577349,-0.577349,0.577349,0.577349,0,1,0,0,0,-1,0,0,0.999969],
            "bones": [],
            "faces": [42,0,1,2,0,0,1,2,0,1,2,42,1,0,3,0,1,0,3,1,0,3,42,1,3,4,0,1,3,4,1,3,4,42,5,6,7,0,5,6,7,0,2,5,42,8,5,7,0,8,5,7,2,0,5,42,8,7,3,0,8,7,3,2,5,3,42,9,10,11,0,0,1,2,6,7,8,42,10,9,12,0,1,0,3,7,6,9,42,10,12,13,0,1,3,4,7,9,10,42,14,11,15,0,9,2,10,11,8,12,42,14,15,16,0,9,10,11,11,12,11,42,10,13,1,0,12,13,7,7,10,1,42,10,1,4,0,12,7,4,7,1,4,42,17,16,15,0,14,15,4,13,11,12,42,17,15,7,0,14,4,12,13,12,5,42,17,7,6,0,14,12,16,13,5,2,42,18,13,12,0,17,12,18,14,10,9,42,13,18,2,0,12,17,3,10,14,2,42,13,2,1,0,12,3,4,10,2,1,42,19,4,3,0,17,12,18,15,4,3,42,4,19,11,0,12,17,3,4,15,8,42,4,11,10,0,12,3,4,4,8,7,42,19,3,7,0,17,18,13,15,3,5,42,19,7,15,0,17,13,7,15,5,12,42,19,15,11,0,17,7,3,15,12,8,42,20,21,22,0,7,19,20,13,13,13,42,20,22,2,0,7,20,13,13,13,2,42,14,8,23,0,15,16,20,11,2,13,42,14,23,24,0,15,20,19,11,13,13,42,6,25,26,0,7,21,22,2,14,14,42,6,26,16,0,7,22,13,2,14,11,42,8,14,26,0,3,18,22,2,11,14,42,8,26,25,0,3,22,21,2,14,14],
            "metadata": {
                "faces": 33,
                "generator": "io_three",
                "vertices": 27,
                "morphTargets": 0,
                "materials": 1,
                "uvs": 1,
                "normals": 16,
                "bones": 0,
                "version": 3
            },
            "name": "halter1.001Geometry",
            "uvs": [[0.1014,0.8986,0,1,0,0.8986,1,0.8986,1,1,0.984281,0.015719,0.984281,0,1,0,0.984281,0.8986,0.015719,0.8986,0,0,0.015719,0,-2e-06,1,-2e-06,0,0.015719,0.984281,1,0.984281,-2e-06,0.984281,0.101402,0.8986,-2e-06,0.8986,1,0.734281,-2e-06,0.234281,1,0.6486,-2e-06,0.1486]],
            "morphTargets": [],
            "skinIndices": [],
            "animations": []
        }
    },{
        "uuid": "5816F39C-FF05-37E5-A165-44758C7EE9BF",
        "materials": [{
            "depthTest": true,
            "DbgColor": 15658734,
            "colorSpecular": [0.012,0.012,0.012],
            "DbgIndex": 0,
            "DbgName": "Physical1",
            "colorEmissive": [0,0,0],
            "depthWrite": true,
            "colorDiffuse": [0.603922,0.584314,0.568627],
            "opacity": 1,
            "colorAmbient": [0.603922,0.584314,0.568627],
            "shading": "phong",
            "specularCoef": 50,
            "wireframe": false,
            "transparent": false,
            "visible": true,
            "blending": "NormalBlending"
        }],
        "type": "Geometry",
        "data": {
            "skinWeights": [],
            "vertices": [-4.0404,-0.0615,-0.0933,-4.0404,-0.097242,-0.09007,-4.0404,-0.1305,-0.08057,-4.0404,-0.159066,-0.065465,-4.0404,-0.181008,-0.0458,-4.0404,-0.194808,-0.022905,-4.0404,-0.1995,0.0017,-4.0404,-0.194808,0.026305,-4.0404,-0.181008,0.0492,-4.0404,-0.159066,0.068865,-4.0404,-0.1305,0.08397,-4.0404,-0.097242,0.09347,-4.0404,-0.0615,0.0967,-4.0404,-0.025758,0.09347,-4.0404,0.0075,0.08397,-4.0404,0.036066,0.068865,-4.0404,0.058008,0.0492,-4.0404,0.071808,0.026305,-4.0404,0.0765,0.0017,-4.0404,0.071808,-0.022905,-4.0404,0.058008,-0.0458,-4.0404,0.036066,-0.065465,-4.0404,0.0075,-0.08057,-4.0404,-0.025758,-0.09007,-4.0184,-0.0615,-0.0933,-4.0184,-0.097242,-0.09007,-4.0184,-0.1305,-0.08057,-4.0184,-0.159066,-0.065465,-4.0184,-0.181008,-0.0458,-4.0184,-0.194808,-0.022905,-4.0184,-0.1995,0.0017,-4.0184,-0.194808,0.026305,-4.0184,-0.181008,0.0492,-4.0184,-0.159066,0.068865,-4.0184,-0.1305,0.08397,-4.0184,-0.097242,0.09347,-4.0184,-0.0615,0.0967,-4.0184,-0.025758,0.09347,-4.0184,0.0075,0.08397,-4.0184,0.036066,0.068865,-4.0184,0.058008,0.0492,-4.0184,0.071808,0.026305,-4.0184,0.0765,0.0017,-4.0184,0.071808,-0.022905,-4.0184,0.058008,-0.0458,-4.0184,0.036066,-0.065465,-4.0184,0.0075,-0.08057,-4.0184,-0.025758,-0.09007,-4.0404,-0.0615,0.0017,-4.0184,-0.0615,0.0017,-4.0397,-0.097536,-0.0833,-4.04053,-0.133268,-0.08041,-4.04131,-0.166517,-0.07191,-4.04197,-0.195075,-0.058395,-4.04249,-0.217012,-0.0408,-4.04281,-0.230808,-0.020315,-4.04292,-0.235498,0.0017,-4.04281,-0.230808,0.023715,-4.04249,-0.217012,0.0442,-4.04197,-0.195075,0.061795,-4.04131,-0.166517,0.07531,-4.04053,-0.133268,0.08381,-4.0397,-0.097536,0.0867,-4.03886,-0.061804,0.08381,-4.03808,-0.028555,0.07531,-4.03742,3e-06,0.061795,-4.03691,0.021939,0.0442,-4.03658,0.035736,0.023715,-4.03647,0.040426,0.0017,-4.03658,0.035736,-0.020315,-4.03691,0.021939,-0.0408,-4.03742,3e-06,-0.058395,-4.03808,-0.028555,-0.07191,-4.03886,-0.061804,-0.08041,-4.0172,-0.098062,-0.0833,-4.01804,-0.133794,-0.08041,-4.01882,-0.167043,-0.07191,-4.01948,-0.195601,-0.058395,-4.01999,-0.217537,-0.0408,-4.02032,-0.231333,-0.020315,-4.02043,-0.236024,0.0017,-4.02032,-0.231333,0.023715,-4.01999,-0.217537,0.0442,-4.01948,-0.195601,0.061795,-4.01882,-0.167043,0.07531,-4.01804,-0.133794,0.08381,-4.0172,-0.098062,0.0867,-4.01637,-0.062329,0.08381,-4.01559,-0.02908,0.07531,-4.01492,-0.000522,0.061795,-4.01441,0.021414,0.0442,-4.01409,0.03521,0.023715,-4.01398,0.039901,0.0017,-4.01409,0.03521,-0.020315,-4.01441,0.021414,-0.0408,-4.01492,-0.000522,-0.058395,-4.01559,-0.02908,-0.07191,-4.01637,-0.062329,-0.08041,-4.03965,-0.097537,0.0017,-4.01715,-0.098063,0.0017],
            "influencesPerVertex": 2,
            "normals": [-0.687399,0,-0.726279,0.687399,0,-0.726279,-0.686544,-0.133152,-0.714743,0.686544,-0.133122,-0.714743,-0.684439,-0.271981,-0.676412,0.684439,-0.271981,-0.676412,-0.680654,-0.418806,-0.601032,0.680654,-0.418806,-0.601032,-0.675192,-0.568285,-0.470229,0.675192,-0.568285,-0.470229,-0.669515,-0.693716,-0.265419,0.669515,-0.693716,-0.265419,-0.667257,-0.744804,0,0.667257,-0.744804,0,-0.669515,-0.693716,0.265419,0.669515,-0.693716,0.265419,-0.675192,-0.568285,0.470229,0.675192,-0.568285,0.470229,-0.680654,-0.418806,0.601032,0.680654,-0.418806,0.601032,-0.684439,-0.271981,0.676412,0.684439,-0.271981,0.676412,-0.686544,-0.133152,0.714743,0.686544,-0.133122,0.714743,-0.687399,0,0.726279,0.687399,0,0.726279,-0.686544,0.133152,0.714743,0.686544,0.133122,0.714743,-0.684439,0.271981,0.676412,0.684439,0.271981,0.676412,-0.680654,0.418806,0.601032,0.680654,0.418806,0.601032,-0.675192,0.568285,0.470229,0.675192,0.568285,0.470229,-0.669515,0.693716,0.265419,0.669515,0.693716,0.265419,-0.667257,0.744804,0,0.667257,0.744804,0,-0.669515,0.693716,-0.265419,0.669515,0.693716,-0.265419,-0.675192,0.568285,-0.470229,0.675192,0.568285,-0.470229,-0.680654,0.418806,-0.601032,0.680654,0.418806,-0.601032,-0.684439,0.271981,-0.676412,0.684439,0.271981,-0.676412,-0.686544,0.133152,-0.714743,0.686544,0.133122,-0.714743,-1,0,0,1,0,0,-0.689444,0.016083,-0.724143,0.689047,-0.016083,-0.724509,-0.691275,-0.103275,-0.71514,0.685324,-0.135594,-0.715476,-0.691977,-0.230628,-0.684042,0.679952,-0.262703,-0.68453,-0.690695,-0.371776,-0.620228,0.672323,-0.403729,-0.620441,-0.687399,-0.527024,-0.499649,0.661794,-0.558794,-0.49971,-0.682607,-0.670247,-0.291147,0.650288,-0.701621,-0.291177,-0.680471,-0.732749,0,0.645222,-0.76397,0,-0.682607,-0.670247,0.291147,0.650319,-0.701621,0.291177,-0.687399,-0.527024,0.49968,0.661794,-0.558794,0.49971,-0.690664,-0.371776,0.620228,0.672323,-0.40376,0.620441,-0.691977,-0.230598,0.684042,0.679952,-0.262703,0.68453,-0.691275,-0.103275,0.71514,0.685324,-0.135594,0.715476,-0.689444,0.016083,0.724143,0.689047,-0.016083,0.724509,-0.68572,0.135502,0.71511,0.690878,0.103366,0.715506,-0.680319,0.262581,0.684225,0.691549,0.230659,0.684469,-0.672658,0.403577,0.620167,0.690481,0.37199,0.62035,-0.662099,0.55858,0.499557,0.687094,0.527299,0.499771,-0.650533,0.701437,0.291086,0.682363,0.670461,0.291208,-0.645497,0.763726,0,0.680227,0.732963,0,-0.650533,0.701437,-0.291116,0.682363,0.670431,-0.291238,-0.662099,0.558611,-0.499557,0.687094,0.527329,-0.499771,-0.672658,0.403577,-0.620167,0.690481,0.37199,-0.62035,-0.680319,0.262581,-0.684225,0.691549,0.230659,-0.684469,-0.68572,0.135502,-0.71511,0.690878,0.103366,-0.715506,-0.999725,0.023347,0,0.999725,-0.023347,0],
            "bones": [],
            "faces": [42,0,24,1,0,0,1,2,0,1,2,42,24,25,1,0,1,3,2,1,3,2,42,1,25,2,0,2,3,4,2,3,4,42,25,26,2,0,3,5,4,3,5,4,42,2,26,3,0,4,5,6,4,5,6,42,26,27,3,0,5,7,6,5,7,6,42,3,27,4,0,6,7,8,6,7,8,42,27,28,4,0,7,9,8,7,9,8,42,4,28,5,0,8,9,10,8,9,10,42,28,29,5,0,9,11,10,9,11,10,42,5,29,6,0,10,11,12,10,11,12,42,29,30,6,0,11,13,12,11,13,12,42,6,30,7,0,12,13,14,12,13,14,42,30,31,7,0,13,15,14,13,15,14,42,7,31,8,0,14,15,16,14,15,16,42,31,32,8,0,15,17,16,15,17,16,42,8,32,9,0,16,17,18,16,17,18,42,32,33,9,0,17,19,18,17,19,18,42,9,33,10,0,18,19,20,18,19,20,42,33,34,10,0,19,21,20,19,21,20,42,10,34,11,0,20,21,22,20,21,22,42,34,35,11,0,21,23,22,21,23,22,42,11,35,12,0,22,23,24,22,23,24,42,35,36,12,0,23,25,24,23,25,24,42,12,36,13,0,24,25,26,24,25,26,42,36,37,13,0,25,27,26,25,27,26,42,13,37,14,0,26,27,28,26,27,28,42,37,38,14,0,27,29,28,27,29,28,42,14,38,15,0,28,29,30,28,29,30,42,38,39,15,0,29,31,30,29,31,30,42,15,39,16,0,30,31,32,30,31,32,42,39,40,16,0,31,33,32,31,33,32,42,16,40,17,0,32,33,34,32,33,34,42,40,41,17,0,33,35,34,33,35,34,42,17,41,18,0,34,35,36,34,35,36,42,41,42,18,0,35,37,36,35,37,36,42,18,42,19,0,36,37,38,36,37,38,42,42,43,19,0,37,39,38,37,39,38,42,19,43,20,0,38,39,40,38,39,40,42,43,44,20,0,39,41,40,39,41,40,42,20,44,21,0,40,41,42,40,41,42,42,44,45,21,0,41,43,42,41,43,42,42,21,45,22,0,42,43,44,42,43,44,42,45,46,22,0,43,45,44,43,45,44,42,22,46,23,0,44,45,46,44,45,46,42,46,47,23,0,45,47,46,45,47,46,42,24,0,47,0,48,49,47,1,0,47,42,0,23,47,0,49,46,47,0,46,47,42,0,1,48,0,1,3,0,0,2,48,42,1,2,48,0,3,5,0,2,4,48,42,2,3,48,0,5,7,0,4,6,48,42,3,4,48,0,7,9,0,6,8,48,42,4,5,48,0,9,11,0,8,10,48,42,5,6,48,0,11,13,0,10,12,48,42,6,7,48,0,13,15,0,12,14,48,42,7,8,48,0,15,17,0,14,16,48,42,8,9,48,0,17,19,0,16,18,48,42,9,10,48,0,19,21,0,18,20,48,42,10,11,48,0,21,23,0,20,22,48,42,11,12,48,0,23,25,0,22,24,48,42,12,13,48,0,25,27,0,24,26,48,42,13,14,48,0,27,29,0,26,28,48,42,14,15,48,0,29,31,0,28,30,48,42,15,16,48,0,31,33,0,30,32,48,42,16,17,48,0,33,35,0,32,34,48,42,17,18,48,0,35,37,0,34,36,48,42,18,19,48,0,37,39,0,36,38,48,42,19,20,48,0,39,41,0,38,40,48,42,20,21,48,0,41,43,0,40,42,48,42,21,22,48,0,43,45,0,42,44,48,42,22,23,48,0,45,47,0,44,46,48,42,23,0,48,0,47,48,0,46,0,48,42,25,24,49,0,2,0,1,3,1,49,42,26,25,49,0,4,2,1,5,3,49,42,27,26,49,0,6,4,1,7,5,49,42,28,27,49,0,8,6,1,9,7,49,42,29,28,49,0,10,8,1,11,9,49,42,30,29,49,0,12,10,1,13,11,49,42,31,30,49,0,14,12,1,15,13,49,42,32,31,49,0,16,14,1,17,15,49,42,33,32,49,0,18,16,1,19,17,49,42,34,33,49,0,20,18,1,21,19,49,42,35,34,49,0,22,20,1,23,21,49,42,36,35,49,0,24,22,1,25,23,49,42,37,36,49,0,26,24,1,27,25,49,42,38,37,49,0,28,26,1,29,27,49,42,39,38,49,0,30,28,1,31,29,49,42,40,39,49,0,32,30,1,33,31,49,42,41,40,49,0,34,32,1,35,33,49,42,42,41,49,0,36,34,1,37,35,49,42,43,42,49,0,38,36,1,39,37,49,42,44,43,49,0,40,38,1,41,39,49,42,45,44,49,0,42,40,1,43,41,49,42,46,45,49,0,44,42,1,45,43,49,42,47,46,49,0,46,44,1,47,45,49,42,24,47,49,0,49,46,1,1,47,49,42,50,74,51,0,0,1,2,50,51,52,42,74,75,51,0,1,3,2,51,53,52,42,51,75,52,0,2,3,4,52,53,54,42,75,76,52,0,3,5,4,53,55,54,42,52,76,53,0,4,5,6,54,55,56,42,76,77,53,0,5,7,6,55,57,56,42,53,77,54,0,6,7,8,56,57,58,42,77,78,54,0,7,9,8,57,59,58,42,54,78,55,0,8,9,10,58,59,60,42,78,79,55,0,9,11,10,59,61,60,42,55,79,56,0,10,11,12,60,61,62,42,79,80,56,0,11,13,12,61,63,62,42,56,80,57,0,12,13,14,62,63,64,42,80,81,57,0,13,15,14,63,65,64,42,57,81,58,0,14,15,16,64,65,66,42,81,82,58,0,15,17,16,65,67,66,42,58,82,59,0,16,17,18,66,67,68,42,82,83,59,0,17,19,18,67,69,68,42,59,83,60,0,18,19,20,68,69,70,42,83,84,60,0,19,21,20,69,71,70,42,60,84,61,0,20,21,22,70,71,72,42,84,85,61,0,21,23,22,71,73,72,42,61,85,62,0,22,23,24,72,73,74,42,85,86,62,0,23,25,24,73,75,74,42,62,86,63,0,24,25,26,74,75,76,42,86,87,63,0,25,27,26,75,77,76,42,63,87,64,0,26,27,28,76,77,78,42,87,88,64,0,27,29,28,77,79,78,42,64,88,65,0,28,29,30,78,79,80,42,88,89,65,0,29,31,30,79,81,80,42,65,89,66,0,30,31,32,80,81,82,42,89,90,66,0,31,33,32,81,83,82,42,66,90,67,0,32,33,34,82,83,84,42,90,91,67,0,33,35,34,83,85,84,42,67,91,68,0,34,35,36,84,85,86,42,91,92,68,0,35,37,36,85,87,86,42,68,92,69,0,36,37,38,86,87,88,42,92,93,69,0,37,39,38,87,89,88,42,69,93,70,0,38,39,40,88,89,90,42,93,94,70,0,39,41,40,89,91,90,42,70,94,71,0,40,41,42,90,91,92,42,94,95,71,0,41,43,42,91,93,92,42,71,95,72,0,42,43,44,92,93,94,42,95,96,72,0,43,45,44,93,95,94,42,72,96,73,0,44,45,46,94,95,96,42,96,97,73,0,45,47,46,95,97,96,42,73,97,50,0,46,47,49,96,97,50,42,97,74,50,0,47,48,49,97,51,50,42,50,51,98,0,1,3,0,50,52,98,42,51,52,98,0,3,5,0,52,54,98,42,52,53,98,0,5,7,0,54,56,98,42,53,54,98,0,7,9,0,56,58,98,42,54,55,98,0,9,11,0,58,60,98,42,55,56,98,0,11,13,0,60,62,98,42,56,57,98,0,13,15,0,62,64,98,42,57,58,98,0,15,17,0,64,66,98,42,58,59,98,0,17,19,0,66,68,98,42,59,60,98,0,19,21,0,68,70,98,42,60,61,98,0,21,23,0,70,72,98,42,61,62,98,0,23,25,0,72,74,98,42,62,63,98,0,25,27,0,74,76,98,42,63,64,98,0,27,29,0,76,78,98,42,64,65,98,0,29,31,0,78,80,98,42,65,66,98,0,31,33,0,80,82,98,42,66,67,98,0,33,35,0,82,84,98,42,67,68,98,0,35,37,0,84,86,98,42,68,69,98,0,37,39,0,86,88,98,42,69,70,98,0,39,41,0,88,90,98,42,70,71,98,0,41,43,0,90,92,98,42,71,72,98,0,43,45,0,92,94,98,42,72,73,98,0,45,47,0,94,96,98,42,73,50,98,0,47,48,0,96,50,98,42,75,74,99,0,2,0,1,53,51,99,42,76,75,99,0,4,2,1,55,53,99,42,77,76,99,0,6,4,1,57,55,99,42,78,77,99,0,8,6,1,59,57,99,42,79,78,99,0,10,8,1,61,59,99,42,80,79,99,0,12,10,1,63,61,99,42,81,80,99,0,14,12,1,65,63,99,42,82,81,99,0,16,14,1,67,65,99,42,83,82,99,0,18,16,1,69,67,99,42,84,83,99,0,20,18,1,71,69,99,42,85,84,99,0,22,20,1,73,71,99,42,86,85,99,0,24,22,1,75,73,99,42,87,86,99,0,26,24,1,77,75,99,42,88,87,99,0,28,26,1,79,77,99,42,89,88,99,0,30,28,1,81,79,99,42,90,89,99,0,32,30,1,83,81,99,42,91,90,99,0,34,32,1,85,83,99,42,92,91,99,0,36,34,1,87,85,99,42,93,92,99,0,38,36,1,89,87,99,42,94,93,99,0,40,38,1,91,89,99,42,95,94,99,0,42,40,1,93,91,99,42,96,95,99,0,44,42,1,95,93,99,42,97,96,99,0,46,44,1,97,95,99,42,74,97,99,0,49,46,1,51,97,99],
            "metadata": {
                "faces": 192,
                "generator": "io_three",
                "vertices": 100,
                "morphTargets": 0,
                "materials": 1,
                "uvs": 1,
                "normals": 100,
                "bones": 0,
                "version": 3
            },
            "name": "klappe1Geometry",
            "uvs": [[0,1,0,0,0.041667,1,0.041667,0,0.083333,1,0.083333,0,0.125,1,0.125,0,0.166667,1,0.166667,0,0.208333,1,0.208333,0,0.25,1,0.25,0,0.291667,1,0.291667,0,0.333333,1,0.333333,0,0.375,1,0.375,0,0.416667,1,0.416667,0,0.458333,1,0.458333,0,0.5,1,0.5,0,0.541667,1,0.541667,0,0.583333,1,0.583333,0,0.625,1,0.625,0,0.666667,1,0.666667,0,0.708333,1,0.708333,0,0.75,1,0.75,0,0.791667,1,0.791667,0,0.833333,1,0.833333,0,0.875,1,0.875,0,0.916667,1,0.916667,0,0.958333,1,0.958333,0,1,0,1,1]],
            "morphTargets": [],
            "skinIndices": [],
            "animations": []
        }
    },{
        "uuid": "06F86342-7528-3807-B194-35D5635B475B",
        "materials": [{
            "depthTest": true,
            "DbgColor": 15658734,
            "colorSpecular": [0.5,0.5,0.5],
            "DbgIndex": 0,
            "DbgName": "halter1Default",
            "colorEmissive": [0,0,0],
            "depthWrite": true,
            "colorDiffuse": [0.690196,0.690196,0.690196],
            "opacity": 1,
            "colorAmbient": [0.690196,0.690196,0.690196],
            "shading": "phong",
            "specularCoef": 50,
            "wireframe": false,
            "transparent": false,
            "visible": true,
            "blending": "NormalBlending"
        }],
        "type": "Geometry",
        "data": {
            "skinWeights": [],
            "vertices": [-4.0655,-0.1242,-0.3036,-4.0555,-0.1242,-0.3036,-4.0555,-0.119991,-0.247214,-4.0655,-0.119991,-0.247214,-4.0555,-0.107571,-0.1947,-4.0655,-0.107571,-0.1947,-4.05887,-0.099807,0,-4.0669,-0.1026,-0.0453,-4.0569,-0.1026,-0.0453,-4.0569,-0.099807,0,-4.0669,-0.099807,0,-4.0569,-0.092993,-0.133061,-4.0569,-0.099123,-0.101686,-4.06288,-0.092993,-0.133061,-4.0669,-0.099123,-0.101686,-4.0669,-0.092993,-0.133061,-4.0669,-0.079635,0,-4.0669,-0.063671,-0.009081,-4.0669,-0.072237,-0.0453,-4.0669,-0.079635,0,-4.0669,-0.061523,0,-4.0669,-0.063671,-0.009081,-4.0669,-0.083466,-0.09278,-4.0569,-0.079635,0,-4.0569,-0.072237,-0.0453,-4.0569,-0.063671,-0.009081,-4.0569,-0.079635,0,-4.0569,-0.063671,-0.009081,-4.0569,-0.061523,0,-4.0569,-0.083466,-0.09278,-4.0569,-0.061523,0,-4.0669,-0.061523,0,-4.0555,-0.087837,-0.149567,-4.0655,-0.087837,-0.149567,-4.0569,-0.089172,-0.15262,-4.0666,-0.089172,-0.15262,-4.0669,-0.089172,-0.15262,-4.0669,-0.033832,-0.026055,-4.0669,-0.042247,-0.0453,-4.0669,-0.036965,0,-4.0669,-0.027508,-0.01159,-4.0669,-0.033832,-0.026055,-4.0669,-0.02244,0,-4.0669,-0.056234,-0.077289,-4.0669,-0.056234,-0.077289,-4.0569,-0.042247,-0.0453,-4.0569,-0.033832,-0.026055,-4.0569,-0.033832,-0.026055,-4.0569,-0.027508,-0.01159,-4.0569,-0.036965,0,-4.0569,-0.02244,0,-4.0569,-0.056234,-0.077289,-4.0569,-0.056234,-0.077289,-4.0669,-0.02244,0,-4.0555,-0.0621,-0.114961,-4.0655,-0.0621,-0.114961,-4.0669,-0.007232,-0.041186,-4.0669,-0.010292,-0.0453,-4.0669,-0.005385,-0.038701,-4.0669,-0.007232,-0.041186,-4.0669,-0.02134,0,-4.0669,-0.003991,-0.036828,-4.0669,-0.005385,-0.038701,-4.0669,-0.012319,0,-4.0669,-0.002756,-0.035167,-4.0669,-0.003991,-0.036828,-4.0669,-0.02134,0,-4.0669,-0.005718,0,-4.0669,-0.001493,-0.033469,-4.0669,-0.002756,-0.035167,-4.0669,-0.012319,0,-4.0669,0,0,-4.0669,0,-0.031461,-4.0669,-0.001493,-0.033469,-4.0669,-0.005718,0,-4.0669,0.005718,0,-4.0669,0.002104,-0.028632,-4.0669,0.012319,0,-4.0669,0.005933,-0.023484,-4.0669,0.002104,-0.028632,-4.0669,0.012319,0,-4.0669,0.02134,0,-4.0669,0.017783,-0.00755,-4.0669,0.005933,-0.023484,-4.0669,0.02134,0,-4.0669,0.023398,0,-4.0669,0.017783,-0.00755,-4.0669,-0.087837,-0.149567,-4.0669,-0.017839,-0.055448,-4.0669,-0.010292,-0.0453,-4.0669,-0.017839,-0.055448,-4.0569,-0.010292,-0.0453,-4.0569,-0.007232,-0.041186,-4.0569,-0.007232,-0.041186,-4.0569,-0.005385,-0.038701,-4.0569,-0.02244,0,-4.0569,-0.005385,-0.038701,-4.0569,-0.003991,-0.036828,-4.0569,-0.02134,0,-4.0569,-0.02134,0,-4.0569,-0.003991,-0.036828,-4.0569,-0.002756,-0.035167,-4.0569,-0.012319,0,-4.0569,-0.012319,0,-4.0569,-0.002756,-0.035167,-4.0569,-0.001493,-0.033469,-4.0569,-0.005718,0,-4.0569,-0.005718,0,-4.0569,-0.001493,-0.033469,-4.0569,0,-0.031461,-4.0569,0,0,-4.0569,0.002104,-0.028632,-4.0569,0.005718,0,-4.0569,0.012319,0,-4.0569,0.002104,-0.028632,-4.0569,0.005933,-0.023484,-4.0569,0.02134,0,-4.0569,0.012319,0,-4.0569,0.005933,-0.023484,-4.0569,0.017783,-0.00755,-4.0569,0.023398,0,-4.0569,0.02134,0,-4.0569,0.017783,-0.00755,-4.0569,-0.017839,-0.055448,-4.0569,-0.087837,-0.149567,-4.0569,-0.017839,-0.055448,-4.0569,-0.010292,-0.0453,-4.0669,-0.012001,0,-4.0569,0.013,0,-4.0669,0.023398,0,-4.0569,0.013,0,-4.0669,-0.012001,0,-4.0555,-0.032154,-0.093181,-4.0655,-0.032154,-0.093181,-4.0669,0,-0.0453,-4.0669,0.036965,0,-4.0669,0.079635,0,-4.0669,0.095963,0,-4.0669,0.033679,-0.0453,-4.0669,0.018898,-0.05605,-4.0669,0.012544,-0.060672,-4.0669,0.018898,-0.05605,-4.0669,0.008594,-0.063544,-4.0669,0.012544,-0.060672,-4.0669,0.005561,-0.06575,-4.0669,0.008594,-0.063544,-4.0669,0.002832,-0.067735,-4.0669,0.005561,-0.06575,-4.0669,0,-0.069795,-4.0669,0.002832,-0.067735,-4.0669,-0.003405,-0.072271,-4.0669,0,-0.069795,-4.0669,-0.008304,-0.075835,-4.0669,-0.003405,-0.072271,-4.0669,-0.017553,-0.082562,-4.0669,-0.008304,-0.075835,-4.0669,-0.04917,-0.105557,-4.0669,-0.017553,-0.082562,-4.0669,-0.0621,-0.114961,-4.0569,0,-0.0453,-4.0569,0.036965,0,-4.0569,0.023398,0,-4.0569,0.079635,0,-4.0569,0.095963,0,-4.0569,0.033679,-0.0453,-4.0569,0.018898,-0.05605,-4.0569,0.018898,-0.05605,-4.0569,0.012544,-0.060672,-4.0569,0.012544,-0.060672,-4.0569,0.008594,-0.063544,-4.0569,0.008594,-0.063544,-4.0569,0.005561,-0.06575,-4.0569,0.005561,-0.06575,-4.0569,0.002832,-0.067735,-4.0569,0.002832,-0.067735,-4.0569,0,-0.069795,-4.0569,0,-0.069795,-4.0569,-0.003405,-0.072271,-4.0569,-0.003405,-0.072271,-4.0569,-0.008304,-0.075835,-4.0569,-0.008304,-0.075835,-4.0569,-0.017553,-0.082562,-4.0569,-0.017553,-0.082562,-4.0569,-0.04917,-0.105557,-4.0569,-0.0621,-0.114961,-4.0669,0.095963,0,-4.0555,0,-0.0858,-4.0655,0,-0.0858,-4.0569,0.099807,0,-4.0569,0.1026,-0.0453,-4.06493,0.099807,0,-4.0669,0.1026,-0.0453,-4.0669,0.099807,0,-4.0569,0.10154,-0.062491,-4.06385,0.10154,-0.062491,-4.0669,0.10154,-0.062491,-4.0669,0.050726,-0.074156,-4.0669,0.027834,-0.079411,-4.0669,0.050726,-0.074156,-4.0669,0.017217,-0.081848,-4.0669,0.027834,-0.079411,-4.0669,0.010367,-0.08342,-4.0669,0.017217,-0.081848,-4.0669,0.004968,-0.084659,-4.0669,0.010367,-0.08342,-4.0669,0,-0.0858,-4.0669,-0.005265,-0.087009,-4.0669,-0.011747,-0.088497,-4.0669,-0.021392,-0.090711,-4.0669,-0.011747,-0.088497,-4.0669,-0.032154,-0.093181,-4.0669,-0.021392,-0.090711,-4.0569,0.095963,0,-4.0569,0.050726,-0.074156,-4.0569,0.050726,-0.074156,-4.0569,0.027834,-0.079411,-4.0569,0.027834,-0.079411,-4.0569,0.017217,-0.081848,-4.0569,0.017217,-0.081848,-4.0569,0.010367,-0.08342,-4.0569,0.010367,-0.08342,-4.0569,0.004968,-0.084659,-4.0569,0,-0.0858,-4.0569,-0.005265,-0.087009,-4.0569,-0.011747,-0.088497,-4.0569,-0.011747,-0.088497,-4.0569,-0.021392,-0.090711,-4.0569,-0.021392,-0.090711,-4.0569,-0.032154,-0.093181,-4.0569,0.099807,0,-4.0669,0.099807,0,-4.0555,0.032154,-0.093181,-4.0655,0.032154,-0.093181,-4.0569,0.099123,-0.101686,-4.0669,0.099123,-0.101686,-4.0569,0.097839,-0.108259,-4.06565,0.097839,-0.108259,-4.06565,0.097839,-0.108259,-4.0669,0.097839,-0.108259,-4.0669,0.097839,-0.108259,-4.0669,0.040665,-0.095135,-4.0669,0.021392,-0.090711,-4.0669,0.040665,-0.095135,-4.0669,0.011747,-0.088497,-4.0669,0.021392,-0.090711,-4.0669,0.005265,-0.087009,-4.0669,0.011747,-0.088497,-4.0669,0.005265,-0.087009,-4.0569,0.097839,-0.108259,-4.0569,0.040665,-0.095135,-4.0569,0.040665,-0.095135,-4.0569,0.021392,-0.090711,-4.0569,0.021392,-0.090711,-4.0569,0.011747,-0.088497,-4.0569,0.011747,-0.088497,-4.0569,0.005265,-0.087009,-4.0569,0.005265,-0.087009,-4.0555,0.0621,-0.114961,-4.0655,0.0621,-0.114961,-4.0569,0.092246,-0.136886,-4.0602,0.092246,-0.136886,-4.0602,0.092246,-0.136886,-4.0669,0.092246,-0.136886,-4.0669,0.092246,-0.136886,-4.0669,0.04917,-0.105557,-4.0669,0.032154,-0.093181,-4.0669,0.04917,-0.105557,-4.0569,0.092246,-0.136886,-4.0569,0.04917,-0.105557,-4.0569,0.04917,-0.105557,-4.0569,0.032154,-0.093181,-4.0555,0.087837,-0.149567,-4.0655,0.087837,-0.149567,-4.0569,0.089366,-0.151623,-4.05739,0.089366,-0.151623,-4.05739,0.089366,-0.151623,-4.0669,0.089366,-0.151623,-4.0669,0.089366,-0.151623,-4.0669,0.0621,-0.114961,-4.0569,0.089366,-0.151623,-4.0569,0.0621,-0.114961,-4.0555,0.107571,-0.1947,-4.0655,0.107571,-0.1947,-4.0569,0.089172,-0.15262,-4.0572,0.089172,-0.15262,-4.0572,0.089172,-0.15262,-4.0669,0.089172,-0.15262,-4.0669,0.089172,-0.15262,-4.0669,0.087837,-0.149567,-4.0569,0.089172,-0.15262,-4.0569,0.087837,-0.149567,-4.0555,0.119991,-0.247214,-4.0655,0.119991,-0.247214,-4.0555,0.1242,-0.3036,-4.0655,0.1242,-0.3036,-4.0555,0.119991,-0.359986,-4.0655,0.119991,-0.359986,-4.0555,0.107571,-0.4125,-4.0655,0.107571,-0.4125,-4.0555,0.087837,-0.457633,-4.0655,0.087837,-0.457633,-4.0555,0.0621,-0.492239,-4.0655,0.0621,-0.492239,-4.0555,0.032154,-0.514019,-4.0655,0.032154,-0.514019,-4.0555,0,-0.5214,-4.0655,0,-0.5214,-4.0555,-0.032154,-0.514019,-4.0655,-0.032154,-0.514019,-4.0555,-0.0621,-0.492239,-4.0655,-0.0621,-0.492239,-4.0555,-0.087837,-0.457633,-4.0655,-0.087837,-0.457633,-4.0555,-0.107571,-0.4125,-4.0655,-0.107571,-0.4125,-4.0555,-0.119991,-0.359986,-4.0655,-0.119991,-0.359986,-4.0655,0,-0.3036,-4.0655,0.088863,-0.1542,-4.0669,0.088863,-0.1542,-4.0655,0.089172,-0.15262,-4.0655,0.086581,-0.160518,-4.0655,0.072561,-0.199333,-4.0669,0.072561,-0.199333,-4.0655,0.069585,-0.204178,-4.0655,0.0513,-0.233939,-4.0669,0.0513,-0.233939,-4.0655,0.047837,-0.236988,-4.0655,0.026562,-0.255719,-4.0669,0.026562,-0.255719,-4.0655,0.022843,-0.256752,-4.0655,0,-0.2631,-4.0669,0,-0.2631,-4.0655,-0.003719,-0.262067,-4.0655,-0.003719,-0.262067,-4.0655,-0.026562,-0.255719,-4.0669,-0.026562,-0.255719,-4.0655,-0.030025,-0.25267,-4.0655,-0.0513,-0.233939,-4.0669,-0.0513,-0.233939,-4.0655,-0.054276,-0.229094,-4.0655,-0.072561,-0.199333,-4.0669,-0.072561,-0.199333,-4.0655,-0.074843,-0.193015,-4.0655,-0.088863,-0.1542,-4.0669,-0.088863,-0.1542,-4.0655,-0.089172,-0.15262,-4.0555,0,-0.3036,-4.0569,0.088863,-0.1542,-4.0569,0.072561,-0.199333,-4.0569,0.0513,-0.233939,-4.0569,0.026562,-0.255719,-4.0569,0,-0.2631,-4.0569,-0.026562,-0.255719,-4.0569,-0.0513,-0.233939,-4.0569,-0.072561,-0.199333,-4.0569,-0.088863,-0.1542],
            "influencesPerVertex": 2,
            "normals": [-0.690725,-0.723106,0,0.690725,-0.723106,0,0.689779,-0.715476,0.110599,-0.689779,-0.715476,0.110599,0.687429,-0.688864,0.229957,-0.687429,-0.688864,0.229957,0,-0.998077,0.061525,-0.693503,-0.72042,0,0.693503,-0.72042,0,0.580645,-0.557665,0.593127,-0.580645,-0.557665,0.593127,0.707083,-0.69396,-0.135563,0.692618,-0.715445,-0.091525,0,-0.981414,-0.191748,-0.692618,-0.715445,-0.091525,-0.707083,-0.69396,-0.135563,-1,0,0,-0.999969,0,0,1,0,0,0.999969,0,0,0.497757,0,0.867306,0,0,0.999969,0.682424,-0.63216,0.366863,-0.682424,-0.63216,0.366863,0.707175,-0.693869,-0.135594,0,-0.981445,-0.191717,-0.707266,-0.693808,-0.135533,0.345988,0,0.9382,0,0,1,0.674703,-0.51912,0.524644,-0.674703,-0.519089,0.524674,-1,0.000183,0,-1,6.1e-05,0,-1,-9.2e-05,0,-1,-3.1e-05,0,-1,-0.000153,0,-0.999969,0.000214,0,-1,-6.1e-05,0,-1,3.1e-05,0,-0.999969,3.1e-05,0,1,-6.1e-05,0,1,-9.2e-05,0,1,9.2e-05,0,1,0.000153,0,0.999969,-0.000275,0,1,-3.1e-05,0,1,0.000122,0,0.284219,0,0.958739,0.664663,-0.309549,0.679952,-0.664693,-0.309549,0.679952,0.196265,0,0.980529,1,3.1e-05,0,0.999969,-3.1e-05,0,0.999969,-6.1e-05,0,-0.624592,0,0.780908,0.660024,0,0.751213,-0.660024,0,0.751213,0.720542,0.692068,0.042665,0.693503,0.72042,0,0,0.998077,0.061525,-0.693503,0.72042,0,-0.720542,0.692068,0.042665,0.707083,0.705741,-0.043519,0,0.998077,-0.061525,-0.707083,0.705741,-0.043489,0.664693,0.309549,0.679952,-0.664693,0.309549,0.679952,0.692618,0.715445,-0.091525,-0.692618,0.715445,-0.091525,0,0.981414,-0.191748,0,0.981414,-0.191717,0,0.981414,-0.191809,0.674703,0.519089,0.524674,-0.674703,0.519089,0.524674,0,0.981445,-0.191717,0.682455,0.63216,0.366863,-0.682424,0.63216,0.366863,0,0.981384,-0.191931,0,0.981384,-0.192022,0.687429,0.688864,0.229957,-0.687399,0.688864,0.229957,0,0.981536,-0.191137,0,0.981506,-0.19129,0.999969,-0.000977,0,0.689779,0.715476,0.110599,-0.689779,0.715476,0.110599,0.690725,0.723106,0,-0.690725,0.723106,0,0.689779,0.715476,-0.110599,-0.689779,0.715476,-0.110599,0.687429,0.688864,-0.229957,-0.687429,0.688864,-0.229957,0.682424,0.63216,-0.366863,-0.682424,0.63216,-0.366863,0.674703,0.519089,-0.524644,-0.674703,0.519089,-0.524644,0.664663,0.309549,-0.679952,-0.664693,0.309549,-0.679952,0.660024,0,-0.751213,-0.660024,0,-0.751213,0.664693,-0.309549,-0.679952,-0.664693,-0.309549,-0.679952,0.674703,-0.519089,-0.524674,-0.674703,-0.519089,-0.524674,0.682424,-0.63216,-0.366863,-0.682424,-0.63216,-0.366863,0.687429,-0.688864,-0.229957,-0.687399,-0.688864,-0.229957,0.689779,-0.715476,-0.110599,-0.689779,-0.715476,-0.110599,0,0.963805,-0.266488,-0.690207,0.697409,-0.192846,0,0.940519,-0.339671,0,0.900967,-0.433821,-0.684835,0.656514,-0.316111,0,0.852046,-0.523423,0,0.764916,-0.644124,-0.675161,0.564257,-0.475112,0,0.660848,-0.750511,0,0.476272,-0.879269,-0.660054,0.357768,-0.660512,0,0.267678,-0.9635,0,0,-1,-0.651509,3.1e-05,-0.758629,0,-0.267678,-0.9635,0,-0.476272,-0.879269,-0.660054,-0.357768,-0.660512,0,-0.660817,-0.750511,0,-0.764885,-0.644124,-0.675161,-0.564226,-0.475143,0,-0.852046,-0.523423,0,-0.900967,-0.433821,-0.684835,-0.656545,-0.31608,0,-0.940519,-0.339671,0,-0.963805,-0.266518,-0.690237,-0.697378,-0.192846,0.690268,0.697348,-0.192846,0.684835,0.656514,-0.316141,0.675161,0.564196,-0.475173,0.660085,0.357799,-0.660482,0.651509,0,-0.758629,0.660085,-0.357799,-0.660482,0.675161,-0.564226,-0.475143,0.684835,-0.656514,-0.316141,0.690268,-0.697348,-0.192846],
            "bones": [],
            "faces": [42,0,1,2,0,0,1,2,0,1,2,42,0,2,3,0,0,2,3,0,2,3,42,3,2,4,0,3,2,4,3,2,4,42,3,4,5,0,3,4,5,3,4,5,42,6,7,8,0,6,0,1,6,7,8,42,6,8,9,0,6,1,7,6,8,9,42,10,7,6,0,8,0,6,10,7,6,42,11,12,13,0,9,10,11,11,12,13,42,13,12,14,0,11,10,12,13,12,14,42,13,14,15,0,11,12,13,13,14,15,42,14,12,8,0,12,10,14,14,12,8,42,14,8,7,0,12,14,15,14,8,7,42,7,10,16,0,1,7,6,7,10,16,42,7,16,17,0,1,6,16,7,16,17,42,7,17,18,0,1,16,17,7,17,16,42,19,20,21,0,6,18,16,16,17,16,42,15,14,22,0,9,10,19,15,14,16,42,14,7,18,0,10,14,20,14,7,16,42,14,18,22,0,10,20,19,14,16,16,42,23,9,8,0,21,8,0,18,9,8,42,23,8,24,0,21,0,22,18,8,18,42,23,24,25,0,21,22,23,18,18,18,42,26,27,28,0,21,23,24,18,18,18,42,12,11,29,0,12,13,25,12,11,19,42,8,12,29,0,15,12,25,8,12,19,42,8,29,24,0,15,25,26,8,19,18,42,10,9,30,0,27,28,29,10,9,20,42,10,30,31,0,27,29,30,10,20,21,42,5,4,32,0,5,4,31,5,4,22,42,5,32,33,0,5,31,32,5,22,23,42,34,11,13,0,33,9,11,24,11,13,42,34,13,35,0,33,11,34,24,13,25,42,35,13,15,0,34,11,13,25,13,15,42,35,15,36,0,34,13,35,25,15,26,42,17,37,38,0,16,36,37,17,16,16,42,17,38,18,0,16,37,17,17,16,16,42,20,39,40,0,18,38,39,17,16,17,42,20,40,41,0,18,39,36,17,17,16,42,20,41,21,0,18,36,16,17,16,16,42,42,40,39,0,40,39,38,16,17,16,42,36,15,22,0,33,9,19,26,15,16,42,36,22,43,0,33,19,41,26,16,17,42,18,38,44,0,20,42,41,16,16,16,42,18,44,22,0,20,41,19,16,16,16,42,24,45,46,0,22,43,44,18,18,18,42,24,46,25,0,22,44,23,18,18,18,42,30,27,47,0,24,23,44,20,18,18,42,30,47,48,0,24,44,45,20,18,18,42,30,48,49,0,24,45,46,20,18,18,42,49,48,50,0,46,45,47,18,18,27,42,11,34,51,0,13,35,48,11,24,19,42,11,51,29,0,13,48,25,11,19,19,42,29,52,45,0,25,48,49,19,18,18,42,29,45,24,0,25,49,26,19,18,18,42,31,30,50,0,30,29,50,21,20,27,42,31,50,53,0,30,50,51,21,27,28,42,33,32,54,0,32,31,52,23,22,29,42,33,54,55,0,32,52,53,23,29,30,42,37,56,57,0,36,54,55,16,16,16,42,37,57,38,0,36,55,37,16,16,16,42,40,58,59,0,39,56,54,17,16,16,42,40,59,41,0,39,54,36,17,16,16,42,42,60,61,0,40,57,58,16,16,16,42,42,61,62,0,40,58,56,16,16,16,42,42,62,40,0,40,56,39,16,16,17,42,63,64,65,0,59,60,58,16,31,32,42,63,65,66,0,59,58,57,16,32,16,42,67,68,69,0,61,62,60,16,33,34,42,67,69,70,0,61,60,59,16,34,16,42,71,72,73,0,63,64,62,16,35,36,42,71,73,74,0,63,62,61,16,36,16,42,75,76,72,0,65,66,64,16,34,35,42,75,72,71,0,65,64,63,16,35,16,42,77,78,79,0,67,68,66,16,37,36,42,77,79,75,0,67,66,65,16,36,16,42,80,81,82,0,67,69,70,38,16,39,42,80,82,83,0,67,70,68,38,39,32,42,84,85,86,0,69,71,70,16,17,16,42,87,43,88,0,72,41,73,38,17,16,42,38,89,90,0,42,74,73,16,16,16,42,38,90,44,0,42,73,41,16,16,16,42,45,91,92,0,43,75,76,18,18,18,42,45,92,46,0,43,76,44,18,18,18,42,47,93,94,0,44,76,77,18,18,18,42,47,94,48,0,44,77,45,18,18,18,42,95,48,96,0,47,45,77,18,18,40,42,95,96,97,0,47,77,78,18,40,41,42,95,97,98,0,47,78,79,18,41,18,42,99,100,101,0,79,78,80,18,42,43,42,99,101,102,0,79,80,81,18,43,19,42,103,104,105,0,81,80,82,18,44,45,42,103,105,106,0,81,82,83,18,45,18,42,107,108,109,0,83,82,84,18,18,18,42,107,109,110,0,83,84,85,18,18,19,42,110,109,111,0,85,84,86,19,18,46,42,110,111,112,0,85,86,87,19,46,18,42,113,112,114,0,88,87,86,18,18,18,42,113,114,115,0,88,86,89,18,18,41,42,116,117,118,0,90,88,89,18,19,18,42,116,118,119,0,90,89,91,18,18,18,42,120,121,122,0,92,90,91,47,18,45,42,123,51,124,0,93,48,94,19,19,19,42,52,125,126,0,48,93,95,18,18,18,42,52,126,45,0,48,95,49,18,18,18,42,127,128,120,0,96,97,98,28,28,47,42,127,120,129,0,96,98,99,28,47,21,42,53,50,130,0,51,50,97,28,27,28,42,53,130,131,0,51,97,96,28,28,28,42,55,54,132,0,53,52,100,30,29,48,42,55,132,133,0,53,100,101,30,48,49,42,56,134,57,0,54,0,55,16,16,16,42,58,134,59,0,56,0,54,16,16,16,42,61,134,62,0,58,0,56,16,16,16,42,64,134,65,0,60,0,58,31,16,32,42,68,134,69,0,62,0,60,33,16,34,42,72,134,73,0,64,0,62,35,16,36,42,76,134,72,0,66,0,64,34,16,35,42,78,134,79,0,68,0,66,37,16,36,42,82,134,83,0,70,0,68,39,16,32,42,85,135,134,0,71,102,0,17,16,16,42,85,134,86,0,71,0,70,17,16,16,42,135,136,134,0,102,103,0,16,16,16,42,136,137,138,0,103,104,105,16,16,16,42,136,138,134,0,103,105,0,16,16,16,42,139,134,138,0,106,0,105,16,16,16,42,140,134,141,0,107,0,106,34,16,16,42,142,134,143,0,108,0,107,16,16,16,42,144,134,145,0,109,0,108,34,16,16,42,146,134,147,0,110,0,109,16,16,16,42,148,134,149,0,111,0,110,35,16,35,42,150,134,151,0,112,0,111,32,16,17,42,152,134,153,0,113,0,112,33,16,32,42,154,134,155,0,114,0,113,16,16,34,42,156,134,157,0,115,0,114,16,16,39,42,158,88,134,0,116,73,0,16,16,16,42,158,134,156,0,116,0,115,16,16,16,42,89,134,90,0,74,0,73,16,16,16,42,91,159,92,0,75,1,76,18,18,18,42,93,159,94,0,76,1,77,18,18,18,42,96,159,97,0,77,1,78,40,18,41,42,100,159,101,0,78,1,80,42,18,43,42,104,159,105,0,80,1,82,44,18,45,42,108,159,109,0,82,1,84,18,18,18,42,109,159,111,0,84,1,86,18,18,46,42,114,159,115,0,86,1,89,18,18,41,42,118,159,119,0,89,1,91,18,18,18,42,160,161,122,0,117,92,91,18,19,45,42,160,122,159,0,117,91,1,18,45,18,42,162,160,159,0,118,117,1,18,18,18,42,163,162,159,0,119,118,1,50,18,18,42,163,159,164,0,119,1,120,50,18,18,42,164,159,165,0,120,1,121,18,18,18,42,166,159,167,0,121,1,122,18,18,18,42,168,159,169,0,122,1,123,45,18,18,42,170,159,171,0,123,1,124,46,18,42,42,172,159,173,0,124,1,125,18,18,18,42,174,159,175,0,125,1,126,18,18,51,42,176,159,177,0,126,1,127,18,18,52,42,178,159,179,0,127,1,128,18,18,18,42,180,159,181,0,128,1,129,18,18,18,42,182,159,183,0,129,1,130,19,18,19,42,183,159,123,0,130,1,93,19,18,19,42,183,123,184,0,130,93,131,19,19,53,42,125,159,126,0,93,1,95,18,18,18,42,129,120,163,0,99,98,132,21,47,50,42,129,163,185,0,99,132,133,21,50,54,42,133,132,186,0,101,100,134,49,48,55,42,133,186,187,0,101,134,135,49,55,56,42,188,189,190,0,136,137,138,57,58,59,42,190,189,191,0,138,137,139,59,58,60,42,190,191,192,0,138,139,140,59,60,61,42,191,189,193,0,139,137,141,60,58,62,42,191,193,194,0,139,141,142,60,62,63,42,191,194,195,0,139,142,143,60,63,64,42,185,192,191,0,104,136,137,54,61,60,42,185,191,138,0,104,137,105,54,60,16,42,191,195,196,0,137,141,144,60,64,16,42,191,196,139,0,137,144,106,60,16,16,42,191,139,138,0,137,106,105,60,16,16,42,197,140,141,0,145,107,106,16,34,16,42,197,141,198,0,145,106,144,16,16,16,42,199,142,143,0,146,108,107,17,16,16,42,199,143,200,0,146,107,145,17,16,16,42,201,144,145,0,147,109,108,38,34,16,42,201,145,202,0,147,108,146,38,16,38,42,203,146,147,0,148,110,109,16,16,16,42,203,147,204,0,148,109,147,16,16,17,42,205,148,149,0,149,111,110,16,35,35,42,205,149,203,0,149,110,148,16,35,16,42,206,150,151,0,150,112,111,16,32,17,42,206,151,205,0,150,111,149,16,17,16,42,207,152,153,0,151,113,112,34,33,32,42,207,153,206,0,151,112,150,34,32,16,42,208,154,155,0,152,114,113,32,16,34,42,208,155,209,0,152,113,151,32,34,32,42,210,157,211,0,153,114,152,16,39,16,42,189,188,212,0,139,140,119,58,57,18,42,189,212,164,0,139,119,120,58,18,18,42,193,189,164,0,143,139,120,62,58,18,42,193,164,165,0,143,120,121,62,18,18,42,193,165,213,0,143,121,154,62,18,18,42,214,166,167,0,154,121,122,18,18,18,42,214,167,215,0,154,122,155,18,18,18,42,216,168,169,0,155,122,123,19,45,18,42,216,169,217,0,155,123,156,19,18,51,42,218,170,171,0,156,123,124,18,46,42,42,218,171,219,0,156,124,157,18,42,18,42,220,172,173,0,157,124,125,18,18,18,42,220,173,221,0,157,125,158,18,18,18,42,221,174,175,0,158,125,126,18,18,51,42,221,175,222,0,158,126,159,18,51,18,42,222,176,177,0,159,126,127,18,18,52,42,222,177,223,0,159,127,160,18,52,18,42,223,178,179,0,160,127,128,18,18,18,42,223,179,224,0,160,128,161,18,18,45,42,225,180,181,0,161,128,129,18,18,18,42,225,181,226,0,161,129,162,18,18,18,42,227,182,228,0,162,129,163,40,19,45,42,185,163,229,0,133,132,164,54,50,28,42,185,229,230,0,133,164,165,54,28,28,42,187,186,231,0,135,134,166,56,55,65,42,187,231,232,0,135,166,167,56,65,66,42,193,233,194,0,141,168,142,62,67,63,42,194,233,234,0,142,168,169,63,67,68,42,194,234,195,0,142,169,143,63,68,64,42,234,233,235,0,169,168,170,68,67,69,42,234,235,236,0,169,170,171,68,69,70,42,234,237,238,0,169,171,172,68,71,71,42,195,234,196,0,141,168,144,64,68,16,42,234,239,240,0,168,170,173,68,16,16,42,234,240,197,0,168,173,145,68,16,16,42,234,197,198,0,168,145,144,68,16,16,42,241,199,200,0,174,146,145,16,17,16,42,241,200,242,0,174,145,173,16,16,16,42,243,201,202,0,175,147,146,16,38,38,42,243,202,244,0,175,146,174,16,38,17,42,245,203,204,0,176,148,147,16,16,17,42,245,204,246,0,176,147,175,16,17,16,42,205,203,247,0,149,148,176,16,16,37,42,233,193,213,0,169,143,154,67,62,18,42,248,233,214,0,172,169,154,18,67,18,42,248,214,215,0,172,154,155,18,18,18,42,248,215,249,0,172,155,177,18,18,18,42,250,216,217,0,177,155,156,19,19,51,42,250,217,251,0,177,156,178,19,51,18,42,252,218,219,0,178,156,157,18,18,18,42,252,219,253,0,178,157,179,18,18,45,42,254,220,221,0,179,157,158,51,18,18,42,254,221,255,0,179,158,180,51,18,18,42,256,221,222,0,180,158,159,18,18,18,42,232,231,257,0,167,166,181,66,65,72,42,232,257,258,0,167,181,182,66,72,73,42,235,259,260,0,170,183,184,69,74,74,42,235,260,236,0,170,184,171,69,74,70,42,237,261,262,0,171,184,185,71,74,74,42,237,262,238,0,171,185,172,71,74,71,42,239,263,264,0,170,183,186,16,16,16,42,239,264,240,0,170,186,173,16,16,16,42,265,242,266,0,187,173,186,16,16,38,42,267,248,249,0,185,172,177,18,18,18,42,267,249,268,0,185,177,188,18,18,42,42,269,250,270,0,188,177,189,18,19,18,42,258,257,271,0,182,181,190,73,72,75,42,258,271,272,0,182,190,191,73,75,76,42,259,273,274,0,183,192,193,74,77,78,42,259,274,260,0,183,193,184,74,78,74,42,261,275,276,0,184,193,194,74,69,69,42,261,276,262,0,184,194,185,74,69,74,42,263,277,278,0,183,192,195,16,17,17,42,279,267,280,0,194,185,196,19,18,19,42,272,271,281,0,191,190,197,76,75,79,42,272,281,282,0,191,197,198,76,79,80,42,273,283,284,0,192,199,200,77,81,82,42,273,284,274,0,192,200,193,77,82,78,42,275,285,286,0,193,200,201,69,69,69,42,275,286,276,0,193,201,194,69,69,69,42,277,287,288,0,192,199,202,17,16,16,42,289,279,290,0,201,194,203,83,19,40,42,282,281,291,0,198,197,204,80,79,84,42,282,291,292,0,198,204,205,80,84,85,42,292,291,293,0,205,204,137,85,84,86,42,292,293,294,0,205,137,139,85,86,87,42,294,293,295,0,139,137,168,87,86,88,42,294,295,296,0,139,168,169,87,88,89,42,296,295,297,0,169,168,206,89,88,90,42,296,297,298,0,169,206,207,89,90,91,42,298,297,299,0,207,206,208,91,90,92,42,298,299,300,0,207,208,209,91,92,93,42,300,299,301,0,209,208,210,93,92,94,42,300,301,302,0,209,210,211,93,94,95,42,302,301,303,0,211,210,212,95,94,96,42,302,303,304,0,211,212,213,95,96,97,42,304,303,305,0,213,212,214,97,96,98,42,304,305,306,0,213,214,215,97,98,99,42,306,305,307,0,215,214,216,99,98,100,42,306,307,308,0,215,216,217,99,100,101,42,308,307,309,0,217,216,218,101,100,102,42,308,309,310,0,217,218,219,101,102,103,42,310,309,311,0,219,218,220,103,102,104,42,310,311,312,0,219,220,221,103,104,105,42,312,311,313,0,221,220,222,105,104,106,42,312,313,314,0,221,222,223,105,106,107,42,314,313,315,0,223,222,10,107,106,108,42,314,315,316,0,223,10,12,107,108,109,42,316,315,1,0,12,10,14,109,108,1,42,316,1,0,0,12,14,15,109,1,0,42,0,3,317,0,1,2,0,0,3,17,42,3,5,317,0,2,4,0,3,5,17,42,5,33,317,0,4,31,0,5,23,17,42,33,55,317,0,31,52,0,23,30,17,42,55,133,317,0,52,100,0,30,49,17,42,133,187,317,0,100,134,0,49,56,17,42,187,232,317,0,134,166,0,56,66,17,42,232,258,317,0,166,181,0,66,73,17,42,258,272,317,0,181,190,0,73,76,17,42,272,282,317,0,190,197,0,76,80,17,42,282,292,317,0,197,204,0,80,85,17,42,292,294,317,0,204,137,0,85,87,17,42,294,296,317,0,137,168,0,87,89,17,42,296,298,317,0,168,206,0,89,91,17,42,298,300,317,0,206,208,0,91,93,17,42,300,302,317,0,208,210,0,93,95,17,42,302,304,317,0,210,212,0,95,97,17,42,304,306,317,0,212,214,0,97,99,17,42,306,308,317,0,214,216,0,99,101,17,42,308,310,317,0,216,218,0,101,103,17,42,310,312,317,0,218,220,0,103,105,17,42,312,314,317,0,220,222,0,105,107,17,42,314,316,317,0,222,10,0,107,109,17,42,316,0,317,0,10,14,0,109,0,17,42,318,319,286,0,224,207,201,110,111,69,42,318,286,320,0,224,201,225,110,69,70,42,319,318,321,0,207,224,226,111,110,112,42,319,321,322,0,207,226,227,111,112,113,42,319,322,323,0,207,227,209,111,113,114,42,323,322,324,0,209,227,228,114,113,115,42,323,324,325,0,209,228,229,114,115,116,42,323,325,326,0,209,229,211,114,116,117,42,326,325,327,0,211,229,230,117,116,118,42,326,327,328,0,211,230,231,117,118,119,42,326,328,329,0,211,231,213,117,119,120,42,329,328,330,0,213,231,232,120,119,121,42,329,330,331,0,213,232,233,120,121,122,42,329,331,332,0,213,233,215,120,122,123,42,332,331,333,0,215,233,234,123,122,124,42,332,334,335,0,215,234,235,123,124,125,42,332,335,336,0,215,235,217,123,125,126,42,336,335,337,0,217,235,236,126,125,127,42,336,337,338,0,217,236,237,126,127,128,42,336,338,339,0,217,237,219,126,128,129,42,339,338,340,0,219,237,238,129,128,130,42,339,340,341,0,219,238,239,129,130,131,42,339,341,342,0,219,239,221,129,131,132,42,342,341,343,0,221,239,240,132,131,133,42,342,343,344,0,221,240,241,132,133,134,42,342,344,345,0,221,241,223,132,134,135,42,345,344,346,0,223,241,242,135,134,13,42,345,346,35,0,223,242,34,135,13,25,42,345,35,36,0,223,34,35,135,25,26,42,287,319,264,0,199,206,186,16,111,16,42,287,264,278,0,199,186,195,16,16,17,42,287,278,288,0,199,195,202,16,17,16,42,319,323,241,0,206,208,174,111,114,16,42,319,241,265,0,206,174,187,111,16,16,42,319,265,266,0,206,187,186,111,16,38,42,323,326,243,0,208,210,175,114,117,16,42,323,243,244,0,208,175,174,114,16,17,42,326,329,245,0,210,212,176,117,120,16,42,326,245,246,0,210,176,175,117,16,16,42,329,332,205,0,212,214,149,120,123,16,42,329,205,247,0,212,149,176,120,16,37,42,332,336,206,0,214,216,150,123,126,16,42,332,206,205,0,214,150,149,123,16,16,42,336,339,207,0,216,218,151,126,129,34,42,336,207,206,0,216,151,150,126,34,16,42,339,342,208,0,218,220,152,129,132,32,42,339,208,209,0,218,152,151,129,32,32,42,342,345,156,0,220,222,115,132,135,16,42,342,156,210,0,220,115,153,132,16,16,42,342,210,211,0,220,153,152,132,16,16,42,345,36,87,0,222,33,72,135,26,38,42,345,87,158,0,222,72,116,135,38,16,42,345,158,156,0,222,116,115,135,16,16,42,2,1,347,0,3,0,1,2,1,19,42,4,2,347,0,5,3,1,4,2,19,42,32,4,347,0,32,5,1,22,4,19,42,54,32,347,0,53,32,1,29,22,19,42,132,54,347,0,101,53,1,48,29,19,42,186,132,347,0,135,101,1,55,48,19,42,231,186,347,0,167,135,1,65,55,19,42,257,231,347,0,182,167,1,72,65,19,42,271,257,347,0,191,182,1,75,72,19,42,281,271,347,0,198,191,1,79,75,19,42,291,281,347,0,205,198,1,84,79,19,42,293,291,347,0,139,205,1,86,84,19,42,295,293,347,0,169,139,1,88,86,19,42,297,295,347,0,207,169,1,90,88,19,42,299,297,347,0,209,207,1,92,90,19,42,301,299,347,0,211,209,1,94,92,19,42,303,301,347,0,213,211,1,96,94,19,42,305,303,347,0,215,213,1,98,96,19,42,307,305,347,0,217,215,1,100,98,19,42,309,307,347,0,219,217,1,102,100,19,42,311,309,347,0,221,219,1,104,102,19,42,313,311,347,0,223,221,1,106,104,19,42,315,313,347,0,12,223,1,108,106,19,42,1,315,347,0,15,12,1,1,108,19,42,283,348,284,0,199,206,200,81,136,82,42,285,348,318,0,200,206,224,69,136,110,42,285,318,320,0,200,224,225,69,110,70,42,318,348,349,0,224,206,208,110,136,137,42,318,349,321,0,224,208,226,110,137,112,42,321,349,322,0,226,208,227,112,137,113,42,322,349,350,0,227,208,210,113,137,138,42,322,350,324,0,227,210,228,113,138,115,42,324,350,325,0,228,210,229,115,138,116,42,325,350,351,0,229,210,212,116,138,139,42,325,351,327,0,229,212,230,116,139,118,42,327,351,328,0,230,212,231,118,139,119,42,328,351,352,0,231,212,214,119,139,140,42,328,352,330,0,231,214,232,119,140,121,42,330,352,331,0,232,214,233,121,140,122,42,331,352,353,0,233,214,216,122,140,141,42,331,353,333,0,233,216,234,122,141,124,42,334,353,335,0,234,216,235,124,141,125,42,335,353,354,0,235,216,218,125,141,142,42,335,354,337,0,235,218,236,125,142,127,42,337,354,338,0,236,218,237,127,142,128,42,338,354,355,0,237,218,220,128,142,143,42,338,355,340,0,237,220,238,128,143,130,42,340,355,341,0,238,220,239,130,143,131,42,341,355,356,0,239,220,222,131,143,144,42,341,356,343,0,239,222,240,131,144,133,42,343,356,344,0,240,222,241,133,144,134,42,344,356,34,0,241,222,33,134,144,24,42,344,34,346,0,241,33,242,134,24,13,42,348,289,290,0,207,201,203,136,83,40,42,348,290,280,0,207,203,196,136,40,19,42,348,280,268,0,207,196,188,136,19,42,42,349,348,269,0,209,207,188,137,136,18,42,349,269,270,0,209,188,189,137,18,18,42,349,270,251,0,209,189,178,137,18,18,42,350,349,252,0,211,209,178,138,137,18,42,350,252,253,0,211,178,179,138,18,45,42,351,350,254,0,213,211,179,139,138,51,42,351,254,255,0,213,179,180,139,51,18,42,352,351,256,0,215,213,180,140,139,18,42,352,256,222,0,215,180,159,140,18,18,42,353,352,222,0,217,215,159,141,140,18,42,353,222,223,0,217,159,160,141,18,18,42,354,353,223,0,219,217,160,142,141,18,42,354,223,224,0,219,160,161,142,18,45,42,355,354,225,0,221,219,161,143,142,18,42,355,225,226,0,221,161,162,143,18,18,42,356,355,227,0,223,221,162,144,143,40,42,356,227,228,0,223,162,163,144,40,45,42,356,228,183,0,223,163,130,144,45,19,42,34,356,183,0,35,223,130,24,144,19,42,34,183,184,0,35,130,131,24,19,53,42,34,184,124,0,35,131,94,24,53,19],
            "metadata": {
                "faces": 460,
                "generator": "io_three",
                "vertices": 357,
                "morphTargets": 0,
                "materials": 1,
                "uvs": 1,
                "normals": 145,
                "bones": 0,
                "version": 3
            },
            "name": "halter1Geometry",
            "uvs": [[0,1,0,0,0.041667,0,0.041667,1,0.083333,0,0.083333,1,0.033475,0.196609,0.033475,0,0.033475,1,0.933439,0,0.958333,0,0.933439,0.597469,0.958333,1,0.933439,1,1,0,1,1,0.026764,0.357661,0,0.295939,0.03398,0.361052,0.806959,0.157956,0.704061,0.295939,0.033475,0.803391,0,0.704061,0.026764,0.642339,0.03398,0.638948,0.806959,0.842044,0.704061,0.704061,0.451997,0.899226,0.551999,0.899226,0.551999,0.746091,0.451997,0.746091,0.125,0,0.125,1,0.917921,0,0.917921,0.969907,0.917921,1,0.014222,0.658684,0,0.588234,0.034665,0.584022,0.025796,0.690448,0.036614,0.697323,0.543676,0.432685,0.411766,0.588234,0,0.411766,0.014222,0.341316,0.025796,0.309552,0.034665,0.415978,0.036614,0.302677,0.543676,0.567315,0.411766,0.411766,0.551999,0.589761,0.451997,0.589761,0.166667,0,0.166667,1,0.00304,0.927037,0,0.899687,0.005049,0.939406,0.036762,0.705907,0.006875,0.944997,0.040024,0.759859,0.008953,0.946282,0.044851,0.784715,0.011713,0.943776,0.051997,0.792011,0.015885,0.936461,0.062791,0.784715,0.023104,0.920787,0.080047,0.759859,0.03855,0.884351,0.110285,0.705907,0.091903,0.754925,0.11859,0.689849,0.902755,0.017534,0.172471,0.820031,0.100313,0.899687,0,0.100313,0.00304,0.072963,0.005049,0.060594,0.006875,0.055003,0.036762,0.294093,0.008953,0.053718,0.040024,0.240141,0.011713,0.056224,0.044851,0.215285,0.015885,0.063539,0.051997,0.207989,0.023104,0.079213,0.062791,0.215285,0.080047,0.240141,0.03855,0.115649,0.110285,0.294093,0.091903,0.245075,0.11859,0.310151,0.172471,0.179969,0.902755,0.982466,0.100313,0.100313,0.451997,0.548003,0.551999,0.448001,0.551999,0.406407,0.451997,0.406407,0.208333,0,0.208333,1,0.173324,0.584022,0.368221,0.196609,0.447797,0.037458,0.164128,0.671744,0.103271,0.809346,0.082342,0.858843,0.074028,0.881556,0.072273,0.891591,0.075524,0.893378,0.08435,0.887534,0.101475,0.871821,0.13489,0.838132,0.211668,0.758094,0.507212,0.446677,0.634242,0.312598,0.173324,0.415978,0.368221,0.803391,0.447797,0.962542,0.164128,0.328256,0.103271,0.190654,0.082342,0.141157,0.074028,0.118444,0.072273,0.108409,0.075524,0.106622,0.08435,0.112466,0.101475,0.128179,0.13489,0.161868,0.211668,0.241906,0.507212,0.553323,0.634242,0.687402,0.551999,0.116146,0.451997,0.116146,0.25,0,0.25,1,0.466525,0,0.5,0,0.466525,0.803391,0.5,1,0.466525,1,0.512704,0,0.512704,0.695113,0.512704,1,0.277199,0.488248,0.182717,0.686772,0.148296,0.762727,0.13472,0.797919,0.132496,0.812947,0.139463,0.81405,0.156922,0.801783,0.190826,0.771009,0.257959,0.70519,0.348154,0.614278,0.277199,0.511752,0.182717,0.313228,0.148296,0.237273,0.13472,0.202081,0.132496,0.187053,0.139463,0.18595,0.156922,0.198217,0.190826,0.228991,0.257959,0.29481,0.348154,0.385722,0.551999,0.100774,0.451997,0.100774,0.291667,0,0.291667,1,0.541667,0,0.541667,1,0.546882,0,0.546882,0.874833,0.546882,1,0.266945,0.54238,0.184256,0.70519,0.152661,0.771009,0.140404,0.801783,0.266945,0.45762,0.184256,0.29481,0.152661,0.228991,0.140404,0.198217,0.333333,0,0.333333,1,0.569596,0,0.569596,0.329698,0.569596,1,0.322771,0.446677,0.230429,0.614278,0.322771,0.553323,0.230429,0.385722,0.375,0,0.375,1,0.581289,0,0.581289,0.049064,0.581289,1,0.396861,0.312598,0.396861,0.687402,0.416667,0,0.416667,1,0.582079,0,0.582079,0.030093,0.582079,1,0.570944,0.017534,0.570944,0.982466,0.458333,0,0.458333,1,0.583333,0,0.583333,1,0.625,0,0.625,1,0.666667,0,0.666667,1,0.708333,0,0.708333,1,0.75,0,0.75,1,0.791667,0,0.791667,1,0.833333,0,0.833333,1,0.875,0,0.875,1,0.916667,0,0.916667,1,0.583333,0.860004,0.582079,0.860004,0.589166,0.860004,0.625,0.860004,0.630833,0.860004,0.666667,0.860004,0.6725,0.860004,0.708333,0.860004,0.714166,0.860004,0.75,0.860004,0.755833,0.860004,0.791667,0.860004,0.7975,0.860004,0.833333,0.860004,0.839166,0.860004,0.875,0.860004,0.880833,0.860004,0.916667,0.860004,0.917921,0.860004]],
            "morphTargets": [],
            "skinIndices": [],
            "animations": []
        }
    },{
        "uuid": "D947C1F8-322B-3B6F-B7A3-6B7046085C2B",
        "materials": [{
            "depthTest": true,
            "DbgColor": 15658734,
            "colorSpecular": [0.009961,0.009961,0.009961],
            "DbgIndex": 0,
            "DbgName": "b0b0b0",
            "colorEmissive": [0,0,0],
            "depthWrite": true,
            "colorDiffuse": [0.690196,0.690196,0.690196],
            "opacity": 1,
            "colorAmbient": [0.690196,0.690196,0.690196],
            "shading": "phong",
            "specularCoef": 50,
            "wireframe": false,
            "transparent": false,
            "visible": true,
            "blending": "NormalBlending"
        }],
        "type": "Geometry",
        "data": {
            "skinWeights": [],
            "vertices": [0,0.135,-3.95,0.0349,0.1304,-3.95,0.0675,0.1169,-3.95,0.0955,0.0955,-3.95,0.1169,0.0675,-3.95,0.1304,0.0349,-3.95,0.135,0,-3.95,0.1304,-0.0349,-3.95,0.1169,-0.0675,-3.95,0.0955,-0.0955,-3.95,0.0675,-0.1169,-3.95,0.0349,-0.1304,-3.95,0,-0.135,-3.95,-0.0349,-0.1304,-3.95,-0.0675,-0.1169,-3.95,-0.0955,-0.0955,-3.95,-0.1169,-0.0675,-3.95,-0.1304,-0.0349,-3.95,-0.135,0,-3.95,-0.1304,0.0349,-3.95,-0.1169,0.0675,-3.95,-0.0955,0.0955,-3.95,-0.0675,0.1169,-3.95,-0.0349,0.1304,-3.95,0,0.135,3.95,0.0349,0.1304,3.95,0.0675,0.1169,3.95,0.0955,0.0955,3.95,0.1169,0.0675,3.95,0.1304,0.0349,3.95,0.135,0,3.95,0.1304,-0.0349,3.95,0.1169,-0.0675,3.95,0.0955,-0.0955,3.95,0.0675,-0.1169,3.95,0.0349,-0.1304,3.95,0,-0.135,3.95,-0.0349,-0.1304,3.95,-0.0675,-0.1169,3.95,-0.0955,-0.0955,3.95,-0.1169,-0.0675,3.95,-0.1304,-0.0349,3.95,-0.135,0,3.95,-0.1304,0.0349,3.95,-0.1169,0.0675,3.95,-0.0955,0.0955,3.95,-0.0675,0.1169,3.95,-0.0349,0.1304,3.95],
            "influencesPerVertex": 2,
            "normals": [0,0.999969,0,0.258827,0.965911,0,0.49913,0.866512,0,0.707083,0.707083,0,0.866512,0.49913,0,0.965911,0.258827,0,0.999969,0,0,0.965911,-0.258827,0,0.866512,-0.49913,0,0.707083,-0.707083,0,0.49913,-0.866512,0,0.258827,-0.965911,0,0,-0.999969,0,-0.258827,-0.965911,0,-0.49913,-0.866512,0,-0.707083,-0.707083,0,-0.866512,-0.49913,0,-0.965911,-0.258827,0,-0.999969,0,0,-0.965911,0.258827,0,-0.866512,0.49913,0,-0.707083,0.707083,0,-0.49913,0.866512,0,-0.258827,0.965911,0],
            "bones": [],
            "faces": [42,0,24,25,0,0,1,2,0,0,1,42,0,25,1,0,0,2,3,0,1,1,42,1,25,26,0,3,2,4,1,1,2,42,1,26,2,0,3,4,5,1,2,2,42,2,26,27,0,5,4,6,2,2,3,42,2,27,3,0,5,6,7,2,3,3,42,3,27,28,0,8,9,10,3,3,4,42,3,28,4,0,8,10,11,3,4,4,42,4,28,29,0,11,10,12,4,4,5,42,4,29,5,0,11,12,13,4,5,5,42,5,29,30,0,13,12,14,5,5,6,42,5,30,6,0,13,14,15,5,6,6,42,6,30,31,0,14,15,16,6,6,7,42,6,31,7,0,14,16,17,6,7,7,42,7,31,32,0,17,16,18,7,7,8,42,7,32,8,0,17,18,19,7,8,8,42,8,32,33,0,19,18,20,8,8,9,42,8,33,9,0,19,20,21,8,9,9,42,9,33,34,0,22,23,24,9,9,10,42,9,34,10,0,22,24,25,9,10,10,42,10,34,35,0,25,24,26,10,10,11,42,10,35,11,0,25,26,27,10,11,11,42,11,35,36,0,27,26,1,11,11,12,42,11,36,12,0,27,1,0,11,12,12,42,12,36,37,0,0,1,26,12,12,13,42,12,37,13,0,0,26,27,12,13,13,42,13,37,38,0,27,26,24,13,13,14,42,13,38,14,0,27,24,25,13,14,14,42,14,38,39,0,25,24,23,14,14,15,42,14,39,15,0,25,23,22,14,15,15,42,15,39,40,0,20,21,19,15,15,16,42,15,40,16,0,20,19,18,15,16,16,42,16,40,41,0,18,19,17,16,16,17,42,16,41,17,0,18,17,16,16,17,17,42,17,41,42,0,16,17,14,17,17,18,42,17,42,18,0,16,14,15,17,18,18,42,18,42,43,0,14,15,13,18,18,19,42,18,43,19,0,14,13,12,18,19,19,42,19,43,44,0,12,13,11,19,19,20,42,19,44,20,0,12,11,10,19,20,20,42,20,44,45,0,10,11,8,20,20,21,42,20,45,21,0,10,8,9,20,21,21,42,21,45,46,0,7,6,4,21,21,22,42,21,46,22,0,7,4,5,21,22,22,42,22,46,47,0,5,4,2,22,22,23,42,22,47,23,0,5,2,3,22,23,23,42,23,47,24,0,3,2,1,23,23,0,42,23,24,0,0,3,1,0,23,0,0],
            "metadata": {
                "faces": 48,
                "generator": "io_three",
                "vertices": 48,
                "morphTargets": 0,
                "materials": 1,
                "uvs": 1,
                "normals": 24,
                "bones": 0,
                "version": 3
            },
            "name": "rohrGeometry",
            "uvs": [[0.5,0,0.5,1,0.370741,1,0.370741,0,0.25,1,0.25,0,0.146296,1,0.146296,0,1,0.146296,0,0.146296,0,0.25,1,0.25,0,0.370741,1,0.370741,0,0.5,1,0.5,1,0.629259,0,0.629259,1,0.75,0,0.75,1,0.853704,0,0.853704,0.853704,0,0.853704,1,0.75,1,0.75,0,0.629259,1,0.629259,0]],
            "morphTargets": [],
            "skinIndices": [],
            "animations": []
        }
    },{
        "uuid": "D7E13E5F-692D-38E5-AA71-493556ECD579",
        "materials": [{
            "depthTest": true,
            "DbgColor": 15658734,
            "colorSpecular": [0.009961,0.009961,0.009961],
            "DbgIndex": 0,
            "DbgName": "Physical",
            "colorEmissive": [0,0,0],
            "depthWrite": true,
            "colorDiffuse": [0.690196,0.690196,0.690196],
            "opacity": 1,
            "colorAmbient": [0.690196,0.690196,0.690196],
            "shading": "phong",
            "specularCoef": 50,
            "wireframe": false,
            "transparent": false,
            "visible": true,
            "blending": "NormalBlending"
        }],
        "type": "Geometry",
        "data": {
            "skinWeights": [],
            "vertices": [-3.9282,-0.1993,-1.21972,-3.9282,-0.25,-1.53,-3.9282,-0.1993,-1.53,-3.9282,-0.1993,1.53,-3.9282,-0.25,1.53,-3.9282,0.242141,1.4819,-3.9282,0.25,1.4819,-3.9282,0.25,1.53,-3.9282,-0.1993,1.4819,-3.9782,-0.1993,1.21972,-3.9782,-0.25,1.53,-3.9782,-0.1993,1.53,-3.9782,-0.1993,-1.53,-3.9782,-0.25,-1.53,-3.9782,-0.1993,1.4819,-3.9782,0.25,1.53,-3.9782,0.25,1.4819,-3.92899,0.25,1.4819,-3.97313,-0.1993,-1.53,-3.93327,-0.1993,1.53,-3.9782,-0.1993,-1.53,-3.9782,-0.1993,0.7169,-3.9282,-0.1993,-0.8131,-3.9282,-0.1993,-0.8131,-3.9782,-0.1993,0.7169,-3.9282,-0.0743,1.4819,-3.9782,0.1757,1.4819],
            "influencesPerVertex": 2,
            "normals": [1,0,0,0.577349,-0.577349,-0.577349,0.577349,0.577349,-0.577349,0.707083,0,0.707083,0.577349,-0.577349,0.577349,0.577349,0.577349,0.577349,-1,0,0,-0.577349,-0.577349,0.577349,-0.707083,0,0.707083,-0.707083,0,-0.707083,-0.577349,-0.577349,-0.577349,-0.577349,0.577349,-0.577349,-0.577349,0.577349,0.577349,0,1,0,0,0,-1,0,0,0.999969],
            "bones": [],
            "faces": [42,0,1,2,0,0,1,2,0,1,2,42,1,0,3,0,1,0,3,1,0,3,42,1,3,4,0,1,3,4,1,3,4,42,5,6,7,0,5,6,7,0,2,5,42,8,5,7,0,8,5,7,2,0,5,42,8,7,3,0,8,7,3,2,5,3,42,9,10,11,0,0,1,2,6,7,8,42,10,9,12,0,1,0,3,7,6,9,42,10,12,13,0,1,3,4,7,9,10,42,14,11,15,0,9,2,10,11,8,12,42,14,15,16,0,9,10,11,11,12,11,42,10,13,1,0,12,13,7,7,10,1,42,10,1,4,0,12,7,4,7,1,4,42,17,16,15,0,14,15,4,13,11,12,42,17,15,7,0,14,4,12,13,12,5,42,17,7,6,0,14,12,16,13,5,2,42,18,13,12,0,17,12,18,14,10,9,42,13,18,2,0,12,17,3,10,14,2,42,13,2,1,0,12,3,4,10,2,1,42,19,4,3,0,17,12,18,15,4,3,42,4,19,11,0,12,17,3,4,15,8,42,4,11,10,0,12,3,4,4,8,7,42,19,3,7,0,17,18,13,15,3,5,42,19,7,15,0,17,13,7,15,5,12,42,19,15,11,0,17,7,3,15,12,8,42,20,21,22,0,7,19,20,13,13,13,42,20,22,2,0,7,20,13,13,13,2,42,14,8,23,0,15,16,20,11,2,13,42,14,23,24,0,15,20,19,11,13,13,42,6,25,26,0,7,21,22,2,14,14,42,6,26,16,0,7,22,13,2,14,11,42,8,14,26,0,3,18,22,2,11,14,42,8,26,25,0,3,22,21,2,14,14],
            "metadata": {
                "faces": 33,
                "generator": "io_three",
                "vertices": 27,
                "morphTargets": 0,
                "materials": 1,
                "uvs": 1,
                "normals": 16,
                "bones": 0,
                "version": 3
            },
            "name": "halterGeometry",
            "uvs": [[0.1014,0.8986,0,1,0,0.8986,1,0.8986,1,1,0.984281,0.015719,0.984281,0,1,0,0.984281,0.8986,0.015719,0.8986,0,0,0.015719,0,-2e-06,1,-2e-06,0,0.015719,0.984281,1,0.984281,-2e-06,0.984281,0.101402,0.8986,-2e-06,0.8986,1,0.734281,-2e-06,0.234281,1,0.6486,-2e-06,0.1486]],
            "morphTargets": [],
            "skinIndices": [],
            "animations": []
        }
    }],
    "object": {
        "uuid": "7E944914-6061-4719-A3BD-4B0AF9ED4273",
        "matrix": [1,0,0,0,0,1,0,0,0,0,1,0,0,0,0,1],
        "type": "Scene",
        "children": [{
            "name": "halter",
            "uuid": "194CBDF5-7923-3595-8ED9-4159C6EA139D",
            "matrix": [-1,0,0,0,0,0,1,0,0,1,0,0,-8.0118,0.0054,0,1],
            "visible": true,
            "type": "Mesh",
            "material": "E593ECD0-9705-39F1-BD4C-E1C1D3992327",
            "castShadow": true,
            "receiveShadow": true,
            "geometry": "06F86342-7528-3807-B194-35D5635B475B"
        },{
            "name": "halter.001",
            "uuid": "4CDA996E-425B-34DD-A241-A824F747917C",
            "matrix": [-1,0,0,0,-0,-1,-0,0,0,-0,1.33,0,-0.0282,-0.25,0.0008,1],
            "visible": true,
            "type": "Mesh",
            "material": "BAA12A36-7C84-3F45-BBC9-C98F423700AF",
            "castShadow": true,
            "receiveShadow": true,
            "geometry": "D7E13E5F-692D-38E5-AA71-493556ECD579"
        },{
            "name": "halter1",
            "uuid": "660A53DC-2785-3A65-80B4-861D0FECA711",
            "matrix": [-1,0,0,0,0,0,1,0,0,1,0,0,-0.1097,0.0054,0,1],
            "visible": true,
            "type": "Mesh",
            "material": "E593ECD0-9705-39F1-BD4C-E1C1D3992327",
            "castShadow": true,
            "receiveShadow": true,
            "geometry": "06F86342-7528-3807-B194-35D5635B475B"
        },{
            "name": "halter1.001",
            "uuid": "603C6991-8741-3D9A-B005-A0C7CFD03772",
            "matrix": [-1,0,0,0,-0,-1,-0,0,0,-0,1.33,0,-7.8783,-0.25,0.0008,1],
            "visible": true,
            "type": "Mesh",
            "material": "BAA12A36-7C84-3F45-BBC9-C98F423700AF",
            "castShadow": true,
            "receiveShadow": true,
            "geometry": "1DE15967-D6F1-3ED6-9C6F-81AF78B5FEEA"
        },{
            "name": "klappe",
            "uuid": "2CFBD4E8-4ED1-3396-94EB-6D942C45C57C",
            "matrix": [-1,0,0,0,0,-1,-0,0,0,-0,1,0,0.0498,-0.3885,0,1],
            "visible": true,
            "type": "Mesh",
            "material": "EBEEF0BF-3581-3563-AE10-379FF032D230",
            "castShadow": true,
            "receiveShadow": true,
            "geometry": "20CCF8E8-F768-3A13-B58B-EB33E2D6AC6B"
        },{
            "name": "klappe1",
            "uuid": "61D061A9-6786-3362-83B0-3FE9557CC0DE",
            "matrix": [1,-0,0,0,-0,-1,-0,0,0,-0,-1,0,-0.048,-0.3864,0,1],
            "visible": true,
            "type": "Mesh",
            "material": "EBEEF0BF-3581-3563-AE10-379FF032D230",
            "castShadow": true,
            "receiveShadow": true,
            "geometry": "5816F39C-FF05-37E5-A165-44758C7EE9BF"
        },{
            "name": "mesh",
            "uuid": "3D4991D5-0680-36C2-A042-C57551BF6F98",
            "matrix": [-1,0,0,0,0,0,1,0,0,1,0,0,0,-0.0151,0,1],
            "visible": true,
            "type": "Mesh",
            "material": "93831B89-11B9-31B1-A879-E029ECAF81F2",
            "castShadow": true,
            "receiveShadow": true,
            "geometry": "67E85D06-5020-32D9-9E5A-26AD17559292"
        },{
            "name": "rohr",
            "uuid": "F99F0B1F-5F26-396E-96CD-395727CC61F1",
            "matrix": [0,1,0,0,0,0,0.7,0,1.03,-0,0,0,0.0002,-0.3241,0,1],
            "visible": true,
            "type": "Mesh",
            "material": "B92F5ACA-E24A-3A69-B2DD-69B8C9C5682C",
            "castShadow": true,
            "receiveShadow": true,
            "geometry": "D947C1F8-322B-3B6F-B7A3-6B7046085C2B"
        }]
    },
    "metadata": {
        "generator": "io_three",
        "type": "Object",
        "version": 4.4
    },
    "animations": [{
        "fps": 29,
        "name": "default",
        "tracks": []
    }],
    "materials": [{
        "uuid": "B92F5ACA-E24A-3A69-B2DD-69B8C9C5682C",
        "depthTest": true,
        "vertexColors": false,
        "shininess": 50,
        "emissive": 0,
        "specular": 131586,
        "color": 11579568,
        "ambient": 11579568,
        "depthWrite": true,
        "type": "MeshPhongMaterial",
        "blending": "NormalBlending",
        "name": "b0b0b0"
    },{
        "uuid": "E593ECD0-9705-39F1-BD4C-E1C1D3992327",
        "depthTest": true,
        "vertexColors": false,
        "shininess": 50,
        "emissive": 0,
        "specular": 8355711,
        "color": 11579568,
        "ambient": 11579568,
        "depthWrite": true,
        "type": "MeshPhongMaterial",
        "blending": "NormalBlending",
        "name": "halter1Default"
    },{
        "uuid": "BAA12A36-7C84-3F45-BBC9-C98F423700AF",
        "depthTest": true,
        "vertexColors": false,
        "shininess": 50,
        "emissive": 0,
        "specular": 131586,
        "color": 11579568,
        "ambient": 11579568,
        "depthWrite": true,
        "type": "MeshPhongMaterial",
        "blending": "NormalBlending",
        "name": "Physical"
    },{
        "uuid": "EBEEF0BF-3581-3563-AE10-379FF032D230",
        "depthTest": true,
        "vertexColors": false,
        "shininess": 50,
        "emissive": 0,
        "specular": 197379,
        "color": 10130833,
        "ambient": 10130833,
        "depthWrite": true,
        "type": "MeshPhongMaterial",
        "blending": "NormalBlending",
        "name": "Physical1"
    },{
        "uuid": "93831B89-11B9-31B1-A879-E029ECAF81F2",
        "depthTest": true,
        "vertexColors": false,
        "shininess": 50,
        "emissive": 0,
        "specular": 197379,
        "color": 16777215,
        "ambient": 16777215,
        "map": "C3E3EDFC-8C30-3DF3-99C0-EE893F54D473",
        "depthWrite": true,
        "type": "MeshPhongMaterial",
        "blending": "NormalBlending",
        "name": "Standard"
    }],
    "textures": [{
        "uuid": "C3E3EDFC-8C30-3DF3-99C0-EE893F54D473",
        "anisotropy": 1,
        "image": "EFEA20F3-BA08-3FEE-B7FB-906005C7DC82",
        "wrap": [1000,1000],
        "name": "gitter_png",
        "magFilter": 1006,
        "mapping": 300,
        "minFilter": 1008,
        "repeat": [1,1]
    }],
    "images": [{
        "uuid": "EFEA20F3-BA08-3FEE-B7FB-906005C7DC82",
        "url": "gitter.png",
        "name": "gitter.png"
    }]
}