{
    "textures": [],
    "geometries": [{
        "type": "Geometry",
        "data": {
            "influencesPerVertex": 2,
            "faces": [42,0,24,25,0,0,1,2,0,0,1,42,0,25,1,0,0,2,3,0,1,1,42,1,25,26,0,3,2,4,1,1,2,42,1,26,2,0,5,6,7,1,2,2,42,2,26,27,0,7,6,8,2,2,3,42,2,27,3,0,7,8,9,2,3,3,42,3,27,28,0,9,8,10,3,3,4,42,3,28,4,0,9,10,11,3,4,4,42,4,28,29,0,11,10,12,4,4,5,42,4,29,5,0,11,12,13,4,5,5,42,5,29,30,0,13,12,14,5,5,6,42,5,30,6,0,13,14,15,5,6,6,42,6,30,31,0,15,14,16,6,6,7,42,6,31,7,0,15,16,17,6,7,7,42,7,31,32,0,17,16,18,7,7,8,42,7,32,8,0,17,18,19,7,8,8,42,8,32,33,0,19,18,20,8,8,9,42,8,33,9,0,19,20,21,8,9,9,42,9,33,34,0,21,20,22,9,9,10,42,9,34,10,0,21,22,23,9,10,10,42,10,34,35,0,23,22,24,10,10,11,42,10,35,11,0,25,24,26,10,11,11,42,11,35,36,0,26,24,27,11,11,12,42,11,36,12,0,26,28,29,11,12,12,42,12,36,37,0,29,28,30,12,12,13,42,12,37,13,0,29,30,31,12,13,13,42,13,37,38,0,31,30,32,13,13,14,42,13,38,14,0,33,34,35,13,14,14,42,14,38,39,0,35,34,36,14,14,15,42,14,39,15,0,35,36,37,14,15,15,42,15,39,40,0,37,36,38,15,15,16,42,15,40,16,0,37,38,39,15,16,16,42,16,40,41,0,39,38,40,16,16,17,42,16,41,17,0,39,40,41,16,17,17,42,17,41,42,0,41,40,42,17,17,18,42,17,42,18,0,41,42,43,17,18,18,42,18,42,43,0,43,42,44,18,18,19,42,18,43,19,0,43,44,45,18,19,19,42,19,43,44,0,45,44,46,19,19,20,42,19,44,20,0,45,46,47,19,20,20,42,20,44,45,0,47,46,48,20,20,21,42,20,45,21,0,47,48,49,20,21,21,42,21,45,46,0,49,48,50,21,21,22,42,21,46,22,0,49,50,51,21,22,22,42,22,46,47,0,51,50,52,22,22,23,42,22,47,23,0,51,53,54,22,23,23,42,23,47,24,0,55,53,1,23,23,0,42,23,24,0,0,55,1,0,23,0,0],
            "uvs": [[1.5,0,1,0,0.959737,0.017037,1.54026,0.017037,1.92621,0.067037,0.540263,0.017037,0.926208,0.067037,0.573792,0.067037,0.902011,0.146296,0.597989,0.146296,0.886416,0.25,0.613584,0.25,0.877758,0.370741,0.622242,0.370741,0.875,0.5,0.625,0.5,0.877758,0.629259,0.622242,0.629259,0.886416,0.75,0.613584,0.75,0.902011,0.853704,0.597989,0.853704,0.926208,0.932963,0.573792,0.932963,0.959737,0.982963,1.57379,0.932963,1.54026,0.982963,2,1,1,1,1.5,1,1.04026,0.982963,1.45974,0.982963,1.07379,0.932963,0.459737,0.982963,0.073792,0.932963,0.426208,0.932963,0.097989,0.853704,0.402011,0.853704,0.113584,0.75,0.386416,0.75,0.122242,0.629259,0.377758,0.629259,0.125,0.5,0.375,0.5,0.122242,0.370741,0.377758,0.370741,0.113584,0.25,0.386416,0.25,0.097989,0.146296,0.402011,0.146296,0.073792,0.067037,0.426208,0.067037,0.040263,0.017037,1.04026,0.017037,0.459737,0.017037,1.45974,0.017037]],
            "vertices": [0,-0.135,2.26,0.0349,-0.1304,2.26,0.0675,-0.1169,2.26,0.0955,-0.0955,2.26,0.1169,-0.0675,2.26,0.1304,-0.0349,2.26,0.135,0,2.26,0.1304,0.0349,2.26,0.1169,0.0675,2.26,0.0955,0.0955,2.26,0.0675,0.1169,2.26,0.0349,0.1304,2.26,0,0.135,2.26,-0.0349,0.1304,2.26,-0.0675,0.1169,2.26,-0.0955,0.0955,2.26,-0.1169,0.0675,2.26,-0.1304,0.0349,2.26,-0.135,0,2.26,-0.1304,-0.0349,2.26,-0.1169,-0.0675,2.26,-0.0955,-0.0955,2.26,-0.0675,-0.1169,2.26,-0.0349,-0.1304,2.26,0,-0.135,-2.26,0.0349,-0.1304,-2.26,0.0675,-0.1169,-2.26,0.0955,-0.0955,-2.26,0.1169,-0.0675,-2.26,0.1304,-0.0349,-2.26,0.135,0,-2.26,0.1304,0.0349,-2.26,0.1169,0.0675,-2.26,0.0955,0.0955,-2.26,0.0675,0.1169,-2.26,0.0349,0.1304,-2.26,0,0.135,-2.26,-0.0349,0.1304,-2.26,-0.0675,0.1169,-2.26,-0.0955,0.0955,-2.26,-0.1169,0.0675,-2.26,-0.1304,0.0349,-2.26,-0.135,0,-2.26,-0.1304,-0.0349,-2.26,-0.1169,-0.0675,-2.26,-0.0955,-0.0955,-2.26,-0.0675,-0.1169,-2.26,-0.0349,-0.1304,-2.26],
            "bones": [],
            "animations": [],
            "metadata": {
                "bones": 0,
                "morphTargets": 0,
                "version": 3,
                "uvs": 1,
                "generator": "io_three",
                "normals": 24,
                "faces": 48,
                "materials": 1,
                "vertices": 48
            },
            "name": "rohrGeometry",
            "normals": [0,-0.999969,0,0.258827,-0.965911,0,0.49913,-0.866512,0,0.707083,-0.707083,0,0.866512,-0.49913,0,0.965911,-0.258827,0,0.999969,0,0,0.965911,0.258827,0,0.866512,0.49913,0,0.707083,0.707083,0,0.49913,0.866512,0,0.258827,0.965911,0,0,0.999969,0,-0.258827,0.965911,0,-0.49913,0.866512,0,-0.707083,0.707083,0,-0.866512,0.49913,0,-0.965911,0.258827,0,-0.999969,0,0,-0.965911,-0.258827,0,-0.866512,-0.49913,0,-0.707083,-0.707083,0,-0.49913,-0.866512,0,-0.258827,-0.965911,0],
            "skinIndices": [],
            "morphTargets": [],
            "skinWeights": []
        },
        "materials": [{
            "wireframe": false,
            "DbgIndex": 0,
            "colorAmbient": [0.690196,0.690196,0.690196],
            "DbgColor": 15658734,
            "blending": "NormalBlending",
            "depthWrite": true,
            "doubleSided": true,
            "opacity": 1,
            "DbgName": "b0b0b0",
            "shading": "phong",
            "specularCoef": 50,
            "visible": true,
            "transparent": false,
            "colorDiffuse": [0.690196,0.690196,0.690196],
            "depthTest": true,
            "colorEmissive": [0,0,0],
            "colorSpecular": [0.001176,0.001176,0.001176]
        }],
        "uuid": "D947C1F8-322B-3B6F-B7A3-6B7046085C2B"
    },{
        "type": "Geometry",
        "data": {
            "influencesPerVertex": 2,
            "faces": [42,0,2,3,0,0,1,2,0,1,2,42,0,3,1,0,0,2,3,0,2,3,42,4,6,7,0,0,1,4,4,5,6,42,4,7,5,0,0,4,5,4,6,7,42,4,5,0,0,6,5,7,4,7,0,42,4,0,1,0,6,7,8,4,0,3,42,7,6,3,0,6,9,2,6,5,2,42,7,3,2,0,6,2,10,6,2,1,42,5,7,2,0,5,4,1,7,6,1,42,5,2,0,0,5,1,0,7,1,0,42,1,3,6,0,3,2,1,3,2,5,42,1,6,4,0,3,1,0,3,5,4],
            "uvs": [[-0,1,-0,0,0,0,0,1,0,0,0,1,1,1,0,-0,1,0,0,1,1,-0]],
            "vertices": [0.02,-0.16,0.35,0.02,0.16,0.35,0.02,-0.16,-0.35,0.02,0.16,-0.35,-0.02,0.16,0.35,-0.02,-0.16,0.35,-0.02,0.16,-0.35,-0.02,-0.16,-0.35],
            "bones": [],
            "animations": [],
            "metadata": {
                "bones": 0,
                "morphTargets": 0,
                "version": 3,
                "uvs": 1,
                "generator": "io_three",
                "normals": 8,
                "faces": 12,
                "materials": 1,
                "vertices": 8
            },
            "name": "halter1Geometry",
            "normals": [0.577349,-0.577349,0.577349,0.577349,-0.577349,-0.577349,0.577349,0.577349,-0.577349,0.577349,0.577349,0.577349,-0.577349,0.577349,0.577349,-0.577349,0.577349,-0.577349,-0.577349,-0.577349,-0.577349,-0.577349,-0.577349,0.577349],
            "skinIndices": [],
            "morphTargets": [],
            "skinWeights": []
        },
        "materials": [{
            "wireframe": false,
            "DbgIndex": 0,
            "colorAmbient": [0.690196,0.690196,0.690196],
            "DbgColor": 15658734,
            "blending": "NormalBlending",
            "depthWrite": true,
            "opacity": 1,
            "DbgName": "b0b0b0",
            "shading": "phong",
            "specularCoef": 50,
            "visible": true,
            "transparent": false,
            "colorDiffuse": [0.690196,0.690196,0.690196],
            "depthTest": true,
            "colorEmissive": [0,0,0],
            "colorSpecular": [0.001176,0.001176,0.001176]
        }],
        "uuid": "06F86342-7528-3807-B194-35D5635B475B"
    },{
        "type": "Geometry",
        "data": {
            "influencesPerVertex": 2,
            "faces": [42,0,2,3,0,0,1,2,0,1,2,42,0,3,1,0,0,2,3,0,2,3,42,4,6,7,0,0,1,4,4,5,6,42,4,7,5,0,0,4,5,4,6,7,42,4,5,0,0,6,5,7,4,7,0,42,4,0,1,0,6,7,8,4,0,3,42,7,6,3,0,6,9,2,6,5,2,42,7,3,2,0,6,2,10,6,2,1,42,5,7,2,0,5,4,1,7,6,1,42,5,2,0,0,5,1,0,7,1,0,42,1,3,6,0,3,2,1,3,2,5,42,1,6,4,0,3,1,0,3,5,4],
            "uvs": [[-0,1,-0,0,0,0,0,1,0,0,0,1,1,1,0,-0,1,0,0,1,1,-0]],
            "vertices": [0.02,-0.16,0.35,0.02,0.16,0.35,0.02,-0.16,-0.35,0.02,0.16,-0.35,-0.02,0.16,0.35,-0.02,-0.16,0.35,-0.02,0.16,-0.35,-0.02,-0.16,-0.35],
            "bones": [],
            "animations": [],
            "metadata": {
                "bones": 0,
                "morphTargets": 0,
                "version": 3,
                "uvs": 1,
                "generator": "io_three",
                "normals": 8,
                "faces": 12,
                "materials": 1,
                "vertices": 8
            },
            "name": "halterGeometry",
            "normals": [0.577349,-0.577349,0.577349,0.577349,-0.577349,-0.577349,0.577349,0.577349,-0.577349,0.577349,0.577349,0.577349,-0.577349,0.577349,0.577349,-0.577349,0.577349,-0.577349,-0.577349,-0.577349,-0.577349,-0.577349,-0.577349,0.577349],
            "skinIndices": [],
            "morphTargets": [],
            "skinWeights": []
        },
        "materials": [{
            "wireframe": false,
            "DbgIndex": 0,
            "colorAmbient": [0.690196,0.690196,0.690196],
            "DbgColor": 15658734,
            "blending": "NormalBlending",
            "depthWrite": true,
            "opacity": 1,
            "DbgName": "b0b0b0",
            "shading": "phong",
            "specularCoef": 50,
            "visible": true,
            "transparent": false,
            "colorDiffuse": [0.690196,0.690196,0.690196],
            "depthTest": true,
            "colorEmissive": [0,0,0],
            "colorSpecular": [0.001176,0.001176,0.001176]
        }],
        "uuid": "D7E13E5F-692D-38E5-AA71-493556ECD579"
    }],
    "materials": [{
        "color": 11579568,
        "ambient": 11579568,
        "blending": "NormalBlending",
        "vertexColors": false,
        "depthWrite": true,
        "type": "MeshPhongMaterial",
        "specular": 0,
        "shininess": 50,
        "name": "b0b0b0",
        "emissive": 0,
        "depthTest": true,
        "uuid": "B92F5ACA-E24A-3A69-B2DD-69B8C9C5682C"
    }],
    "object": {
        "matrix": [1,0,0,0,0,1,0,0,0,0,1,0,0,0,0,1],
        "children": [{
            "name": "halter",
            "uuid": "194CBDF5-7923-3595-8ED9-4159C6EA139D",
            "matrix": [-1,0,0,0,0,0,1,0,0,1,0,0,2.24,0,0,1],
            "visible": true,
            "type": "Mesh",
            "material": "B92F5ACA-E24A-3A69-B2DD-69B8C9C5682C",
            "castShadow": true,
            "receiveShadow": true,
            "geometry": "D7E13E5F-692D-38E5-AA71-493556ECD579"
        },{
            "name": "halter1",
            "uuid": "660A53DC-2785-3A65-80B4-861D0FECA711",
            "matrix": [-1,0,0,0,0,0,1,0,0,1,0,0,-2.24,0,0,1],
            "visible": true,
            "type": "Mesh",
            "material": "B92F5ACA-E24A-3A69-B2DD-69B8C9C5682C",
            "castShadow": true,
            "receiveShadow": true,
            "geometry": "06F86342-7528-3807-B194-35D5635B475B"
        },{
            "name": "rohr",
            "uuid": "F99F0B1F-5F26-396E-96CD-395727CC61F1",
            "matrix": [0,1,0,0,0,0,0.7,0,1,-0,0,0,0,-0.08,0,1],
            "visible": true,
            "type": "Mesh",
            "material": "B92F5ACA-E24A-3A69-B2DD-69B8C9C5682C",
            "castShadow": true,
            "receiveShadow": true,
            "geometry": "D947C1F8-322B-3B6F-B7A3-6B7046085C2B"
        }],
        "type": "Scene",
        "uuid": "E39E355E-7AD1-40A8-8072-8175D2A0E967"
    },
    "metadata": {
        "generator": "io_three",
        "type": "Object",
        "version": 4.4
    },
    "animations": [{
        "name": "default",
        "tracks": [],
        "fps": 29
    }],
    "images": []
}