{
    "materials": [{
        "ambient": 16777215,
        "shininess": 50,
        "emissive": 0,
        "type": "MeshPhongMaterial",
        "vertexColors": false,
        "uuid": "A05C207B-E3D1-3023-96B3-1D1FFEA34A95",
        "specular": 0,
        "color": 16777215,
        "name": "ffffff",
        "blending": "NormalBlending",
        "depthWrite": true,
        "depthTest": true
    },{
        "ambient": 16777215,
        "shininess": 50,
        "emissive": 0,
        "type": "MeshPhongMaterial",
        "vertexColors": false,
        "uuid": "EBEEF0BF-3581-3563-AE10-379FF032D230",
        "specular": 197379,
        "color": 16777215,
        "name": "Physical1",
        "blending": "NormalBlending",
        "depthWrite": true,
        "depthTest": true
    }],
    "images": [],
    "metadata": {
        "generator": "io_three",
        "version": 4.4,
        "type": "Object"
    },
    "textures": [],
    "object": {
        "matrix": [1,0,0,0,0,1,0,0,0,0,1,0,0,0,0,1],
        "uuid": "2433F2C0-DCBB-4BBA-AE29-66CB717E87F2",
        "children": [{
            "name": "halter",
            "uuid": "194CBDF5-7923-3595-8ED9-4159C6EA139D",
            "matrix": [-1,0,0,0,0,0,1,0,0,1,0,0,-2.16,-0.2133,0,1],
            "visible": true,
            "type": "Mesh",
            "material": "EBEEF0BF-3581-3563-AE10-379FF032D230",
            "castShadow": true,
            "receiveShadow": true,
            "geometry": "D7E13E5F-692D-38E5-AA71-493556ECD579"
        },{
            "name": "halter1",
            "uuid": "660A53DC-2785-3A65-80B4-861D0FECA711",
            "matrix": [1,0,0,0,0,0,-1,0,0,1,0,0,2.16,-0.2133,0,1],
            "visible": true,
            "type": "Mesh",
            "material": "EBEEF0BF-3581-3563-AE10-379FF032D230",
            "castShadow": true,
            "receiveShadow": true,
            "geometry": "06F86342-7528-3807-B194-35D5635B475B"
        },{
            "name": "regal",
            "uuid": "0E012B89-A200-323D-84E4-447E76313465",
            "matrix": [-1,0,0,0,0,0,1,0,0,1,0,0,0,0.1367,0,1],
            "visible": true,
            "type": "Mesh",
            "material": "A05C207B-E3D1-3023-96B3-1D1FFEA34A95",
            "castShadow": true,
            "receiveShadow": true,
            "geometry": "6FA48242-4A37-3164-8001-8D25BC2E064F"
        }],
        "type": "Scene"
    },
    "geometries": [{
        "materials": [{
            "colorAmbient": [1,1,1],
            "DbgName": "Physical1",
            "DbgColor": 15658734,
            "visible": true,
            "colorEmissive": [0,0,0],
            "colorDiffuse": [1,1,1],
            "transparent": false,
            "DbgIndex": 0,
            "opacity": 1,
            "colorSpecular": [0.012,0.012,0.012],
            "shading": "phong",
            "blending": "NormalBlending",
            "depthWrite": true,
            "depthTest": true,
            "wireframe": false,
            "specularCoef": 50
        }],
        "data": {
            "skinIndices": [],
            "influencesPerVertex": 2,
            "morphTargets": [],
            "normals": [0.577349,-0.577349,0.577349,0.577349,-0.577349,-0.577349,0.577349,0.577349,-0.577349,0.577349,0.577349,0.577349,-0.577349,0.577349,0.577349,-0.577349,0.577349,-0.577349,-0.577349,-0.577349,-0.577349,-0.577349,-0.577349,0.577349],
            "animations": [],
            "bones": [],
            "skinWeights": [],
            "vertices": [0.1,-0.16,0.125,0.1,0.16,0.125,0.1,-0.16,-0.225,0.1,0.16,-0.225,0.09,0.16,0.125,0.09,-0.16,0.125,0.09,0.16,-0.225,0.09,-0.16,-0.225,0.1,-0.3,0.225,0.1,0.3,0.225,0.1,-0.3,0.125,0.1,0.3,0.125,-0.1,0.3,0.225,-0.1,-0.3,0.225,-0.1,0.3,0.125,-0.1,-0.3,0.125,0.1,-0.3,0.475,0.1,0.3,0.475,0.1,-0.3,0.225,0.1,0.3,0.225,0.09,0.3,0.475,0.09,-0.3,0.475,0.09,0.3,0.225,0.09,-0.3,0.225,0.1,-0.3,0.515,0.1,0.3,0.515,0.1,-0.3,0.475,0.1,0.3,0.475,-0.1,0.3,0.515,-0.1,-0.3,0.515,-0.1,0.3,0.475,-0.1,-0.3,0.475],
            "faces": [42,0,2,3,0,0,1,1,0,1,2,42,0,3,1,0,0,1,0,0,2,3,42,4,6,7,0,2,3,3,4,5,6,42,4,7,5,0,2,3,2,4,6,7,42,4,5,0,0,4,5,6,4,7,0,42,4,0,1,0,4,6,7,4,0,3,42,7,6,3,0,4,5,6,6,5,2,42,7,3,2,0,4,6,7,6,2,1,42,5,7,2,0,8,9,9,7,6,1,42,5,2,0,0,8,9,8,7,1,0,42,1,3,6,0,8,6,9,3,2,5,42,1,6,4,0,8,9,8,3,5,4,42,8,10,11,0,10,0,0,0,1,2,42,8,11,9,0,10,0,10,0,2,3,42,12,14,15,0,10,0,0,4,5,6,42,12,15,13,0,10,0,10,4,6,7,42,12,13,8,0,11,12,13,4,7,0,42,12,8,9,0,11,13,14,4,0,3,42,15,14,11,0,11,12,13,6,5,2,42,15,11,10,0,11,13,14,6,2,1,42,13,15,10,0,10,0,0,7,6,1,42,13,10,8,0,10,0,10,7,1,0,42,9,11,14,0,10,0,0,3,2,5,42,9,14,12,0,10,0,10,3,5,4,42,16,18,19,0,15,10,10,0,1,2,42,16,19,17,0,15,10,15,0,2,3,42,20,22,23,0,16,17,17,4,5,6,42,20,23,21,0,16,17,16,4,6,7,42,20,21,16,0,18,19,13,4,7,0,42,20,16,17,0,18,13,14,4,0,3,42,23,22,19,0,18,19,13,6,5,2,42,23,19,18,0,18,13,14,6,2,1,42,21,23,18,0,20,21,10,7,6,1,42,21,18,16,0,20,10,15,7,1,0,42,17,19,22,0,15,10,21,3,2,5,42,17,22,20,0,15,21,20,3,5,4,42,24,26,27,0,22,15,15,0,1,2,42,24,27,25,0,22,15,22,0,2,3,42,28,30,31,0,22,15,15,4,5,6,42,28,31,29,0,22,15,22,4,6,7,42,28,29,24,0,11,22,13,4,7,0,42,28,24,25,0,11,13,14,4,0,3,42,31,30,27,0,11,12,13,6,5,2,42,31,27,26,0,11,13,14,6,2,1,42,29,31,26,0,22,15,15,7,6,1,42,29,26,24,0,22,15,22,7,1,0,42,25,27,30,0,22,15,15,3,2,5,42,25,30,28,0,22,15,22,3,5,4],
            "metadata": {
                "bones": 0,
                "morphTargets": 0,
                "vertices": 32,
                "materials": 1,
                "generator": "io_three",
                "uvs": 1,
                "faces": 48,
                "version": 3,
                "normals": 8
            },
            "uvs": [[-0,0.472973,-0,0,0.95,0.472973,0.95,0,0.766667,0.05,0.233333,0.05,0.233333,-0,0.766667,-0,0.233333,0.472973,0.233333,0,-0,0.608108,1,1,-0,1,-0,-0,1,-0,-0,0.945946,0.95,0.945946,0.95,0.608108,1,0.05,-0,0.05,-0,0.945946,-0,0.608108,-0,1]],
            "name": "halterGeometry"
        },
        "uuid": "D7E13E5F-692D-38E5-AA71-493556ECD579",
        "type": "Geometry"
    },{
        "materials": [{
            "colorAmbient": [1,1,1],
            "DbgName": "ffffff",
            "DbgColor": 15658734,
            "visible": true,
            "colorEmissive": [0,0,0],
            "colorDiffuse": [1,1,1],
            "transparent": false,
            "DbgIndex": 0,
            "opacity": 1,
            "colorSpecular": [0.001176,0.001176,0.001176],
            "shading": "phong",
            "blending": "NormalBlending",
            "depthWrite": true,
            "depthTest": true,
            "wireframe": false,
            "specularCoef": 50
        }],
        "data": {
            "skinIndices": [],
            "influencesPerVertex": 2,
            "morphTargets": [],
            "normals": [0.577349,-0.577349,0.577349,0.577349,-0.577349,-0.577349,0.577349,0.577349,-0.577349,0.577349,0.577349,0.577349,-0.577349,0.577349,0.577349,-0.577349,0.577349,-0.577349,-0.577349,-0.577349,-0.577349,-0.577349,-0.577349,0.577349],
            "animations": [],
            "bones": [],
            "skinWeights": [],
            "vertices": [2.25,-2,0.125,2.25,2,0.125,2.25,-2,-0.125,2.25,2,-0.125,-2.25,2,0.125,-2.25,-2,0.125,-2.25,2,-0.125,-2.25,-2,-0.125],
            "faces": [42,0,2,3,0,0,1,2,0,1,2,42,0,3,1,0,0,2,3,0,2,3,42,4,6,7,0,0,1,2,4,5,6,42,4,7,5,0,0,2,3,4,6,7,42,4,5,0,0,0,1,2,4,7,0,42,4,0,1,0,0,2,3,4,0,3,42,7,6,3,0,2,3,0,6,5,2,42,7,3,2,0,2,0,1,6,2,1,42,5,7,2,0,0,1,2,7,6,1,42,5,2,0,0,0,2,3,7,1,0,42,1,3,6,0,0,1,2,3,2,5,42,1,6,4,0,0,2,3,3,5,4],
            "metadata": {
                "bones": 0,
                "morphTargets": 0,
                "vertices": 8,
                "materials": 1,
                "generator": "io_three",
                "uvs": 1,
                "faces": 12,
                "version": 3,
                "normals": 8
            },
            "uvs": [[0,1,0,0,1,0,1,1]],
            "name": "regalGeometry"
        },
        "uuid": "6FA48242-4A37-3164-8001-8D25BC2E064F",
        "type": "Geometry"
    },{
        "materials": [{
            "colorAmbient": [1,1,1],
            "DbgName": "Physical1",
            "DbgColor": 15658734,
            "visible": true,
            "colorEmissive": [0,0,0],
            "colorDiffuse": [1,1,1],
            "transparent": false,
            "DbgIndex": 0,
            "opacity": 1,
            "colorSpecular": [0.012,0.012,0.012],
            "shading": "phong",
            "blending": "NormalBlending",
            "depthWrite": true,
            "depthTest": true,
            "wireframe": false,
            "specularCoef": 50
        }],
        "data": {
            "skinIndices": [],
            "influencesPerVertex": 2,
            "morphTargets": [],
            "normals": [0.577349,-0.577349,0.577349,0.577349,-0.577349,-0.577349,0.577349,0.577349,-0.577349,0.577349,0.577349,0.577349,-0.577349,0.577349,0.577349,-0.577349,0.577349,-0.577349,-0.577349,-0.577349,-0.577349,-0.577349,-0.577349,0.577349],
            "animations": [],
            "bones": [],
            "skinWeights": [],
            "vertices": [0.1,-0.16,0.125,0.1,0.16,0.125,0.1,-0.16,-0.225,0.1,0.16,-0.225,0.09,0.16,0.125,0.09,-0.16,0.125,0.09,0.16,-0.225,0.09,-0.16,-0.225,0.1,-0.3,0.225,0.1,0.3,0.225,0.1,-0.3,0.125,0.1,0.3,0.125,-0.1,0.3,0.225,-0.1,-0.3,0.225,-0.1,0.3,0.125,-0.1,-0.3,0.125,0.1,-0.3,0.475,0.1,0.3,0.475,0.1,-0.3,0.225,0.1,0.3,0.225,0.09,0.3,0.475,0.09,-0.3,0.475,0.09,0.3,0.225,0.09,-0.3,0.225,0.1,-0.3,0.515,0.1,0.3,0.515,0.1,-0.3,0.475,0.1,0.3,0.475,-0.1,0.3,0.515,-0.1,-0.3,0.515,-0.1,0.3,0.475,-0.1,-0.3,0.475],
            "faces": [42,0,2,3,0,0,1,1,0,1,2,42,0,3,1,0,0,1,0,0,2,3,42,4,6,7,0,2,3,3,4,5,6,42,4,7,5,0,2,3,2,4,6,7,42,4,5,0,0,4,5,6,4,7,0,42,4,0,1,0,4,6,7,4,0,3,42,7,6,3,0,4,5,6,6,5,2,42,7,3,2,0,4,6,7,6,2,1,42,5,7,2,0,8,9,9,7,6,1,42,5,2,0,0,8,9,8,7,1,0,42,1,3,6,0,8,6,9,3,2,5,42,1,6,4,0,8,9,8,3,5,4,42,8,10,11,0,10,0,0,0,1,2,42,8,11,9,0,10,0,10,0,2,3,42,12,14,15,0,10,0,0,4,5,6,42,12,15,13,0,10,0,10,4,6,7,42,12,13,8,0,11,12,13,4,7,0,42,12,8,9,0,11,13,14,4,0,3,42,15,14,11,0,11,12,13,6,5,2,42,15,11,10,0,11,13,14,6,2,1,42,13,15,10,0,10,0,0,7,6,1,42,13,10,8,0,10,0,10,7,1,0,42,9,11,14,0,10,0,0,3,2,5,42,9,14,12,0,10,0,10,3,5,4,42,16,18,19,0,15,10,10,0,1,2,42,16,19,17,0,15,10,15,0,2,3,42,20,22,23,0,16,17,17,4,5,6,42,20,23,21,0,16,17,16,4,6,7,42,20,21,16,0,18,19,13,4,7,0,42,20,16,17,0,18,13,14,4,0,3,42,23,22,19,0,18,19,13,6,5,2,42,23,19,18,0,18,13,14,6,2,1,42,21,23,18,0,20,21,10,7,6,1,42,21,18,16,0,20,10,15,7,1,0,42,17,19,22,0,15,10,21,3,2,5,42,17,22,20,0,15,21,20,3,5,4,42,24,26,27,0,22,15,15,0,1,2,42,24,27,25,0,22,15,22,0,2,3,42,28,30,31,0,22,15,15,4,5,6,42,28,31,29,0,22,15,22,4,6,7,42,28,29,24,0,11,22,13,4,7,0,42,28,24,25,0,11,13,14,4,0,3,42,31,30,27,0,11,12,13,6,5,2,42,31,27,26,0,11,13,14,6,2,1,42,29,31,26,0,22,15,15,7,6,1,42,29,26,24,0,22,15,22,7,1,0,42,25,27,30,0,22,15,15,3,2,5,42,25,30,28,0,22,15,22,3,5,4],
            "metadata": {
                "bones": 0,
                "morphTargets": 0,
                "vertices": 32,
                "materials": 1,
                "generator": "io_three",
                "uvs": 1,
                "faces": 48,
                "version": 3,
                "normals": 8
            },
            "uvs": [[-0,0.472973,-0,0,0.95,0.472973,0.95,0,0.766667,0.05,0.233333,0.05,0.233333,-0,0.766667,-0,0.233333,0.472973,0.233333,0,-0,0.608108,1,1,-0,1,-0,-0,1,-0,-0,0.945946,0.95,0.945946,0.95,0.608108,1,0.05,-0,0.05,-0,0.945946,-0,0.608108,-0,1]],
            "name": "halter1Geometry"
        },
        "uuid": "06F86342-7528-3807-B194-35D5635B475B",
        "type": "Geometry"
    }],
    "animations": [{
        "tracks": [],
        "fps": 29,
        "name": "default"
    }]
}