{
    "object": {
        "uuid": "26D7BCB3-941C-46BC-B748-C607D9AB50D8",
        "type": "Scene",
        "matrix": [1,0,0,0,0,1,0,0,0,0,1,0,0,0,0,1],
        "children": [{
            "name": "halter",
            "uuid": "194CBDF5-7923-3595-8ED9-4159C6EA139D",
            "matrix": [-1,0,0,0,0,0,1,0,0,1,0,0,-3.85,-0.2133,0,1],
            "visible": true,
            "type": "Mesh",
            "material": "BAA12A36-7C84-3F45-BBC9-C98F423700AF",
            "castShadow": true,
            "receiveShadow": true,
            "geometry": "D7E13E5F-692D-38E5-AA71-493556ECD579"
        },{
            "name": "halter1",
            "uuid": "660A53DC-2785-3A65-80B4-861D0FECA711",
            "matrix": [1,0,0,0,0,0,-1,0,0,1,0,0,3.85,-0.2133,0,1],
            "visible": true,
            "type": "Mesh",
            "material": "BAA12A36-7C84-3F45-BBC9-C98F423700AF",
            "castShadow": true,
            "receiveShadow": true,
            "geometry": "06F86342-7528-3807-B194-35D5635B475B"
        },{
            "name": "regal",
            "uuid": "0E012B89-A200-323D-84E4-447E76313465",
            "matrix": [-1,0,0,0,0,0,1,0,0,1,0,0,0,0.1367,0,1],
            "visible": true,
            "type": "Mesh",
            "material": "93831B89-11B9-31B1-A879-E029ECAF81E8",
            "castShadow": true,
            "receiveShadow": true,
            "geometry": "6FA48242-4A37-3164-8001-8D25BC2E064F"
        }]
    },
    "animations": [{
        "tracks": [],
        "name": "default",
        "fps": 29
    }],
    "geometries": [{
        "uuid": "06F86342-7528-3807-B194-35D5635B475B",
        "type": "Geometry",
        "materials": [{
            "depthWrite": true,
            "colorSpecular": [0.012,0.012,0.012],
            "shading": "phong",
            "specularCoef": 50,
            "depthTest": true,
            "DbgColor": 15658734,
            "visible": true,
            "transparent": false,
            "opacity": 1,
            "DbgName": "Physical",
            "colorAmbient": [1,1,1],
            "colorDiffuse": [1,1,1],
            "blending": "NormalBlending",
            "DbgIndex": 0,
            "colorEmissive": [0,0,0],
            "wireframe": false
        }],
        "data": {
            "skinWeights": [],
            "skinIndices": [],
            "uvs": [[-0,0.472973,-0,0,0.95,0.472973,0.95,0,0.766667,0.05,0.233333,0.05,0.233333,-0,0.766667,-0,0.233333,0.472973,0.233333,0,-0,0.608108,1,1,-0,1,-0,-0,1,-0,-0,0.945946,0.95,0.945946,0.95,0.608108,1,0.05,-0,0.05,-0,0.945946,-0,0.608108,-0,1]],
            "animations": [],
            "normals": [0.577349,-0.577349,0.577349,0.577349,-0.577349,-0.577349,0.577349,0.577349,-0.577349,0.577349,0.577349,0.577349,-0.577349,0.577349,0.577349,-0.577349,0.577349,-0.577349,-0.577349,-0.577349,-0.577349,-0.577349,-0.577349,0.577349],
            "vertices": [0.1,-0.16,0.125,0.1,0.16,0.125,0.1,-0.16,-0.225,0.1,0.16,-0.225,0.09,0.16,0.125,0.09,-0.16,0.125,0.09,0.16,-0.225,0.09,-0.16,-0.225,0.1,-0.3,0.225,0.1,0.3,0.225,0.1,-0.3,0.125,0.1,0.3,0.125,-0.1,0.3,0.225,-0.1,-0.3,0.225,-0.1,0.3,0.125,-0.1,-0.3,0.125,0.1,-0.3,0.475,0.1,0.3,0.475,0.1,-0.3,0.225,0.1,0.3,0.225,0.09,0.3,0.475,0.09,-0.3,0.475,0.09,0.3,0.225,0.09,-0.3,0.225,0.1,-0.3,0.515,0.1,0.3,0.515,0.1,-0.3,0.475,0.1,0.3,0.475,-0.1,0.3,0.515,-0.1,-0.3,0.515,-0.1,0.3,0.475,-0.1,-0.3,0.475],
            "metadata": {
                "generator": "io_three",
                "version": 3,
                "normals": 8,
                "vertices": 32,
                "uvs": 1,
                "morphTargets": 0,
                "bones": 0,
                "materials": 1,
                "faces": 48
            },
            "morphTargets": [],
            "name": "halter1Geometry",
            "bones": [],
            "faces": [42,0,2,3,0,0,1,1,0,1,2,42,0,3,1,0,0,1,0,0,2,3,42,4,6,7,0,2,3,3,4,5,6,42,4,7,5,0,2,3,2,4,6,7,42,4,5,0,0,4,5,6,4,7,0,42,4,0,1,0,4,6,7,4,0,3,42,7,6,3,0,4,5,6,6,5,2,42,7,3,2,0,4,6,7,6,2,1,42,5,7,2,0,8,9,9,7,6,1,42,5,2,0,0,8,9,8,7,1,0,42,1,3,6,0,8,6,9,3,2,5,42,1,6,4,0,8,9,8,3,5,4,42,8,10,11,0,10,0,0,0,1,2,42,8,11,9,0,10,0,10,0,2,3,42,12,14,15,0,10,0,0,4,5,6,42,12,15,13,0,10,0,10,4,6,7,42,12,13,8,0,11,12,13,4,7,0,42,12,8,9,0,11,13,14,4,0,3,42,15,14,11,0,11,12,13,6,5,2,42,15,11,10,0,11,13,14,6,2,1,42,13,15,10,0,10,0,0,7,6,1,42,13,10,8,0,10,0,10,7,1,0,42,9,11,14,0,10,0,0,3,2,5,42,9,14,12,0,10,0,10,3,5,4,42,16,18,19,0,15,10,10,0,1,2,42,16,19,17,0,15,10,15,0,2,3,42,20,22,23,0,16,17,17,4,5,6,42,20,23,21,0,16,17,16,4,6,7,42,20,21,16,0,18,19,13,4,7,0,42,20,16,17,0,18,13,14,4,0,3,42,23,22,19,0,18,19,13,6,5,2,42,23,19,18,0,18,13,14,6,2,1,42,21,23,18,0,20,21,10,7,6,1,42,21,18,16,0,20,10,15,7,1,0,42,17,19,22,0,15,10,21,3,2,5,42,17,22,20,0,15,21,20,3,5,4,42,24,26,27,0,22,15,15,0,1,2,42,24,27,25,0,22,15,22,0,2,3,42,28,30,31,0,22,15,15,4,5,6,42,28,31,29,0,22,15,22,4,6,7,42,28,29,24,0,11,22,13,4,7,0,42,28,24,25,0,11,13,14,4,0,3,42,31,30,27,0,11,12,13,6,5,2,42,31,27,26,0,11,13,14,6,2,1,42,29,31,26,0,22,15,15,7,6,1,42,29,26,24,0,22,15,22,7,1,0,42,25,27,30,0,22,15,15,3,2,5,42,25,30,28,0,22,15,22,3,5,4],
            "influencesPerVertex": 2
        }
    },{
        "uuid": "D7E13E5F-692D-38E5-AA71-493556ECD579",
        "type": "Geometry",
        "materials": [{
            "depthWrite": true,
            "colorSpecular": [0.012,0.012,0.012],
            "shading": "phong",
            "specularCoef": 50,
            "depthTest": true,
            "DbgColor": 15658734,
            "visible": true,
            "transparent": false,
            "opacity": 1,
            "DbgName": "Physical",
            "colorAmbient": [1,1,1],
            "colorDiffuse": [1,1,1],
            "blending": "NormalBlending",
            "DbgIndex": 0,
            "colorEmissive": [0,0,0],
            "wireframe": false
        }],
        "data": {
            "skinWeights": [],
            "skinIndices": [],
            "uvs": [[-0,0.472973,-0,0,0.95,0.472973,0.95,0,0.766667,0.05,0.233333,0.05,0.233333,-0,0.766667,-0,0.233333,0.472973,0.233333,0,-0,0.608108,1,1,-0,1,-0,-0,1,-0,-0,0.945946,0.95,0.945946,0.95,0.608108,1,0.05,-0,0.05,-0,0.945946,-0,0.608108,-0,1]],
            "animations": [],
            "normals": [0.577349,-0.577349,0.577349,0.577349,-0.577349,-0.577349,0.577349,0.577349,-0.577349,0.577349,0.577349,0.577349,-0.577349,0.577349,0.577349,-0.577349,0.577349,-0.577349,-0.577349,-0.577349,-0.577349,-0.577349,-0.577349,0.577349],
            "vertices": [0.1,-0.16,0.125,0.1,0.16,0.125,0.1,-0.16,-0.225,0.1,0.16,-0.225,0.09,0.16,0.125,0.09,-0.16,0.125,0.09,0.16,-0.225,0.09,-0.16,-0.225,0.1,-0.3,0.225,0.1,0.3,0.225,0.1,-0.3,0.125,0.1,0.3,0.125,-0.1,0.3,0.225,-0.1,-0.3,0.225,-0.1,0.3,0.125,-0.1,-0.3,0.125,0.1,-0.3,0.475,0.1,0.3,0.475,0.1,-0.3,0.225,0.1,0.3,0.225,0.09,0.3,0.475,0.09,-0.3,0.475,0.09,0.3,0.225,0.09,-0.3,0.225,0.1,-0.3,0.515,0.1,0.3,0.515,0.1,-0.3,0.475,0.1,0.3,0.475,-0.1,0.3,0.515,-0.1,-0.3,0.515,-0.1,0.3,0.475,-0.1,-0.3,0.475],
            "metadata": {
                "generator": "io_three",
                "version": 3,
                "normals": 8,
                "vertices": 32,
                "uvs": 1,
                "morphTargets": 0,
                "bones": 0,
                "materials": 1,
                "faces": 48
            },
            "morphTargets": [],
            "name": "halterGeometry",
            "bones": [],
            "faces": [42,0,2,3,0,0,1,1,0,1,2,42,0,3,1,0,0,1,0,0,2,3,42,4,6,7,0,2,3,3,4,5,6,42,4,7,5,0,2,3,2,4,6,7,42,4,5,0,0,4,5,6,4,7,0,42,4,0,1,0,4,6,7,4,0,3,42,7,6,3,0,4,5,6,6,5,2,42,7,3,2,0,4,6,7,6,2,1,42,5,7,2,0,8,9,9,7,6,1,42,5,2,0,0,8,9,8,7,1,0,42,1,3,6,0,8,6,9,3,2,5,42,1,6,4,0,8,9,8,3,5,4,42,8,10,11,0,10,0,0,0,1,2,42,8,11,9,0,10,0,10,0,2,3,42,12,14,15,0,10,0,0,4,5,6,42,12,15,13,0,10,0,10,4,6,7,42,12,13,8,0,11,12,13,4,7,0,42,12,8,9,0,11,13,14,4,0,3,42,15,14,11,0,11,12,13,6,5,2,42,15,11,10,0,11,13,14,6,2,1,42,13,15,10,0,10,0,0,7,6,1,42,13,10,8,0,10,0,10,7,1,0,42,9,11,14,0,10,0,0,3,2,5,42,9,14,12,0,10,0,10,3,5,4,42,16,18,19,0,15,10,10,0,1,2,42,16,19,17,0,15,10,15,0,2,3,42,20,22,23,0,16,17,17,4,5,6,42,20,23,21,0,16,17,16,4,6,7,42,20,21,16,0,18,19,13,4,7,0,42,20,16,17,0,18,13,14,4,0,3,42,23,22,19,0,18,19,13,6,5,2,42,23,19,18,0,18,13,14,6,2,1,42,21,23,18,0,20,21,10,7,6,1,42,21,18,16,0,20,10,15,7,1,0,42,17,19,22,0,15,10,21,3,2,5,42,17,22,20,0,15,21,20,3,5,4,42,24,26,27,0,22,15,15,0,1,2,42,24,27,25,0,22,15,22,0,2,3,42,28,30,31,0,22,15,15,4,5,6,42,28,31,29,0,22,15,22,4,6,7,42,28,29,24,0,11,22,13,4,7,0,42,28,24,25,0,11,13,14,4,0,3,42,31,30,27,0,11,12,13,6,5,2,42,31,27,26,0,11,13,14,6,2,1,42,29,31,26,0,22,15,15,7,6,1,42,29,26,24,0,22,15,22,7,1,0,42,25,27,30,0,22,15,15,3,2,5,42,25,30,28,0,22,15,22,3,5,4],
            "influencesPerVertex": 2
        }
    },{
        "uuid": "6FA48242-4A37-3164-8001-8D25BC2E064F",
        "type": "Geometry",
        "materials": [{
            "depthWrite": true,
            "colorSpecular": [0.012549,0.012549,0.012549],
            "shading": "phong",
            "specularCoef": 50,
            "depthTest": true,
            "mapDiffuseWrap": ["RepeatWrapping","RepeatWrapping"],
            "DbgColor": 15658734,
            "visible": true,
            "mapDiffuseRepeat": [1,1],
            "mapDiffuseAnisotropy": 1,
            "transparent": false,
            "opacity": 1,
            "DbgName": "Standard",
            "colorAmbient": [1,1,1],
            "colorDiffuse": [1,1,1],
            "blending": "NormalBlending",
            "DbgIndex": 0,
            "colorEmissive": [0,0,0],
            "wireframe": false,
            "mapDiffuse": "eichekachel.jpg"
        }],
        "data": {
            "skinWeights": [],
            "skinIndices": [],
            "uvs": [[0,1,0,0,1,0,1,1]],
            "animations": [],
            "normals": [0.577349,-0.577349,0.577349,0.577349,-0.577349,-0.577349,0.577349,0.577349,-0.577349,0.577349,0.577349,0.577349,-0.577349,0.577349,0.577349,-0.577349,0.577349,-0.577349,-0.577349,-0.577349,-0.577349,-0.577349,-0.577349,0.577349],
            "vertices": [3.94,-2,0.125,3.94,2,0.125,3.94,-2,-0.125,3.94,2,-0.125,-3.94,2,0.125,-3.94,-2,0.125,-3.94,2,-0.125,-3.94,-2,-0.125],
            "metadata": {
                "generator": "io_three",
                "version": 3,
                "normals": 8,
                "vertices": 8,
                "uvs": 1,
                "morphTargets": 0,
                "bones": 0,
                "materials": 1,
                "faces": 12
            },
            "morphTargets": [],
            "name": "regalGeometry",
            "bones": [],
            "faces": [42,0,2,3,0,0,1,2,0,1,2,42,0,3,1,0,0,2,3,0,2,3,42,4,6,7,0,0,1,2,4,5,6,42,4,7,5,0,0,2,3,4,6,7,42,4,5,0,0,0,1,2,4,7,0,42,4,0,1,0,0,2,3,4,0,3,42,7,6,3,0,2,3,0,6,5,2,42,7,3,2,0,2,0,1,6,2,1,42,5,7,2,0,0,1,2,7,6,1,42,5,2,0,0,0,2,3,7,1,0,42,1,3,6,0,0,1,2,3,2,5,42,1,6,4,0,0,2,3,3,5,4],
            "influencesPerVertex": 2
        }
    }],
    "metadata": {
        "type": "Object",
        "generator": "io_three",
        "version": 4.4
    },
    "images": [{
        "uuid": "1204D9F8-3791-34D0-AE97-BA70E75B703C",
        "name": "eichekachel.jpg",
        "url": "eichekachel.jpg"
    }],
    "textures": [{
        "image": "1204D9F8-3791-34D0-AE97-BA70E75B703C",
        "minFilter": 1008,
        "wrap": [1000,1000],
        "magFilter": 1006,
        "mapping": 300,
        "uuid": "294CA821-5296-38EE-8B34-96C75BA90131",
        "name": "eichekachel_jpg",
        "anisotropy": 1,
        "repeat": [1,1]
    }],
    "materials": [{
        "depthWrite": true,
        "shininess": 50,
        "uuid": "BAA12A36-7C84-3F45-BBC9-C98F423700AF",
        "specular": 197379,
        "color": 16777215,
        "blending": "NormalBlending",
        "emissive": 0,
        "ambient": 16777215,
        "depthTest": true,
        "type": "MeshPhongMaterial",
        "vertexColors": false,
        "name": "Physical"
    },{
        "depthWrite": true,
        "shininess": 50,
        "uuid": "93831B89-11B9-31B1-A879-E029ECAF81E8",
        "specular": 197379,
        "color": 16777215,
        "map": "294CA821-5296-38EE-8B34-96C75BA90131",
        "blending": "NormalBlending",
        "emissive": 0,
        "ambient": 16777215,
        "depthTest": true,
        "type": "MeshPhongMaterial",
        "vertexColors": false,
        "name": "Standard"
    }]
}