{
    "geometries": [{
        "type": "Geometry",
        "data": {
            "normals": [0.577349,-0.577349,0.577349,0.577349,-0.577349,-0.577349,0.577349,0.577349,-0.577349,0.577349,0.577349,0.577349,-0.577349,0.577349,0.577349,-0.577349,0.577349,-0.577349,-0.577349,-0.577349,-0.577349,-0.577349,-0.577349,0.577349],
            "metadata": {
                "materials": 1,
                "normals": 8,
                "faces": 48,
                "morphTargets": 0,
                "vertices": 32,
                "bones": 0,
                "generator": "io_three",
                "uvs": 1,
                "version": 3
            },
            "skinWeights": [],
            "vertices": [0.1,-0.16,0.125,0.1,0.16,0.125,0.1,-0.16,-0.225,0.1,0.16,-0.225,0.09,0.16,0.125,0.09,-0.16,0.125,0.09,0.16,-0.225,0.09,-0.16,-0.225,0.1,-0.3,0.225,0.1,0.3,0.225,0.1,-0.3,0.125,0.1,0.3,0.125,-0.1,0.3,0.225,-0.1,-0.3,0.225,-0.1,0.3,0.125,-0.1,-0.3,0.125,0.1,-0.3,0.475,0.1,0.3,0.475,0.1,-0.3,0.225,0.1,0.3,0.225,0.09,0.3,0.475,0.09,-0.3,0.475,0.09,0.3,0.225,0.09,-0.3,0.225,0.1,-0.3,0.515,0.1,0.3,0.515,0.1,-0.3,0.475,0.1,0.3,0.475,-0.1,0.3,0.515,-0.1,-0.3,0.515,-0.1,0.3,0.475,-0.1,-0.3,0.475],
            "influencesPerVertex": 2,
            "faces": [42,0,2,3,0,0,1,2,0,1,2,42,0,3,1,0,0,2,3,0,2,3,42,4,6,7,0,0,1,2,4,5,6,42,4,7,5,0,0,2,3,4,6,7,42,4,5,0,0,4,5,6,4,7,0,42,4,0,1,0,4,6,7,4,0,3,42,7,6,3,0,8,9,10,6,5,2,42,7,3,2,0,8,10,11,6,2,1,42,5,7,2,0,12,13,14,7,6,1,42,5,2,0,0,12,14,15,7,1,0,42,1,3,6,0,16,17,18,3,2,5,42,1,6,4,0,16,18,19,3,5,4,42,8,10,11,0,20,21,15,0,1,2,42,8,11,9,0,20,15,22,0,2,3,42,12,14,15,0,20,21,15,4,5,6,42,12,15,13,0,20,15,22,4,6,7,42,12,13,8,0,23,24,25,4,7,0,42,12,8,9,0,23,25,26,4,0,3,42,15,14,11,0,25,26,23,6,5,2,42,15,11,10,0,25,23,24,6,2,1,42,13,15,10,0,27,16,15,7,6,1,42,13,10,8,0,27,15,22,7,1,0,42,9,11,14,0,27,16,15,3,2,5,42,9,14,12,0,27,15,22,3,5,4,42,16,18,19,0,28,20,22,0,1,2,42,16,19,17,0,28,22,29,0,2,3,42,20,22,23,0,28,20,22,4,5,6,42,20,23,21,0,28,22,29,4,6,7,42,20,21,16,0,30,31,25,4,7,0,42,20,16,17,0,30,25,26,4,0,3,42,23,22,19,0,32,33,23,6,5,2,42,23,19,18,0,32,23,24,6,2,1,42,21,23,18,0,34,35,22,7,6,1,42,21,18,16,0,34,22,29,7,1,0,42,17,19,22,0,36,27,37,3,2,5,42,17,22,20,0,36,37,38,3,5,4,42,24,26,27,0,39,28,29,0,1,2,42,24,27,25,0,39,29,26,0,2,3,42,28,30,31,0,39,28,29,4,5,6,42,28,31,29,0,39,29,26,4,6,7,42,28,29,24,0,39,24,25,4,7,0,42,28,24,25,0,39,25,26,4,0,3,42,31,30,27,0,25,26,23,6,5,2,42,31,27,26,0,25,23,24,6,2,1,42,29,31,26,0,23,36,29,7,6,1,42,29,26,24,0,23,29,26,7,1,0,42,25,27,30,0,23,36,29,3,2,5,42,25,30,28,0,23,29,26,3,5,4],
            "name": "halterGeometry",
            "bones": [],
            "animations": [],
            "morphTargets": [],
            "uvs": [[0.233333,0.472973,0.233333,0,0.766667,0,0.766667,0.472973,0.95,0.766667,0.95,0.233333,1,0.233333,1,0.766667,0.05,0.233333,0.05,0.766667,-0,0.766667,-0,0.233333,0.95,0.472973,0.95,0,1,0,1,0.472973,-0,0.472973,-0,0,0.05,0,0.05,0.472973,-0,0.608108,-0,0.472973,1,0.608108,-0,1,-0,-0,1,-0,1,1,-0,0.608108,-0,0.945946,1,0.945946,0.95,1,0.95,-0,0.05,-0,0.05,1,0.95,0.945946,0.95,0.608108,-0,0.945946,0.05,0.608108,0.05,0.945946,-0,1]],
            "skinIndices": []
        },
        "uuid": "D7E13E5F-692D-38E5-AA71-493556ECD579",
        "materials": [{
            "DbgColor": 15658734,
            "specularCoef": 50,
            "colorEmissive": [0,0,0],
            "depthTest": true,
            "DbgIndex": 0,
            "blending": "NormalBlending",
            "colorDiffuse": [0.690196,0.690196,0.690196],
            "colorSpecular": [0.001176,0.001176,0.001176],
            "transparent": false,
            "depthWrite": true,
            "visible": true,
            "shading": "phong",
            "wireframe": false,
            "colorAmbient": [0.690196,0.690196,0.690196],
            "opacity": 1,
            "DbgName": "Physical"
        }]
    },{
        "type": "Geometry",
        "data": {
            "normals": [0.577349,-0.577349,0.577349,0.577349,-0.577349,-0.577349,0.577349,0.577349,-0.577349,0.577349,0.577349,0.577349,-0.577349,0.577349,0.577349,-0.577349,0.577349,-0.577349,-0.577349,-0.577349,-0.577349,-0.577349,-0.577349,0.577349],
            "metadata": {
                "materials": 1,
                "normals": 8,
                "faces": 12,
                "morphTargets": 0,
                "vertices": 8,
                "bones": 0,
                "generator": "io_three",
                "uvs": 1,
                "version": 3
            },
            "skinWeights": [],
            "vertices": [3.94,-1.5,0.125,3.94,1.5,0.125,3.94,-1.5,-0.125,3.94,1.5,-0.125,-3.94,1.5,0.125,-3.94,-1.5,0.125,-3.94,1.5,-0.125,-3.94,-1.5,-0.125],
            "influencesPerVertex": 2,
            "faces": [42,0,2,3,0,0,1,2,0,1,2,42,0,3,1,0,0,2,3,0,2,3,42,4,6,7,0,0,1,2,4,5,6,42,4,7,5,0,0,2,3,4,6,7,42,4,5,0,0,0,1,2,4,7,0,42,4,0,1,0,0,2,3,4,0,3,42,7,6,3,0,2,3,0,6,5,2,42,7,3,2,0,2,0,1,6,2,1,42,5,7,2,0,0,1,2,7,6,1,42,5,2,0,0,0,2,3,7,1,0,42,1,3,6,0,0,1,2,3,2,5,42,1,6,4,0,0,2,3,3,5,4],
            "name": "regalGeometry",
            "bones": [],
            "animations": [],
            "morphTargets": [],
            "uvs": [[0,1,0,0,1,0,1,1]],
            "skinIndices": []
        },
        "uuid": "6FA48242-4A37-3164-8001-8D25BC2E064F",
        "materials": [{
            "DbgColor": 15658734,
            "specularCoef": 50,
            "colorEmissive": [0,0,0],
            "depthTest": true,
            "DbgIndex": 0,
            "blending": "NormalBlending",
            "colorDiffuse": [1,1,1],
            "colorSpecular": [0.012549,0.012549,0.012549],
            "transparent": false,
            "depthWrite": true,
            "visible": true,
            "shading": "phong",
            "wireframe": false,
            "colorAmbient": [1,1,1],
            "opacity": 1,
            "DbgName": "Standard"
        }]
    },{
        "type": "Geometry",
        "data": {
            "normals": [0.577349,-0.577349,0.577349,0.577349,-0.577349,-0.577349,0.577349,0.577349,-0.577349,0.577349,0.577349,0.577349,-0.577349,0.577349,0.577349,-0.577349,0.577349,-0.577349,-0.577349,-0.577349,-0.577349,-0.577349,-0.577349,0.577349],
            "metadata": {
                "materials": 1,
                "normals": 8,
                "faces": 48,
                "morphTargets": 0,
                "vertices": 32,
                "bones": 0,
                "generator": "io_three",
                "uvs": 1,
                "version": 3
            },
            "skinWeights": [],
            "vertices": [0.1,-0.16,0.125,0.1,0.16,0.125,0.1,-0.16,-0.225,0.1,0.16,-0.225,0.09,0.16,0.125,0.09,-0.16,0.125,0.09,0.16,-0.225,0.09,-0.16,-0.225,0.1,-0.3,0.225,0.1,0.3,0.225,0.1,-0.3,0.125,0.1,0.3,0.125,-0.1,0.3,0.225,-0.1,-0.3,0.225,-0.1,0.3,0.125,-0.1,-0.3,0.125,0.1,-0.3,0.475,0.1,0.3,0.475,0.1,-0.3,0.225,0.1,0.3,0.225,0.09,0.3,0.475,0.09,-0.3,0.475,0.09,0.3,0.225,0.09,-0.3,0.225,0.1,-0.3,0.515,0.1,0.3,0.515,0.1,-0.3,0.475,0.1,0.3,0.475,-0.1,0.3,0.515,-0.1,-0.3,0.515,-0.1,0.3,0.475,-0.1,-0.3,0.475],
            "influencesPerVertex": 2,
            "faces": [42,0,2,3,0,0,1,2,0,1,2,42,0,3,1,0,0,2,3,0,2,3,42,4,6,7,0,0,1,2,4,5,6,42,4,7,5,0,0,2,3,4,6,7,42,4,5,0,0,4,5,6,4,7,0,42,4,0,1,0,4,6,7,4,0,3,42,7,6,3,0,8,9,10,6,5,2,42,7,3,2,0,8,10,11,6,2,1,42,5,7,2,0,12,13,14,7,6,1,42,5,2,0,0,12,14,15,7,1,0,42,1,3,6,0,16,17,18,3,2,5,42,1,6,4,0,16,18,19,3,5,4,42,8,10,11,0,20,21,15,0,1,2,42,8,11,9,0,20,15,22,0,2,3,42,12,14,15,0,20,21,15,4,5,6,42,12,15,13,0,20,15,22,4,6,7,42,12,13,8,0,23,24,25,4,7,0,42,12,8,9,0,23,25,26,4,0,3,42,15,14,11,0,25,26,23,6,5,2,42,15,11,10,0,25,23,24,6,2,1,42,13,15,10,0,27,16,15,7,6,1,42,13,10,8,0,27,15,22,7,1,0,42,9,11,14,0,27,16,15,3,2,5,42,9,14,12,0,27,15,22,3,5,4,42,16,18,19,0,28,20,22,0,1,2,42,16,19,17,0,28,22,29,0,2,3,42,20,22,23,0,28,20,22,4,5,6,42,20,23,21,0,28,22,29,4,6,7,42,20,21,16,0,30,31,25,4,7,0,42,20,16,17,0,30,25,26,4,0,3,42,23,22,19,0,32,33,23,6,5,2,42,23,19,18,0,32,23,24,6,2,1,42,21,23,18,0,34,35,22,7,6,1,42,21,18,16,0,34,22,29,7,1,0,42,17,19,22,0,36,27,37,3,2,5,42,17,22,20,0,36,37,38,3,5,4,42,24,26,27,0,39,28,29,0,1,2,42,24,27,25,0,39,29,26,0,2,3,42,28,30,31,0,39,28,29,4,5,6,42,28,31,29,0,39,29,26,4,6,7,42,28,29,24,0,39,24,25,4,7,0,42,28,24,25,0,39,25,26,4,0,3,42,31,30,27,0,25,26,23,6,5,2,42,31,27,26,0,25,23,24,6,2,1,42,29,31,26,0,23,36,29,7,6,1,42,29,26,24,0,23,29,26,7,1,0,42,25,27,30,0,23,36,29,3,2,5,42,25,30,28,0,23,29,26,3,5,4],
            "name": "halter1Geometry",
            "bones": [],
            "animations": [],
            "morphTargets": [],
            "uvs": [[0.233333,0.472973,0.233333,0,0.766667,0,0.766667,0.472973,0.95,0.766667,0.95,0.233333,1,0.233333,1,0.766667,0.05,0.233333,0.05,0.766667,-0,0.766667,-0,0.233333,0.95,0.472973,0.95,0,1,0,1,0.472973,-0,0.472973,-0,0,0.05,0,0.05,0.472973,-0,0.608108,-0,0.472973,1,0.608108,-0,1,-0,-0,1,-0,1,1,-0,0.608108,-0,0.945946,1,0.945946,0.95,1,0.95,-0,0.05,-0,0.05,1,0.95,0.945946,0.95,0.608108,-0,0.945946,0.05,0.608108,0.05,0.945946,-0,1]],
            "skinIndices": []
        },
        "uuid": "06F86342-7528-3807-B194-35D5635B475B",
        "materials": [{
            "DbgColor": 15658734,
            "specularCoef": 50,
            "colorEmissive": [0,0,0],
            "depthTest": true,
            "DbgIndex": 0,
            "blending": "NormalBlending",
            "colorDiffuse": [0.690196,0.690196,0.690196],
            "colorSpecular": [0.001176,0.001176,0.001176],
            "transparent": false,
            "depthWrite": true,
            "visible": true,
            "shading": "phong",
            "wireframe": false,
            "colorAmbient": [0.690196,0.690196,0.690196],
            "opacity": 1,
            "DbgName": "Physical"
        }]
    }],
    "materials": [{
        "emissive": 0,
        "depthTest": true,
        "blending": "NormalBlending",
        "color": 11579568,
        "uuid": "BAA12A36-7C84-3F45-BBC9-C98F423700AF",
        "name": "Physical",
        "depthWrite": true,
        "type": "MeshPhongMaterial",
        "vertexColors": false,
        "specular": 0,
        "shininess": 50,
        "ambient": 11579568
    },{
        "emissive": 0,
        "depthTest": true,
        "blending": "NormalBlending",
        "color": 16777215,
        "uuid": "93831B89-11B9-31B1-A879-E029ECAF81F2",
        "name": "Standard",
        "depthWrite": true,
        "type": "MeshPhongMaterial",
        "vertexColors": false,
        "specular": 197379,
        "shininess": 50,
        "ambient": 16777215
    }],
    "animations": [{
        "fps": 29,
        "name": "default",
        "tracks": []
    }],
    "images": [],
    "metadata": {
        "type": "Object",
        "generator": "io_three",
        "version": 4.4
    },
    "textures": [],
    "object": {
        "type": "Scene",
        "matrix": [1,0,0,0,0,1,0,0,0,0,1,0,0,0,0,1],
        "uuid": "CA207F9C-C28E-483A-A047-026CD7B0C045",
        "children": [{
            "name": "halter",
            "uuid": "194CBDF5-7923-3595-8ED9-4159C6EA139D",
            "matrix": [-1,0,0,0,0,0,1,0,0,1,0,0,-3.85,-0.2133,-0.5115,1],
            "visible": true,
            "type": "Mesh",
            "material": "BAA12A36-7C84-3F45-BBC9-C98F423700AF",
            "castShadow": true,
            "receiveShadow": true,
            "geometry": "D7E13E5F-692D-38E5-AA71-493556ECD579"
        },{
            "name": "halter1",
            "uuid": "660A53DC-2785-3A65-80B4-861D0FECA711",
            "matrix": [1,0,0,0,0,0,-1,0,0,1,0,0,3.85,-0.2133,-0.5,1],
            "visible": true,
            "type": "Mesh",
            "material": "BAA12A36-7C84-3F45-BBC9-C98F423700AF",
            "castShadow": true,
            "receiveShadow": true,
            "geometry": "06F86342-7528-3807-B194-35D5635B475B"
        },{
            "name": "regal",
            "uuid": "0E012B89-A200-323D-84E4-447E76313465",
            "matrix": [-1,0,0,0,0,0,1,0,0,1,0,0,0,0.1367,-0.5115,1],
            "visible": true,
            "type": "Mesh",
            "material": "93831B89-11B9-31B1-A879-E029ECAF81F2",
            "castShadow": true,
            "receiveShadow": true,
            "geometry": "6FA48242-4A37-3164-8001-8D25BC2E064F"
        }]
    }
}