{
    "materials": [{
        "name": "Standard",
        "depthTest": true,
        "type": "MeshPhongMaterial",
        "depthWrite": true,
        "emissive": 0,
        "ambient": 16777215,
        "color": 16777215,
        "vertexColors": false,
        "shininess": 50,
        "blending": "NormalBlending",
        "uuid": "93831B89-11B9-31B1-A879-E029ECAF81F2",
        "specular": 197379
    },{
        "name": "Standard1",
        "depthTest": true,
        "type": "MeshPhongMaterial",
        "map": "6693F8FB-7290-394A-AEE0-729CD78A84F1",
        "depthWrite": true,
        "emissive": 0,
        "ambient": 16777215,
        "color": 16777215,
        "vertexColors": false,
        "shininess": 50,
        "blending": "NormalBlending",
        "uuid": "8B031FCE-3051-3CDF-BA91-1FA294050D03",
        "specular": 197379
    }],
    "textures": [{
        "repeat": [1,1],
        "name": "boonkachel390_jpg",
        "minFilter": 1008,
        "uuid": "6693F8FB-7290-394A-AEE0-729CD78A84F1",
        "image": "400E6DFE-33BA-3D40-B72E-B2C8303FC453",
        "anisotropy": 1,
        "wrap": [1000,1000],
        "magFilter": 1006,
        "mapping": 300
    }],
    "animations": [{
        "name": "default",
        "tracks": [],
        "fps": 29
    }],
    "metadata": {
        "version": 4.4,
        "generator": "io_three",
        "type": "Object"
    },
    "images": [{
        "url": "boonkachel390.jpg",
        "name": "boonkachel390.jpg",
        "uuid": "400E6DFE-33BA-3D40-B72E-B2C8303FC453"
    }],
    "object": {
        "children": [{
            "name": "Box",
            "uuid": "DDA9AE26-14F9-3E6A-9BDD-AF02F6D2F286",
            "matrix": [-1,0,0,0,0,0,1,0,0,1,0,0,0,0,0,1],
            "visible": true,
            "type": "Mesh",
            "material": "93831B89-11B9-31B1-A879-E029ECAF81F2",
            "castShadow": true,
            "receiveShadow": true,
            "geometry": "15641190-4052-3871-BF5E-F046F6B1B496"
        },{
            "name": "Box1",
            "uuid": "13AB8362-B9AF-310A-8509-00DC96972EBC",
            "matrix": [-1,0,0,0,0,0,1,0,0,1,0,0,0,0,0,1],
            "visible": true,
            "type": "Mesh",
            "material": "8B031FCE-3051-3CDF-BA91-1FA294050D03",
            "castShadow": true,
            "receiveShadow": true,
            "geometry": "0813763B-3A95-3717-A405-7EEF112B324A"
        }],
        "uuid": "B28DB534-7BE1-48E0-9AE4-58A96202C1CC",
        "matrix": [1,0,0,0,0,1,0,0,0,0,1,0,0,0,0,1],
        "type": "Scene"
    },
    "geometries": [{
        "uuid": "0813763B-3A95-3717-A405-7EEF112B324A",
        "data": {
            "skinWeights": [],
            "uvs": [[0,1,0,0,1,0,1,1]],
            "name": "Box1Geometry",
            "bones": [],
            "vertices": [2.85,-1.64,0.14,2.85,1.64,0.14,2.85,-1.64,-0.14,2.85,1.64,-0.14,-2.85,1.64,0.14,-2.85,-1.64,0.14,-2.85,1.64,-0.14,-2.85,-1.64,-0.14],
            "normals": [0,-1,0,0,1,0],
            "faces": [42,5,7,2,0,0,1,2,0,0,0,42,5,2,0,0,0,2,3,0,0,0,42,1,3,6,0,0,1,2,1,1,1,42,1,6,4,0,0,2,3,1,1,1],
            "skinIndices": [],
            "influencesPerVertex": 2,
            "morphTargets": [],
            "animations": [],
            "metadata": {
                "faces": 4,
                "uvs": 1,
                "materials": 1,
                "morphTargets": 0,
                "bones": 0,
                "vertices": 8,
                "generator": "io_three",
                "normals": 2,
                "version": 3
            }
        },
        "materials": [{
            "mapDiffuseWrap": ["RepeatWrapping","RepeatWrapping"],
            "colorEmissive": [0,0,0],
            "colorAmbient": [1,1,1],
            "mapDiffuseRepeat": [1,1],
            "visible": true,
            "depthWrite": true,
            "specularCoef": 50,
            "transparent": false,
            "mapDiffuseAnisotropy": 1,
            "DbgName": "Standard1",
            "wireframe": false,
            "DbgColor": 15658734,
            "mapDiffuse": "boonkachel390.jpg",
            "blending": "NormalBlending",
            "shading": "phong",
            "depthTest": true,
            "colorDiffuse": [1,1,1],
            "opacity": 1,
            "colorSpecular": [0.012549,0.012549,0.012549],
            "DbgIndex": 0
        }],
        "type": "Geometry"
    },{
        "uuid": "15641190-4052-3871-BF5E-F046F6B1B496",
        "data": {
            "skinWeights": [],
            "uvs": [[0,1,0,0,1,0,1,1]],
            "name": "BoxGeometry",
            "bones": [],
            "vertices": [2.85,-1.64,0.14,2.85,1.64,0.14,2.85,-1.64,-0.14,2.85,1.64,-0.14,-2.85,1.64,0.14,-2.85,-1.64,0.14,-2.85,1.64,-0.14,-2.85,-1.64,-0.14],
            "normals": [0.707083,0,0.707083,0.707083,0,-0.707083,-0.707083,0,0.707083,-0.707083,0,-0.707083],
            "faces": [42,0,2,3,0,0,1,2,0,1,1,42,0,3,1,0,0,2,3,0,1,0,42,4,6,7,0,0,1,2,2,3,3,42,4,7,5,0,0,2,3,2,3,2,42,4,5,0,0,0,1,2,2,2,0,42,4,0,1,0,0,2,3,2,0,0,42,7,6,3,0,2,3,0,3,3,1,42,7,3,2,0,2,0,1,3,1,1],
            "skinIndices": [],
            "influencesPerVertex": 2,
            "morphTargets": [],
            "animations": [],
            "metadata": {
                "faces": 8,
                "uvs": 1,
                "materials": 1,
                "morphTargets": 0,
                "bones": 0,
                "vertices": 8,
                "generator": "io_three",
                "normals": 4,
                "version": 3
            }
        },
        "materials": [{
            "colorEmissive": [0,0,0],
            "colorAmbient": [1,1,1],
            "visible": true,
            "depthWrite": true,
            "specularCoef": 50,
            "transparent": false,
            "DbgName": "Standard",
            "wireframe": false,
            "DbgColor": 15658734,
            "blending": "NormalBlending",
            "shading": "phong",
            "depthTest": true,
            "colorDiffuse": [1,1,1],
            "opacity": 1,
            "colorSpecular": [0.012549,0.012549,0.012549],
            "DbgIndex": 0
        }],
        "type": "Geometry"
    }]
}