{
    "images": [],
    "object": {
        "children": [{
            "name": "halter",
            "uuid": "194CBDF5-7923-3595-8ED9-4159C6EA139D",
            "matrix": [-1,0,0,0,0,0,1,0,0,1,0,0,0.2756,-1.1349,0.75,1],
            "visible": true,
            "type": "Mesh",
            "material": "BAA12A36-7C84-3F45-BBC9-C98F423700AF",
            "castShadow": true,
            "receiveShadow": true,
            "geometry": "D7E13E5F-692D-38E5-AA71-493556ECD579"
        },{
            "name": "halter1",
            "uuid": "660A53DC-2785-3A65-80B4-861D0FECA711",
            "matrix": [-1,0,0,0,0,0,1,0,0,1,0,0,-0.9433,-0.64,0.75,1],
            "visible": true,
            "type": "Mesh",
            "material": "BAA12A36-7C84-3F45-BBC9-C98F423700AF",
            "castShadow": true,
            "receiveShadow": true,
            "geometry": "06F86342-7528-3807-B194-35D5635B475B"
        },{
            "name": "regal",
            "uuid": "0E012B89-A200-323D-84E4-447E76313465",
            "matrix": [-1,0,0,0,0,0,1,0,0,1,0,0,0.0033,-1.1349,0,1],
            "visible": true,
            "type": "Mesh",
            "material": "93831B89-11B9-31B1-A879-E029ECAF81F2",
            "castShadow": true,
            "receiveShadow": true,
            "geometry": "6FA48242-4A37-3164-8001-8D25BC2E064F"
        }],
        "type": "Scene",
        "matrix": [1,0,0,0,0,1,0,0,0,0,1,0,0,0,0,1],
        "uuid": "2A323452-76DA-4BDB-9628-806970052F6D"
    },
    "animations": [{
        "tracks": [],
        "name": "default",
        "fps": 29
    }],
    "geometries": [{
        "type": "Geometry",
        "data": {
            "influencesPerVertex": 2,
            "faces": [42,0,2,3,0,0,1,2,0,1,2,42,0,3,1,0,0,2,3,0,2,3,42,4,6,7,0,0,1,2,4,5,6,42,4,7,5,0,0,2,3,4,6,7,42,4,5,0,0,4,5,6,4,7,0,42,4,0,1,0,4,6,3,4,0,3,42,7,6,3,0,7,8,9,6,5,2,42,7,3,2,0,7,9,10,6,2,1,42,5,7,2,0,4,11,12,7,6,1,42,5,2,0,0,4,12,13,7,1,0,42,1,3,6,0,9,14,15,3,2,5,42,1,6,4,0,9,15,8,3,5,4,42,8,10,11,0,16,17,18,0,1,2,42,8,11,9,0,16,18,19,0,2,3,42,12,14,15,0,16,17,18,4,5,6,42,12,15,13,0,16,18,19,4,6,7,42,12,13,8,0,9,10,20,4,7,0,42,12,8,9,0,9,20,21,4,0,3,42,15,14,11,0,18,13,22,6,5,2,42,15,11,10,0,18,22,17,6,2,1,42,13,15,10,0,23,24,25,7,6,1,42,13,10,8,0,23,25,26,7,1,0,42,9,11,14,0,27,28,29,3,2,5,42,9,14,12,0,27,29,30,3,5,4],
            "animations": [],
            "bones": [],
            "name": "halterGeometry",
            "skinIndices": [],
            "vertices": [4.1923,-1.25,1.1536,4.1923,1.25,1.1536,4.1923,-1.25,-0.1264,4.1923,1.25,-0.1264,4.1723,1.25,1.1536,4.1723,-1.25,1.1536,4.1723,1.25,-0.1264,4.1723,-1.25,-0.1264,4.1923,-1.25,-0.1264,4.1923,1.25,-0.1264,4.1923,-1.25,-0.1464,4.1923,1.25,-0.1464,3.9423,1.25,-0.1264,3.9423,-1.25,-0.1264,3.9423,1.25,-0.1464,3.9423,-1.25,-0.1464],
            "uvs": [[0,1,0,0.015385,1,0.015385,1,1,0.919999,1,0.919999,0,1,0,0.080001,0,0.080001,1,-1e-06,1,-1e-06,0,0.919999,0.015385,1,0.015385,1,1,-1e-06,0.015385,0.080001,0.015385,0,0.015385,0,0,1,0,1,0.015385,0.999999,0,0.999999,1,1e-06,1,-1e-06,0.015385,-1e-06,0,0.999999,0,0.999999,0.015385,1e-06,0.015385,1e-06,0,1,0,1,0.015385]],
            "morphTargets": [],
            "skinWeights": [],
            "normals": [0.577349,-0.577349,0.577349,0.577349,-0.577349,-0.577349,0.577349,0.577349,-0.577349,0.577349,0.577349,0.577349,-0.577349,0.577349,0.577349,-0.577349,0.577349,-0.577349,-0.577349,-0.577349,-0.577349,-0.577349,-0.577349,0.577349],
            "metadata": {
                "uvs": 1,
                "generator": "io_three",
                "version": 3,
                "morphTargets": 0,
                "faces": 24,
                "bones": 0,
                "normals": 8,
                "materials": 1,
                "vertices": 16
            }
        },
        "materials": [{
            "DbgName": "Physical",
            "colorAmbient": [1,1,1],
            "shading": "phong",
            "DbgColor": 15658734,
            "specularCoef": 50,
            "wireframe": false,
            "colorSpecular": [0.009961,0.009961,0.009961],
            "depthTest": true,
            "depthWrite": true,
            "DbgIndex": 0,
            "visible": true,
            "colorDiffuse": [1,1,1],
            "opacity": 1,
            "transparent": false,
            "colorEmissive": [0,0,0],
            "blending": "NormalBlending"
        }],
        "uuid": "D7E13E5F-692D-38E5-AA71-493556ECD579"
    },{
        "type": "Geometry",
        "data": {
            "influencesPerVertex": 2,
            "faces": [42,0,2,3,0,0,1,2,0,1,2,42,0,3,1,0,0,2,3,0,2,3,42,4,6,7,0,0,1,2,4,5,6,42,4,7,5,0,0,2,3,4,6,7,42,4,5,0,0,4,5,6,4,7,0,42,4,0,1,0,4,6,7,4,0,3,42,7,6,3,0,6,7,4,6,5,2,42,7,3,2,0,6,4,5,6,2,1,42,5,7,2,0,4,5,6,7,6,1,42,5,2,0,0,4,6,7,7,1,0,42,1,3,6,0,4,5,6,3,2,5,42,1,6,4,0,4,6,7,3,5,4],
            "animations": [],
            "bones": [],
            "name": "regalGeometry",
            "skinIndices": [],
            "vertices": [3.9,-2,0.125,3.9,2,0.125,3.9,-2,-0.125,3.9,2,-0.125,-3.9,2,0.125,-3.9,-2,0.125,-3.9,2,-0.125,-3.9,-2,-0.125],
            "uvs": [[0,1,0,0,1,0,1,1,0.006329,1,0.006329,0,0.993671,0,0.993671,1]],
            "morphTargets": [],
            "skinWeights": [],
            "normals": [0.577349,-0.577349,0.577349,0.577349,-0.577349,-0.577349,0.577349,0.577349,-0.577349,0.577349,0.577349,0.577349,-0.577349,0.577349,0.577349,-0.577349,0.577349,-0.577349,-0.577349,-0.577349,-0.577349,-0.577349,-0.577349,0.577349],
            "metadata": {
                "uvs": 1,
                "generator": "io_three",
                "version": 3,
                "morphTargets": 0,
                "faces": 12,
                "bones": 0,
                "normals": 8,
                "materials": 1,
                "vertices": 8
            }
        },
        "materials": [{
            "DbgName": "Standard",
            "colorAmbient": [1,1,1],
            "shading": "phong",
            "DbgColor": 15658734,
            "specularCoef": 50,
            "wireframe": false,
            "colorSpecular": [0.012549,0.012549,0.012549],
            "depthTest": true,
            "depthWrite": true,
            "DbgIndex": 0,
            "visible": true,
            "colorDiffuse": [1,1,1],
            "opacity": 1,
            "transparent": false,
            "colorEmissive": [0,0,0],
            "blending": "NormalBlending"
        }],
        "uuid": "6FA48242-4A37-3164-8001-8D25BC2E064F"
    },{
        "type": "Geometry",
        "data": {
            "influencesPerVertex": 2,
            "faces": [42,0,2,3,0,0,1,2,0,1,2,42,0,3,1,0,0,2,3,0,2,3,42,4,6,7,0,0,1,2,4,5,6,42,4,7,5,0,0,2,3,4,6,7,42,4,5,0,0,0,4,5,4,7,0,42,4,0,1,0,0,5,6,4,0,3,42,7,6,3,0,2,7,8,6,5,2,42,7,3,2,0,2,8,9,6,2,1,42,5,7,2,0,10,11,12,7,6,1,42,5,2,0,0,10,12,6,7,1,0,42,1,3,6,0,8,13,14,3,2,5,42,1,6,4,0,8,14,7,3,5,4,42,8,10,11,0,15,16,17,0,1,2,42,8,11,9,0,15,17,18,0,2,3,42,12,14,15,0,15,16,17,4,5,6,42,12,15,13,0,15,17,18,4,6,7,42,12,13,8,0,6,5,19,4,7,0,42,12,8,9,0,6,19,7,4,0,3,42,15,14,11,0,9,8,10,6,5,2,42,15,11,10,0,9,10,4,6,2,1,42,13,15,10,0,20,21,22,7,6,1,42,13,10,8,0,20,22,23,7,1,0,42,9,11,14,0,24,25,26,3,2,5,42,9,14,12,0,24,26,27,3,5,4],
            "animations": [],
            "bones": [],
            "name": "halter1Geometry",
            "skinIndices": [],
            "vertices": [-4.8464,-1.25,0.64,-4.8464,1.25,0.64,-4.8464,-1.25,-0.64,-4.8464,1.25,-0.64,-4.8664,1.25,0.64,-4.8664,-1.25,0.64,-4.8664,1.25,-0.64,-4.8664,-1.25,-0.64,-4.5964,-1.25,-0.6199,-4.5964,1.25,-0.6199,-4.5964,-1.25,-0.6399,-4.5964,1.25,-0.6399,-4.8464,1.25,-0.6199,-4.8464,-1.25,-0.6199,-4.8464,1.25,-0.6399,-4.8464,-1.25,-0.6399],
            "uvs": [[0,1,0,0,1,0,1,1,-1e-06,0,0.074075,0,0.074075,1,1,1,0.925925,1,0.925925,0,-1e-06,1,-1e-06,0,0.074075,0,0.925925,0,1,0,0,0.015703,0,7.8e-05,1,7.8e-05,1,0.015703,1,0,0.074075,0.015703,0.074075,7.8e-05,1,7.8e-05,1,0.015703,-1e-06,0.015703,-1e-06,7.8e-05,0.925925,7.8e-05,0.925925,0.015703]],
            "morphTargets": [],
            "skinWeights": [],
            "normals": [0.577349,-0.577349,0.577349,0.577349,-0.577349,-0.577349,0.577349,0.577349,-0.577349,0.577349,0.577349,0.577349,-0.577349,0.577349,0.577349,-0.577349,0.577349,-0.577349,-0.577349,-0.577349,-0.577349,-0.577349,-0.577349,0.577349],
            "metadata": {
                "uvs": 1,
                "generator": "io_three",
                "version": 3,
                "morphTargets": 0,
                "faces": 24,
                "bones": 0,
                "normals": 8,
                "materials": 1,
                "vertices": 16
            }
        },
        "materials": [{
            "DbgName": "Physical",
            "colorAmbient": [1,1,1],
            "shading": "phong",
            "DbgColor": 15658734,
            "specularCoef": 50,
            "wireframe": false,
            "colorSpecular": [0.009961,0.009961,0.009961],
            "depthTest": true,
            "depthWrite": true,
            "DbgIndex": 0,
            "visible": true,
            "colorDiffuse": [1,1,1],
            "opacity": 1,
            "transparent": false,
            "colorEmissive": [0,0,0],
            "blending": "NormalBlending"
        }],
        "uuid": "06F86342-7528-3807-B194-35D5635B475B"
    }],
    "metadata": {
        "type": "Object",
        "generator": "io_three",
        "version": 4.4
    },
    "textures": [],
    "materials": [{
        "specular": 131586,
        "vertexColors": false,
        "name": "Physical",
        "color": 16777215,
        "shininess": 50,
        "depthWrite": true,
        "emissive": 0,
        "type": "MeshPhongMaterial",
        "depthTest": true,
        "ambient": 16777215,
        "uuid": "BAA12A36-7C84-3F45-BBC9-C98F423700AF",
        "blending": "NormalBlending"
    },{
        "specular": 197379,
        "vertexColors": false,
        "name": "Standard",
        "color": 16777215,
        "shininess": 50,
        "depthWrite": true,
        "emissive": 0,
        "type": "MeshPhongMaterial",
        "depthTest": true,
        "ambient": 16777215,
        "uuid": "93831B89-11B9-31B1-A879-E029ECAF81F2",
        "blending": "NormalBlending"
    }]
}