{
    "geometries": [{
        "data": {
            "vertices": [0.13,-0.039901,4.9751,0.13,-0.08,4.9751,0.13,-0.08,-9.975,0.13,0.08,-9.975,0.13,-0.039901,4.9751,0.13,0.08,4.9751,-0.13,0.039901,4.9751,-0.13,0.08,4.9751,-0.13,0.08,-9.975,-0.13,-0.08,-9.975,-0.13,0.039901,4.9751,-0.13,-0.08,4.9751,0.117,0.072,-9.975,0.117,0.08,-9.975,0.117,-0.08,-9.975,-0.117,-0.072,-9.975,-0.117,0.08,-9.975,-0.117,-0.08,-9.975,-0.109687,-0.0675,-9.975,-0.117,-0.0675,-9.975,0.117,-0.0675,-9.975,0.117,-0.08,-8.9775,0.120258,-0.08,4.9751,0.117,-0.08,4.9751,0.120258,-0.08,4.9751,0.13,-0.08,4.9751,-0.119745,-0.08,4.9751,-0.13,-0.08,4.9751,-0.117,-0.08,4.9751,-0.064838,-0.08,4.9751,-0.064838,-0.08,4.9751,0.119745,0.08,4.9751,0.13,0.08,4.9751,0.117,0.08,4.9751,-0.117,0.08,-8.9775,-0.120258,0.08,4.9751,-0.117,0.08,4.9751,-0.120258,0.08,4.9751,-0.13,0.08,4.9751,0.117,-0.027679,4.9751,0.117,-0.025501,4.9751,0.117,0.08,-8.83723,0.117,-0.064645,4.9751,0.117,-0.027679,4.9751,0.117,-0.064645,4.9751,0.117,-0.0675,4.9751,0.117,0.08,4.9751,0.117,-0.025501,4.9751,-0.117,0.050501,4.9751,-0.117,-0.06369,-9.975,-0.117,0.043033,4.9751,-0.117,-0.0675,4.9751,-0.117,0.043988,4.9751,-0.117,0.043033,4.9751,-0.117,0.043988,4.9751,-0.117,0.050501,4.9751,-0.112825,-0.0675,4.9751,-0.055576,-0.0675,4.9751,0.111429,-0.0675,-9.975,-0.112825,-0.0675,4.9751,-0.117,-0.0675,4.9751,0.115604,-0.0675,4.9751,0.117,-0.0675,4.9751,0.115604,-0.0675,4.9751,-0.055576,-0.0675,4.9751,-0.08,-0.08,4.9751,-0.0675,-0.0675,4.9751,0.117,-0.08,4.9751,-0.13,0.08,4.9751,0.13,-0.08,4.9751],
            "name": "stangeGeometry",
            "skinIndices": [],
            "metadata": {
                "faces": 60,
                "morphTargets": 0,
                "vertices": 70,
                "generator": "io_three",
                "version": 3,
                "normals": 26,
                "materials": 1,
                "bones": 0,
                "uvs": 1
            },
            "bones": [],
            "faces": [42,0,1,2,0,0,0,1,0,0,1,42,0,2,3,0,0,1,1,0,1,2,42,4,3,5,0,0,1,0,0,2,3,42,6,7,8,0,2,2,3,4,4,5,42,6,8,9,0,2,3,3,4,5,6,42,10,9,11,0,2,3,2,4,6,7,42,12,13,3,0,4,4,1,8,9,2,42,14,12,3,0,4,4,1,10,8,2,42,14,3,2,0,4,1,1,10,2,1,42,15,9,8,0,5,3,3,8,6,5,42,15,8,16,0,5,3,5,8,5,11,42,17,9,15,0,5,3,5,10,6,8,42,18,15,19,0,6,5,5,8,8,12,42,20,14,17,0,4,4,5,13,10,10,42,20,17,15,0,4,5,5,13,10,8,42,20,15,18,0,4,5,6,13,8,8,42,21,14,2,0,7,4,1,14,10,1,42,22,23,21,0,8,9,7,14,14,14,42,22,21,2,0,8,7,1,14,14,1,42,24,2,25,0,8,1,0,15,1,14,42,26,27,9,0,10,2,3,14,14,6,42,28,26,9,0,11,10,3,16,14,6,42,28,9,17,0,11,3,5,16,6,10,42,21,29,28,0,7,12,11,14,14,16,42,21,28,17,0,7,11,5,14,16,10,42,21,17,14,0,7,5,4,14,10,10,42,23,30,21,0,9,12,7,14,14,14,42,31,32,3,0,13,0,1,17,17,2,42,33,31,3,0,9,13,1,18,17,2,42,33,3,13,0,9,1,4,18,2,9,42,34,16,8,0,14,5,3,17,11,5,42,35,36,34,0,15,11,14,17,19,17,42,35,34,8,0,15,14,3,17,17,5,42,37,8,38,0,15,3,2,20,5,17,42,39,40,41,0,9,9,16,4,4,4,42,39,41,13,0,9,16,4,4,4,9,42,42,43,13,0,9,9,4,4,4,9,42,42,13,20,0,9,4,4,4,9,13,42,44,20,45,0,9,4,9,4,13,7,42,46,41,47,0,9,16,9,4,4,21,42,36,48,49,0,11,11,5,19,0,0,42,36,49,16,0,11,5,5,19,0,11,42,50,51,19,0,11,11,5,22,0,12,42,52,53,19,0,11,11,5,0,0,12,42,52,19,49,0,11,5,5,0,12,0,42,54,49,55,0,11,5,11,0,0,0,42,56,57,58,0,17,18,19,17,20,17,42,56,58,19,0,17,19,5,17,17,12,42,59,19,60,0,17,5,11,20,12,23,42,61,62,20,0,20,9,4,17,17,13,42,61,20,58,0,20,4,19,17,13,17,42,63,58,64,0,20,19,18,17,17,17,42,60,28,65,0,11,11,21,23,16,24,42,60,65,66,0,11,21,22,23,24,25,42,67,45,66,0,9,9,22,25,7,25,42,67,66,65,0,9,22,21,25,25,24,42,36,68,11,0,11,2,2,19,25,7,42,36,11,28,0,11,2,11,19,7,16,42,67,69,5,0,9,0,0,25,25,3,42,67,5,33,0,9,0,9,25,3,18],
            "influencesPerVertex": 2,
            "animations": [],
            "skinWeights": [],
            "normals": [1,0,0,0.577349,-0.577349,-0.577319,0.577288,0.57741,-0.577288,0.707083,0,0.707083,-1,0,0,-0.577349,0.577349,-0.577319,-0.577288,-0.57741,-0.577288,-0.707083,0,0.707083,0,0,-1,-0.577349,0.577319,-0.577319,0,-0.707083,-0.707083,0.577349,0.577349,-0.577349,0.577288,0.57738,-0.577319,-0.577349,0.57741,-0.577258,0,-1,0,0,-0.999969,0,0,-0.707083,0.707083,0,1,0,0,0.707114,0.707083,0.577349,0.577349,0.577349,0,0.999969,0,-0.999969,0,0,0.999969,0,0,0,0.707083,0.707083,0,0,0.999969,0,0,1],
            "morphTargets": [],
            "uvs": [[1,1,1,-0,0,1,0,-0,0.95,-0,0.05,-0,0.078125,-0,0.95,0.066722,0.962531,1,0.95,1,0.039441,1,0.05,1,0.250622,1,0.960559,1,0.05,0.066722,0.037469,1,0.95,0.076105,0.066058,1,0.286247,1,0.928571,-0,0.94463,1,0.192308,1,0.240385,1]]
        },
        "materials": [{
            "depthTest": true,
            "opacity": 1,
            "DbgColor": 15658734,
            "colorSpecular": [0.012549,0.012549,0.012549],
            "wireframe": false,
            "blending": "NormalBlending",
            "mapDiffuse": "raster50_1495_a.jpg",
            "colorEmissive": [0,0,0],
            "mapDiffuseWrap": ["RepeatWrapping","RepeatWrapping"],
            "mapDiffuseRepeat": [1,1],
            "DbgName": "Standard",
            "shading": "phong",
            "mapDiffuseAnisotropy": 1,
            "colorDiffuse": [0.666667,0.666667,0.666667],
            "specularCoef": 50,
            "visible": true,
            "depthWrite": true,
            "DbgIndex": 0,
            "colorAmbient": [0.666667,0.666667,0.666667],
            "transparent": false
        }],
        "type": "Geometry",
        "uuid": "0C2AF9BB-3A43-322C-BE1E-174920572AA2"
    }],
    "images": [{
        "name": "raster50_1495_a.jpg",
        "url": "raster50_1495_a.jpg",
        "uuid": "2B54984B-1FFC-300A-B56A-048DBEE58A75"
    }],
    "animations": [{
        "name": "default",
        "fps": 29,
        "tracks": []
    }],
    "textures": [{
        "magFilter": 1006,
        "image": "2B54984B-1FFC-300A-B56A-048DBEE58A75",
        "mapping": 300,
        "wrap": [1000,1000],
        "uuid": "F1B2D0A9-4669-3110-BF25-FEE5948CC7D9",
        "name": "raster50_1495_a_jpg",
        "repeat": [1,1],
        "anisotropy": 1,
        "minFilter": 1008
    }],
    "metadata": {
        "version": 4.4,
        "generator": "io_three",
        "type": "Object"
    },
    "materials": [{
        "depthTest": true,
        "type": "MeshPhongMaterial",
        "blending": "NormalBlending",
        "uuid": "93831B89-11B9-31B1-A879-E029ECAF81F2",
        "name": "Standard",
        "vertexColors": false,
        "map": "F1B2D0A9-4669-3110-BF25-FEE5948CC7D9",
        "emissive": 0,
        "shininess": 50,
        "ambient": 11184810,
        "color": 11184810,
        "depthWrite": true,
        "specular": 197379
    }],
    "object": {
        "matrix": [1,0,0,0,0,1,0,0,0,0,1,0,0,0,0,1],
        "children": [{
            "name": "stange",
            "uuid": "8829E8E7-6F2F-3090-91EA-81698B20D70A",
            "matrix": [-1,0,0,0,0,0,1,0,0,1,0,0,0,2.5,0,1],
            "visible": true,
            "type": "Mesh",
            "material": "93831B89-11B9-31B1-A879-E029ECAF81F2",
            "castShadow": true,
            "receiveShadow": true,
            "geometry": "0C2AF9BB-3A43-322C-BE1E-174920572AA2"
        }],
        "type": "Scene",
        "uuid": "67A539C6-7FD6-436E-8737-57E2AC106DD6"
    }
}