{
    "materials": [{
        "shininess": 50,
        "color": 11579568,
        "specular": 131586,
        "name": "b0b0b0",
        "type": "MeshPhongMaterial",
        "depthWrite": true,
        "uuid": "B92F5ACA-E24A-3A69-B2DD-69B8C9C5682C",
        "ambient": 11579568,
        "blending": "NormalBlending",
        "emissive": 0,
        "depthTest": true,
        "vertexColors": false
    },{
        "shininess": 50,
        "color": 16777215,
        "specular": 131586,
        "name": "ffffff",
        "type": "MeshPhongMaterial",
        "depthWrite": true,
        "uuid": "A05C207B-E3D1-3023-96B3-1D1FFEA34A95",
        "ambient": 16777215,
        "blending": "NormalBlending",
        "emissive": 0,
        "depthTest": true,
        "side": 2,
        "vertexColors": false
    },{
        "shininess": 50,
        "color": 10129805,
        "specular": 197379,
        "name": "Physical",
        "type": "MeshPhongMaterial",
        "depthWrite": true,
        "uuid": "BAA12A36-7C84-3F45-BBC9-C98F423700AF",
        "ambient": 10129805,
        "blending": "NormalBlending",
        "emissive": 0,
        "depthTest": true,
        "vertexColors": false
    }],
    "metadata": {
        "type": "Object",
        "version": 4.4,
        "generator": "io_three"
    },
    "object": {
        "matrix": [1,0,0,0,0,1,0,0,0,0,1,0,0,0,0,1],
        "type": "Scene",
        "children": [{
            "name": "halter",
            "uuid": "194CBDF5-7923-3595-8ED9-4159C6EA139D",
            "matrix": [-1,0,0,0,0,0,1,0,0,1,0,0,-3.8583,-0.2672,0,1],
            "visible": true,
            "type": "Mesh",
            "material": "A05C207B-E3D1-3023-96B3-1D1FFEA34A95",
            "castShadow": true,
            "receiveShadow": true,
            "geometry": "06F86342-7528-3807-B194-35D5635B475B"
        },{
            "name": "halter1",
            "uuid": "660A53DC-2785-3A65-80B4-861D0FECA711",
            "matrix": [-1,0,0,0,0,0,1,0,0,1,0,0,-3.8583,-0.2672,0,1],
            "visible": true,
            "type": "Mesh",
            "material": "A05C207B-E3D1-3023-96B3-1D1FFEA34A95",
            "castShadow": true,
            "receiveShadow": true,
            "geometry": "06F86342-7528-3807-B194-35D5635B475B"
        },{
            "name": "halter2",
            "uuid": "BA555DC0-4EC7-3B12-AC79-9E45447A648D",
            "matrix": [-1,0,0,0,0,0,1,0,0,1,0,0,-3.8583,-0.2672,0,1],
            "visible": true,
            "type": "Mesh",
            "material": "A05C207B-E3D1-3023-96B3-1D1FFEA34A95",
            "castShadow": true,
            "receiveShadow": true,
            "geometry": "06F86342-7528-3807-B194-35D5635B475B"
        },{
            "name": "klappe",
            "uuid": "2CFBD4E8-4ED1-3396-94EB-6D942C45C57C",
            "matrix": [1,0,0,0,0,0,-1,0,0,1,0,0,4.0285,0,0,1],
            "visible": true,
            "type": "Mesh",
            "material": "BAA12A36-7C84-3F45-BBC9-C98F423700AF",
            "castShadow": true,
            "receiveShadow": true,
            "geometry": "5816F39C-FF05-37E5-A165-44758C7EE9BF"
        },{
            "name": "klappe1",
            "uuid": "61D061A9-6786-3362-83B0-3FE9557CC0DE",
            "matrix": [-1,0,0,0,0,0,1,0,0,1,0,0,-4.0285,0,0,1],
            "visible": true,
            "type": "Mesh",
            "material": "BAA12A36-7C84-3F45-BBC9-C98F423700AF",
            "castShadow": true,
            "receiveShadow": true,
            "geometry": "5816F39C-FF05-37E5-A165-44758C7EE9BF"
        },{
            "name": "rohr",
            "uuid": "F99F0B1F-5F26-396E-96CD-395727CC61F1",
            "matrix": [0,1.012,0,0,0,0,0.7,0,1,-0,0,0,0,0.0642,0,1],
            "visible": true,
            "type": "Mesh",
            "material": "B92F5ACA-E24A-3A69-B2DD-69B8C9C5682C",
            "castShadow": true,
            "receiveShadow": true,
            "geometry": "D947C1F8-322B-3B6F-B7A3-6B7046085C2B"
        }],
        "uuid": "5B87BD27-3153-48FF-8D86-264287694711"
    },
    "animations": [{
        "fps": 29,
        "name": "default",
        "tracks": []
    }],
    "textures": [],
    "images": [],
    "geometries": [{
        "data": {
            "name": "rohrGeometry",
            "influencesPerVertex": 2,
            "vertices": [0,-0.134,4.2,0.0347,-0.1294,4.2,0.067,-0.116,4.2,0.0948,-0.0948,4.2,0.116,-0.067,4.2,0.1294,-0.0347,4.2,0.134,0,4.2,0.1294,0.0347,4.2,0.116,0.067,4.2,0.0948,0.0948,4.2,0.067,0.116,4.2,0.0347,0.1294,4.2,0,0.134,4.2,-0.0347,0.1294,4.2,-0.067,0.116,4.2,-0.0948,0.0948,4.2,-0.116,0.067,4.2,-0.1294,0.0347,4.2,-0.134,0,4.2,-0.1294,-0.0347,4.2,-0.116,-0.067,4.2,-0.0948,-0.0948,4.2,-0.067,-0.116,4.2,-0.0347,-0.1294,4.2,0,-0.134,-4.2,0.0347,-0.1294,-4.2,0.067,-0.116,-4.2,0.0948,-0.0948,-4.2,0.116,-0.067,-4.2,0.1294,-0.0347,-4.2,0.134,0,-4.2,0.1294,0.0347,-4.2,0.116,0.067,-4.2,0.0948,0.0948,-4.2,0.067,0.116,-4.2,0.0347,0.1294,-4.2,0,0.134,-4.2,-0.0347,0.1294,-4.2,-0.067,0.116,-4.2,-0.0948,0.0948,-4.2,-0.116,0.067,-4.2,-0.1294,0.0347,-4.2,-0.134,0,-4.2,-0.1294,-0.0347,-4.2,-0.116,-0.067,-4.2,-0.0948,-0.0948,-4.2,-0.067,-0.116,-4.2,-0.0347,-0.1294,-4.2,0,0,4.2,0,0,-4.2],
            "skinWeights": [],
            "metadata": {
                "normals": 50,
                "materials": 1,
                "faces": 72,
                "generator": "io_three",
                "vertices": 50,
                "version": 3,
                "morphTargets": 0,
                "bones": 0,
                "uvs": 1
            },
            "normals": [0,-0.734397,0.678671,0,-0.734397,-0.678671,0.190527,-0.709037,-0.678884,0.190527,-0.709037,0.678884,0.366161,-0.636036,-0.67922,0.366161,-0.636036,0.67922,0.519578,-0.519578,-0.678243,0.519578,-0.519578,0.678243,0.636036,-0.366161,-0.67922,0.636006,-0.366161,0.67922,0.709037,-0.190527,-0.678884,0.709037,-0.190527,0.678884,0.734397,0,-0.678671,0.734397,0,0.678671,0.709037,0.190527,-0.678884,0.709037,0.190527,0.678884,0.636006,0.366161,-0.67922,0.636036,0.366161,0.67922,0.519578,0.519578,-0.678243,0.519578,0.519578,0.678243,0.366161,0.636036,-0.67922,0.366161,0.636036,0.67922,0.190527,0.709037,-0.678884,0.190527,0.709037,0.678884,0,0.734397,-0.678671,0,0.734397,0.678671,-0.190527,0.709037,-0.678884,-0.190527,0.709037,0.678884,-0.366161,0.636036,-0.67922,-0.366161,0.636036,0.67922,-0.519578,0.519578,-0.678243,-0.519578,0.519578,0.678243,-0.636036,0.366161,-0.67922,-0.636006,0.366161,0.67922,-0.709037,0.190527,-0.678884,-0.709037,0.190527,0.678884,-0.734397,0,-0.678671,-0.734397,0,0.678671,-0.709037,-0.190527,-0.678884,-0.709037,-0.190527,0.678884,-0.636006,-0.366161,-0.67922,-0.636036,-0.366161,0.67922,-0.519578,-0.519578,-0.678243,-0.519578,-0.519578,0.678243,-0.366161,-0.636036,-0.67922,-0.366161,-0.636036,0.67922,-0.190527,-0.709037,-0.678884,-0.190527,-0.709037,0.678884,0,0,1,0,0,-1],
            "faces": [43,0,24,25,1,0,0,1,2,3,0,1,2,3,43,1,25,26,2,0,3,2,4,5,3,2,4,5,43,2,26,27,3,0,5,4,6,7,5,4,6,7,43,3,27,28,4,0,7,6,8,9,7,6,8,9,43,4,28,29,5,0,9,8,10,11,9,8,10,11,43,5,29,30,6,0,11,10,12,13,11,10,12,13,43,6,30,31,7,0,13,12,14,15,13,12,14,15,43,7,31,32,8,0,15,14,16,17,15,14,16,17,43,8,32,33,9,0,17,16,18,19,17,16,18,19,43,9,33,34,10,0,19,18,20,21,19,18,20,21,43,10,34,35,11,0,21,20,22,23,21,20,22,23,43,11,35,36,12,0,23,22,24,25,23,22,24,25,43,12,36,37,13,0,25,24,26,27,25,24,26,27,43,13,37,38,14,0,27,26,28,29,27,26,28,29,43,14,38,39,15,0,29,28,30,31,29,28,30,31,43,15,39,40,16,0,31,30,32,33,31,30,32,33,43,16,40,41,17,0,33,32,34,35,33,32,34,35,43,17,41,42,18,0,35,34,36,37,35,34,36,37,43,18,42,43,19,0,37,36,38,39,37,36,38,39,43,19,43,44,20,0,39,38,40,41,39,38,40,41,43,20,44,45,21,0,41,40,42,43,41,40,42,43,43,21,45,46,22,0,43,42,44,45,43,42,44,45,43,22,46,47,23,0,45,44,46,47,45,44,46,47,43,24,0,23,47,0,48,49,47,46,1,0,47,46,42,0,1,48,0,1,2,0,0,3,48,42,1,2,48,0,2,4,0,3,5,48,42,2,3,48,0,4,6,0,5,7,48,42,3,4,48,0,6,8,0,7,9,48,42,4,5,48,0,8,10,0,9,11,48,42,5,6,48,0,10,12,0,11,13,48,42,6,7,48,0,12,14,0,13,15,48,42,7,8,48,0,14,16,0,15,17,48,42,8,9,48,0,16,18,0,17,19,48,42,9,10,48,0,18,20,0,19,21,48,42,10,11,48,0,20,22,0,21,23,48,42,11,12,48,0,22,24,0,23,25,48,42,12,13,48,0,24,26,0,25,27,48,42,13,14,48,0,26,28,0,27,29,48,42,14,15,48,0,28,30,0,29,31,48,42,15,16,48,0,30,32,0,31,33,48,42,16,17,48,0,32,34,0,33,35,48,42,17,18,48,0,34,36,0,35,37,48,42,18,19,48,0,36,38,0,37,39,48,42,19,20,48,0,38,40,0,39,41,48,42,20,21,48,0,40,42,0,41,43,48,42,21,22,48,0,42,44,0,43,45,48,42,22,23,48,0,44,46,0,45,47,48,42,23,0,48,0,46,48,0,47,0,48,42,25,24,49,0,3,0,1,2,1,49,42,26,25,49,0,5,3,1,4,2,49,42,27,26,49,0,7,5,1,6,4,49,42,28,27,49,0,9,7,1,8,6,49,42,29,28,49,0,11,9,1,10,8,49,42,30,29,49,0,13,11,1,12,10,49,42,31,30,49,0,15,13,1,14,12,49,42,32,31,49,0,17,15,1,16,14,49,42,33,32,49,0,19,17,1,18,16,49,42,34,33,49,0,21,19,1,20,18,49,42,35,34,49,0,23,21,1,22,20,49,42,36,35,49,0,25,23,1,24,22,49,42,37,36,49,0,27,25,1,26,24,49,42,38,37,49,0,29,27,1,28,26,49,42,39,38,49,0,31,29,1,30,28,49,42,40,39,49,0,33,31,1,32,30,49,42,41,40,49,0,35,33,1,34,32,49,42,42,41,49,0,37,35,1,36,34,49,42,43,42,49,0,39,37,1,38,36,49,42,44,43,49,0,41,39,1,40,38,49,42,45,44,49,0,43,41,1,42,40,49,42,46,45,49,0,45,43,1,44,42,49,42,47,46,49,0,47,45,1,46,44,49,42,24,47,49,0,49,47,1,1,46,49],
            "bones": [],
            "animations": [],
            "morphTargets": [],
            "skinIndices": [],
            "uvs": [[0,1,0,0,0.041667,0,0.041667,1,0.083333,0,0.083333,1,0.125,0,0.125,1,0.166667,0,0.166667,1,0.208333,0,0.208333,1,0.25,0,0.25,1,0.291667,0,0.291667,1,0.333333,0,0.333333,1,0.375,0,0.375,1,0.416667,0,0.416667,1,0.458333,0,0.458333,1,0.5,0,0.5,1,0.541667,0,0.541667,1,0.583333,0,0.583333,1,0.625,0,0.625,1,0.666667,0,0.666667,1,0.708333,0,0.708333,1,0.75,0,0.75,1,0.791667,0,0.791667,1,0.833333,0,0.833333,1,0.875,0,0.875,1,0.916667,0,0.916667,1,0.958333,0,0.958333,1,1,0,1,1]]
        },
        "materials": [{
            "opacity": 1,
            "colorEmissive": [0,0,0],
            "shading": "phong",
            "depthWrite": true,
            "DbgIndex": 0,
            "DbgName": "b0b0b0",
            "wireframe": false,
            "colorSpecular": [0.009961,0.009961,0.009961],
            "specularCoef": 50,
            "colorDiffuse": [0.690196,0.690196,0.690196],
            "transparent": false,
            "colorAmbient": [0.690196,0.690196,0.690196],
            "visible": true,
            "DbgColor": 15658734,
            "blending": "NormalBlending",
            "depthTest": true
        }],
        "type": "Geometry",
        "uuid": "D947C1F8-322B-3B6F-B7A3-6B7046085C2B"
    },{
        "data": {
            "name": "klappe1Geometry",
            "influencesPerVertex": 2,
            "vertices": [-4.0404,-0.0933,0.0615,-4.0404,-0.09007,0.097242,-4.0404,-0.08057,0.1305,-4.0404,-0.065465,0.159066,-4.0404,-0.0458,0.181008,-4.0404,-0.022905,0.194808,-4.0404,0.0017,0.1995,-4.0404,0.026305,0.194808,-4.0404,0.0492,0.181008,-4.0404,0.068865,0.159066,-4.0404,0.08397,0.1305,-4.0404,0.09347,0.097242,-4.0404,0.0967,0.0615,-4.0404,0.09347,0.025758,-4.0404,0.08397,-0.0075,-4.0404,0.068865,-0.036066,-4.0404,0.0492,-0.058008,-4.0404,0.026305,-0.071808,-4.0404,0.0017,-0.0765,-4.0404,-0.022905,-0.071808,-4.0404,-0.0458,-0.058008,-4.0404,-0.065465,-0.036066,-4.0404,-0.08057,-0.0075,-4.0404,-0.09007,0.025758,-4.0184,-0.0933,0.0615,-4.0184,-0.09007,0.097242,-4.0184,-0.08057,0.1305,-4.0184,-0.065465,0.159066,-4.0184,-0.0458,0.181008,-4.0184,-0.022905,0.194808,-4.0184,0.0017,0.1995,-4.0184,0.026305,0.194808,-4.0184,0.0492,0.181008,-4.0184,0.068865,0.159066,-4.0184,0.08397,0.1305,-4.0184,0.09347,0.097242,-4.0184,0.0967,0.0615,-4.0184,0.09347,0.025758,-4.0184,0.08397,-0.0075,-4.0184,0.068865,-0.036066,-4.0184,0.0492,-0.058008,-4.0184,0.026305,-0.071808,-4.0184,0.0017,-0.0765,-4.0184,-0.022905,-0.071808,-4.0184,-0.0458,-0.058008,-4.0184,-0.065465,-0.036066,-4.0184,-0.08057,-0.0075,-4.0184,-0.09007,0.025758,-4.0404,0.0017,0.0615,-4.0184,0.0017,0.0615,-4.0397,-0.0833,0.097536,-4.04053,-0.08041,0.133268,-4.04131,-0.07191,0.166517,-4.04197,-0.058395,0.195075,-4.04249,-0.0408,0.217012,-4.04281,-0.020315,0.230808,-4.04292,0.0017,0.235498,-4.04281,0.023715,0.230808,-4.04249,0.0442,0.217012,-4.04197,0.061795,0.195075,-4.04131,0.07531,0.166517,-4.04053,0.08381,0.133268,-4.0397,0.0867,0.097536,-4.03886,0.08381,0.061804,-4.03808,0.07531,0.028555,-4.03742,0.061795,-3e-06,-4.03691,0.0442,-0.021939,-4.03658,0.023715,-0.035736,-4.03647,0.0017,-0.040426,-4.03658,-0.020315,-0.035736,-4.03691,-0.0408,-0.021939,-4.03742,-0.058395,-3e-06,-4.03808,-0.07191,0.028555,-4.03886,-0.08041,0.061804,-4.0172,-0.0833,0.098062,-4.01804,-0.08041,0.133794,-4.01882,-0.07191,0.167043,-4.01948,-0.058395,0.195601,-4.01999,-0.0408,0.217537,-4.02032,-0.020315,0.231333,-4.02043,0.0017,0.236024,-4.02032,0.023715,0.231333,-4.01999,0.0442,0.217537,-4.01948,0.061795,0.195601,-4.01882,0.07531,0.167043,-4.01804,0.08381,0.133794,-4.0172,0.0867,0.098062,-4.01637,0.08381,0.062329,-4.01559,0.07531,0.02908,-4.01492,0.061795,0.000522,-4.01441,0.0442,-0.021414,-4.01409,0.023715,-0.03521,-4.01398,0.0017,-0.039901,-4.01409,-0.020315,-0.03521,-4.01441,-0.0408,-0.021414,-4.01492,-0.058395,0.000522,-4.01559,-0.07191,0.02908,-4.01637,-0.08041,0.062329,-4.03965,0.0017,0.097537,-4.01715,0.0017,0.098063],
            "skinWeights": [],
            "metadata": {
                "normals": 100,
                "materials": 1,
                "faces": 144,
                "generator": "io_three",
                "vertices": 100,
                "version": 3,
                "morphTargets": 0,
                "bones": 0,
                "uvs": 1
            },
            "normals": [-0.687399,-0.726279,0,0.687399,-0.726279,0,0.686544,-0.714743,0.133152,-0.686544,-0.714743,0.133152,0.684439,-0.676412,0.271981,-0.684439,-0.676412,0.271981,0.680654,-0.601032,0.418806,-0.680654,-0.601062,0.418806,0.675192,-0.470229,0.568285,-0.675192,-0.470229,0.568285,0.669515,-0.265419,0.693716,-0.669515,-0.265419,0.693716,0.667257,0,0.744804,-0.667257,0,0.744804,0.669515,0.265419,0.693716,-0.669515,0.265419,0.693716,0.675192,0.470199,0.568285,-0.675192,0.470229,0.568285,0.680654,0.601032,0.418806,-0.680654,0.601032,0.418806,0.684439,0.676412,0.271981,-0.684439,0.676412,0.271981,0.686544,0.714743,0.133152,-0.686544,0.714743,0.133152,0.687399,0.726279,0,-0.687399,0.726279,0,0.686544,0.714743,-0.133152,-0.686544,0.714743,-0.133152,0.684439,0.676412,-0.271981,-0.684439,0.676412,-0.271981,0.680654,0.601032,-0.418806,-0.680654,0.601062,-0.418806,0.675192,0.470229,-0.568285,-0.675192,0.470229,-0.568285,0.669515,0.265419,-0.693716,-0.669515,0.265419,-0.693716,0.667257,0,-0.744804,-0.667257,0,-0.744804,0.669515,-0.265419,-0.693716,-0.669515,-0.265419,-0.693716,0.675192,-0.470229,-0.568285,-0.675192,-0.470229,-0.568285,0.680654,-0.601032,-0.418806,-0.680654,-0.601062,-0.418806,0.684439,-0.676412,-0.271981,-0.684439,-0.676412,-0.271981,0.686544,-0.714743,-0.133152,-0.686544,-0.714743,-0.133152,-1,0,0,1,0,0,-0.689413,-0.724174,-0.016083,0.689016,-0.72454,0.016083,0.685354,-0.715476,0.135502,-0.691305,-0.71511,0.103275,0.680044,-0.684439,0.262734,-0.691916,-0.684133,0.230567,0.672323,-0.62038,0.403821,-0.690786,-0.620106,0.371807,0.661733,-0.499832,0.558794,-0.687368,-0.499649,0.527055,0.650349,-0.291238,0.701559,-0.682638,-0.291177,0.670217,0.645253,0,0.763939,-0.680471,0,0.732749,0.650349,0.291238,0.701559,-0.682638,0.291177,0.670217,0.661733,0.499832,0.558794,-0.687368,0.499649,0.527085,0.672323,0.62038,0.403821,-0.690786,0.620106,0.371807,0.680044,0.684439,0.262734,-0.691916,0.684133,0.230567,0.685354,0.715476,0.135502,-0.691336,0.71511,0.103275,0.689016,0.72454,0.016083,-0.689413,0.724174,-0.016083,0.690909,0.715476,-0.103366,-0.685751,0.71511,-0.135441,0.69158,0.684439,-0.230689,-0.68041,0.684133,-0.262612,0.690451,0.62038,-0.37196,-0.672658,0.620136,-0.403638,0.687094,0.499832,-0.527268,-0.662008,0.499649,-0.55858,0.682394,0.291208,-0.670431,-0.650594,0.291177,-0.701346,0.680227,0,-0.732963,-0.645497,0,-0.763726,0.682394,-0.291238,-0.670431,-0.650594,-0.291177,-0.701346,0.687094,-0.499832,-0.527268,-0.662008,-0.499649,-0.55858,0.690451,-0.62038,-0.37196,-0.672658,-0.620136,-0.403638,0.69158,-0.684439,-0.230689,-0.68041,-0.684133,-0.262612,0.690909,-0.715476,-0.103366,-0.685751,-0.71511,-0.135441,-0.999725,0,-0.023347,0.999725,0,0.023347],
            "faces": [43,0,24,25,1,0,0,1,2,3,0,1,2,3,43,1,25,26,2,0,3,2,4,5,3,2,4,5,43,2,26,27,3,0,5,4,6,7,5,4,6,7,43,3,27,28,4,0,7,6,8,9,7,6,8,9,43,4,28,29,5,0,9,8,10,11,9,8,10,11,43,5,29,30,6,0,11,10,12,13,11,10,12,13,43,6,30,31,7,0,13,12,14,15,13,12,14,15,43,7,31,32,8,0,15,14,16,17,15,14,16,17,43,8,32,33,9,0,17,16,18,19,17,16,18,19,43,9,33,34,10,0,19,18,20,21,19,18,20,21,43,10,34,35,11,0,21,20,22,23,21,20,22,23,43,11,35,36,12,0,23,22,24,25,23,22,24,25,43,12,36,37,13,0,25,24,26,27,25,24,26,27,43,13,37,38,14,0,27,26,28,29,27,26,28,29,43,14,38,39,15,0,29,28,30,31,29,28,30,31,43,15,39,40,16,0,31,30,32,33,31,30,32,33,43,16,40,41,17,0,33,32,34,35,33,32,34,35,43,17,41,42,18,0,35,34,36,37,35,34,36,37,43,18,42,43,19,0,37,36,38,39,37,36,38,39,43,19,43,44,20,0,39,38,40,41,39,38,40,41,43,20,44,45,21,0,41,40,42,43,41,40,42,43,43,21,45,46,22,0,43,42,44,45,43,42,44,45,43,22,46,47,23,0,45,44,46,47,45,44,46,47,43,24,0,23,47,0,48,49,47,46,1,0,47,46,42,0,1,48,0,1,2,0,0,3,48,42,1,2,48,0,2,4,0,3,5,48,42,2,3,48,0,4,6,0,5,7,48,42,3,4,48,0,6,8,0,7,9,48,42,4,5,48,0,8,10,0,9,11,48,42,5,6,48,0,10,12,0,11,13,48,42,6,7,48,0,12,14,0,13,15,48,42,7,8,48,0,14,16,0,15,17,48,42,8,9,48,0,16,18,0,17,19,48,42,9,10,48,0,18,20,0,19,21,48,42,10,11,48,0,20,22,0,21,23,48,42,11,12,48,0,22,24,0,23,25,48,42,12,13,48,0,24,26,0,25,27,48,42,13,14,48,0,26,28,0,27,29,48,42,14,15,48,0,28,30,0,29,31,48,42,15,16,48,0,30,32,0,31,33,48,42,16,17,48,0,32,34,0,33,35,48,42,17,18,48,0,34,36,0,35,37,48,42,18,19,48,0,36,38,0,37,39,48,42,19,20,48,0,38,40,0,39,41,48,42,20,21,48,0,40,42,0,41,43,48,42,21,22,48,0,42,44,0,43,45,48,42,22,23,48,0,44,46,0,45,47,48,42,23,0,48,0,46,48,0,47,0,48,42,25,24,49,0,3,0,1,2,1,49,42,26,25,49,0,5,3,1,4,2,49,42,27,26,49,0,7,5,1,6,4,49,42,28,27,49,0,9,7,1,8,6,49,42,29,28,49,0,11,9,1,10,8,49,42,30,29,49,0,13,11,1,12,10,49,42,31,30,49,0,15,13,1,14,12,49,42,32,31,49,0,17,15,1,16,14,49,42,33,32,49,0,19,17,1,18,16,49,42,34,33,49,0,21,19,1,20,18,49,42,35,34,49,0,23,21,1,22,20,49,42,36,35,49,0,25,23,1,24,22,49,42,37,36,49,0,27,25,1,26,24,49,42,38,37,49,0,29,27,1,28,26,49,42,39,38,49,0,31,29,1,30,28,49,42,40,39,49,0,33,31,1,32,30,49,42,41,40,49,0,35,33,1,34,32,49,42,42,41,49,0,37,35,1,36,34,49,42,43,42,49,0,39,37,1,38,36,49,42,44,43,49,0,41,39,1,40,38,49,42,45,44,49,0,43,41,1,42,40,49,42,46,45,49,0,45,43,1,44,42,49,42,47,46,49,0,47,45,1,46,44,49,42,24,47,49,0,49,47,1,1,46,49,43,50,74,75,51,0,0,1,2,3,50,51,52,53,43,51,75,76,52,0,3,2,4,5,53,52,54,55,43,52,76,77,53,0,5,4,6,7,55,54,56,57,43,53,77,78,54,0,7,6,8,9,57,56,58,59,43,54,78,79,55,0,9,8,10,11,59,58,60,61,43,55,79,80,56,0,11,10,12,13,61,60,62,63,43,56,80,81,57,0,13,12,14,15,63,62,64,65,43,57,81,82,58,0,15,14,16,17,65,64,66,67,43,58,82,83,59,0,17,16,18,19,67,66,68,69,43,59,83,84,60,0,19,18,20,21,69,68,70,71,43,60,84,85,61,0,21,20,22,23,71,70,72,73,43,61,85,86,62,0,23,22,24,25,73,72,74,75,43,62,86,87,63,0,25,24,26,27,75,74,76,77,43,63,87,88,64,0,27,26,28,29,77,76,78,79,43,64,88,89,65,0,29,28,30,31,79,78,80,81,43,65,89,90,66,0,31,30,32,33,81,80,82,83,43,66,90,91,67,0,33,32,34,35,83,82,84,85,43,67,91,92,68,0,35,34,36,37,85,84,86,87,43,68,92,93,69,0,37,36,38,39,87,86,88,89,43,69,93,94,70,0,39,38,40,41,89,88,90,91,43,70,94,95,71,0,41,40,42,43,91,90,92,93,43,71,95,96,72,0,43,42,44,45,93,92,94,95,43,72,96,97,73,0,45,44,46,47,95,94,96,97,43,73,97,74,50,0,47,46,48,49,97,96,51,50,42,50,51,98,0,1,2,0,50,53,98,42,51,52,98,0,2,4,0,53,55,98,42,52,53,98,0,4,6,0,55,57,98,42,53,54,98,0,6,8,0,57,59,98,42,54,55,98,0,8,10,0,59,61,98,42,55,56,98,0,10,12,0,61,63,98,42,56,57,98,0,12,14,0,63,65,98,42,57,58,98,0,14,16,0,65,67,98,42,58,59,98,0,16,18,0,67,69,98,42,59,60,98,0,18,20,0,69,71,98,42,60,61,98,0,20,22,0,71,73,98,42,61,62,98,0,22,24,0,73,75,98,42,62,63,98,0,24,26,0,75,77,98,42,63,64,98,0,26,28,0,77,79,98,42,64,65,98,0,28,30,0,79,81,98,42,65,66,98,0,30,32,0,81,83,98,42,66,67,98,0,32,34,0,83,85,98,42,67,68,98,0,34,36,0,85,87,98,42,68,69,98,0,36,38,0,87,89,98,42,69,70,98,0,38,40,0,89,91,98,42,70,71,98,0,40,42,0,91,93,98,42,71,72,98,0,42,44,0,93,95,98,42,72,73,98,0,44,46,0,95,97,98,42,73,50,98,0,46,48,0,97,50,98,42,75,74,99,0,3,0,1,52,51,99,42,76,75,99,0,5,3,1,54,52,99,42,77,76,99,0,7,5,1,56,54,99,42,78,77,99,0,9,7,1,58,56,99,42,79,78,99,0,11,9,1,60,58,99,42,80,79,99,0,13,11,1,62,60,99,42,81,80,99,0,15,13,1,64,62,99,42,82,81,99,0,17,15,1,66,64,99,42,83,82,99,0,19,17,1,68,66,99,42,84,83,99,0,21,19,1,70,68,99,42,85,84,99,0,23,21,1,72,70,99,42,86,85,99,0,25,23,1,74,72,99,42,87,86,99,0,27,25,1,76,74,99,42,88,87,99,0,29,27,1,78,76,99,42,89,88,99,0,31,29,1,80,78,99,42,90,89,99,0,33,31,1,82,80,99,42,91,90,99,0,35,33,1,84,82,99,42,92,91,99,0,37,35,1,86,84,99,42,93,92,99,0,39,37,1,88,86,99,42,94,93,99,0,41,39,1,90,88,99,42,95,94,99,0,43,41,1,92,90,99,42,96,95,99,0,45,43,1,94,92,99,42,97,96,99,0,47,45,1,96,94,99,42,74,97,99,0,49,47,1,51,96,99],
            "bones": [],
            "animations": [],
            "morphTargets": [],
            "skinIndices": [],
            "uvs": [[0,1,0,0,0.041667,0,0.041667,1,0.083333,0,0.083333,1,0.125,0,0.125,1,0.166667,0,0.166667,1,0.208333,0,0.208333,1,0.25,0,0.25,1,0.291667,0,0.291667,1,0.333333,0,0.333333,1,0.375,0,0.375,1,0.416667,0,0.416667,1,0.458333,0,0.458333,1,0.5,0,0.5,1,0.541667,0,0.541667,1,0.583333,0,0.583333,1,0.625,0,0.625,1,0.666667,0,0.666667,1,0.708333,0,0.708333,1,0.75,0,0.75,1,0.791667,0,0.791667,1,0.833333,0,0.833333,1,0.875,0,0.875,1,0.916667,0,0.916667,1,0.958333,0,0.958333,1,1,0,1,1]]
        },
        "materials": [{
            "opacity": 1,
            "colorEmissive": [0,0,0],
            "shading": "phong",
            "depthWrite": true,
            "DbgIndex": 0,
            "DbgName": "Physical",
            "wireframe": false,
            "colorSpecular": [0.012,0.012,0.012],
            "specularCoef": 50,
            "colorDiffuse": [0.603922,0.568627,0.552941],
            "transparent": false,
            "colorAmbient": [0.603922,0.568627,0.552941],
            "visible": true,
            "DbgColor": 15658734,
            "blending": "NormalBlending",
            "depthTest": true
        }],
        "type": "Geometry",
        "uuid": "5816F39C-FF05-37E5-A165-44758C7EE9BF"
    },{
        "data": {
            "name": "halter1Geometry",
            "influencesPerVertex": 2,
            "vertices": [-3.8354,2.20722,0.0685,-3.8354,2.93784,0.032943,-3.8354,2.47525,0.0685,-3.8354,2.11215,0.0685,-3.8354,2.91567,0.027243,-3.8354,3.07613,0.0685,-3.8354,2.90598,0.024752,-3.8354,2.90417,0.027834,-3.8354,2.90398,0.024237,-3.8354,2.91567,0.027243,-3.8354,2.91614,0.027362,-3.8354,2.91617,0.027217,-3.8354,3.2058,0.012346,-3.8354,3.2058,0.0685,-3.8354,3.0378,-0.445819,-3.8354,3.04762,-0.484,-3.8354,3.2058,-0.484,-3.8354,2.92518,-0.007825,-3.8354,2.91617,0.027217,-3.8354,0.114701,0.17106,-3.8354,0.384485,0.157208,-3.8354,0.113425,0.184234,-3.8354,0.113425,0.184234,-3.8354,0.129161,0.215236,-3.8354,0.110685,0.212511,-3.8354,0.267667,0.235666,-3.8354,0.278897,0.237322,-3.8354,0.214502,0.227824,-3.8354,0.288667,0.238763,-3.8354,0.309729,0.24187,-3.8354,0.330196,0.244889,-3.8354,3.2058,0.101842,-3.8354,0.350753,0.247921,-3.8354,0.473325,0.266,-3.8354,3.2058,0.266,-3.8354,0.110685,0.212511,-3.8354,0.109999,0.219591,-3.8354,0.123069,0.248128,-3.8354,0.125226,0.249134,-3.8354,0.108379,0.236309,-3.8354,0.108316,0.236963,-3.8354,0.108316,0.236963,-3.8354,0.107919,0.241065,-3.8354,0.108379,0.236309,-3.8354,0.109267,0.227149,-3.8354,0.109267,0.227149,-3.8354,0.109999,0.219591,-3.8354,0.129557,0.251153,-3.8354,0.133354,0.252923,-3.8354,0.13676,0.254511,-3.8354,0.145184,0.258439,-3.8354,0.161403,0.266,-3.8354,0.107101,0.249504,-3.8354,0.107041,0.250123,-3.8354,0.107001,0.250535,-3.8354,0.107511,0.245277,-3.8354,0.107511,0.245277,-3.8354,0.107101,0.249504,-3.8354,0.106769,0.252927,-3.8354,0.106899,0.251593,-3.8354,0.106607,0.254599,-3.8354,0.106695,0.253694,-3.8354,0.10647,0.256018,-3.8354,0.106552,0.255169,-3.8354,0.106552,0.255169,-3.8354,0.106607,0.254599,-3.8354,0.106041,0.260441,-3.8354,0.106368,0.25707,-3.8354,0.105503,0.266,-3.8354,0.105949,0.261395,-3.8354,0.105949,0.261395,-3.8354,0.106041,0.260441,-3.8354,0.083903,0.172642,-3.8354,0.085298,0.187038,-3.8354,0.085298,0.187038,-3.8354,0.087433,0.209081,-3.8354,0.087433,0.209081,-3.8354,0.088916,0.224383,-3.8354,0.099279,0.237036,-3.8354,0.089709,0.232575,-3.8354,0.089171,0.22702,-3.8354,0.09148,0.250851,-3.8354,0.091491,0.25097,-3.8354,0.091491,0.25097,-3.8354,0.091564,0.251721,-3.8354,0.090212,0.237761,-3.8354,0.09064,0.242185,-3.8354,0.089969,0.235259,-3.8354,0.089709,0.232575,-3.8354,0.091794,0.254093,-3.8354,0.09158,0.251891,-3.8354,0.09158,0.251891,-3.8354,0.091564,0.251721,-3.8354,0.092693,0.255471,-3.8354,0.091858,0.25475,-3.8354,0.091797,0.254124,-3.8354,0.094042,0.256636,-3.8354,0.098876,0.260808,-3.8354,0.104892,0.266,-3.8354,0.091932,0.255519,-3.8354,0.091926,0.255456,-3.8354,0.091858,0.25475,-3.8354,0.09205,0.256735,-3.8354,0.092037,0.256599,-3.8354,0.092037,0.256599,-3.8354,0.092476,0.261135,-3.8354,0.092333,0.259657,-3.8354,0.09205,0.256735,-3.8354,0.092947,0.266,-3.8354,0.092721,0.263665,-3.8354,0.092476,0.261135,-3.8354,0.058721,0.173934,-3.8354,0.063375,0.189224,-3.8354,0.068572,0.206299,-3.8354,0.068572,0.206299,-3.8354,0.077636,0.226946,-3.8354,0.074397,0.225436,-3.8354,0.074397,0.225436,-3.8354,0.075036,0.227537,-3.8354,0.087715,0.251175,-3.8354,0.088611,0.251948,-3.8354,0.078435,0.238703,-3.8354,0.078836,0.240022,-3.8354,0.078836,0.240022,-3.8354,0.080277,0.244756,-3.8354,0.078435,0.238703,-3.8354,0.07661,0.232708,-3.8354,0.07661,0.232708,-3.8354,0.075036,0.227537,-3.8354,0.091154,0.254143,-3.8354,0.082371,0.251636,-3.8354,0.082503,0.25207,-3.8354,0.082607,0.25241,-3.8354,0.080277,0.244756,-3.8354,0.081096,0.247445,-3.8354,0.081096,0.247445,-3.8354,0.082371,0.251636,-3.8354,0.08332,0.254753,-3.8354,0.082925,0.253454,-3.8354,0.082607,0.25241,-3.8354,0.08371,0.256034,-3.8354,0.083484,0.255291,-3.8354,0.083484,0.255291,-3.8354,0.08332,0.254753,-3.8354,0.084045,0.257133,-3.8354,0.083836,0.256448,-3.8354,0.083836,0.256448,-3.8354,0.08371,0.256034,-3.8354,0.085373,0.261499,-3.8354,0.084387,0.258259,-3.8354,0.084387,0.258259,-3.8354,0.084045,0.257133,-3.8354,0.086743,0.266,-3.8354,0.085618,0.262303,-3.8354,0.085618,0.262303,-3.8354,0.036365,0.175082,-3.8354,0.04532,0.191024,-3.8354,0.04532,0.191024,-3.8354,0.052576,0.20394,-3.8354,0.052576,0.20394,-3.8354,0.061193,0.21928,-3.8354,0.061193,0.21928,-3.8354,0.066874,0.229392,-3.8354,0.073702,0.239081,-3.8354,0.071013,0.23676,-3.8354,0.06779,0.231023,-3.8354,0.06779,0.231023,-3.8354,0.079508,0.251883,-3.8354,0.079645,0.252126,-3.8354,0.07992,0.252616,-3.8354,0.072376,0.239187,-3.8354,0.075125,0.24408,-3.8354,0.075125,0.24408,-3.8354,0.071491,0.237612,-3.8354,0.071491,0.237612,-3.8354,0.071013,0.23676,-3.8354,0.081212,0.254917,-3.8354,0.080266,0.253232,-3.8354,0.07992,0.252616,-3.8354,0.081904,0.256148,-3.8354,0.0814,0.25525,-3.8354,0.0814,0.25525,-3.8354,0.081212,0.254917,-3.8354,0.0825,0.25721,-3.8354,0.082054,0.256416,-3.8354,0.082054,0.256416,-3.8354,0.084923,0.261522,-3.8354,0.082947,0.258006,-3.8354,0.082947,0.258006,-3.8354,0.0825,0.25721,-3.8354,0.08533,0.262248,-3.8354,0.085921,0.2633,-3.8354,0.084923,0.261522,-3.8354,0.013416,0.176261,-3.8354,0.029162,0.192635,-3.8354,0.029162,0.192635,-3.8354,0.037961,0.201784,-3.8354,0.037961,0.201784,-3.8354,0.049579,0.213865,-3.8354,0.049579,0.213865,-3.8354,0.064935,0.229833,-3.8354,0.065695,0.230623,-3.8354,0.070192,0.2353,-3.8354,0.065695,0.230623,-3.8354,0.064935,0.229833,-3.8354,-0.0026,0.184483,-3.8354,-0.0026,0.177083,-3.8354,0.014469,0.1941,-3.8354,0.014469,0.1941,-3.8354,0.024614,0.199816,-3.8354,0.024614,0.199816,-3.8354,0.049416,0.213789,-3.8354,0.049416,0.213789,-3.8354,0.049612,0.2139,-3.8354,-0.0026,0.195334,-3.8354,-0.000924,0.195634,-3.8354,-0.000924,0.195634,-3.8354,0.012096,0.197969,-3.8354,0.017051,0.1987,-3.8354,0.025651,0.2004,-3.8354,0.017601,0.198956,-3.8354,-0.0026,0.195801,-3.8354,0,0.1958,-3.8354,-0.001178,0.196011,-3.8354,-0.099225,0.3308,-3.7793,-0.099225,0.3308,-3.8354,-0.099179,0.331279,-3.7793,-0.099099,0.3321,-3.8354,-0.099099,0.3321,-3.78518,0.099099,0.3321,-3.7793,0.099099,0.3321,-3.7793,0.099225,0.3308,-3.8354,0.099099,0.3321,-3.8354,0.09918,0.331262,-3.8354,0.099225,0.3308,-3.7793,0.095844,0.2959,-3.8354,0.097044,0.308292,-3.8354,0.095844,0.2959,-3.7793,0.085921,0.2633,-3.8354,0.089445,0.274875,-3.8354,0.085921,0.2633,-3.7793,0.070192,0.2353,-3.8354,0.075777,0.245242,-3.8354,0.070192,0.2353,-3.7793,0.049612,0.2139,-3.8354,0.05692,0.221498,-3.8354,0.05692,0.221498,-3.8354,0.049612,0.2139,-3.7793,0.025651,0.2004,-3.8354,0.034159,0.205193,-3.8354,0.034159,0.205193,-3.8354,0.025651,0.2004,-3.7793,-0,0.1958,-3.8354,0.009108,0.197433,-3.8354,0.009108,0.197433,-3.8354,-0,0.1958,-3.7793,-0.025651,0.2004,-3.8354,-0.016544,0.198767,-3.8354,-0.025651,0.2004,-3.7793,-0.049612,0.2139,-3.8354,-0.041105,0.209107,-3.8354,-0.041105,0.209107,-3.8354,-0.049612,0.2139,-3.7793,-0.070192,0.2353,-3.8354,-0.062885,0.227702,-3.8354,-0.062885,0.227702,-3.8354,-0.070192,0.2353,-3.7793,-0.085921,0.2633,-3.8354,-0.080337,0.253358,-3.8354,-0.085921,0.2633,-3.7793,-0.095844,0.2959,-3.8354,-0.092321,0.284325,-3.8354,-0.095844,0.2959,-3.8354,-0.098025,0.318408,-3.8804,2.96581,0.0685,-3.8804,2.91567,0.027243,-3.8804,2.2954,0.059091,-3.8804,2.3368,0.0685,-3.8804,3.07613,0.0685,-3.8804,2.11215,0.0685,-3.8804,2.90598,0.024752,-3.8804,2.90417,0.027834,-3.8804,2.91567,0.027243,-3.8804,2.90398,0.024237,-3.8804,3.0764,0.0685,-3.8804,2.91617,0.027217,-3.8804,2.91614,0.027362,-3.8804,3.2058,0.0685,-3.8804,3.2058,0.012346,-3.8804,2.92518,-0.007825,-3.8804,3.2058,-0.484,-3.8804,3.04762,-0.484,-3.8804,3.2058,0.266,-3.8804,3.2058,0.101842,-3.8804,0.113149,0.187078,-3.8804,0.113994,0.178361,-3.8804,0.113994,0.178361,-3.8804,0.114053,0.177746,-3.8804,0.114053,0.177746,-3.8804,0.114701,0.17106,-3.8804,0.110685,0.212511,-3.8804,0.473325,0.266,-3.8804,0.112061,0.19831,-3.8804,0.112061,0.19831,-3.8804,0.113149,0.187078,-3.8804,0.107919,0.241065,-3.8804,0.161403,0.266,-3.8804,0.110685,0.212511,-3.8804,0.105503,0.266,-3.8804,0.107919,0.241065,-3.8804,0.085233,0.186365,-3.8804,0.084598,0.179814,-3.8804,0.084598,0.179814,-3.8804,0.084554,0.179359,-3.8804,0.083903,0.172642,-3.8804,0.087433,0.209081,-3.8804,0.086335,0.197747,-3.8804,0.089709,0.232575,-3.8804,0.087433,0.209081,-3.8804,0.091858,0.25475,-3.8804,0.104892,0.266,-3.8804,0.089709,0.232575,-3.8804,0.092947,0.266,-3.8804,0.091858,0.25475,-3.8804,0.062327,0.185781,-3.8804,0.060868,0.180987,-3.8804,0.060868,0.180987,-3.8804,0.060768,0.180659,-3.8804,0.060768,0.180659,-3.8804,0.058721,0.173934,-3.8804,0.068572,0.206299,-3.8804,0.065833,0.197299,-3.8804,0.065833,0.197299,-3.8804,0.062327,0.185781,-3.8804,0.074397,0.225436,-3.8804,0.068572,0.206299,-3.8804,0.080277,0.244756,-3.8804,0.074397,0.225436,-3.8804,0.086743,0.266,-3.8804,0.080277,0.244756,-3.8804,0.042085,0.185264,-3.8804,0.040254,0.182006,-3.8804,0.040132,0.181788,-3.8804,0.040132,0.181788,-3.8804,0.036365,0.175082,-3.8804,0.052576,0.20394,-3.8804,0.048634,0.196922,-3.8804,0.048634,0.196922,-3.8804,0.042085,0.185264,-3.8804,0.061193,0.21928,-3.8804,0.052576,0.20394,-3.8804,0.071013,0.23676,-3.8804,0.061193,0.21928,-3.8804,0.085921,0.2633,-3.8804,0.071013,0.23676,-3.8804,0.021571,0.184741,-3.8804,0.019908,0.183011,-3.8804,0.019908,0.183011,-3.8804,0.0198,0.182899,-3.8804,0.0198,0.182899,-3.8804,0.013416,0.176261,-3.8804,0.037961,0.201784,-3.8804,0.032956,0.196579,-3.8804,0.032956,0.196579,-3.8804,0.021571,0.184741,-3.8804,0.049579,0.213865,-3.8804,0.037961,0.201784,-3.8804,0.070192,0.2353,-3.8804,0.049579,0.213865,-3.8804,-0.0026,0.184124,-3.8804,-0.0026,0.177083,-3.8804,0.024614,0.199816,-3.8804,0.018301,0.196259,-3.8804,0.018301,0.196259,-3.8804,-0.0026,0.184483,-3.8804,0.049416,0.213789,-3.8804,0.024614,0.199816,-3.8804,0.049612,0.2139,-3.8804,0.049416,0.213789,-3.8804,0.012096,0.197969,-3.8804,0.000371,0.195866,-3.8804,0.000371,0.195866,-3.8804,-0.0026,0.195334,-3.8804,0.017051,0.1987,-3.8804,0.017601,0.198956,-3.8804,0.025651,0.2004,-3.8804,-0.0026,0.195801,-3.8804,-0.001178,0.196011,-3.8804,-0.00029,0.195852,-3.8804,-0.00029,0.195852,-3.8804,-0,0.1958,-3.93141,-0.099099,0.3321,-3.9373,-0.099225,0.3308,-3.8804,-0.099225,0.3308,-3.8804,-0.099141,0.331664,-3.8804,-0.099099,0.3321,-3.9373,-0.099099,0.3321,-3.9373,0.099099,0.3321,-3.8804,0.099099,0.3321,-3.8804,0.099144,0.331632,-3.8804,0.099225,0.3308,-3.9373,0.099225,0.3308,-3.8804,0.098007,0.318232,-3.8804,0.095844,0.2959,-3.9373,0.095844,0.2959,-3.8804,0.092271,0.28416,-3.9373,0.085921,0.2633,-3.8804,0.080257,0.253216,-3.8804,0.070192,0.2353,-3.9373,0.070192,0.2353,-3.8804,0.062781,0.227593,-3.8804,0.062781,0.227593,-3.8804,0.049612,0.2139,-3.9373,0.049612,0.2139,-3.8804,0.040984,0.209038,-3.8804,0.025651,0.2004,-3.9373,0.025651,0.2004,-3.8804,0.016414,0.198743,-3.8804,-0,0.1958,-3.9373,-0,0.1958,-3.8804,-0.009238,0.197457,-3.8804,-0.009238,0.197457,-3.8804,-0.025651,0.2004,-3.9373,-0.025651,0.2004,-3.8804,-0.03428,0.205262,-3.8804,-0.049612,0.2139,-3.9373,-0.049612,0.2139,-3.8804,-0.057024,0.221607,-3.8804,-0.057024,0.221607,-3.8804,-0.070192,0.2353,-3.9373,-0.070192,0.2353,-3.8804,-0.075857,0.245384,-3.8804,-0.085921,0.2633,-3.9373,-0.085921,0.2633,-3.8804,-0.089495,0.27504,-3.8804,-0.095844,0.2959,-3.9373,-0.095844,0.2959,-3.8804,-0.097062,0.308468,-3.84314,0.473325,0.266,-3.84207,0.473325,0.266,-3.83888,0.161403,0.266,-3.8377,0.161403,0.266,-3.83812,0.105503,0.266,-3.83857,0.105503,0.266,-3.83857,0.105503,0.266,-3.8804,0.105503,0.266,-3.83692,0.105503,0.266,-3.83693,0.105503,0.266,-3.83693,0.105503,0.266,-3.83812,0.105503,0.266,-3.83692,0.105503,0.266,-3.83542,0.105503,0.266,-3.83542,0.105503,0.266,-3.8354,0.105503,0.266,-3.83812,0.104892,0.266,-3.83691,0.104892,0.266,-3.83795,0.092947,0.266,-3.85455,0.092947,0.266,-3.83674,0.092947,0.266,-3.83721,0.092947,0.266,-3.83599,0.092947,0.266,-3.83787,0.086743,0.266,-3.84113,0.086743,0.266,-3.83665,0.086743,0.266,-3.83675,0.086743,0.266,-3.83552,0.086743,0.266,-3.8354,0.086743,0.266,-3.8804,0.086743,0.266,-3.8354,-0.086743,0.266,-3.8804,-0.086743,0.266,-3.86085,3.04762,-0.484,-3.83756,3.04762,-0.484,-3.84107,3.2058,0.0685,-3.85062,3.2058,0.012346,-3.84725,3.2058,0.0685,-3.85934,3.2058,0.0685,-3.87044,3.2058,0.0685,-3.84525,3.2058,0.101842,-3.86452,3.2058,0.101842,-3.85986,2.11215,0.0685,-3.8804,0.114701,0.17106,-3.8804,1.31764,0.109295,-3.87743,0.114701,0.17106,-3.87743,0.114701,0.17106,-3.8354,1.16933,0.11691,-3.87296,0.114701,0.17106,-3.87296,0.114701,0.17106,-3.8354,0.114701,0.17106,-3.8804,0.083903,0.172642,-3.87735,0.083903,0.172642,-3.87735,0.083903,0.172642,-3.87406,0.083903,0.172642,-3.8354,0.083903,0.172642,-3.8804,0.058721,0.173934,-3.87729,0.058721,0.173934,-3.87729,0.058721,0.173934,-3.87495,0.058721,0.173934,-3.87495,0.058721,0.173934,-3.8354,0.058721,0.173934,-3.8804,0.036365,0.175082,-3.87723,0.036365,0.175082,-3.87723,0.036365,0.175082,-3.87575,0.036365,0.175082,-3.87575,0.036365,0.175082,-3.8354,0.036365,0.175082,-3.8804,0.013416,0.176261,-3.87718,0.013416,0.176261,-3.87718,0.013416,0.176261,-3.87657,0.013416,0.176261,-3.87657,0.013416,0.176261,-3.8354,0.013416,0.176261,-3.87714,-0.0026,0.177083,-3.83572,2.90398,0.024237,-3.83567,2.90398,0.024237,-3.8804,2.90398,0.024237,-3.8354,2.90398,0.024237,-3.8354,2.91617,0.027217,-3.83914,-0.0026,0.184483,-3.85319,-0.0026,0.184483,-3.84464,-0.0026,0.195334,-3.8354,-0.0026,0.195334,-3.84464,-0.0026,0.195334,-3.87927,-0.0026,0.195334,-3.87927,-0.0026,0.195334,-3.8804,-0.0026,0.195334,-3.84487,-0.0026,0.195801,-3.8354,-0.0026,0.196266,-3.8804,-0.0026,0.196266,-3.8804,0.012097,0.197969,-3.86182,0.012097,0.197969,-3.86182,0.012097,0.197969,-3.8354,0.012097,0.197969,-3.8354,-0.001178,0.196011,-3.84111,-0.001178,0.196011,-3.84111,-0.001178,0.196011,-3.8804,-0.001178,0.196011,-3.8804,0.017601,0.198956,-3.8774,0.017601,0.198956,-3.8774,0.017601,0.198956,-3.8354,0.017601,0.198956,-3.8354,0.017601,0.198956,-3.8354,0.012097,0.197969,-3.85381,0.012097,0.197969,-3.8804,0.017601,0.198956,-3.85381,0.012097,0.197969,-3.8804,0.012097,0.197969,-3.8354,-0.001178,0.196011,-3.8804,-0.001178,0.196011],
            "skinWeights": [],
            "metadata": {
                "normals": 114,
                "materials": 1,
                "faces": 645,
                "generator": "io_three",
                "vertices": 548,
                "version": 3,
                "morphTargets": 0,
                "bones": 0,
                "uvs": 1
            },
            "normals": [1,0,0,0.999969,0,0,0.707083,-0.036256,-0.706168,0.577349,-0.606189,-0.546953,0.62804,-0.777123,0.04001,0.095981,0.247719,-0.964049,0.577166,-0.415662,-0.702902,1,-9.2e-05,0,0.707083,0.707083,0,0.591723,-0.493942,-0.637043,0.577319,0.577349,-0.577349,0.707083,0,0.707083,0.577349,0.577349,0.577349,1,3.1e-05,0,0.999969,-6.1e-05,0,1,-0.000122,0,0.999969,-0.000336,0,0.999969,-3.1e-05,0,1,-6.1e-05,0,0.999969,6.1e-05,0,0.999969,0.000763,0,1,-3.1e-05,0,1,6.1e-05,0,0.999969,3.1e-05,0,1,9.2e-05,0,0.999969,0.000183,0,0.999969,-0.000214,0,0.765069,0,0.643941,1,0.000153,0,1,0.000183,0,1,-0.000244,0,0.999969,-0.001129,0,0.999969,0.000427,0,0.999969,-0.001801,0,1,-0.000214,0,0.999969,0.000336,0,0.999939,0.00824,0,0.707083,-0.707083,0,0.580065,-0.590533,-0.560991,1,0.000122,0,0.999878,0.015076,0,0.999939,0.009339,0,1,-0.000153,0,0.092807,-0.285989,0.953703,0.585437,-0.613636,0.529771,0,-1,0,0,-0.999969,0,0,-0.995331,0.096408,0,-0.995331,0.096438,0,0.995331,0.096408,0,1,0,0,0.980834,-0.194739,0,0.995331,-0.096408,0,0.919614,-0.392743,0,0.956664,-0.291177,0,0.802759,-0.59624,0,0.871853,-0.489761,0,0.612323,-0.790582,0,0.720756,-0.693136,0,0.33842,-0.940977,0,0.49086,-0.871212,0,0,-0.999969,0,0.176489,-0.984283,0,-0.33842,-0.940977,0,-0.176489,-0.984283,0,-0.612323,-0.790582,0,-0.49086,-0.871212,0,-0.802759,-0.59624,0,-0.720756,-0.693136,0,-0.919614,-0.392743,0,-0.871853,-0.489761,0,-0.980834,-0.194739,0,-0.956664,-0.291177,0,-0.995331,-0.096408,-1,0,0,-0.707053,-0.036256,-0.706198,-0.577349,-0.606189,-0.546953,-0.095981,0.247871,-0.963988,-0.62804,-0.777123,0.039918,-0.707144,-0.684774,-0.176,-0.577166,-0.415448,-0.703024,-0.707083,0.707083,0,-0.577349,0.577349,-0.577349,-0.591723,-0.493942,-0.637043,-0.577319,0.577319,0.577349,-0.707114,0.707083,0,-0.999969,0,0,-0.707083,0,0.707083,-0.765069,0,0.643941,-0.069094,0.917417,-0.391797,-0.999969,3.1e-05,0,-1,-0.000122,0,-0.580096,-0.590533,-0.560991,-0.999969,-3.1e-05,0,-0.706992,-0.707175,0,-0.999969,6.1e-05,0,-1,0.000122,0,-0.092807,-0.285989,0.953703,-0.585437,-0.613636,0.529771,-0.999969,-0.000214,0,-1,-9.2e-05,0,0,0,-1,0,0,1,0,0,0.999969,0,-0.051271,-0.998657,0,-0.051241,-0.998657,0,-0.998657,0.051515,0,-0.998657,0.051576,0,0.249001,-0.968474,0,0.249031,-0.968474,0,-0.968505,-0.248939,0,-0.145909,0.989288,0,-0.422559,0.906308,0,-0.422529,0.906339],
            "faces": [42,0,1,2,0,0,1,2,0,0,1,42,1,0,3,0,1,0,3,0,0,2,42,1,3,4,0,1,3,4,0,2,0,42,2,1,5,0,2,1,5,1,0,0,42,6,7,8,0,6,7,8,0,3,4,42,9,7,6,0,9,7,6,5,3,0,42,1,10,11,0,1,10,11,0,6,7,42,1,11,12,0,1,11,12,0,7,8,42,5,1,12,0,5,1,12,0,0,8,42,5,12,13,0,5,12,13,0,8,8,42,14,15,16,0,14,15,16,0,9,10,42,17,14,16,0,17,14,16,0,0,10,42,18,17,16,0,11,17,16,0,0,10,42,18,16,12,0,11,16,12,0,10,8,42,19,20,21,0,18,19,20,0,1,0,42,22,20,23,0,20,19,21,1,1,0,42,22,23,24,0,20,21,22,1,0,0,42,25,0,2,0,23,0,2,0,0,1,42,25,2,26,0,23,2,24,0,1,0,42,27,0,25,0,25,0,23,1,0,0,42,0,27,23,0,0,25,21,0,1,0,42,0,23,20,0,0,21,19,0,0,1,42,0,20,3,0,0,19,3,0,1,2,42,28,26,2,0,26,24,2,1,0,1,42,29,28,2,0,27,26,2,0,1,1,42,29,2,5,0,27,2,5,0,1,0,42,30,29,5,0,28,27,5,0,0,0,42,30,5,31,0,28,5,29,0,0,8,42,32,30,31,0,30,28,29,0,0,8,42,33,32,31,0,31,30,29,11,0,8,42,33,31,34,0,31,29,32,11,8,12,42,5,13,31,0,5,13,29,0,8,8,42,35,23,36,0,22,21,33,1,0,0,42,37,25,26,0,34,23,24,1,0,0,42,37,26,38,0,34,24,35,1,0,0,42,39,27,25,0,36,25,23,13,1,0,42,39,25,40,0,36,23,37,13,0,13,42,41,25,37,0,37,23,34,0,0,1,42,41,37,42,0,37,34,38,0,1,0,42,27,43,44,0,25,36,39,1,0,0,42,27,45,46,0,25,39,33,1,0,0,42,27,46,23,0,25,33,21,1,0,0,42,28,47,38,0,26,40,35,1,1,0,42,28,38,26,0,26,35,24,1,0,0,42,29,48,47,0,27,41,40,0,0,1,42,29,47,28,0,27,40,26,0,1,1,42,30,49,48,0,28,42,41,0,0,0,42,30,48,29,0,28,41,27,0,0,0,42,32,50,49,0,30,43,42,0,0,0,42,32,49,30,0,30,42,28,0,0,0,42,33,51,50,0,31,44,43,11,11,0,42,33,50,32,0,31,43,30,11,0,0,42,52,37,38,0,45,34,35,0,1,0,42,52,38,53,0,45,35,46,0,0,0,42,53,38,54,0,46,35,47,0,0,0,42,42,37,55,0,38,34,48,0,1,1,42,56,37,57,0,48,34,45,1,1,0,42,47,58,59,0,40,49,50,1,0,0,42,47,59,54,0,40,50,47,1,0,0,42,47,54,38,0,40,47,35,1,0,0,42,48,60,61,0,41,51,52,0,0,0,42,48,61,58,0,41,52,49,0,0,0,42,48,58,47,0,41,49,40,0,0,1,42,49,62,63,0,42,53,54,0,0,0,42,49,64,65,0,42,54,51,0,0,0,42,49,65,48,0,42,51,41,0,0,0,42,50,66,67,0,43,55,56,0,0,0,42,50,67,62,0,43,56,53,0,0,0,42,50,62,49,0,43,53,42,0,0,0,42,51,68,69,0,44,57,58,11,0,1,42,51,70,71,0,44,58,55,11,1,0,42,51,71,50,0,44,55,43,11,0,0,42,72,19,21,0,59,18,20,0,0,0,42,72,21,73,0,59,20,60,0,0,0,42,74,22,24,0,60,20,22,0,1,0,42,74,24,75,0,60,22,61,0,0,0,42,76,35,36,0,62,22,33,0,1,0,42,76,36,77,0,62,33,63,0,0,0,42,78,39,40,0,64,36,37,0,13,13,42,78,41,42,0,64,37,38,0,0,0,42,43,78,79,0,36,64,65,0,0,0,42,43,79,80,0,36,65,66,0,0,1,42,43,80,44,0,36,66,39,0,1,0,42,45,80,77,0,39,66,63,0,1,0,42,45,77,46,0,39,63,33,0,0,0,42,81,52,53,0,67,45,46,14,0,0,42,81,53,82,0,67,46,68,14,0,15,42,83,53,54,0,68,46,47,13,0,0,42,83,54,84,0,68,47,69,13,0,13,42,85,78,42,0,70,64,38,0,0,0,42,85,42,55,0,70,38,48,0,0,1,42,85,55,86,0,70,48,71,0,1,0,42,86,56,57,0,71,48,45,0,1,0,42,86,57,81,0,71,45,67,0,0,14,42,78,85,87,0,64,70,72,0,0,1,42,78,87,88,0,64,72,65,0,1,13,42,58,89,90,0,49,73,74,0,13,13,42,58,90,59,0,49,74,50,0,13,0,42,59,91,92,0,50,74,69,0,0,1,42,59,92,54,0,50,69,47,0,1,0,42,60,93,94,0,51,75,76,0,16,0,42,60,94,95,0,51,76,77,0,0,0,42,60,95,61,0,51,77,52,0,0,0,42,61,95,89,0,52,77,73,0,0,13,42,61,89,58,0,52,73,49,0,13,0,42,62,96,93,0,53,78,75,0,17,16,42,62,93,63,0,53,75,54,0,16,0,42,64,93,65,0,54,75,51,0,16,0,42,66,97,96,0,55,79,78,0,0,17,42,66,96,67,0,55,78,56,0,17,0,42,67,96,62,0,56,78,53,0,17,0,42,68,98,97,0,57,80,79,0,11,0,42,68,97,69,0,57,79,58,0,0,1,42,70,97,71,0,58,79,55,1,0,0,42,93,99,100,0,75,81,82,16,18,19,42,93,100,101,0,75,82,76,16,19,20,42,96,102,103,0,78,83,84,17,0,1,42,96,104,99,0,78,84,81,17,1,18,42,96,99,93,0,78,81,75,17,18,16,42,97,105,106,0,79,85,86,0,0,1,42,97,106,107,0,79,86,83,0,1,21,42,97,107,96,0,79,83,78,0,21,17,42,98,108,109,0,80,87,88,11,11,0,42,98,109,110,0,80,88,85,11,0,18,42,98,110,97,0,80,85,79,11,18,0,42,111,72,73,0,89,59,60,0,0,0,42,111,73,112,0,89,60,90,0,0,0,42,112,74,75,0,90,60,61,0,0,0,42,112,75,113,0,90,61,91,0,0,0,42,114,76,77,0,91,62,63,0,0,0,42,114,77,115,0,91,63,92,0,0,0,42,114,115,116,0,91,92,93,0,0,0,42,79,115,80,0,65,92,66,0,0,1,42,80,115,77,0,66,92,63,1,0,0,42,117,115,118,0,93,92,94,22,0,13,42,119,81,82,0,95,67,68,23,14,15,42,119,83,84,0,95,68,69,23,13,13,42,119,84,120,0,95,69,96,23,13,1,42,121,85,86,0,97,70,71,0,0,0,42,121,86,122,0,97,71,98,0,0,0,42,123,86,81,0,98,71,67,0,0,14,42,123,81,119,0,98,67,95,0,14,23,42,123,119,124,0,98,95,99,0,23,24,42,85,125,126,0,70,97,100,0,1,0,42,85,126,87,0,70,100,72,0,0,1,42,87,127,128,0,72,100,94,1,1,0,42,87,128,115,0,72,94,92,1,0,0,42,87,115,88,0,72,92,65,1,0,13,42,89,129,120,0,73,101,96,13,13,1,42,89,120,90,0,73,96,74,13,1,13,42,91,120,92,0,74,96,69,0,1,1,42,94,129,95,0,76,101,77,0,13,0,42,95,129,89,0,77,101,73,0,13,13,42,130,119,120,0,102,95,96,19,23,1,42,130,120,131,0,102,96,103,19,1,1,42,131,120,132,0,103,96,104,1,1,0,42,133,119,134,0,99,95,105,0,23,0,42,135,119,136,0,105,95,102,15,23,0,42,129,137,138,0,101,106,107,13,0,0,42,129,138,139,0,101,107,104,13,0,13,42,129,139,120,0,101,104,96,13,13,1,42,99,140,141,0,81,108,109,18,1,0,42,99,141,100,0,81,109,82,18,0,19,42,100,142,143,0,82,109,106,19,0,0,42,100,143,129,0,82,106,101,19,0,13,42,100,129,101,0,82,101,76,19,13,20,42,102,144,145,0,83,110,111,0,13,22,42,102,145,103,0,83,111,84,0,22,1,42,104,146,147,0,84,111,108,1,0,21,42,104,147,99,0,84,108,81,1,21,18,42,105,148,149,0,85,112,113,0,17,25,42,105,149,106,0,85,113,86,0,25,1,42,106,150,151,0,86,113,110,1,0,26,42,106,151,107,0,86,110,83,1,26,21,42,108,152,153,0,87,114,115,11,27,0,42,108,153,109,0,87,115,88,11,0,0,42,109,154,148,0,88,115,112,0,16,17,42,109,148,110,0,88,112,85,0,17,18,42,155,111,112,0,116,89,90,0,0,0,42,155,112,156,0,116,90,117,0,0,0,42,157,112,113,0,117,90,91,0,0,0,42,157,113,158,0,117,91,118,0,0,0,42,159,114,116,0,119,91,93,0,0,0,42,159,116,160,0,119,93,120,0,0,0,42,161,117,118,0,120,93,94,0,22,13,42,161,118,162,0,120,94,121,0,13,1,42,163,121,122,0,122,97,98,0,0,0,42,163,123,124,0,122,98,99,0,0,24,42,125,163,164,0,97,122,123,1,0,0,42,125,164,165,0,97,123,124,1,0,1,42,125,165,126,0,97,124,100,1,1,0,42,127,166,162,0,100,124,121,1,22,1,42,127,162,128,0,100,121,94,1,1,0,42,167,130,131,0,125,102,103,21,19,1,42,167,131,168,0,125,103,126,21,1,0,42,168,131,132,0,126,103,104,0,1,0,42,168,132,169,0,126,104,127,0,0,0,42,170,163,133,0,128,122,99,0,0,0,42,170,133,134,0,128,99,105,0,0,0,42,170,134,171,0,128,105,129,0,0,7,42,172,135,136,0,129,105,102,15,15,0,42,172,136,167,0,129,102,125,15,0,21,42,163,170,173,0,122,128,130,0,0,0,42,163,174,175,0,122,130,123,0,0,0,42,137,176,177,0,106,131,132,0,0,0,42,137,177,138,0,106,132,107,0,0,0,42,138,177,178,0,107,132,127,0,0,13,42,138,178,139,0,107,127,104,0,13,13,42,140,179,180,0,108,133,134,1,28,29,42,140,180,141,0,108,134,109,1,29,0,42,142,181,182,0,109,134,131,0,16,30,42,142,182,143,0,109,131,106,0,30,0,42,144,183,184,0,110,135,136,13,0,13,42,144,184,145,0,110,136,111,13,13,22,42,146,185,179,0,111,136,133,0,0,28,42,146,179,147,0,111,133,108,0,28,21,42,148,186,187,0,112,137,138,17,31,28,42,148,187,149,0,112,138,113,17,28,25,42,150,188,189,0,113,138,135,0,32,0,42,150,189,151,0,113,135,110,0,0,26,42,190,153,191,0,139,115,140,33,0,0,42,154,190,192,0,115,139,137,16,33,34,42,154,192,148,0,115,137,112,16,34,17,42,193,155,156,0,141,116,117,0,0,0,42,193,156,194,0,141,117,142,0,0,0,42,195,157,158,0,142,117,118,1,0,0,42,195,158,196,0,142,118,143,1,0,1,42,197,159,160,0,144,119,120,21,0,0,42,197,160,198,0,144,120,145,21,0,35,42,199,161,162,0,146,120,121,36,0,1,42,199,162,200,0,146,121,147,36,1,21,42,201,165,202,0,148,124,149,0,1,0,42,166,203,204,0,124,148,147,22,35,24,42,166,204,162,0,124,147,121,22,24,1,42,205,206,193,0,150,151,141,37,38,0,42,205,193,194,0,150,141,142,37,0,0,42,205,194,207,0,150,142,152,37,0,1,42,208,195,196,0,152,142,143,0,1,1,42,208,196,209,0,152,143,153,0,1,0,42,210,197,198,0,154,144,145,39,21,35,42,210,198,211,0,154,145,155,39,35,40,42,212,199,213,0,156,146,157,41,36,41,42,214,205,207,0,158,150,152,1,37,1,42,214,207,215,0,158,152,159,1,1,0,42,216,208,209,0,159,152,153,0,0,0,42,216,209,217,0,159,153,160,0,0,42,42,218,210,219,0,161,154,162,43,39,39,42,218,219,220,0,161,162,163,43,39,1,42,221,214,215,0,164,158,159,44,1,0,42,221,216,222,0,164,159,165,44,0,0,42,221,222,223,0,164,165,166,44,0,0,42,224,225,226,0,167,168,169,45,46,47,42,226,225,227,0,169,168,170,47,46,47,42,226,227,228,0,169,170,171,47,47,48,42,229,230,231,0,172,173,168,49,49,50,42,232,229,231,0,174,172,168,49,49,50,42,232,231,233,0,174,168,175,49,50,49,42,233,231,234,0,175,168,167,49,50,50,42,234,231,235,0,167,168,176,50,50,51,42,234,235,236,0,167,176,177,50,51,52,42,236,235,237,0,177,176,178,52,51,51,42,237,235,238,0,178,176,179,51,51,53,42,237,238,239,0,178,179,180,51,53,54,42,239,238,240,0,180,179,181,54,53,53,42,240,238,241,0,181,179,182,53,53,55,42,240,241,242,0,181,182,183,53,55,56,42,242,241,243,0,183,182,184,56,55,55,42,243,241,244,0,185,186,187,55,55,57,42,243,244,245,0,185,187,188,55,57,58,42,246,244,247,0,188,187,189,58,57,57,42,247,244,248,0,189,187,190,57,57,59,42,247,248,249,0,189,190,191,57,59,60,42,250,248,251,0,191,190,192,60,59,59,42,251,248,252,0,192,190,193,59,59,61,42,251,252,253,0,192,193,194,59,61,62,42,254,252,255,0,194,193,195,62,61,61,42,255,252,256,0,196,197,198,61,61,63,42,255,256,257,0,196,198,199,61,63,64,42,257,256,258,0,199,198,200,64,63,63,42,258,256,259,0,200,198,201,63,63,65,42,258,259,260,0,200,201,202,63,65,66,42,261,259,262,0,202,201,203,66,65,65,42,262,259,263,0,203,201,204,65,65,67,42,262,263,264,0,203,204,205,65,67,68,42,265,263,266,0,205,204,206,68,67,67,42,266,263,267,0,207,208,209,67,67,69,42,266,267,268,0,207,209,210,67,69,70,42,268,267,269,0,210,209,211,70,69,69,42,269,267,270,0,211,209,212,69,69,71,42,269,270,271,0,211,212,213,69,71,72,42,271,270,272,0,213,212,214,72,71,71,42,272,270,225,0,214,212,168,71,71,46,42,272,225,273,0,214,168,215,71,46,73,42,273,225,224,0,215,168,167,73,46,45,42,274,275,276,0,216,217,218,74,74,74,42,274,276,277,0,216,218,219,74,74,74,42,278,275,274,0,220,217,216,74,74,74,42,277,276,279,0,219,218,221,74,74,75,42,280,281,282,0,222,223,217,74,76,77,42,283,281,280,0,224,223,222,78,76,74,42,284,285,286,0,225,226,227,74,79,80,42,284,286,278,0,225,227,228,74,80,74,42,285,284,287,0,226,225,229,79,74,81,42,285,287,288,0,226,229,230,79,81,81,42,289,285,288,0,231,226,230,74,79,81,42,289,288,290,0,231,230,232,74,81,82,42,289,290,291,0,231,232,233,74,82,83,42,274,277,292,0,216,219,234,74,74,84,42,278,274,292,0,220,216,234,74,74,84,42,278,292,293,0,220,234,235,74,84,85,42,294,292,277,0,236,234,219,74,84,74,42,294,277,295,0,236,219,237,74,74,74,42,296,277,279,0,237,219,221,86,74,75,42,296,279,297,0,237,221,238,86,75,74,42,298,279,299,0,238,221,239,74,75,74,42,300,301,292,0,240,241,234,86,87,84,42,300,292,302,0,240,234,242,86,84,74,42,303,292,304,0,242,234,236,74,84,74,42,284,278,293,0,225,228,235,74,74,85,42,284,293,287,0,225,235,229,74,85,81,42,305,306,301,0,243,244,241,74,87,87,42,305,301,307,0,243,241,245,74,87,86,42,308,306,309,0,246,244,243,74,87,74,42,310,294,295,0,247,236,237,74,74,74,42,310,295,311,0,247,237,248,74,74,74,42,312,296,297,0,248,237,238,74,86,74,42,312,297,313,0,248,238,249,74,74,74,42,313,298,299,0,249,238,239,74,74,74,42,313,299,314,0,249,239,250,74,74,86,42,315,300,302,0,251,240,242,86,86,74,42,315,302,316,0,251,242,252,86,74,74,42,316,303,304,0,252,242,236,74,74,74,42,316,304,310,0,252,236,247,74,74,74,42,317,305,307,0,253,243,245,74,74,86,42,317,307,318,0,253,245,251,74,86,86,42,319,320,308,0,254,255,246,74,87,74,42,319,308,309,0,254,246,243,74,74,74,42,319,309,321,0,254,243,253,74,74,74,42,322,320,323,0,256,255,254,87,87,74,42,324,310,311,0,257,247,248,74,74,74,42,324,311,325,0,257,248,258,74,74,74,42,326,312,313,0,258,248,249,74,74,74,42,326,313,327,0,258,249,259,74,74,74,42,328,313,314,0,259,249,250,86,74,86,42,328,314,329,0,259,250,260,86,86,74,42,330,315,316,0,261,251,252,74,86,74,42,330,316,331,0,261,252,262,74,74,86,42,332,316,310,0,262,252,247,74,74,74,42,332,310,333,0,262,247,257,74,74,74,42,334,317,318,0,263,253,251,74,74,86,42,334,318,335,0,263,251,264,74,86,86,42,336,319,321,0,265,254,253,74,74,74,42,336,321,337,0,265,253,263,74,74,74,42,338,322,323,0,266,256,254,88,87,74,42,338,323,339,0,266,254,265,88,74,74,42,340,324,325,0,267,257,258,86,74,74,42,340,325,341,0,267,258,268,86,74,74,42,341,326,327,0,268,258,259,74,74,74,42,341,327,342,0,268,259,269,74,74,74,42,343,328,329,0,269,259,260,74,86,74,42,343,329,344,0,269,260,270,74,74,86,42,345,330,331,0,271,261,262,74,74,86,42,345,331,346,0,271,262,272,74,86,86,42,347,332,333,0,272,262,257,74,74,74,42,347,333,348,0,272,257,267,74,74,74,42,349,334,335,0,273,263,264,74,74,86,42,349,335,350,0,273,264,274,74,86,74,42,351,336,337,0,275,265,263,74,74,74,42,351,337,352,0,275,263,273,74,74,74,42,353,339,354,0,276,265,277,89,74,74,42,355,340,341,0,278,267,268,74,86,74,42,355,341,356,0,278,268,279,74,74,86,42,357,341,342,0,279,268,269,74,74,74,42,357,342,358,0,279,269,280,74,74,90,42,359,343,344,0,280,269,270,74,74,86,42,359,344,360,0,280,270,281,74,86,86,42,361,345,346,0,282,271,272,74,74,86,42,361,346,362,0,282,272,283,74,86,86,42,363,347,348,0,283,272,267,74,74,74,42,363,348,364,0,283,267,278,74,74,74,42,365,349,350,0,284,273,274,74,74,74,42,365,350,366,0,284,274,285,74,74,74,42,367,352,368,0,286,273,287,74,74,74,42,369,355,356,0,288,278,279,91,74,86,42,369,357,358,0,288,279,280,91,74,90,42,369,359,360,0,288,280,281,91,74,86,42,369,360,370,0,288,281,289,91,86,92,42,371,361,362,0,290,282,283,74,74,86,42,371,362,372,0,290,283,291,74,86,93,42,373,363,364,0,291,283,278,74,74,74,42,373,364,369,0,291,278,288,74,74,91,42,373,369,374,0,291,288,292,74,91,94,42,375,365,366,0,293,284,285,74,74,74,42,375,366,376,0,293,285,290,74,74,74,42,377,368,378,0,294,287,295,74,74,74,42,379,371,372,0,296,290,291,86,74,93,42,379,372,380,0,296,291,297,86,93,74,42,381,373,374,0,297,291,292,95,74,94,42,381,374,382,0,297,292,298,95,94,96,42,383,384,385,0,299,300,301,97,86,74,42,383,385,376,0,299,301,290,97,74,74,42,386,387,388,0,302,303,304,98,86,74,42,386,389,390,0,302,304,305,98,99,100,42,386,390,382,0,302,305,298,98,100,96,42,391,392,393,0,306,307,308,47,45,45,42,391,393,394,0,306,308,309,47,45,47,42,391,394,395,0,306,309,310,47,47,47,42,396,392,391,0,311,307,306,47,45,47,42,397,398,399,0,312,313,314,49,49,49,42,397,399,400,0,312,314,308,49,49,50,42,397,400,401,0,312,308,307,49,50,50,42,401,400,402,0,307,308,315,50,50,52,42,401,402,403,0,307,315,316,50,52,51,42,401,403,404,0,307,316,317,50,51,51,42,404,403,405,0,317,316,318,51,51,54,42,404,405,353,0,317,318,319,51,54,89,42,404,353,406,0,317,319,320,51,89,53,42,406,353,407,0,320,319,321,53,89,56,42,406,407,408,0,320,321,322,53,56,55,42,406,408,409,0,320,322,323,53,55,55,42,409,408,410,0,324,325,326,55,55,58,42,409,411,412,0,324,326,327,55,58,57,42,409,412,413,0,324,327,328,55,57,57,42,413,412,414,0,328,327,329,57,57,60,42,413,414,415,0,328,329,330,57,60,59,42,413,415,416,0,328,330,331,57,59,59,42,416,415,417,0,331,330,332,59,59,62,42,416,417,418,0,331,332,333,59,62,61,42,416,418,419,0,331,333,197,59,61,101,42,419,418,420,0,193,334,335,101,61,64,42,419,421,422,0,193,335,336,101,64,63,42,419,422,423,0,193,336,337,101,63,63,42,423,422,424,0,337,336,338,63,63,66,42,423,424,425,0,337,338,339,63,66,65,42,423,425,426,0,337,339,340,63,65,65,42,426,425,427,0,340,339,341,65,65,68,42,426,428,429,0,340,341,342,65,68,67,42,426,429,430,0,340,342,343,65,67,67,42,430,429,431,0,344,345,346,67,67,70,42,430,431,432,0,344,346,347,67,70,69,42,430,432,433,0,344,347,348,67,69,69,42,433,432,434,0,348,347,349,69,69,72,42,433,434,435,0,348,349,350,69,72,71,42,433,435,436,0,348,350,351,69,71,71,42,436,435,437,0,351,350,352,71,71,73,42,436,437,393,0,351,352,308,71,73,45,42,436,393,392,0,351,308,307,71,45,45,42,438,292,301,0,353,234,354,102,84,87,42,439,292,438,0,355,234,353,102,84,102,42,292,439,33,0,234,355,356,84,102,11,42,292,33,34,0,234,356,32,84,11,12,42,440,438,301,0,357,353,354,103,102,87,42,440,301,306,0,357,354,358,103,87,87,42,441,439,438,0,359,355,353,102,102,102,42,441,438,440,0,359,353,357,102,102,103,42,439,441,51,0,355,359,360,102,102,11,42,439,51,33,0,355,360,356,102,11,11,42,442,440,306,0,361,357,358,102,103,87,42,442,306,443,0,361,358,362,102,87,102,42,444,306,445,0,362,358,363,102,87,102,42,446,441,440,0,364,359,357,102,102,103,42,446,440,447,0,364,357,365,102,103,102,42,448,440,449,0,365,357,361,102,103,102,42,441,450,451,0,359,364,366,102,102,102,42,441,452,453,0,359,366,367,102,103,102,42,441,453,51,0,359,367,360,102,102,11,42,454,442,443,0,368,361,362,102,102,102,42,454,444,445,0,368,362,363,102,102,102,42,454,445,320,0,368,363,369,102,102,87,42,455,446,447,0,370,364,365,102,102,102,42,455,448,449,0,370,365,361,102,102,102,42,455,449,454,0,370,361,368,102,102,102,42,450,455,98,0,364,370,371,102,102,11,42,450,98,451,0,364,371,366,102,11,102,42,452,98,453,0,366,371,367,103,11,102,42,456,454,320,0,372,368,369,103,102,87,42,456,320,457,0,372,369,373,103,87,102,42,457,320,322,0,373,369,374,102,87,87,42,458,455,454,0,375,370,368,103,102,102,42,458,454,459,0,375,368,376,103,102,103,42,459,454,456,0,376,368,372,103,102,103,42,455,458,460,0,370,375,377,102,103,102,42,455,460,108,0,370,377,378,102,102,11,42,455,108,98,0,370,378,371,102,11,11,42,461,456,457,0,379,372,373,102,103,102,42,461,457,462,0,379,373,380,102,102,102,42,462,457,322,0,380,373,374,102,102,87,42,462,322,338,0,380,374,381,102,87,88,42,463,458,459,0,382,375,376,103,103,103,42,463,459,464,0,382,376,383,103,103,102,42,464,459,456,0,383,376,372,102,103,103,42,464,456,461,0,383,372,379,102,103,102,42,458,463,465,0,375,382,384,103,103,102,42,458,465,460,0,375,384,377,103,102,102,42,460,465,152,0,377,384,385,102,102,27,42,460,152,108,0,377,385,378,102,27,11,42,393,224,226,0,308,167,169,45,45,47,42,393,226,394,0,308,169,309,45,47,47,42,394,226,228,0,309,169,171,47,47,48,42,394,228,395,0,309,171,310,47,48,47,42,398,232,233,0,313,174,175,49,49,49,42,398,233,399,0,313,175,314,49,49,49,42,399,233,234,0,314,175,167,49,49,50,42,399,234,400,0,314,167,308,49,50,50,42,400,234,236,0,308,167,177,50,50,52,42,400,236,402,0,308,177,315,50,52,52,42,402,236,237,0,315,177,178,52,52,51,42,402,237,403,0,315,178,316,52,51,51,42,403,237,239,0,316,178,180,51,51,54,42,403,239,405,0,316,180,318,51,54,54,42,405,239,466,0,318,180,386,54,54,54,42,405,466,467,0,318,386,387,54,54,54,42,468,271,434,0,388,213,349,72,72,72,42,468,434,469,0,388,349,389,72,72,72,42,434,271,272,0,349,213,214,72,72,71,42,434,272,435,0,349,214,350,72,71,71,42,435,272,273,0,350,214,215,71,71,73,42,435,273,437,0,350,215,352,71,73,73,42,437,273,224,0,352,215,167,73,73,45,42,437,224,393,0,352,167,308,73,45,45,42,470,291,290,0,390,391,232,101,83,82,42,471,470,290,0,392,390,232,61,101,82,42,471,290,16,0,392,232,16,61,82,10,42,471,16,15,0,392,16,393,61,10,9,42,472,473,474,0,394,395,219,50,50,50,42,473,472,13,0,395,394,229,50,50,8,42,473,13,12,0,395,229,230,50,8,8,42,475,474,473,0,396,219,395,50,50,50,42,476,475,473,0,2,396,395,50,50,50,42,476,473,288,0,2,395,12,50,50,81,42,476,288,287,0,2,12,13,50,81,81,42,473,12,16,0,395,230,232,50,8,10,42,473,16,290,0,395,232,16,50,10,82,42,473,290,288,0,395,16,12,50,82,81,42,477,34,31,0,397,234,235,50,12,8,42,478,34,477,0,398,234,397,50,12,50,42,34,478,293,0,234,398,29,12,50,85,42,34,293,292,0,234,29,32,12,85,84,42,472,474,477,0,394,219,397,50,50,50,42,472,477,31,0,394,397,235,50,50,8,42,472,31,13,0,394,235,229,50,8,8,42,475,478,477,0,396,398,397,50,50,50,42,475,477,474,0,396,397,219,50,50,50,42,476,478,475,0,2,398,396,50,50,50,42,478,476,287,0,398,2,13,50,50,81,42,478,287,293,0,398,13,29,50,81,85,42,479,281,7,0,399,400,401,104,76,3,42,479,7,3,0,399,401,402,104,3,2,42,279,281,479,0,403,400,399,75,76,104,42,480,481,482,0,404,405,406,104,104,104,42,483,481,484,0,406,405,407,104,104,104,42,483,484,485,0,406,407,408,104,104,104,42,486,484,487,0,408,407,409,104,104,104,42,479,3,484,0,399,402,407,104,2,104,42,279,479,484,0,403,399,407,75,104,104,42,279,484,481,0,403,407,405,75,104,104,42,488,480,482,0,410,404,406,104,104,104,42,488,482,489,0,410,406,411,104,104,104,42,490,483,485,0,411,406,408,104,104,104,42,490,485,491,0,411,408,412,104,104,104,42,491,486,487,0,412,408,409,104,104,104,42,491,487,492,0,412,409,413,104,104,104,42,493,488,489,0,414,410,411,104,104,104,42,493,489,494,0,414,411,415,104,104,104,42,495,490,491,0,415,411,412,104,104,104,42,495,491,496,0,415,412,416,104,104,104,42,497,491,492,0,416,412,413,104,104,104,42,497,492,498,0,416,413,417,104,104,104,42,499,493,494,0,418,414,415,104,104,104,42,499,494,500,0,418,415,419,104,104,104,42,501,495,496,0,419,415,416,104,104,104,42,501,496,502,0,419,416,420,104,104,104,42,503,497,498,0,420,416,417,104,104,104,42,503,498,504,0,420,417,421,104,104,104,42,505,499,500,0,422,418,419,104,104,104,42,505,500,506,0,422,419,423,104,104,104,42,507,501,502,0,423,419,420,105,104,104,42,507,502,508,0,423,420,424,105,104,105,42,509,503,504,0,424,420,421,104,104,104,42,509,504,510,0,424,421,425,104,104,104,42,511,370,505,0,426,427,422,104,92,104,42,511,505,506,0,426,422,423,104,104,104,42,511,507,508,0,426,423,424,104,105,105,42,511,509,510,0,426,424,425,104,104,104,42,511,510,206,0,426,425,428,104,104,38,42,512,7,281,0,429,430,431,106,3,76,42,512,281,283,0,429,431,432,106,76,78,42,513,7,512,0,433,430,429,107,3,106,42,8,7,513,0,434,430,433,4,3,107,42,514,282,9,0,435,436,437,108,77,5,42,514,9,515,0,435,437,438,108,5,109,42,15,516,285,0,439,440,441,9,110,79,42,15,285,291,0,439,441,442,9,79,83,42,282,286,10,0,436,443,444,77,80,6,42,282,10,9,0,436,444,437,77,6,5,42,516,10,286,0,440,445,446,110,6,80,42,516,286,285,0,440,446,441,110,80,79,42,517,206,205,0,447,448,449,46,38,37,42,206,517,518,0,448,447,450,38,46,46,42,206,518,374,0,448,450,451,38,46,94,42,206,374,370,0,448,451,452,38,94,92,42,519,517,205,0,453,447,449,45,46,37,42,519,205,520,0,453,449,454,45,37,45,42,517,521,522,0,447,453,455,46,45,45,42,517,522,518,0,447,455,450,46,45,46,42,518,523,524,0,450,455,456,46,45,45,42,518,524,374,0,450,456,451,46,45,94,42,525,519,520,0,457,453,454,46,45,45,42,525,520,221,0,457,454,458,46,45,44,42,521,525,386,0,453,457,459,45,46,98,42,521,386,522,0,453,459,455,45,98,45,42,523,386,524,0,455,459,456,45,98,45,42,526,257,420,0,460,199,335,64,64,64,42,526,420,527,0,460,335,461,64,64,64,42,421,257,258,0,335,199,200,64,64,63,42,421,258,422,0,335,200,336,64,63,63,42,422,258,260,0,336,200,202,63,63,66,42,422,260,424,0,336,202,338,63,66,66,42,424,261,262,0,338,202,203,66,66,65,42,424,262,425,0,338,203,339,66,65,65,42,425,262,264,0,339,203,205,65,65,68,42,425,264,427,0,339,205,341,65,68,68,42,428,265,266,0,341,205,206,68,68,67,42,428,266,429,0,341,206,342,68,67,67,42,429,266,268,0,345,207,210,67,67,70,42,429,268,431,0,345,210,346,67,70,70,42,431,268,269,0,346,210,211,70,70,69,42,431,269,432,0,346,211,347,70,69,69,42,432,269,468,0,347,211,388,69,69,72,42,432,468,469,0,347,388,389,69,72,72,42,218,383,528,0,462,463,464,43,97,111,42,218,528,529,0,462,464,465,43,111,111,42,218,530,531,0,462,465,466,43,111,111,42,221,532,533,0,467,468,469,44,111,111,42,221,534,535,0,467,469,470,44,111,111,42,221,535,386,0,467,470,471,44,111,98,42,536,383,537,0,472,463,473,112,97,112,42,538,383,218,0,473,463,462,113,97,43,42,538,218,539,0,473,462,474,113,43,113,42,540,541,542,0,475,476,477,62,62,62,42,540,542,417,0,475,477,332,62,62,62,42,540,417,543,0,475,332,478,62,62,62,42,417,544,545,0,332,477,479,62,62,62,42,546,526,527,0,480,460,461,64,64,64,42,546,527,547,0,480,461,481,64,64,64],
            "bones": [],
            "animations": [],
            "morphTargets": [],
            "skinIndices": [],
            "uvs": [[0.697401,0.736667,0.9188,0.689257,0.77862,0.736667,0.668592,0.736667,0.912083,0.681657,0.960706,0.736667,0.909147,0.678335,0.908596,0.682445,0.90854,0.677649,0.912083,0.681657,0.912223,0.681815,0.912234,0.681623,1,0.661795,1,0.736667,0.949092,0.050908,0.952067,0,1,0,0.914964,0.634899,0.063303,0.873414,0.145056,0.854944,0.062917,0.890978,0.067685,0.932315,0.062086,0.928681,0.109657,0.959554,0.11306,0.961763,0.093546,0.949098,0.11602,0.963684,0.122403,0.967826,0.128605,0.971851,1,0.781123,0.134834,0.975894,0.171977,1,1,1,0.061879,0.938121,0.065839,0.976171,0.066493,0.977512,0.061388,0.960412,0.061369,0.961284,0.061248,0.966753,0.061657,0.948199,0.067805,0.980204,0.068956,0.982564,0.069988,0.984681,0.072541,0.989918,0.077455,1,0.061,0.978006,0.060982,0.978831,0.06097,0.97938,0.061124,0.972369,0.0609,0.982569,0.060939,0.980791,0.060851,0.984799,0.060877,0.983592,0.060809,0.98669,0.060834,0.985559,0.060679,0.992588,0.060778,0.988094,0.060516,1,0.060651,0.99386,0.053971,0.875522,0.054393,0.894717,0.05504,0.924108,0.05504,0.924108,0.05549,0.94451,0.05863,0.961382,0.05573,0.955433,0.055567,0.948027,0.056267,0.979801,0.05627,0.97996,0.056292,0.980962,0.055882,0.962348,0.056012,0.968247,0.055809,0.959011,0.056362,0.984124,0.056297,0.981187,0.056634,0.985962,0.056381,0.985,0.056363,0.984166,0.057043,0.987515,0.058508,0.993077,0.060331,1,0.056404,0.986025,0.056402,0.985942,0.056439,0.987647,0.056435,0.987465,0.056569,0.993514,0.056525,0.991542,0.056711,1,0.056643,0.996887,0.04634,0.877246,0.04775,0.897631,0.049325,0.920399,0.052072,0.947928,0.05109,0.945915,0.051284,0.948716,0.055126,0.980234,0.055397,0.981264,0.052314,0.963604,0.052435,0.965363,0.052872,0.971675,0.051761,0.95561,0.056168,0.984191,0.053506,0.980848,0.053546,0.981426,0.053578,0.98188,0.05312,0.97526,0.053794,0.985004,0.053674,0.983272,0.053912,0.986712,0.053844,0.985722,0.054014,0.988178,0.05395,0.987265,0.054416,0.993998,0.054117,0.989678,0.054831,1,0.05449,0.995071,0.039565,0.878776,0.042279,0.900032,0.044478,0.917253,0.044478,0.917253,0.047089,0.937707,0.04881,0.95119,0.050879,0.964108,0.050064,0.961014,0.049088,0.953364,0.052639,0.981177,0.05268,0.981502,0.052764,0.982155,0.050478,0.96425,0.051311,0.970774,0.05021,0.96215,0.053155,0.985223,0.052868,0.982976,0.053365,0.986863,0.053212,0.985667,0.053546,0.98828,0.05341,0.987221,0.05428,0.994029,0.053681,0.989341,0.054403,0.994997,0.054582,0.9964,0.032611,0.880348,0.037382,0.90218,0.040049,0.914379,0.040049,0.914379,0.043569,0.930487,0.043569,0.930487,0.048223,0.951777,0.048453,0.952831,0.049816,0.959067,0.027758,0.89131,0.027758,0.881444,0.03293,0.904133,0.036004,0.911754,0.036004,0.911754,0.04352,0.930386,0.04352,0.930386,0.04358,0.930533,0.027758,0.905778,0.028266,0.906179,0.032211,0.909292,0.033712,0.910267,0.036319,0.912533,0.033879,0.910608,0.027758,0.906402,0.028545,0.9064,0.028188,0.906682,0.5,0.644937,0.5,1,0.498224,0.644937,0.495185,1,0.495185,0.644937,0.504815,0.962751,0.504815,1,0.504815,0.644938,0.50171,0.644937,0.629259,1,0.583364,0.644937,0.629259,0.644937,0.75,1,0.707129,0.644937,0.75,0.644937,0.853704,1,0.816882,0.644937,0.853704,0.644937,0.355063,0.853704,-0,0.853704,-0,0.75,0.355063,0.786821,0.355063,0.75,-0,0.629259,0.355063,0.67213,0.355063,0.629259,-0,0.5,0.355063,0.545895,0.355063,0.5,0.644937,0.5,1,0.5,1,0.370741,0.644937,0.416636,0.644937,0.370741,1,0.25,0.644937,0.292871,0.644937,0.25,1,0.146296,0.644937,0.183118,0.644937,0.146296,0.146296,0.644937,0.146296,1,0.25,1,0.213179,0.644937,0.25,0.644937,0.370741,1,0.32787,0.644937,0.370741,0.644937,0.454105,0.644937,0.072725,0.736667,0.087917,0.681657,0.275879,0.724121,0.263333,0.736667,0.039294,0.736667,0.331408,0.736667,0.090853,0.678335,0.091404,0.682445,0.09146,0.677649,0.039213,0.736667,0.087766,0.681623,0.087777,0.681815,0.039294,0.736667,0,0.736667,0,0.661795,0.085036,0.634899,0,0,0.047933,0,0,1,0,0.781123,0.937167,0.89477,0.936911,0.883148,0.936893,0.882328,0.936697,0.873414,0.937914,0.928681,0.828023,1,0.937497,0.909747,0.938752,0.966753,0.922545,1,0.937914,0.928681,0.939484,1,0.945626,0.89382,0.945819,0.885086,0.945832,0.884478,0.946029,0.875522,0.94496,0.924108,0.945292,0.908997,0.94427,0.955433,0.943619,0.985,0.939669,1,0.943289,1,0.952568,0.893041,0.95301,0.886649,0.95304,0.886212,0.95366,0.877246,0.950675,0.920399,0.951505,0.908398,0.94891,0.945915,0.950675,0.920399,0.947128,0.971675,0.945169,1,0.958702,0.892352,0.959256,0.888008,0.959293,0.887717,0.960435,0.878776,0.955522,0.917253,0.956717,0.907897,0.952911,0.937707,0.955522,0.917253,0.949935,0.961014,0.945418,0.9964,0.949936,0.961014,0.964918,0.891654,0.965422,0.889349,0.965455,0.889199,0.967389,0.880348,0.959951,0.914379,0.961468,0.907439,0.95643,0.930487,0.959951,0.914379,0.950184,0.959067,0.95643,0.930487,0.972242,0.890832,0.972242,0.881444,0.963996,0.911754,0.965909,0.907012,0.972242,0.89131,0.95648,0.930386,0.95642,0.930533,0.95648,0.930386,0.967789,0.909292,0.971342,0.906489,0.972242,0.905778,0.966288,0.910267,0.966121,0.910608,0.963681,0.912533,0.972242,0.906402,0.971812,0.906682,0.971542,0.906469,0.971455,0.9064,0.495185,0.037249,0.5,-0,0.5,0.360127,0.4968,0.360126,0.495185,0.360126,0.495185,-0,0.504815,-0,0.504815,0.360127,0.503081,0.360127,0.54655,0.360127,0.629259,0.360127,0.629259,-0,0.672741,0.360127,0.75,0.360127,0.75,-0,0.787346,0.360127,0.853704,0.360127,0.853704,-0,1,0.853704,0.639873,0.853704,0.639873,0.816357,0.639873,0.75,1,0.75,0.639873,0.706518,0.639873,0.629259,1,0.629259,0.639873,0.58271,0.639873,0.5,0.360127,0.5,0.360127,0.45345,0.360127,0.370741,-0,0.370741,0.360127,0.327259,0.360127,0.25,-0,0.25,0.360127,0.212654,0.360127,0.146296,-0,0.146296,0.146296,-0,0.146296,0.360127,0.183643,0.360127,0.25,0.360127,0.25,-0,0.293482,0.360127,0.370741,0.360127,0.370741,-0,0.41729,0.360127,0.828023,0.171977,0,0.171977,0.851663,0.171977,1,0.171977,0.922545,0.077455,0,0.077455,0.948883,0.077455,1,0.077455,0.939484,0.060516,0.929515,0.060516,0,0.060516,0.966306,0.060516,0.966022,0.060516,0.999448,0.060516,1,0.060516,0.939669,0.060331,0,0.060331,0.966497,0.060331,1,0.060331,0.943289,0.056711,0.574327,0.056711,0,0.056711,0.97022,0.056711,0.959686,0.056711,0.986845,0.056711,1,0.056711,0.945169,0.054831,0.872627,0.054831,0,0.054831,0.972153,0.054831,0.970082,0.054831,0.997414,0.054831,1,0.054831,0.74,0.644937,0.74,0.360127,0.26,0.644937,0.26,0.360127,0.434452,0.047933,0,0.047933,0.952067,0.047933,1,0.047933,0.126,0.736667,0.338205,0.661795,0.532066,0.736667,0.218877,0.781123,0.647173,0.781123,0.501944,0.759679,0.4814,1,0.5264,1,0.5264,0.759679,0.4814,0.759679,0.4814,0.153593,0.4814,0.5186,0.484372,0.153593,0.5264,0.4736,0.48884,0.153593,0.5264,0.153593,0.4814,0.144248,0.484449,0.144248,0.487743,0.144248,0.5264,0.144248,0.4814,0.136607,0.484511,0.136607,0.486846,0.136607,0.5264,0.136607,0.4814,0.129824,0.484566,0.129824,0.48605,0.129824,0.5264,0.129824,0.4814,0.12286,0.484623,0.12286,0.485233,0.12286,0.5264,0.12286,0.484662,0.118001,0.4814,0.118001,0.5264,0.118001,0.473916,0.996399,0.4736,1,0.5186,1,0.5186,0.996399,0.473873,0.996399,0.4736,0.996399,0.2211,0.987453,0.2211,0.999523,0.2661,0.999523,0.2661,0.987453,0.7339,0.472005,0.7339,0.999851,0.7789,0.999851,0.7789,0.472005,0.2211,1,0.2661,1,0.7339,1,0.7789,1,0.808245,0.579913,0.8045,0.542915,0.8045,0.579913,0.822289,0.579913,0.8495,0.579913,0.8495,0.542915,0.813736,0.634169,0.8045,0.634169,0.848375,0.634169,0.8495,0.634169,0.813973,0.636508,0.8045,0.636508,0.8495,0.636508,0.644937,0.486898,0.360127,0.486898,0.041667,0.616112,0.041667,0.366112,0.032711,0.366112,0.032711,0.469349,0.032711,0.616112,0.006146,0.616112,0.008716,0.616112,0.008716,0.584405,0.008716,0.366112,0.006146,0.366112,0.042734,0.366112,0.042734,0.3828,0.042734,0.616112,0.355063,0.588691,0.355063,0.560956,0.471578,0.560956,0.639873,0.58869,0.639873,0.560956,0.644937,0.494064,0.360127,0.494064]]
        },
        "materials": [{
            "opacity": 1,
            "colorEmissive": [0,0,0],
            "shading": "phong",
            "depthWrite": true,
            "DbgIndex": 0,
            "DbgName": "ffffff",
            "wireframe": false,
            "doubleSided": true,
            "colorSpecular": [0.009961,0.009961,0.009961],
            "specularCoef": 50,
            "colorDiffuse": [1,1,1],
            "transparent": false,
            "colorAmbient": [1,1,1],
            "visible": true,
            "DbgColor": 15658734,
            "blending": "NormalBlending",
            "depthTest": true
        }],
        "type": "Geometry",
        "uuid": "06F86342-7528-3807-B194-35D5635B475B"
    }]
}