{
    "materials": [{
        "name": "w",
        "emissive": 0,
        "vertexColors": false,
        "specular": 197379,
        "depthTest": true,
        "uuid": "3C634480-8F01-36D4-847F-C7755F3F39C7",
        "color": 16777215,
        "type": "MeshPhongMaterial",
        "ambient": 16777215,
        "shininess": 50,
        "blending": "NormalBlending",
        "depthWrite": true
    }],
    "animations": [{
        "name": "default",
        "fps": 29,
        "tracks": []
    }],
    "images": [],
    "object": {
        "uuid": "76F6C955-9E6D-43B9-9F54-6F1A26DF9771",
        "children": [{
            "name": "stange",
            "uuid": "8829E8E7-6F2F-3090-91EA-81698B20D70A",
            "matrix": [-1,0,0,0,0,0,1,0,0,1,0,0,0,2.4999,0,1],
            "visible": true,
            "type": "Mesh",
            "material": "3C634480-8F01-36D4-847F-C7755F3F39C7",
            "castShadow": true,
            "receiveShadow": true,
            "geometry": "0C2AF9BB-3A43-322C-BE1E-174920572AA2"
        }],
        "matrix": [1,0,0,0,0,1,0,0,0,0,1,0,0,0,0,1],
        "type": "Scene"
    },
    "metadata": {
        "version": 4.4,
        "type": "Object",
        "generator": "io_three"
    },
    "geometries": [{
        "materials": [{
            "transparent": false,
            "colorSpecular": [0.012549,0.012549,0.012549],
            "colorDiffuse": [1,1,1],
            "colorEmissive": [0,0,0],
            "DbgColor": 15658734,
            "wireframe": false,
            "shading": "phong",
            "depthTest": true,
            "colorAmbient": [1,1,1],
            "specularCoef": 50,
            "opacity": 1,
            "DbgIndex": 0,
            "DbgName": "w",
            "visible": true,
            "blending": "NormalBlending",
            "depthWrite": true
        }],
        "uuid": "0C2AF9BB-3A43-322C-BE1E-174920572AA2",
        "type": "Geometry",
        "data": {
            "faces": [42,0,1,2,0,0,0,1,0,1,2,42,3,4,2,0,0,0,1,0,0,2,42,5,6,2,0,0,0,1,0,0,2,42,5,2,7,0,0,1,1,0,2,3,42,8,7,9,0,0,1,0,0,3,0,42,10,11,12,0,2,2,3,4,5,6,42,13,14,12,0,2,2,3,4,4,6,42,15,16,12,0,2,2,3,4,4,6,42,15,12,17,0,2,3,3,4,6,7,42,18,17,19,0,2,3,2,4,7,4,42,20,21,7,0,4,4,1,8,9,3,42,22,20,7,0,4,4,1,10,8,3,42,22,7,2,0,4,1,1,10,3,2,42,23,17,12,0,5,3,3,8,7,6,42,23,12,24,0,5,3,5,8,6,11,42,25,17,23,0,5,3,5,10,7,8,42,26,23,27,0,6,5,5,8,8,12,42,28,22,25,0,4,4,5,13,10,10,42,28,25,23,0,4,5,5,13,10,8,42,28,23,26,0,4,5,6,13,8,8,42,29,22,2,0,7,4,1,14,10,2,42,30,31,29,0,8,9,7,14,15,14,42,32,30,29,0,10,8,7,14,14,14,42,33,32,29,0,11,10,7,14,14,14,42,33,29,2,0,11,7,1,14,14,2,42,34,2,35,0,11,1,0,14,2,14,42,36,37,17,0,12,2,3,14,15,7,42,38,39,17,0,13,12,3,14,14,7,42,40,41,17,0,14,13,3,16,14,7,42,42,43,17,0,15,14,3,14,16,7,42,42,17,25,0,15,3,5,14,7,10,42,44,29,45,0,16,7,17,14,14,14,42,46,29,44,0,18,7,16,14,14,14,42,29,46,47,0,7,18,15,14,14,17,42,29,47,25,0,7,15,5,14,17,10,42,29,25,22,0,7,5,4,14,10,10,42,31,45,29,0,9,17,7,15,14,14,42,48,49,7,0,19,0,1,18,19,3,42,50,51,7,0,20,19,1,18,18,3,42,52,53,7,0,21,20,1,20,18,3,42,54,55,7,0,9,21,1,18,20,3,42,54,7,21,0,9,1,4,18,3,9,42,56,24,12,0,22,5,3,20,11,6,42,57,58,56,0,23,15,22,18,19,20,42,59,57,56,0,24,23,22,18,18,20,42,60,59,56,0,25,24,22,18,18,20,42,60,56,12,0,25,22,3,18,20,6,42,61,12,62,0,25,3,2,18,6,18,42,63,64,65,0,9,9,26,4,4,21,42,66,63,65,0,9,9,26,4,4,21,42,67,66,65,0,9,9,26,4,4,21,42,67,65,21,0,9,26,4,4,21,9,42,68,69,21,0,9,9,4,4,4,9,42,70,71,21,0,9,9,4,4,4,9,42,72,73,21,0,9,9,4,4,21,9,42,72,21,28,0,9,4,4,4,9,13,42,74,28,75,0,9,4,9,4,13,4,42,76,65,64,0,9,26,9,5,21,4,42,77,78,79,0,15,15,5,0,0,22,42,80,81,79,0,15,15,5,0,0,22,42,82,83,79,0,15,15,5,0,0,22,42,82,79,24,0,15,5,5,0,22,11,42,84,85,27,0,15,15,5,22,1,12,42,86,87,27,0,15,15,5,0,0,12,42,88,89,27,0,15,15,5,0,0,12,42,90,91,27,0,15,15,5,0,0,12,42,90,27,79,0,15,5,5,0,12,22,42,92,79,93,0,15,5,15,0,22,0,42,94,95,96,0,27,28,29,18,18,18,42,97,98,96,0,30,27,29,18,18,18,42,99,100,96,0,31,30,29,18,20,18,42,99,96,27,0,31,29,5,18,18,12,42,101,27,102,0,31,5,15,18,12,18,42,103,104,28,0,32,9,4,18,19,13,42,105,106,28,0,33,32,4,18,18,13,42,107,108,28,0,34,33,4,18,18,13,42,107,28,96,0,34,4,29,18,13,18,42,109,96,110,0,34,29,28,18,18,20,42,85,47,111,0,15,15,35,1,17,23,42,85,111,112,0,15,35,36,1,23,23,42,31,104,112,0,9,9,36,15,19,23,42,31,112,111,0,9,36,35,15,23,23,42,58,11,37,0,15,2,2,19,5,15,42,58,37,47,0,15,2,15,19,15,17,42,31,1,49,0,9,0,0,15,1,19,42,31,49,76,0,9,0,9,15,19,5],
            "name": "stangeGeometry",
            "skinWeights": [],
            "animations": [],
            "morphTargets": [],
            "influencesPerVertex": 2,
            "vertices": [0.085,-0.050042,-0.0249,0.085,-0.06,-0.0249,0.085,-0.06,-4.9749,0.085,-0.030076,-0.0249,0.085,-0.050042,-0.0249,0.085,0.030226,-0.0249,0.085,-0.030076,-0.0249,0.085,0.06,-4.9749,0.085,0.030226,-0.0249,0.085,0.06,-0.0249,-0.085,0.050042,-0.0249,-0.085,0.06,-0.0249,-0.085,0.06,-4.9749,-0.085,0.030076,-0.0249,-0.085,0.050042,-0.0249,-0.085,-0.030226,-0.0249,-0.085,0.030076,-0.0249,-0.085,-0.06,-4.9749,-0.085,-0.030226,-0.0249,-0.085,-0.06,-0.0249,0.075,0.052941,-4.9749,0.075,0.06,-4.9749,0.075,-0.06,-4.9749,-0.075,-0.052941,-4.9749,-0.075,0.06,-4.9749,-0.075,-0.06,-4.9749,-0.071825,-0.0507,-4.9749,-0.075,-0.0507,-4.9749,0.075,-0.0507,-4.9749,0.075,-0.06,-3.80137,0.075687,-0.06,-0.0249,0.075,-0.06,-0.0249,0.077157,-0.06,-0.0249,0.082519,-0.06,-0.0249,0.082519,-0.06,-0.0249,0.085,-0.06,-0.0249,-0.082364,-0.06,-0.0249,-0.085,-0.06,-0.0249,-0.081689,-0.06,-0.0249,-0.082364,-0.06,-0.0249,-0.080025,-0.06,-0.0249,-0.081689,-0.06,-0.0249,-0.075,-0.06,-0.0249,-0.080025,-0.06,-0.0249,0.033881,-0.06,-0.0249,0.04282,-0.06,-0.0249,0.010456,-0.06,-0.0249,-0.075,-0.06,-0.0249,0.082364,0.06,-0.0249,0.085,0.06,-0.0249,0.081689,0.06,-0.0249,0.082364,0.06,-0.0249,0.080025,0.06,-0.0249,0.081689,0.06,-0.0249,0.075,0.06,-0.0249,0.080025,0.06,-0.0249,-0.075,0.06,-3.80137,-0.075687,0.06,-0.0249,-0.075,0.06,-0.0249,-0.077157,0.06,-0.0249,-0.082519,0.06,-0.0249,-0.082519,0.06,-0.0249,-0.085,0.06,-0.0249,0.075,0.038797,-0.0249,0.075,0.039375,-0.0249,0.075,0.06,-3.47103,0.075,0.037534,-0.0249,0.075,0.032607,-0.0249,0.075,0.023421,-0.0249,0.075,0.032607,-0.0249,0.075,0.005002,-0.0249,0.075,0.023421,-0.0249,0.075,-0.050626,-0.0249,0.075,0.005002,-0.0249,0.075,-0.050626,-0.0249,0.075,-0.0507,-0.0249,0.075,0.06,-0.0249,-0.075,-0.013847,-0.0249,-0.075,-0.020775,-0.0249,-0.075,-0.050401,-4.9749,-0.075,0.004522,-0.0249,-0.075,-0.013847,-0.0249,-0.075,0.06,-0.0249,-0.075,0.004522,-0.0249,-0.075,-0.023233,-0.0249,-0.075,-0.0507,-0.0249,-0.075,-0.023208,-0.0249,-0.075,-0.023233,-0.0249,-0.075,-0.023158,-0.0249,-0.075,-0.023208,-0.0249,-0.075,-0.023008,-0.0249,-0.075,-0.023158,-0.0249,-0.075,-0.023008,-0.0249,-0.075,-0.020775,-0.0249,0.025177,-0.0507,-0.0249,0.037594,-0.0507,-0.0249,0.074626,-0.0507,-4.9749,0.000282,-0.0507,-0.0249,0.025177,-0.0507,-0.0249,-0.074907,-0.0507,-0.0249,0.000282,-0.0507,-0.0249,-0.074907,-0.0507,-0.0249,-0.075,-0.0507,-0.0249,0.074969,-0.0507,-0.0249,0.075,-0.0507,-0.0249,0.074907,-0.0507,-0.0249,0.074969,-0.0507,-0.0249,0.074719,-0.0507,-0.0249,0.074907,-0.0507,-0.0249,0.074719,-0.0507,-0.0249,0.037594,-0.0507,-0.0249,-0.06,-0.06,-0.0249,-0.0507,-0.0507,-0.0249],
            "normals": [1,0,0,0.707083,0,0.707083,0.577319,-0.577349,-0.577319,0.57738,0.577258,-0.57738,-1,0,0,-0.707083,0,0.707083,-0.577319,0.577349,-0.577319,-0.57738,-0.577258,-0.57738,0,0,-1,-0.577349,0.577319,-0.577319,0,-0.707083,-0.707083,0.577349,0.577349,-0.577349,0.577258,0.577441,-0.577288,-0.577288,0.577624,-0.577105,0,-1,0,0,-0.707083,0.707083,0,-0.999969,0,0,-0.447188,0.894406,0,1,0,0,0.707083,0.707083,0,0.999969,0,-0.999969,0,0,0.999969,0,0,0,0,1],
            "bones": [],
            "uvs": [[1,1,1,-0,-0,1,-0,-0,0.941176,-0,0.058824,-0,0.0775,-0,0.941176,0.237077,0.945218,1,0.941176,1,0.953864,1,0.985405,1,0.015508,1,0.019477,1,0.029264,1,0.058824,1,0.699302,1,0.75188,1,0.561504,1,0.984492,1,0.980523,1,0.970736,1,0.058824,0.237077,0.054782,1,0.046136,1,0.014595,1,0.941176,0.303813,0.6481,1,0.721138,1,0.938976,-0,0.501657,1,0.05937,1,0.940994,1,0.940628,1,0.939522,1,0.147059,1,0.201765,1]],
            "metadata": {
                "materials": 1,
                "version": 3,
                "normals": 24,
                "generator": "io_three",
                "uvs": 1,
                "bones": 0,
                "vertices": 113,
                "faces": 86,
                "morphTargets": 0
            },
            "skinIndices": []
        }
    }],
    "textures": []
}