{
    "images": [],
    "animations": [{
        "fps": 29,
        "name": "default",
        "tracks": []
    }],
    "materials": [{
        "depthWrite": true,
        "name": "w",
        "shininess": 50,
        "emissive": 0,
        "uuid": "3C634480-8F01-36D4-847F-C7755F3F39C7",
        "vertexColors": false,
        "type": "MeshPhongMaterial",
        "ambient": 16777215,
        "color": 16777215,
        "blending": "NormalBlending",
        "depthTest": true,
        "specular": 197379
    }],
    "object": {
        "matrix": [1,0,0,0,0,1,0,0,0,0,1,0,0,0,0,1],
        "type": "Scene",
        "uuid": "89A7AD87-F253-4C8F-9E4C-98A64A05EAA6",
        "children": [{
            "name": "stange",
            "uuid": "8829E8E7-6F2F-3090-91EA-81698B20D70A",
            "matrix": [-1,0,0,0,0,0,1,0,0,1,0,0,0,2.5001,0,1],
            "visible": true,
            "type": "Mesh",
            "material": "3C634480-8F01-36D4-847F-C7755F3F39C7",
            "castShadow": true,
            "receiveShadow": true,
            "geometry": "0C2AF9BB-3A43-322C-BE1E-174920572AA2"
        }]
    },
    "geometries": [{
        "type": "Geometry",
        "data": {
            "normals": [1,0,0,0.577349,-0.577349,0.577349,0.577349,-0.577288,-0.577349,0.577227,0.577532,-0.577227,0.577349,0.577349,0.577349,-1,0,0,-0.577349,0.577349,0.577349,-0.577349,0.577288,-0.577349,-0.577258,-0.577532,-0.577227,-0.577349,-0.577349,0.577349,3.1e-05,0,-1,-0.577349,0.577319,-0.577319,0,-0.707083,-0.707083,-3.1e-05,0,-1,0.577349,0.577349,-0.577349,0,0,-1,0.577532,0.577227,-0.577227,-0.577319,0.577319,-0.577349,0,-0.999969,0,0,-1,0,0,-0.707083,0.707083,0,1,0,-0.577319,0.577349,0.577319,-0.999969,0,0,0.999969,0,0,0,0.999969,0,0,0,1],
            "name": "stangeGeometry",
            "bones": [],
            "metadata": {
                "normals": 27,
                "uvs": 1,
                "vertices": 70,
                "materials": 1,
                "bones": 0,
                "morphTargets": 0,
                "faces": 73,
                "version": 3,
                "generator": "io_three"
            },
            "animations": [],
            "skinWeights": [],
            "uvs": [[1,1,1,-0,-0,1,-0,-0,0.941176,-0,0.058824,-0,0.0775,-0,0.941176,0.117943,0.950568,1,0.941176,1,0.970662,1,0.031172,1,0.03915,1,0.058824,1,0.379063,1,0.501253,1,0.968828,1,0.96085,1,0.058824,0.117943,0.049431,1,0.029338,1,0.941176,0.151143,0.354286,1,0.5011,1,0.938976,-0,0.059921,1,0.940809,1,0.940074,1,0.147059,1,0.201765,1]],
            "vertices": [0.085,-0.039983,2.475,0.085,-0.06,2.475,0.085,-0.06,-7.475,0.085,0.00015,2.475,0.085,-0.039983,2.475,0.085,0.06,-7.475,0.085,0.00015,2.475,0.085,0.06,2.475,-0.085,0.039983,2.475,-0.085,0.06,2.475,-0.085,0.06,-7.475,-0.085,-0.00015,2.475,-0.085,0.039983,2.475,-0.085,-0.06,-7.475,-0.085,-0.00015,2.475,-0.085,-0.06,2.475,0.075,0.052941,-7.475,0.075,0.06,-7.475,0.075,-0.06,-7.475,-0.075,-0.052941,-7.475,-0.075,0.06,-7.475,-0.075,-0.06,-7.475,-0.071825,-0.0507,-7.475,-0.075,-0.0507,-7.475,0.075,-0.0507,-7.475,0.075,-0.06,-6.30147,0.076597,-0.06,2.475,0.075,-0.06,2.475,0.080013,-0.06,2.475,-0.079701,-0.06,2.475,-0.078344,-0.06,2.475,-0.075,-0.06,2.475,-0.020559,-0.06,2.475,0.000213,-0.06,2.475,0.000213,-0.06,2.475,0.079701,0.06,2.475,0.078344,0.06,2.475,0.075,0.06,2.475,-0.075,0.06,-6.30147,-0.076597,0.06,2.475,-0.075,0.06,2.475,-0.080013,0.06,2.475,0.075,0.008033,2.475,0.075,0.00945,2.475,0.075,0.06,-5.97112,0.075,0.004938,2.475,0.075,0.008033,2.475,0.075,-0.013527,2.475,0.075,-0.050551,2.475,0.075,-0.0507,2.475,0.075,0.00945,2.475,-0.075,0.023077,2.475,-0.075,0.00915,2.475,-0.075,-0.050401,-7.475,-0.075,0.023077,2.475,-0.075,0.004511,2.475,-0.075,-0.0507,2.475,-0.075,0.004561,2.475,-0.075,0.004661,2.475,-0.075,0.004561,2.475,-0.075,0.00915,2.475,-0.024771,-0.0507,2.475,0.000187,-0.0507,2.475,0.074626,-0.0507,-7.475,-0.074813,-0.0507,2.475,0.074938,-0.0507,2.475,0.074813,-0.0507,2.475,0.000187,-0.0507,2.475,-0.06,-0.06,2.475,-0.0507,-0.0507,2.475],
            "influencesPerVertex": 2,
            "skinIndices": [],
            "faces": [42,0,1,2,0,0,0,1,0,1,2,42,3,4,2,0,0,0,1,0,0,2,42,3,2,5,0,0,1,1,0,2,3,42,6,5,7,0,0,1,0,0,3,4,42,8,9,10,0,2,2,3,5,6,7,42,11,12,10,0,2,2,3,5,5,7,42,11,10,13,0,2,3,3,5,7,8,42,14,13,15,0,2,3,2,5,8,9,42,16,17,5,0,4,4,1,10,11,3,42,18,16,5,0,4,4,1,12,10,3,42,18,5,2,0,4,1,1,12,3,2,42,19,13,10,0,5,3,3,13,8,7,42,19,10,20,0,5,3,5,13,7,14,42,21,13,19,0,5,3,5,12,8,13,42,22,19,23,0,6,5,5,15,13,16,42,24,18,21,0,4,4,5,17,12,12,42,24,21,19,0,4,5,5,17,12,13,42,24,19,22,0,4,5,6,17,13,15,42,25,18,2,0,7,4,1,18,12,2,42,26,27,25,0,8,9,7,19,20,18,42,28,26,25,0,10,8,7,19,19,18,42,28,25,2,0,10,7,1,19,18,2,42,28,2,1,0,10,1,0,19,2,1,42,29,15,13,0,11,2,3,19,9,8,42,30,29,13,0,12,11,3,19,19,8,42,31,30,13,0,13,12,3,20,19,8,42,31,13,21,0,13,3,5,20,8,12,42,32,25,33,0,14,7,15,19,18,19,42,25,32,31,0,7,14,13,18,19,20,42,25,31,21,0,7,13,5,18,20,12,42,25,21,18,0,7,5,4,18,12,12,42,27,34,25,0,9,15,7,20,18,18,42,35,7,5,0,16,0,1,21,4,3,42,36,35,5,0,17,16,1,21,21,3,42,37,36,5,0,9,17,1,22,21,3,42,37,5,17,0,9,1,4,22,3,11,42,38,20,10,0,18,5,3,21,14,7,42,39,40,38,0,19,13,18,21,4,21,42,41,39,38,0,20,19,18,21,21,21,42,41,38,10,0,20,18,3,21,21,7,42,41,10,9,0,20,3,2,21,7,6,42,42,43,44,0,9,9,21,5,5,5,42,45,46,44,0,9,9,21,5,5,5,42,45,44,17,0,9,21,4,5,5,11,42,47,45,17,0,9,9,4,5,5,11,42,48,47,17,0,9,9,4,23,5,11,42,48,17,24,0,9,4,4,23,11,17,42,48,24,49,0,9,4,9,23,17,6,42,37,44,50,0,9,21,9,22,5,5,42,51,52,53,0,13,13,5,0,0,0,42,40,54,53,0,13,13,5,4,0,0,42,40,53,20,0,13,5,5,4,0,14,42,55,56,23,0,13,13,5,0,4,16,42,57,55,23,0,13,13,5,0,0,16,42,58,59,23,0,13,13,5,24,24,16,42,58,23,53,0,13,5,5,24,16,0,42,58,53,60,0,13,5,13,24,0,0,42,61,62,63,0,22,23,24,21,21,21,42,64,61,63,0,25,22,24,21,21,21,42,64,63,23,0,25,24,5,21,21,16,42,64,23,56,0,25,5,13,21,16,4,42,65,49,24,0,26,9,4,21,6,17,42,66,65,24,0,27,26,4,21,21,17,42,66,24,63,0,27,4,24,21,17,21,42,66,63,67,0,27,24,23,21,21,25,42,56,31,68,0,13,13,28,4,20,26,42,56,68,69,0,13,28,29,4,26,26,42,27,49,69,0,9,9,29,20,6,26,42,27,69,68,0,9,29,28,20,26,26,42,40,9,15,0,13,2,2,4,6,9,42,40,15,31,0,13,2,13,4,9,20,42,27,1,7,0,9,0,0,20,1,4,42,27,7,37,0,9,0,9,20,4,22],
            "morphTargets": []
        },
        "materials": [{
            "opacity": 1,
            "depthWrite": true,
            "DbgColor": 15658734,
            "specularCoef": 50,
            "transparent": false,
            "colorAmbient": [1,1,1],
            "colorDiffuse": [1,1,1],
            "DbgName": "w",
            "DbgIndex": 0,
            "visible": true,
            "shading": "phong",
            "wireframe": false,
            "depthTest": true,
            "colorSpecular": [0.012549,0.012549,0.012549],
            "colorEmissive": [0,0,0],
            "blending": "NormalBlending"
        }],
        "uuid": "0C2AF9BB-3A43-322C-BE1E-174920572AA2"
    }],
    "metadata": {
        "type": "Object",
        "version": 4.4,
        "generator": "io_three"
    },
    "textures": []
}