{
    "textures": [],
    "geometries": [{
        "type": "Geometry",
        "uuid": "06F86342-7528-3807-B194-35D5635B475B",
        "data": {
            "name": "halter1Geometry",
            "normals": [1,0,0,0.707083,0.707083,0,0.577349,-0.577349,0.577349,0.577349,0.577349,0.577349,0.579272,-0.595935,-0.556108,0.571368,-0.56859,-0.591784,0.581103,-0.55501,-0.595172,0.577349,0.577319,-0.577319,0.577715,-0.535051,-0.616352,0,-0.680349,0.732871,0,-0.713981,0.700156,-1,0,0,-0.577349,0.577349,0.577288,-0.707083,0.707083,0,-0.999969,0,0,-0.577349,-0.577349,0.577349,-1,-0.000153,0,-0.577105,-0.597125,-0.557085,-0.571795,-0.569445,-0.590533,-0.707114,0.707083,0,-0.577319,0.577349,-0.577349,-0.577593,-0.535356,-0.61623,-0.581103,-0.55501,-0.595172,0,0,1,0,0,-1,0,1,0,0,-0.034883,-0.99939,0,-0.997559,-0.069735,0,-1,0],
            "uvs": [[0,0.848568,0.959431,0.598716,0,0.896777,0,0.848228,0.956928,0.597403,0,0.90523,1,0.62001,0,1,1,1,0.956765,0.597317,0.956755,0.597448,0.956754,0.597311,1,0.586113,0.96206,0.028478,0.962325,-0,1,-0,0.95676,0.597314,0.999821,0.597311,1.00001,0.597448,0.999773,0.597311,1.00001,0.597311,0.043072,0.597403,0.408691,0.693237,0,0.62001,1,0.951452,1,0.848228,0.043235,0.597317,0.043245,0.597448,0.043246,0.597311,0,0.586113,0,-0,0.04324,0.597314,0.037675,-0,0.750602,0,-1.1e-05,1,-1.1e-05,0,1.00001,0,1.00001,1,0.209702,0.962325,1.00001,0.962325,0.028265,0.962325,-1.1e-05,0.962325,0.37998,0.62001,-1.1e-05,0.62001,0.918091,0.62001,1.00001,0.62001,0.413883,0.586113,-1.1e-05,0.586113,1.00001,0.586113,-1.1e-05,-0,1.00001,-0,0.172198,0,1.00001,0.512936,-1.1e-05,0.069118,1.00001,0.956755,-1.1e-05,0.956755,-1.1e-05,0.597448,-1.1e-05,0.597311,-1.1e-05,0.956754,-1.1e-05,0.95676,1.00001,0.95676,1.00001,0.956754,-1.1e-05,0.264797,0.796307,-0,-1.1e-05,0.597314,1.00001,0.597314,0.203693,-0,1.00001,0.264797,1.00001,0.848228,-1.1e-05,0.848228]],
            "animations": [],
            "faces": [42,0,1,2,0,0,1,2,0,0,0,42,1,0,3,0,1,0,3,0,0,0,42,1,3,4,0,1,3,4,0,0,0,42,5,2,1,0,5,2,1,0,0,0,42,5,1,6,0,5,1,6,0,0,1,42,7,5,6,0,7,5,6,2,0,1,42,7,6,8,0,7,6,8,2,1,3,42,9,10,11,0,9,10,11,0,4,5,42,4,10,9,0,4,10,9,0,4,0,42,1,4,12,0,1,4,12,0,0,1,42,1,12,6,0,1,12,6,0,1,1,42,13,14,15,0,13,14,15,0,6,7,42,9,16,13,0,9,16,13,0,8,0,42,9,13,15,0,9,13,15,0,0,7,42,4,9,15,0,4,9,15,0,0,7,42,4,15,12,0,4,15,12,0,7,1,42,17,10,18,0,17,18,19,9,4,10,42,11,10,17,0,20,18,17,5,4,9,42,19,20,21,0,21,22,7,11,11,12,42,19,21,22,0,21,7,23,11,12,13,42,23,21,20,0,24,7,22,11,12,11,42,23,20,24,0,24,22,25,11,11,14,42,25,21,23,0,8,7,24,15,12,11,42,26,27,19,0,26,27,21,16,17,11,42,28,27,26,0,28,27,26,18,17,16,42,19,22,29,0,21,23,29,11,13,19,42,26,19,29,0,26,21,29,16,11,19,42,26,29,30,0,26,29,30,16,19,20,42,31,26,30,0,31,26,30,21,16,20,42,31,30,32,0,31,30,32,21,20,22,42,33,21,25,0,33,34,35,23,12,15,42,21,33,7,0,34,33,36,12,23,2,42,21,7,8,0,34,36,37,12,2,3,42,34,32,30,0,38,39,37,24,22,20,42,35,34,30,0,40,38,37,24,24,20,42,35,30,15,0,40,37,34,24,20,7,42,35,15,14,0,40,34,41,24,7,6,42,36,8,6,0,42,34,43,25,3,1,42,37,8,36,0,44,34,42,25,3,25,42,8,37,22,0,34,44,45,3,25,13,42,8,22,21,0,34,45,37,3,13,12,42,38,36,6,0,46,42,43,25,25,1,42,38,6,12,0,46,43,47,25,1,1,42,37,36,38,0,44,42,46,25,25,25,42,37,38,29,0,44,46,48,25,25,19,42,37,29,22,0,44,48,45,25,19,13,42,38,12,15,0,46,47,49,25,1,7,42,38,15,30,0,46,49,50,25,7,20,42,38,30,29,0,46,50,48,25,20,19,42,39,40,41,0,51,36,52,26,26,26,42,39,41,42,0,51,52,53,26,26,26,42,39,42,43,0,51,53,35,26,26,26,42,27,10,42,0,54,55,53,17,4,26,42,27,42,41,0,54,53,52,17,26,26,42,18,10,27,0,19,18,56,10,4,17,42,18,27,28,0,19,56,57,10,17,18,42,28,31,16,0,58,59,60,18,21,8,42,28,16,11,0,58,60,61,18,8,5,42,14,44,45,0,49,62,63,6,27,27,42,16,31,32,0,64,65,50,8,21,22,42,16,32,45,0,64,50,63,8,22,27,42,16,45,44,0,65,66,67,8,27,27,42,46,7,25,0,68,37,34,28,2,15,42,46,25,47,0,68,34,69,28,15,28],
            "influencesPerVertex": 2,
            "metadata": {
                "faces": 64,
                "version": 3,
                "morphTargets": 0,
                "normals": 29,
                "uvs": 1,
                "bones": 0,
                "vertices": 48,
                "materials": 1,
                "generator": "io_three"
            },
            "skinWeights": [],
            "morphTargets": [],
            "bones": [],
            "vertices": [4,-1.5024,-0.155573,4,1.3782,-0.255514,4,-1.5024,-0.136289,4,-1.5024,-0.155709,4,1.37068,-0.256039,4,-1.5024,-0.132908,4,1.5,-0.246996,4,-1.5024,-0.095,4,1.5,-0.095,4,1.37019,-0.256073,4,1.37016,-0.256021,4,1.37016,-0.256075,4,1.5,-0.260555,4,1.38609,-0.483609,4,1.38688,-0.495,4,1.5,-0.495,4,1.37018,-0.256074,4,1.37016,-0.256075,4,1.37016,-0.256075,3.99,1.37068,-0.256039,3.99,0.272947,-0.217705,3.99,1.5,-0.095,3.99,1.5,-0.246996,3.99,-1.5024,-0.114419,3.99,-1.5024,-0.155709,3.99,-1.5024,-0.095,3.99,1.37019,-0.256073,3.99,1.37016,-0.256021,3.99,1.37016,-0.256075,3.99,1.5,-0.260555,3.99,1.5,-0.495,3.99,1.37018,-0.256074,3.99,1.38688,-0.495,3.99751,-1.5024,-0.095,3.9979,1.38688,-0.495,3.99972,1.38688,-0.495,3.9962,1.5,-0.246996,3.99082,1.5,-0.246996,3.99586,1.5,-0.260555,3.99828,-1.5024,-0.155709,3.99,-1.5024,-0.155709,3.99,0.03764,-0.209488,4,-1.29488,-0.162955,4,-1.5024,-0.155709,4,1.37948,-0.389081,3.99204,1.38688,-0.495,4,-1.5024,-0.155709,3.99,-1.5024,-0.155709],
            "skinIndices": []
        },
        "materials": [{
            "colorEmissive": [0,0,0],
            "DbgIndex": 0,
            "DbgColor": 15658734,
            "specularCoef": 50,
            "shading": "phong",
            "opacity": 1,
            "depthWrite": true,
            "wireframe": false,
            "blending": "NormalBlending",
            "DbgName": "b0b0b0",
            "colorDiffuse": [0.690196,0.690196,0.690196],
            "colorSpecular": [0.009961,0.009961,0.009961],
            "depthTest": true,
            "transparent": false,
            "visible": true,
            "colorAmbient": [0.690196,0.690196,0.690196]
        }]
    },{
        "type": "Geometry",
        "uuid": "15641190-4052-3871-BF5E-F046F6B1B496",
        "data": {
            "name": "BoxGeometry",
            "normals": [0.577349,-0.577349,0.577349,0.577349,-0.577349,-0.577349,0.577349,0.577349,-0.577349,0.577349,0.577349,0.577349,-0.577349,0.577349,0.577349,-0.577349,0.577349,-0.577349,-0.577349,-0.577349,-0.577349,-0.577349,-0.577349,0.577349],
            "uvs": [[0,1,0,0,1,0,1,1]],
            "animations": [],
            "faces": [42,0,2,3,0,0,1,2,0,1,2,42,0,3,1,0,0,2,3,0,2,3,42,4,6,7,0,0,1,2,4,5,6,42,4,7,5,0,0,2,3,4,6,7,42,4,5,0,0,0,1,2,4,7,0,42,4,0,1,0,0,2,3,4,0,3,42,7,6,3,0,2,3,0,6,5,2,42,7,3,2,0,2,0,1,6,2,1,42,5,7,2,0,0,1,2,7,6,1,42,5,2,0,0,0,2,3,7,1,0,42,1,3,6,0,0,1,2,3,2,5,42,1,6,4,0,0,2,3,3,5,4],
            "influencesPerVertex": 2,
            "metadata": {
                "faces": 12,
                "version": 3,
                "morphTargets": 0,
                "normals": 8,
                "uvs": 1,
                "bones": 0,
                "vertices": 8,
                "materials": 1,
                "generator": "io_three"
            },
            "skinWeights": [],
            "morphTargets": [],
            "bones": [],
            "vertices": [4,-1.5,0.095,4,1.5,0.095,4,-1.5,-0.095,4,1.5,-0.095,-4,1.5,0.095,-4,-1.5,0.095,-4,1.5,-0.095,-4,-1.5,-0.095],
            "skinIndices": []
        },
        "materials": [{
            "colorEmissive": [0,0,0],
            "DbgIndex": 0,
            "DbgColor": 15658734,
            "specularCoef": 50,
            "shading": "phong",
            "opacity": 1,
            "depthWrite": true,
            "wireframe": false,
            "blending": "NormalBlending",
            "DbgName": "Standard",
            "colorDiffuse": [1,1,1],
            "colorSpecular": [0.012549,0.012549,0.012549],
            "depthTest": true,
            "transparent": false,
            "visible": true,
            "colorAmbient": [1,1,1]
        }]
    },{
        "type": "Geometry",
        "uuid": "6F602BFE-28E2-3EF7-BB46-DF0B2A164AC8",
        "data": {
            "name": "halter2Geometry",
            "normals": [1,0,0,0.707083,0.707083,0,0.577349,-0.577349,0.577349,0.577349,0.577349,0.577349,0.577166,-0.597003,-0.557146,0.572161,-0.569292,-0.59035,0.581103,-0.55501,-0.595172,0.577349,0.577319,-0.577319,0.577715,-0.535051,-0.616352,0,-0.99939,0.034883,0,-0.99939,0.034455,-1,0,0,-0.577349,0.577349,0.577288,-0.707083,0.707083,0,-0.999969,0,0,-0.577349,-0.577349,0.577349,-0.577166,-0.596973,-0.557146,-0.571795,-0.569445,-0.590533,-0.707114,0.707083,0,-0.577319,0.577349,-0.577349,-0.577593,-0.535356,-0.61623,-0.581103,-0.55501,-0.595172,0,0,1,0,0,-1,0,1,0,0,-0.034883,-0.99939,0,-0.997559,-0.069735,0,-1,0],
            "uvs": [[0,0.848568,0.959431,0.598716,0,0.896777,0,0.848228,0.956928,0.597403,0,0.90523,1,0.62001,0,1,1,1,0.956765,0.597317,0.956755,0.597448,0.956754,0.597311,1,0.586113,0.96206,0.028478,0.962325,-0,1,-0,0.95676,0.597314,0.999821,0.597311,1.00001,0.597448,0.999773,0.597311,1.00001,0.597311,0.043072,0.597403,0.408691,0.693237,0,0.62001,1,0.951452,1,0.848228,0.043235,0.597317,0.043245,0.597448,0.043246,0.597311,0,0.586113,0,-0,0.04324,0.597314,0.037675,-0,0.750606,0,-1.1e-05,1,-1.1e-05,0,1.00001,0,1.00001,1,0.209702,0.962325,1.00001,0.962325,0.028265,0.962325,-1.1e-05,0.962325,0.37998,0.62001,-1.1e-05,0.62001,0.918091,0.62001,1.00001,0.62001,0.413883,0.586113,-1.1e-05,0.586113,1.00001,0.586113,-1.1e-05,-0,1.00001,-0,0.172191,0,1.00001,0.512936,-1.1e-05,0.069118,1.00001,0.956755,-1.1e-05,0.956755,-1.1e-05,0.597448,-1.1e-05,0.597311,-1.1e-05,0.956754,-1.1e-05,0.95676,1.00001,0.95676,1.00001,0.956754,-1.1e-05,0.264797,0.796307,-0,-1.1e-05,0.597314,1.00001,0.597314,0.203693,-0,1.00001,0.264797,1.00001,0.848228,-1.1e-05,0.848228]],
            "animations": [],
            "faces": [42,0,1,2,0,0,1,2,0,0,0,42,1,0,3,0,1,0,3,0,0,0,42,1,3,4,0,1,3,4,0,0,0,42,5,2,1,0,5,2,1,0,0,0,42,5,1,6,0,5,1,6,0,0,1,42,7,5,6,0,7,5,6,2,0,1,42,7,6,8,0,7,6,8,2,1,3,42,9,10,11,0,9,10,11,0,4,5,42,4,10,9,0,4,10,9,0,4,0,42,1,4,12,0,1,4,12,0,0,1,42,1,12,6,0,1,12,6,0,1,1,42,13,14,15,0,13,14,15,0,6,7,42,9,16,13,0,9,16,13,0,8,0,42,9,13,15,0,9,13,15,0,0,7,42,4,9,15,0,4,9,15,0,0,7,42,4,15,12,0,4,15,12,0,7,1,42,17,10,18,0,17,18,19,9,4,10,42,11,10,17,0,20,18,17,5,4,9,42,19,20,21,0,21,22,7,11,11,12,42,19,21,22,0,21,7,23,11,12,13,42,23,21,20,0,24,7,22,11,12,11,42,23,20,24,0,24,22,25,11,11,14,42,25,21,23,0,8,7,24,15,12,11,42,26,27,19,0,26,27,21,11,16,11,42,28,27,26,0,28,27,26,17,16,11,42,19,22,29,0,21,23,29,11,13,18,42,26,19,29,0,26,21,29,11,11,18,42,26,29,30,0,26,29,30,11,18,19,42,31,26,30,0,31,26,30,20,11,19,42,31,30,32,0,31,30,32,20,19,21,42,33,21,25,0,33,34,35,22,12,15,42,21,33,7,0,34,33,36,12,22,2,42,21,7,8,0,34,36,37,12,2,3,42,34,32,30,0,38,39,37,23,21,19,42,35,34,30,0,40,38,37,23,23,19,42,35,30,15,0,40,37,34,23,19,7,42,35,15,14,0,40,34,41,23,7,6,42,36,8,6,0,42,34,43,24,3,1,42,37,8,36,0,44,34,42,24,3,24,42,8,37,22,0,34,44,45,3,24,13,42,8,22,21,0,34,45,37,3,13,12,42,38,36,6,0,46,42,43,24,24,1,42,38,6,12,0,46,43,47,24,1,1,42,37,36,38,0,44,42,46,24,24,24,42,37,38,29,0,44,46,48,24,24,18,42,37,29,22,0,44,48,45,24,18,13,42,38,12,15,0,46,47,49,24,1,7,42,38,15,30,0,46,49,50,24,7,19,42,38,30,29,0,46,50,48,24,19,18,42,39,40,41,0,51,36,52,25,25,25,42,39,41,42,0,51,52,53,25,25,25,42,39,42,43,0,51,53,35,25,25,25,42,27,10,42,0,54,55,53,16,4,25,42,27,42,41,0,54,53,52,16,25,25,42,18,10,27,0,19,18,56,10,4,16,42,18,27,28,0,19,56,57,10,16,17,42,28,31,16,0,58,59,60,17,20,8,42,28,16,11,0,58,60,61,17,8,5,42,14,44,45,0,49,62,63,6,26,26,42,16,31,32,0,64,65,50,8,20,21,42,16,32,45,0,64,50,63,8,21,26,42,16,45,44,0,65,66,67,8,26,26,42,46,7,25,0,68,37,34,27,2,15,42,46,25,47,0,68,34,69,27,15,27],
            "influencesPerVertex": 2,
            "metadata": {
                "faces": 64,
                "version": 3,
                "morphTargets": 0,
                "normals": 28,
                "uvs": 1,
                "bones": 0,
                "vertices": 48,
                "materials": 1,
                "generator": "io_three"
            },
            "skinWeights": [],
            "morphTargets": [],
            "bones": [],
            "vertices": [0.005,-1.5024,-0.155573,0.005,1.3782,-0.255514,0.005,-1.5024,-0.136289,0.005,-1.5024,-0.155709,0.005,1.37068,-0.256039,0.005,-1.5024,-0.132908,0.005,1.5,-0.246996,0.005,-1.5024,-0.095,0.005,1.5,-0.095,0.005,1.37019,-0.256073,0.005,1.37016,-0.256021,0.005,1.37016,-0.256075,0.005,1.5,-0.260555,0.005,1.38609,-0.483609,0.005,1.38688,-0.495,0.005,1.5,-0.495,0.005,1.37018,-0.256074,0.004998,1.37016,-0.256075,0.004998,1.37016,-0.256075,-0.005,1.37068,-0.256039,-0.005,0.272947,-0.217705,-0.005,1.5,-0.095,-0.005,1.5,-0.246996,-0.005,-1.5024,-0.114419,-0.005,-1.5024,-0.155709,-0.005,-1.5024,-0.095,-0.005,1.37019,-0.256073,-0.005,1.37016,-0.256021,-0.005,1.37016,-0.256075,-0.005,1.5,-0.260555,-0.005,1.5,-0.495,-0.005,1.37018,-0.256074,-0.005,1.38688,-0.495,0.002506,-1.5024,-0.095,0.002903,1.38688,-0.495,0.004717,1.38688,-0.495,0.0012,1.5,-0.246996,-0.004181,1.5,-0.246996,0.000861,1.5,-0.260555,0.003278,-1.5024,-0.155709,-0.005,-1.5024,-0.155709,-0.005,0.03764,-0.209488,0.005,-1.29488,-0.162955,0.005,-1.5024,-0.155709,0.005,1.37948,-0.389081,-0.002963,1.38688,-0.495,0.005,-1.5024,-0.155709,-0.005,-1.5024,-0.155709],
            "skinIndices": []
        },
        "materials": [{
            "colorEmissive": [0,0,0],
            "DbgIndex": 0,
            "DbgColor": 15658734,
            "specularCoef": 50,
            "shading": "phong",
            "opacity": 1,
            "depthWrite": true,
            "wireframe": false,
            "blending": "NormalBlending",
            "DbgName": "b0b0b0",
            "colorDiffuse": [0.690196,0.690196,0.690196],
            "colorSpecular": [0.009961,0.009961,0.009961],
            "depthTest": true,
            "transparent": false,
            "visible": true,
            "colorAmbient": [0.690196,0.690196,0.690196]
        }]
    },{
        "type": "Geometry",
        "uuid": "D7E13E5F-692D-38E5-AA71-493556ECD579",
        "data": {
            "name": "halterGeometry",
            "normals": [1,-3.1e-05,0,1,0,0,1,-6.1e-05,0,0.707083,0.707083,0,0.577349,-0.577349,0.577349,0.577349,0.577349,0.577349,0.577166,-0.596973,-0.557176,0.571368,-0.56859,-0.591784,0.581103,-0.55501,-0.595172,0.577349,0.577319,-0.577319,0.577715,-0.535051,-0.616352,0,-0.999512,0.03122,0,-0.999451,0.032685,-1,0,0,-0.577349,0.577349,0.577288,-0.707083,0.707083,0,-0.999969,0,0,-0.577349,-0.577349,0.577349,-1,0.000153,0,-0.577258,-0.596851,-0.557237,-0.571795,-0.569445,-0.590533,-0.707114,0.707083,0,-0.577319,0.577349,-0.577349,-0.577593,-0.535356,-0.61623,-0.581103,-0.55501,-0.595172,0,0,1,0,0,-1,0,1,0,0,-0.034883,-0.99939,0,-0.719321,-0.694632,0,-0.034913,-0.99939,0,-0.997559,-0.069735,0,-1,0],
            "uvs": [[0,0.848568,0.959431,0.598716,0,0.896777,0,0.848228,0.956928,0.597403,0,0.90523,1,0.62001,0,1,1,1,0.956765,0.597317,0.956755,0.597448,0.956754,0.597311,1,0.586113,0.96206,0.028478,0.962325,-0,1,-0,0.95676,0.597314,0.999821,0.597311,1.00001,0.597448,0.999773,0.597311,1.00001,0.597311,0.043072,0.597403,0.408691,0.693237,0,0.62001,1,0.951452,1,0.848228,0.043235,0.597317,0.043245,0.597448,0.043246,0.597311,0,0.586113,0,-0,0.04324,0.597314,0.037675,-0,0.750626,0,-1.1e-05,1,-1.1e-05,0,1.00001,0,1.00001,1,0.209702,0.962325,1.00001,0.962325,0.028265,0.962325,-1.1e-05,0.962325,0.37998,0.62001,-1.1e-05,0.62001,0.918091,0.62001,1.00001,0.62001,0.413883,0.586113,-1.1e-05,0.586113,1.00001,0.586113,-1.1e-05,-0,1.00001,-0,0.172174,0,1.00001,0.512936,-1.1e-05,0.069118,1.00001,0.956755,-1.1e-05,0.956755,-1.1e-05,0.597448,-1.1e-05,0.597311,-1.1e-05,0.956754,-1.1e-05,0.95676,1.00001,0.95676,1.00001,0.956754,-1.1e-05,0.264797,0.796307,-0,-1.1e-05,0.597314,1.00001,0.597314,0.203693,-0,1.00001,0.264797,1.00001,0.848228,1.00001,0.85025,0.91914,0.848228,-1.1e-05,0.848228]],
            "animations": [],
            "faces": [42,0,1,2,0,0,1,2,0,1,1,42,1,0,3,0,1,0,3,1,0,2,42,1,3,4,0,1,3,4,1,2,1,42,5,2,1,0,5,2,1,1,1,1,42,5,1,6,0,5,1,6,1,1,3,42,7,5,6,0,7,5,6,4,1,3,42,7,6,8,0,7,6,8,4,3,5,42,9,10,11,0,9,10,11,1,6,7,42,4,10,9,0,4,10,9,1,6,1,42,1,4,12,0,1,4,12,1,1,3,42,1,12,6,0,1,12,6,1,3,3,42,13,14,15,0,13,14,15,1,8,9,42,9,16,13,0,9,16,13,1,10,1,42,9,13,15,0,9,13,15,1,1,9,42,4,9,15,0,4,9,15,1,1,9,42,4,15,12,0,4,15,12,1,9,3,42,17,10,18,0,17,18,19,11,6,12,42,11,10,17,0,20,18,17,7,6,11,42,19,20,21,0,21,22,7,13,13,14,42,19,21,22,0,21,7,23,13,14,15,42,23,21,20,0,24,7,22,13,14,13,42,23,20,24,0,24,22,25,13,13,16,42,25,21,23,0,8,7,24,17,14,13,42,26,27,19,0,26,27,21,18,19,13,42,28,27,26,0,28,27,26,20,19,18,42,19,22,29,0,21,23,29,13,15,21,42,26,19,29,0,26,21,29,18,13,21,42,26,29,30,0,26,29,30,18,21,22,42,31,26,30,0,31,26,30,23,18,22,42,31,30,32,0,31,30,32,23,22,24,42,33,21,25,0,33,34,35,25,14,17,42,21,33,7,0,34,33,36,14,25,4,42,21,7,8,0,34,36,37,14,4,5,42,34,32,30,0,38,39,37,26,24,22,42,35,34,30,0,40,38,37,26,26,22,42,35,30,15,0,40,37,34,26,22,9,42,35,15,14,0,40,34,41,26,9,8,42,36,8,6,0,42,34,43,27,5,3,42,37,8,36,0,44,34,42,27,5,27,42,8,37,22,0,34,44,45,5,27,15,42,8,22,21,0,34,45,37,5,15,14,42,38,36,6,0,46,42,43,27,27,3,42,38,6,12,0,46,43,47,27,3,3,42,37,36,38,0,44,42,46,27,27,27,42,37,38,29,0,44,46,48,27,27,21,42,37,29,22,0,44,48,45,27,21,15,42,38,12,15,0,46,47,49,27,3,9,42,38,15,30,0,46,49,50,27,9,22,42,38,30,29,0,46,50,48,27,22,21,42,39,40,41,0,51,36,52,28,29,28,42,39,41,42,0,51,52,53,28,28,28,42,39,42,43,0,51,53,35,28,28,30,42,27,10,42,0,54,55,53,19,6,28,42,27,42,41,0,54,53,52,19,28,28,42,18,10,27,0,19,18,56,12,6,19,42,18,27,28,0,19,56,57,12,19,20,42,28,31,16,0,58,59,60,20,23,10,42,28,16,11,0,58,60,61,20,10,7,42,14,44,45,0,49,62,63,8,31,31,42,16,31,32,0,64,65,50,10,23,24,42,16,32,45,0,64,50,63,10,24,31,42,16,45,44,0,65,66,67,10,31,31,42,46,47,48,0,68,69,70,32,32,32,42,7,25,40,0,37,34,71,4,17,29,42,7,40,49,0,37,71,70,4,29,32,42,7,49,47,0,37,70,69,4,32,32],
            "influencesPerVertex": 2,
            "metadata": {
                "faces": 66,
                "version": 3,
                "morphTargets": 0,
                "normals": 33,
                "uvs": 1,
                "bones": 0,
                "vertices": 50,
                "materials": 1,
                "generator": "io_three"
            },
            "skinWeights": [],
            "morphTargets": [],
            "bones": [],
            "vertices": [-3.9999,-1.5024,-0.155573,-3.9999,1.3782,-0.255514,-3.9999,-1.5024,-0.136289,-3.9999,-1.5024,-0.155709,-3.9999,1.37068,-0.256039,-3.9999,-1.5024,-0.132908,-3.9999,1.5,-0.246996,-3.9999,-1.5024,-0.095,-3.9999,1.5,-0.095,-3.9999,1.37019,-0.256073,-3.9999,1.37016,-0.256021,-3.9999,1.37016,-0.256075,-3.9999,1.5,-0.260555,-3.9999,1.38609,-0.483609,-3.9999,1.38688,-0.495,-3.9999,1.5,-0.495,-3.9999,1.37018,-0.256074,-3.9999,1.37016,-0.256075,-3.9999,1.37016,-0.256075,-4.0099,1.37068,-0.256039,-4.0099,0.272947,-0.217705,-4.0099,1.5,-0.095,-4.0099,1.5,-0.246996,-4.0099,-1.5024,-0.114419,-4.0099,-1.5024,-0.155709,-4.0099,-1.5024,-0.095,-4.0099,1.37019,-0.256073,-4.0099,1.37016,-0.256021,-4.0099,1.37016,-0.256075,-4.0099,1.5,-0.260555,-4.0099,1.5,-0.495,-4.0099,1.37018,-0.256074,-4.0099,1.38688,-0.495,-4.00239,-1.5024,-0.095,-4.002,1.38688,-0.495,-4.00018,1.38688,-0.495,-4.0037,1.5,-0.246996,-4.00908,1.5,-0.246996,-4.00404,1.5,-0.260555,-4.00162,-1.5024,-0.155709,-4.0099,-1.5024,-0.155709,-4.0099,0.03764,-0.209488,-3.9999,-1.29488,-0.162955,-3.9999,-1.5024,-0.155709,-3.9999,1.37948,-0.389081,-4.00786,1.38688,-0.495,-3.9999,-1.5024,-0.155709,-3.9999,-1.5024,-0.1549,-4.00071,-1.5024,-0.155709,-4.00071,-1.5024,-0.155709],
            "skinIndices": []
        },
        "materials": [{
            "colorEmissive": [0,0,0],
            "DbgIndex": 0,
            "DbgColor": 15658734,
            "specularCoef": 50,
            "shading": "phong",
            "opacity": 1,
            "depthWrite": true,
            "wireframe": false,
            "blending": "NormalBlending",
            "DbgName": "b0b0b0",
            "colorDiffuse": [0.690196,0.690196,0.690196],
            "colorSpecular": [0.009961,0.009961,0.009961],
            "depthTest": true,
            "transparent": false,
            "visible": true,
            "colorAmbient": [0.690196,0.690196,0.690196]
        }]
    }],
    "images": [],
    "object": {
        "type": "Scene",
        "uuid": "1C96B56F-9D32-4253-A7A3-A985831F33ED",
        "matrix": [1,0,0,0,0,1,0,0,0,0,1,0,0,0,0,1],
        "children": [{
            "name": "Box",
            "uuid": "DDA9AE26-14F9-3E6A-9BDD-AF02F6D2F286",
            "matrix": [-1,0,0,0,0,0,1,0,0,1,0,0,0,0,0,1],
            "visible": true,
            "type": "Mesh",
            "material": "93831B89-11B9-31B1-A879-E029ECAF81F2",
            "castShadow": true,
            "receiveShadow": true,
            "geometry": "15641190-4052-3871-BF5E-F046F6B1B496"
        },{
            "name": "halter",
            "uuid": "194CBDF5-7923-3595-8ED9-4159C6EA139D",
            "matrix": [-1,0,0,0,0,0,1,0,0,1,0,0,-4.0049,0,0.0012,1],
            "visible": true,
            "type": "Mesh",
            "material": "B92F5ACA-E24A-3A69-B2DD-69B8C9C5682C",
            "castShadow": true,
            "receiveShadow": true,
            "geometry": "D7E13E5F-692D-38E5-AA71-493556ECD579"
        },{
            "name": "halter1",
            "uuid": "660A53DC-2785-3A65-80B4-861D0FECA711",
            "matrix": [-1,0,0,0,0,0,1,0,0,1,0,0,3.995,0,0.0012,1],
            "visible": true,
            "type": "Mesh",
            "material": "B92F5ACA-E24A-3A69-B2DD-69B8C9C5682C",
            "castShadow": true,
            "receiveShadow": true,
            "geometry": "06F86342-7528-3807-B194-35D5635B475B"
        },{
            "name": "halter2",
            "uuid": "BA555DC0-4EC7-3B12-AC79-9E45447A648D",
            "matrix": [-1,0,0,0,0,0,1,0,0,1,0,0,0,0,0.0012,1],
            "visible": true,
            "type": "Mesh",
            "material": "B92F5ACA-E24A-3A69-B2DD-69B8C9C5682C",
            "castShadow": true,
            "receiveShadow": true,
            "geometry": "6F602BFE-28E2-3EF7-BB46-DF0B2A164AC8"
        }]
    },
    "metadata": {
        "type": "Object",
        "version": 4.4,
        "generator": "io_three"
    },
    "animations": [{
        "fps": 29,
        "name": "default",
        "tracks": []
    }],
    "materials": [{
        "name": "b0b0b0",
        "shininess": 50,
        "emissive": 0,
        "specular": 131586,
        "depthWrite": true,
        "blending": "NormalBlending",
        "uuid": "B92F5ACA-E24A-3A69-B2DD-69B8C9C5682C",
        "type": "MeshPhongMaterial",
        "depthTest": true,
        "vertexColors": false,
        "color": 11579568,
        "ambient": 11579568
    },{
        "name": "Standard",
        "shininess": 50,
        "emissive": 0,
        "specular": 197379,
        "depthWrite": true,
        "blending": "NormalBlending",
        "uuid": "93831B89-11B9-31B1-A879-E029ECAF81F2",
        "type": "MeshPhongMaterial",
        "depthTest": true,
        "vertexColors": false,
        "color": 16777215,
        "ambient": 16777215
    }]
}