{
    "images": [],
    "materials": [{
        "uuid": "3C634480-8F01-36D4-847F-C7755F3F39C7",
        "vertexColors": false,
        "specular": 197379,
        "blending": "NormalBlending",
        "type": "MeshPhongMaterial",
        "depthTest": true,
        "ambient": 16777215,
        "color": 16777215,
        "name": "w",
        "emissive": 0,
        "shininess": 50,
        "depthWrite": true
    }],
    "geometries": [{
        "uuid": "0C2AF9BB-3A43-322C-BE1E-174920572AA2",
        "type": "Geometry",
        "data": {
            "vertices": [0.085,-0.06,9.975,0.085,-0.06,-9.975,0.085,0.06,-9.975,0.085,0.06,9.975,-0.085,0.06,9.975,-0.085,0.06,-9.975,-0.085,-0.06,-9.975,-0.085,-0.06,9.975,0.075,-0.052941,9.975,0.075,-0.06,9.975,0.075,0.06,9.975,-0.075,0.052941,9.975,-0.075,-0.06,9.975,-0.075,0.06,9.975,0.071825,-0.0507,9.975,-0.075,-0.0507,9.975,0.075,-0.0507,9.975,0.071825,-0.0507,9.975,0.075,0.052941,-9.975,0.075,0.06,-9.975,0.075,-0.06,-9.975,-0.075,-0.052941,-9.975,-0.075,0.06,-9.975,-0.075,-0.06,-9.975,-0.071825,-0.0507,-9.975,-0.075,-0.0507,-9.975,0.075,-0.0507,-9.975,-0.071825,-0.0507,-9.975,0.075,-0.06,-8.80147,0.075,-0.06,-8.80147,-0.075,-0.06,8.80147,0.075,0.06,8.80147,0.075,0.06,8.80147,-0.075,0.06,-8.80147,0.075,-0.050401,9.975,0.075,0.06,-8.47113,0.075,0.06,9.975,0.075,0.06,-8.47113,0.075,-0.050401,9.975,-0.075,0.06,8.47113,-0.075,-0.050401,-9.975,-0.075,0.06,-9.975,-0.075,-0.050401,-9.975,-0.075,0.06,8.47113,-0.074626,-0.0507,9.975,0.074626,-0.0507,-9.975,-0.074626,-0.0507,9.975],
            "morphTargets": [],
            "influencesPerVertex": 2,
            "faces": [42,0,1,2,0,0,1,1,0,1,2,42,0,2,3,0,0,1,0,0,2,3,42,4,5,6,0,2,3,3,4,5,6,42,4,6,7,0,2,3,2,4,6,7,42,8,9,0,0,4,4,0,8,9,0,42,10,8,0,0,4,4,0,10,8,0,42,10,0,3,0,4,0,0,10,0,3,42,11,4,7,0,5,2,2,11,4,7,42,11,7,12,0,5,2,5,11,7,12,42,13,4,11,0,5,2,5,13,4,11,42,8,14,15,0,4,6,5,8,11,14,42,8,15,12,0,4,5,5,8,14,12,42,8,12,9,0,4,5,4,8,12,9,42,16,17,8,0,4,6,4,15,16,8,42,18,19,2,0,7,7,1,17,18,2,42,20,18,2,0,7,7,1,19,17,2,42,20,2,1,0,7,1,1,19,2,1,42,21,6,5,0,8,3,3,20,6,5,42,21,5,22,0,8,3,8,20,5,21,42,23,6,21,0,8,3,8,19,6,20,42,24,21,25,0,9,8,8,22,20,23,42,26,20,23,0,7,7,8,24,19,19,42,26,23,21,0,7,8,8,24,19,20,42,26,21,27,0,7,8,9,24,20,20,42,28,20,1,0,10,7,1,25,19,1,42,9,29,1,0,4,10,1,9,26,1,42,9,1,0,0,4,1,0,9,1,0,42,30,7,6,0,11,2,3,25,7,6,42,30,6,23,0,11,3,8,25,6,19,42,12,7,30,0,5,2,11,12,7,25,42,28,30,23,0,10,11,8,25,25,19,42,28,23,20,0,10,8,7,25,19,19,42,9,12,30,0,4,5,11,9,12,25,42,9,30,29,0,4,11,10,9,25,26,42,31,3,2,0,12,0,1,27,3,2,42,31,2,19,0,12,1,7,27,2,18,42,10,3,32,0,4,0,12,10,3,28,42,33,22,5,0,13,8,3,28,21,5,42,13,33,5,0,5,13,3,13,28,5,42,13,5,4,0,5,3,2,13,5,4,42,34,35,19,0,4,14,7,29,29,18,42,34,19,26,0,4,7,7,29,18,24,42,34,26,16,0,4,7,4,29,24,15,42,36,37,38,0,4,14,4,30,30,30,42,39,40,41,0,15,8,8,31,31,31,42,13,15,25,0,5,5,8,13,14,23,42,13,25,42,0,5,8,8,13,23,32,42,13,42,43,0,5,8,15,13,32,32,42,44,45,25,0,16,17,8,28,28,23,42,44,25,15,0,16,8,5,28,23,14,42,16,26,45,0,4,7,17,15,24,28,42,16,45,46,0,4,17,16,15,28,27],
            "uvs": [[1,1,1,-0,-0,1,-0,-0,0.941176,1,0.058824,1,0.9225,1,0.941176,-0,0.058824,-0,0.0775,-0,0.941176,0.058824,0.058824,0.941176,0.941176,0.941176,0.058824,0.058824,0.941176,0.075382,0.058824,0.924618,0.061024,1,0.938976,-0]],
            "name": "stangeGeometry",
            "metadata": {
                "vertices": 47,
                "generator": "io_three",
                "faces": 52,
                "materials": 1,
                "bones": 0,
                "version": 3,
                "uvs": 1,
                "morphTargets": 0,
                "normals": 33
            },
            "animations": [],
            "bones": [],
            "skinIndices": [],
            "normals": [0.577319,-0.577349,0.577349,0.577349,-0.577288,-0.577349,0.577319,0.577349,-0.577349,0.577349,0.577319,0.577349,-0.577319,0.577349,0.577349,-0.577349,0.577288,-0.577349,-0.577349,-0.577319,-0.577349,-0.577349,-0.577319,0.577349,-3.1e-05,0,1,0,-0.707083,0.707114,0,0.707083,0.707083,0,0,1,0,-0.707083,0.707083,0.577349,0.577288,0.577349,0.577349,0.577349,0.577349,-0.577349,0.577319,0.577349,0,0,0.999969,-6.1e-05,0,-1,-0.577349,0.577349,-0.577349,0,-0.707083,-0.707083,0,0,-1,0,0.707083,-0.707083,0,0,-0.999969,0.577349,0.577319,-0.577349,-0.577319,0.577349,-0.577349,0,-1,0,0,-0.999969,0,0,0.999969,0,0,1,0,-0.999969,0,0,-1,0,0,1,0,0,0.999969,0,0],
            "skinWeights": []
        },
        "materials": [{
            "DbgColor": 15658734,
            "visible": true,
            "colorAmbient": [1,1,1],
            "specularCoef": 50,
            "wireframe": false,
            "transparent": false,
            "opacity": 1,
            "blending": "NormalBlending",
            "DbgName": "w",
            "colorSpecular": [0.012549,0.012549,0.012549],
            "colorDiffuse": [1,1,1],
            "depthTest": true,
            "shading": "phong",
            "colorEmissive": [0,0,0],
            "DbgIndex": 0,
            "depthWrite": true
        }]
    }],
    "textures": [],
    "object": {
        "uuid": "52B31936-4D2D-40C1-BA11-C3E110C6F074",
        "type": "Scene",
        "children": [{
            "name": "stange",
            "uuid": "8829E8E7-6F2F-3090-91EA-81698B20D70A",
            "matrix": [-1,0,0,0,0,0,1,0,0,1,0,0,0,0,0,1],
            "visible": true,
            "type": "Mesh",
            "material": "3C634480-8F01-36D4-847F-C7755F3F39C7",
            "castShadow": true,
            "receiveShadow": true,
            "geometry": "0C2AF9BB-3A43-322C-BE1E-174920572AA2"
        }],
        "matrix": [1,0,0,0,0,1,0,0,0,0,1,0,0,0,0,1]
    },
    "animations": [{
        "fps": 29,
        "name": "default",
        "tracks": []
    }],
    "metadata": {
        "generator": "io_three",
        "type": "Object",
        "version": 4.4
    }
}