{
    "materials": [{
        "specular": 197379,
        "blending": "NormalBlending",
        "name": "Standard",
        "ambient": 16777215,
        "color": 16777215,
        "map": "0B79DC02-C0A7-3ED7-8C30-7414508CF5A0",
        "depthWrite": true,
        "uuid": "93831B89-11B9-31B2-A879-E029ECAF81F2",
        "shininess": 50,
        "vertexColors": false,
        "emissive": 0,
        "type": "MeshPhongMaterial",
        "depthTest": true
    }],
    "object": {
        "matrix": [1,0,0,0,0,1,0,0,0,0,1,0,0,0,0,1],
        "children": [{
            "name": "Box",
            "uuid": "DDA9AE26-14F9-3E6A-9BDD-AF02F6D2F286",
            "matrix": [-1,0,0,0,0,0,1,0,0,1,0,0,0,0,0,1],
            "visible": true,
            "type": "Mesh",
            "material": "93831B89-11B9-31B2-A879-E029ECAF81F2",
            "castShadow": true,
            "receiveShadow": true,
            "geometry": "15641190-4052-3871-BF5E-F046F6B1B496"
        }],
        "uuid": "E9301EAA-E60B-410D-80EA-6C6DEEECDDF2",
        "type": "Scene"
    },
    "metadata": {
        "version": 4.4,
        "generator": "io_three",
        "type": "Object"
    },
    "textures": [{
        "image": "2D887CDA-A49C-3387-95E4-015771B67F54",
        "mapping": 300,
        "uuid": "0B79DC02-C0A7-3ED7-8C30-7414508CF5A0",
        "magFilter": 1006,
        "repeat": [1,1],
        "minFilter": 1008,
        "wrap": [1000,1000],
        "name": "boon_kachel3_jpg",
        "anisotropy": 1
    }],
    "images": [{
        "url": "boon-kachel3.jpg",
        "name": "boon-kachel3.jpg",
        "uuid": "2D887CDA-A49C-3387-95E4-015771B67F54"
    }],
    "geometries": [{
        "data": {
            "name": "BoxGeometry",
            "influencesPerVertex": 2,
            "uvs": [[0,1,0,0,1,0,1,1]],
            "faces": [42,0,2,3,0,0,1,2,0,1,2,42,0,3,1,0,0,2,3,0,2,3,42,4,6,7,0,0,1,2,4,5,6,42,4,7,5,0,0,2,3,4,6,7,42,4,5,0,0,0,1,2,4,7,0,42,4,0,1,0,0,2,3,4,0,3,42,7,6,3,0,2,3,0,6,5,2,42,7,3,2,0,2,0,1,6,2,1,42,5,7,2,0,0,1,2,7,6,1,42,5,2,0,0,0,2,3,7,1,0,42,1,3,6,0,0,1,2,3,2,5,42,1,6,4,0,0,2,3,3,5,4],
            "morphTargets": [],
            "normals": [0.577349,-0.577349,0.577349,0.577349,-0.577349,-0.577349,0.577349,0.577349,-0.577349,0.577349,0.577349,0.577349,-0.577349,0.577349,0.577349,-0.577349,0.577349,-0.577349,-0.577349,-0.577349,-0.577349,-0.577349,-0.577349,0.577349],
            "bones": [],
            "metadata": {
                "normals": 8,
                "bones": 0,
                "generator": "io_three",
                "faces": 12,
                "morphTargets": 0,
                "uvs": 1,
                "materials": 1,
                "vertices": 8,
                "version": 3
            },
            "skinWeights": [],
            "skinIndices": [],
            "vertices": [2.705,-0.06,1.62,2.705,0.06,1.62,2.705,-0.06,-1.62,2.705,0.06,-1.62,-2.705,0.06,1.62,-2.705,-0.06,1.62,-2.705,0.06,-1.62,-2.705,-0.06,-1.62],
            "animations": []
        },
        "materials": [{
            "colorSpecular": [0.012549,0.012549,0.012549],
            "opacity": 1,
            "colorDiffuse": [1,1,1],
            "visible": true,
            "shading": "phong",
            "blending": "NormalBlending",
            "mapDiffuseWrap": ["RepeatWrapping","RepeatWrapping"],
            "DbgIndex": 0,
            "transparent": false,
            "depthWrite": true,
            "specularCoef": 50,
            "mapDiffuseRepeat": [1,1],
            "DbgName": "Standard",
            "mapDiffuse": "boon-kachel3.jpg",
            "colorAmbient": [1,1,1],
            "wireframe": false,
            "DbgColor": 15658734,
            "colorEmissive": [0,0,0],
            "mapDiffuseAnisotropy": 1,
            "depthTest": true
        }],
        "uuid": "15641190-4052-3871-BF5E-F046F6B1B496",
        "type": "Geometry"
    }],
    "animations": [{
        "tracks": [],
        "name": "default",
        "fps": 29
    }]
}