{
    "textures": [],
    "object": {
        "matrix": [1,0,0,0,0,1,0,0,0,0,1,0,0,0,0,1],
        "children": [{
            "name": "halterungen",
            "uuid": "182B7F18-3CB3-383A-9752-2DBF14C41422",
            "matrix": [-1,0,0,0,0,0,1,0,0,1,0,0,0,0,0,1],
            "visible": true,
            "type": "Mesh",
            "material": "EBEEF0BF-3581-3563-AE10-379FF032D230",
            "castShadow": true,
            "receiveShadow": true,
            "geometry": "D7AD93C4-34E2-3A9D-A974-92F134108FFF"
        },{
            "name": "regal",
            "uuid": "0E012B89-A200-323D-84E4-447E76313465",
            "matrix": [-1,0,0,0,0,0,1,0,0,1,0,0,0,0,0,1],
            "visible": true,
            "type": "Mesh",
            "material": "9E899C6D-F816-344F-A4CB-E5C3B9616DAF",
            "castShadow": true,
            "receiveShadow": true,
            "geometry": "6FA48242-4A37-3164-8001-8D25BC2E064F"
        }],
        "uuid": "D3F0F1D8-7A40-48CB-A824-ABD9CC16ABCD",
        "type": "Scene"
    },
    "geometries": [{
        "materials": [{
            "wireframe": false,
            "doubleSided": true,
            "DbgName": "weis",
            "colorSpecular": [0.012549,0.012549,0.012549],
            "colorEmissive": [0,0,0],
            "colorDiffuse": [1,1,1],
            "DbgColor": 15658734,
            "blending": "NormalBlending",
            "depthWrite": true,
            "shading": "phong",
            "depthTest": true,
            "DbgIndex": 0,
            "specularCoef": 50,
            "transparent": false,
            "visible": true,
            "colorAmbient": [1,1,1],
            "opacity": 1
        }],
        "uuid": "6FA48242-4A37-3164-8001-8D25BC2E064F",
        "data": {
            "bones": [],
            "name": "regalGeometry",
            "faces": [42,0,2,3,0,0,1,2,0,1,2,42,0,3,1,0,0,2,3,0,2,3,42,4,6,7,0,4,5,6,4,5,6,42,4,7,5,0,4,6,7,4,6,7,42,4,5,0,0,8,9,10,4,7,0,42,4,0,1,0,8,10,11,4,0,3,42,7,6,3,0,10,11,8,6,5,2,42,7,3,2,0,10,8,9,6,2,1,42,5,7,2,0,12,13,2,7,6,1,42,5,2,0,0,12,2,3,7,1,0,42,1,3,6,0,12,13,2,3,2,5,42,1,6,4,0,12,2,3,3,5,4,42,8,10,11,0,14,0,3,0,1,2,42,8,11,9,0,14,3,15,0,2,3,42,12,14,15,0,16,4,7,4,5,6,42,12,15,13,0,16,7,17,4,6,7,42,12,13,8,0,8,9,18,4,7,0,42,12,8,9,0,8,18,19,4,0,3,42,15,14,11,0,10,11,20,6,5,2,42,15,11,10,0,10,20,21,6,2,1,42,13,15,10,0,22,12,23,7,6,1,42,13,10,8,0,22,23,24,7,1,0,42,9,11,14,0,25,26,3,3,2,5,42,9,14,12,0,25,3,15,3,5,4,42,16,18,19,0,14,0,3,0,1,2,42,16,19,17,0,14,3,15,0,2,3,42,20,22,23,0,16,4,7,4,5,6,42,20,23,21,0,16,7,17,4,6,7,42,20,21,16,0,20,21,10,4,7,0,42,20,16,17,0,20,10,11,4,0,3,42,23,22,19,0,18,19,8,6,5,2,42,23,19,18,0,18,8,9,6,2,1,42,21,23,18,0,25,26,3,7,6,1,42,21,18,16,0,25,3,15,7,1,0,42,17,19,22,0,22,12,23,3,2,5,42,17,22,20,0,22,23,24,3,5,4,42,24,26,27,0,17,7,3,0,1,2,42,24,27,25,0,17,3,15,0,2,3,42,28,30,31,0,16,4,0,4,5,6,42,28,31,29,0,16,0,14,4,6,7,42,28,29,24,0,27,28,29,4,7,0,42,28,24,25,0,27,29,30,4,0,3,42,31,30,27,0,29,30,27,6,5,2,42,31,27,26,0,29,27,28,6,2,1,42,29,31,26,0,31,32,33,7,6,1,42,29,26,24,0,31,33,34,7,1,0,42,25,27,30,0,31,32,33,3,2,5,42,25,30,28,0,31,33,34,3,5,4,42,32,34,35,0,35,16,15,0,1,2,42,32,35,33,0,35,15,11,0,2,3,42,36,38,39,0,35,16,15,4,5,6,42,36,39,37,0,35,15,11,4,6,7,42,36,37,32,0,35,13,2,4,7,0,42,36,32,33,0,35,2,11,4,0,3,42,39,38,35,0,2,11,8,6,5,2,42,39,35,34,0,2,8,13,6,2,1,42,37,39,34,0,8,22,15,7,6,1,42,37,34,32,0,8,15,11,7,1,0,42,33,35,38,0,8,22,15,3,2,5,42,33,38,36,0,8,15,11,3,5,4,42,40,42,43,0,36,37,38,0,1,2,42,40,43,41,0,36,38,39,0,2,3,42,44,46,47,0,40,41,42,4,5,6,42,44,47,45,0,40,42,43,4,6,7,42,44,45,40,0,44,45,46,4,7,0,42,44,40,41,0,44,46,47,4,0,3,42,47,46,43,0,46,47,44,6,5,2,42,47,43,42,0,46,44,45,6,2,1,42,45,47,42,0,48,49,50,7,6,1,42,45,42,40,0,48,50,51,7,1,0,42,41,43,46,0,48,49,50,3,2,5,42,41,46,44,0,48,50,51,3,5,4,42,48,50,51,0,52,53,54,0,1,2,42,48,51,49,0,52,54,55,0,2,3,42,52,54,55,0,56,57,58,4,5,6,42,52,55,53,0,56,58,59,4,6,7,42,52,53,48,0,44,45,46,4,7,0,42,52,48,49,0,44,46,47,4,0,3,42,55,54,51,0,46,47,44,6,5,2,42,55,51,50,0,46,44,45,6,2,1,42,53,55,50,0,60,61,62,7,6,1,42,53,50,48,0,60,62,63,7,1,0,42,49,51,54,0,60,61,62,3,2,5,42,49,54,52,0,60,62,63,3,5,4,42,56,58,59,0,64,5,1,0,1,2,42,56,59,57,0,64,1,65,0,2,3,42,60,62,63,0,66,6,2,4,5,6,42,60,63,61,0,66,2,67,4,6,7,42,60,61,56,0,44,45,46,4,7,0,42,60,56,57,0,44,46,47,4,0,3,42,63,62,59,0,46,47,44,6,5,2,42,63,59,58,0,46,44,45,6,2,1,42,61,63,58,0,68,45,46,7,6,1,42,61,58,56,0,68,46,69,7,1,0,42,57,59,62,0,68,45,46,3,2,5,42,57,62,60,0,68,46,69,3,5,4],
            "metadata": {
                "vertices": 64,
                "bones": 0,
                "morphTargets": 0,
                "faces": 96,
                "materials": 1,
                "version": 3,
                "normals": 8,
                "uvs": 1,
                "generator": "io_three"
            },
            "skinWeights": [],
            "vertices": [3.95,-1.75,-2,3.95,2,-2,3.95,-1.75,-2.25,3.95,2,-2.25,-3.95,2,-2,-3.95,-1.75,-2,-3.95,2,-2.25,-3.95,-1.75,-2.25,-3.7,-1.75,2,-3.7,2,2,-3.7,-1.75,-2,-3.7,2,-2,-3.95,2,2,-3.95,-1.75,2,-3.95,2,-2,-3.95,-1.75,-2,3.95,-1.75,2,3.95,2,2,3.95,-1.75,-2,3.95,2,-2,3.7,2,2,3.7,-1.75,2,3.7,2,-2,3.7,-1.75,-2,3.9475,1.75,2,3.9475,2,2,3.9475,1.75,-2,3.9475,2,-2,-3.9475,2,2,-3.9475,1.75,2,-3.9475,2,-2,-3.9475,1.75,-2,3.95,-2,2.25,3.95,2,2.25,3.95,-2,2,3.95,2,2,-3.95,2,2.25,-3.95,-2,2.25,-3.95,2,2,-3.95,-2,2,3.9475,-2,1.96,3.9475,-1.75,1.96,3.9475,-2,0.58,3.9475,-1.75,0.58,-3.9475,-1.75,1.96,-3.9475,-2,1.96,-3.9475,-1.75,0.58,-3.9475,-2,0.58,3.9475,-2,0.5475,3.9475,-1.75,0.5475,3.9475,-2,-0.8325,3.9475,-1.75,-0.8325,-3.9475,-1.75,0.5475,-3.9475,-2,0.5475,-3.9475,-1.75,-0.8325,-3.9475,-2,-0.8325,3.9475,-2,-0.87,3.9475,-1.75,-0.87,3.9475,-2,-2.25,3.9475,-1.75,-2.25,-3.9475,-1.75,-0.87,-3.9475,-2,-0.87,-3.9475,-1.75,-2.25,-3.9475,-2,-2.25],
            "morphTargets": [],
            "skinIndices": [],
            "normals": [0.577349,-0.577349,0.577349,0.577349,-0.577349,-0.577349,0.577349,0.577349,-0.577349,0.577349,0.577349,0.577349,-0.577349,0.577349,0.577349,-0.577349,0.577349,-0.577349,-0.577349,-0.577349,-0.577349,-0.577349,-0.577349,0.577349],
            "animations": [],
            "uvs": [[0.0625,0.055556,0.0625,0,1,0,1,0.055556,0,0.055556,0,0,0.9375,0,0.9375,0.055556,-0,1,-0,0.0625,1,0.0625,1,1,-0,0.055556,-0,0,0.0625,0.944444,1,0.944444,0,0.944444,0.9375,0.944444,0.031646,0.0625,0.031646,1,0.968354,1,0.968354,0.0625,-0,0.944444,0.031646,0.055556,0.031646,0.944444,0.968354,0.944444,0.968354,0.055556,0.000316,1,0.000316,0.9375,0.999684,0.9375,0.999684,1,0.000316,0.944444,0.000316,0.055556,0.999684,0.055556,0.999684,0.944444,0,1,0,0.935556,0,0.628889,0.0625,0.628889,0.0625,0.935556,0.9375,0.935556,0.9375,0.628889,1,0.628889,1,0.935556,0.000316,0.0625,0.000316,0,0.999684,0,0.999684,0.0625,0.000316,0.935556,0.000316,0.628889,0.999684,0.628889,0.999684,0.935556,0,0.621667,0,0.315,0.0625,0.315,0.0625,0.621667,0.9375,0.621667,0.9375,0.315,1,0.315,1,0.621667,0.000316,0.621667,0.000316,0.315,0.999684,0.315,0.999684,0.621667,0,0.306667,0.0625,0.306667,0.9375,0.306667,1,0.306667,0.000316,0.306667,0.999684,0.306667]],
            "influencesPerVertex": 2
        },
        "type": "Geometry"
    },{
        "materials": [{
            "wireframe": false,
            "doubleSided": true,
            "DbgName": "Physical1",
            "colorSpecular": [0.02,0.02,0.02],
            "colorEmissive": [0,0,0],
            "colorDiffuse": [0.678431,0.698039,0.741176],
            "DbgColor": 15658734,
            "blending": "NormalBlending",
            "depthWrite": true,
            "shading": "phong",
            "depthTest": true,
            "DbgIndex": 0,
            "specularCoef": 50,
            "transparent": false,
            "visible": true,
            "colorAmbient": [0.678431,0.698039,0.741176],
            "opacity": 1
        }],
        "uuid": "D7AD93C4-34E2-3A9D-A974-92F134108FFF",
        "data": {
            "bones": [],
            "name": "halterungenGeometry",
            "faces": [42,0,2,3,0,0,1,1,0,1,2,42,0,3,1,0,0,1,0,0,2,3,42,4,6,7,0,0,1,1,4,5,6,42,4,7,5,0,0,1,0,4,6,7,42,4,5,0,0,2,3,4,4,7,0,42,4,0,1,0,2,4,5,4,0,3,42,7,6,3,0,6,7,8,6,5,2,42,7,3,2,0,6,8,9,6,2,1,42,5,7,2,0,10,11,11,7,6,1,42,5,2,0,0,10,11,10,7,1,0,42,1,3,6,0,12,13,13,3,2,5,42,1,6,4,0,12,13,12,3,5,4,42,8,10,11,0,14,15,15,0,1,2,42,8,11,9,0,14,15,14,0,2,3,42,12,14,15,0,14,15,15,4,5,6,42,12,15,13,0,14,15,14,4,6,7,42,12,13,8,0,16,14,17,4,7,0,42,12,8,9,0,16,17,18,4,0,3,42,15,14,11,0,16,14,19,6,5,2,42,15,11,10,0,16,19,18,6,2,1,42,13,15,10,0,14,15,15,7,6,1,42,13,10,8,0,14,15,14,7,1,0,42,9,11,14,0,14,15,15,3,2,5,42,9,14,12,0,14,15,14,3,5,4,42,16,18,19,0,20,21,21,0,1,2,42,16,19,17,0,20,21,20,0,2,3,42,20,22,23,0,20,21,21,4,5,6,42,20,23,21,0,20,21,20,4,6,7,42,20,21,16,0,2,3,4,4,7,0,42,20,16,17,0,2,4,5,4,0,3,42,23,22,19,0,6,7,8,6,5,2,42,23,19,18,0,6,8,9,6,2,1,42,21,23,18,0,22,23,23,7,6,1,42,21,18,16,0,22,23,22,7,1,0,42,17,19,22,0,24,25,25,3,2,5,42,17,22,20,0,24,25,24,3,5,4,42,24,26,27,0,26,27,27,0,1,2,42,24,27,25,0,26,27,26,0,2,3,42,28,30,31,0,26,27,27,4,5,6,42,28,31,29,0,26,27,26,4,6,7,42,28,29,24,0,16,14,17,4,7,0,42,28,24,25,0,16,17,18,4,0,3,42,31,30,27,0,16,14,19,6,5,2,42,31,27,26,0,16,19,18,6,2,1,42,29,31,26,0,26,27,27,7,6,1,42,29,26,24,0,26,27,26,7,1,0,42,25,27,30,0,26,27,27,3,2,5,42,25,30,28,0,26,27,26,3,5,4,42,32,34,35,0,28,29,29,0,1,2,42,32,35,33,0,28,29,28,0,2,3,42,36,38,39,0,28,29,29,4,5,6,42,36,39,37,0,28,29,28,4,6,7,42,36,37,32,0,2,3,4,4,7,0,42,36,32,33,0,2,4,5,4,0,3,42,39,38,35,0,6,7,8,6,5,2,42,39,35,34,0,6,8,9,6,2,1,42,37,39,34,0,30,31,31,7,6,1,42,37,34,32,0,30,31,30,7,1,0,42,33,35,38,0,32,8,33,3,2,5,42,33,38,36,0,32,33,32,3,5,4,42,40,42,43,0,34,35,35,0,1,2,42,40,43,41,0,34,35,34,0,2,3,42,44,46,47,0,34,35,35,4,5,6,42,44,47,45,0,34,35,34,4,6,7,42,44,45,40,0,16,14,17,4,7,0,42,44,40,41,0,16,17,18,4,0,3,42,47,46,43,0,16,14,19,6,5,2,42,47,43,42,0,16,19,18,6,2,1,42,45,47,42,0,34,35,35,7,6,1,42,45,42,40,0,34,35,34,7,1,0,42,41,43,46,0,34,35,35,3,2,5,42,41,46,44,0,34,35,34,3,5,4],
            "metadata": {
                "vertices": 48,
                "bones": 0,
                "morphTargets": 0,
                "faces": 72,
                "materials": 1,
                "version": 3,
                "normals": 8,
                "uvs": 1,
                "generator": "io_three"
            },
            "skinWeights": [],
            "vertices": [0.375,-2.2498,1.9649,0.375,-2.1498,1.9649,0.375,-2.2498,1.9449,0.375,-2.1498,1.9449,-0.375,-2.1498,1.9649,-0.375,-2.2498,1.9649,-0.375,-2.1498,1.9449,-0.375,-2.2498,1.9449,0.375,-2.25,1.985,0.375,-1.75,1.985,0.375,-2.25,1.96,0.375,-1.75,1.96,-0.375,-1.75,1.985,-0.375,-2.25,1.985,-0.375,-1.75,1.96,-0.375,-2.25,1.96,0.375,-2.2498,0.552,0.375,-2.1498,0.552,0.375,-2.2498,0.532,0.375,-2.1498,0.532,-0.375,-2.1498,0.552,-0.375,-2.2498,0.552,-0.375,-2.1498,0.532,-0.375,-2.2498,0.532,0.375,-2.25,0.5721,0.375,-1.75,0.5721,0.375,-2.25,0.5471,0.375,-1.75,0.5471,-0.375,-1.75,0.5721,-0.375,-2.25,0.5721,-0.375,-1.75,0.5471,-0.375,-2.25,0.5471,0.375,-2.2498,-0.864,0.375,-2.1498,-0.864,0.375,-2.2498,-0.884,0.375,-2.1498,-0.884,-0.375,-2.1498,-0.864,-0.375,-2.2498,-0.864,-0.375,-2.1498,-0.884,-0.375,-2.2498,-0.884,0.375,-2.25,-0.8439,0.375,-1.75,-0.8439,0.375,-2.25,-0.8689,0.375,-1.75,-0.8689,-0.375,-1.75,-0.8439,-0.375,-2.25,-0.8439,-0.375,-1.75,-0.8689,-0.375,-2.25,-0.8689],
            "morphTargets": [],
            "skinIndices": [],
            "normals": [0.577349,-0.577349,0.577349,0.577349,-0.577349,-0.577349,0.577349,0.577349,-0.577349,0.577349,0.577349,0.577349,-0.577349,0.577349,0.577349,-0.577349,0.577349,-0.577349,-0.577349,-0.577349,-0.577349,-0.577349,-0.577349,0.577349],
            "animations": [],
            "uvs": [[0,0.992994,0,0.986023,0.2004,1,0.0004,1,0.0004,0,0.2004,0,0.9996,1,0.7996,1,0.7996,0,0.9996,0,0.0004,0.992994,0.0004,0.986023,0.7996,0.992994,0.7996,0.986023,0,1,0,0.991286,1,1,0,0,1,0,0,0,0,0.500523,0,0.493552,0.0004,0.500523,0.0004,0.493552,0.7996,0.500523,0.7996,0.493552,0,0.507529,0,0.498815,0,0.006971,0,-0,0.0004,0.006971,0.0004,-0,0.7996,0.006971,0.7996,-0,0,0.013977,0,0.005263]],
            "influencesPerVertex": 2
        },
        "type": "Geometry"
    }],
    "metadata": {
        "version": 4.4,
        "generator": "io_three",
        "type": "Object"
    },
    "materials": [{
        "ambient": 11383485,
        "name": "Physical1",
        "shininess": 50,
        "emissive": 0,
        "uuid": "EBEEF0BF-3581-3563-AE10-379FF032D230",
        "depthWrite": true,
        "vertexColors": false,
        "side": 2,
        "depthTest": true,
        "type": "MeshPhongMaterial",
        "color": 11383485,
        "specular": 328965,
        "blending": "NormalBlending"
    },{
        "ambient": 16777215,
        "name": "weis",
        "shininess": 50,
        "emissive": 0,
        "uuid": "9E899C6D-F816-344F-A4CB-E5C3B9616DAF",
        "depthWrite": true,
        "vertexColors": false,
        "side": 2,
        "depthTest": true,
        "type": "MeshPhongMaterial",
        "color": 16777215,
        "specular": 197379,
        "blending": "NormalBlending"
    }],
    "images": [],
    "animations": [{
        "tracks": [],
        "name": "default",
        "fps": 29
    }]
}