{
    "textures": [{
        "wrap": [1000,1000],
        "name": "raster50_1195_a_jpg",
        "minFilter": 1008,
        "magFilter": 1006,
        "anisotropy": 1,
        "uuid": "84D0A658-EEAC-3C69-92FF-60BA5CB1F7B9",
        "repeat": [1,1],
        "mapping": 300,
        "image": "21EAE718-0EF4-31A5-BD33-163D10D09058"
    }],
    "object": {
        "type": "Scene",
        "matrix": [1,0,0,0,0,1,0,0,0,0,1,0,0,0,0,1],
        "children": [{
            "name": "schiene",
            "uuid": "F061A09D-CB2A-3AD5-9EC1-BB6A3111B988",
            "matrix": [-1,0,0,0,0,0,1,0,0,1,0,0,0,0,0,1],
            "visible": true,
            "type": "Mesh",
            "material": "93831B89-11B9-31B1-A879-E029ECAF81F2",
            "castShadow": true,
            "receiveShadow": true,
            "geometry": "BB1FEC49-AD40-3BFB-88E3-89403FB223D3"
        }],
        "uuid": "472A4CC0-8CC3-4F77-B5B1-9F57CFBC3411"
    },
    "animations": [{
        "name": "default",
        "fps": 29,
        "tracks": []
    }],
    "materials": [{
        "name": "Standard",
        "shininess": 50,
        "depthWrite": true,
        "uuid": "93831B89-11B9-31B1-A879-E029ECAF81F2",
        "type": "MeshPhongMaterial",
        "vertexColors": false,
        "ambient": 11184810,
        "specular": 197379,
        "color": 11184810,
        "depthTest": true,
        "emissive": 0,
        "blending": "NormalBlending",
        "map": "84D0A658-EEAC-3C69-92FF-60BA5CB1F7B9"
    }],
    "geometries": [{
        "type": "Geometry",
        "data": {
            "name": "schieneGeometry",
            "vertices": [0.13,-0.108148,5.61897,0.13,-0.115,5.6224,0.13,-0.115,-5.975,0.13,0.115,-5.975,0.13,-0.108148,5.61897,0.13,0.115,5.5074,0.13,-0.115,5.975,0.13,-0.041,5.975,0.13,-0.041,5.5854,0.13,-0.041,5.60811,0.13,0.115,5.53791,0.13,0.115,5.975,-0.13,0.106086,5.51186,-0.13,0.115,5.5074,-0.13,0.115,-5.975,-0.13,-0.115,-5.975,-0.13,0.106086,5.51186,-0.13,-0.115,5.6224,-0.13,-0.041,5.975,-0.13,-0.041,5.5854,-0.13,-0.115,5.975,-0.13,0.10666,5.54167,-0.13,0.115,5.975,-0.13,0.115,5.53791,-0.13,-0.041,5.60811,-0.13,0.10666,5.54167,0.115,-0.101731,5.975,0.115,-0.115,5.975,0.125174,-0.041,5.975,0.115,-0.041,5.975,-0.124878,-0.041,5.975,-0.115,-0.041,5.975,-0.115,-0.115,5.975,0.111235,-0.0984,5.975,-0.115,-0.0984,5.975,0.115,-0.0984,5.975,0.115,0.115,5.975,-0.115,0.101731,5.975,-0.115,0.115,5.975,0.115,0.101731,-5.975,0.115,0.115,-5.975,0.115,-0.115,-5.975,-0.115,-0.101731,-5.975,-0.115,0.115,-5.975,-0.115,-0.115,-5.975,-0.111235,-0.0984,-5.975,-0.115,-0.0984,-5.975,0.115,-0.0984,-5.975,0.115,-0.115,-5.28558,0.115443,-0.115,5.6224,0.115,-0.115,5.6224,0.115443,-0.115,5.6224,0.13,-0.115,5.6224,-0.115,-0.115,5.28558,-0.122328,-0.115,5.6224,-0.13,-0.115,5.6224,-0.115,-0.115,5.6224,-0.122328,-0.115,5.6224,-0.002632,-0.115,5.6224,0.115,-0.115,5.6224,-0.002632,-0.115,5.6224,0.115,0.115,5.28558,0.119826,0.115,5.5074,0.13,0.115,5.5074,0.115,0.115,5.5074,0.119826,0.115,5.5074,-0.115,0.115,-5.28558,-0.115587,0.115,5.5074,-0.115,0.115,5.5074,-0.115587,0.115,5.5074,-0.13,0.115,5.5074,0.12049,0.115,5.53791,0.115,0.115,5.53791,0.12049,0.115,5.53791,-0.115549,0.115,5.53791,-0.115,0.115,5.53791,0.115,-0.091428,5.61061,0.115,-0.090932,5.61037,0.115,0.115,-5.13391,0.115,-0.097935,5.61387,0.115,-0.0984,5.6141,0.115,0.115,5.5074,0.115,-0.090932,5.61037,0.115,-0.097921,5.975,0.115,-0.041,5.975,0.115,-0.041,5.5854,0.115,-0.041,5.60811,-0.115,0.115,5.13391,-0.115,-0.097921,-5.975,-0.115,0.106724,5.51154,-0.115,-0.0984,5.6141,-0.115,0.106742,5.51153,-0.115,0.106724,5.51154,-0.115,0.115,5.5074,-0.115,0.106742,5.51153,-0.115,-0.041,5.5854,-0.115,-0.041,5.60811,-0.115,0.107257,5.5414,-0.115,0.107274,5.54139,-0.115,0.107257,5.5414,-0.115,0.107274,5.54139,-0.114535,-0.0984,5.6141,-0.107604,-0.0984,5.6141,0.114521,-0.0984,-5.975,-0.114535,-0.0984,5.6141,-0.115,-0.0984,5.6141,0.114986,-0.0984,5.6141,0.115,-0.0984,5.6141,0.114986,-0.0984,5.6141,-0.107604,-0.0984,5.6141,-0.114521,-0.0984,5.975,-0.115,0.115,5.5074,-0.13,0.053694,5.53805,-0.115,0.054306,5.53775,-0.13,-0.041,5.5854,-0.115,-0.041,5.5854,-0.115,0.054306,5.53775,-0.13,0.053694,5.53805,-0.115,-0.041,5.59674,-0.13,-0.041,5.59667,-0.13,-0.041,5.60811,-0.115,-0.041,5.60811,-0.115,-0.041,5.5854,-0.115,-0.041,5.59674,-0.13,0.038358,5.5724,-0.115,0.038871,5.57217,-0.115,0.031433,5.57552,-0.13,0.030876,5.57577,-0.13,0.042662,5.57047,-0.115,0.043203,5.57022,-0.115,0.038871,5.57217,-0.13,0.038358,5.5724,-0.13,0.115,5.53791,-0.115,0.115,5.53791,-0.115,0.043203,5.57022,-0.13,0.042662,5.57047,-0.115,-0.041,5.60811,-0.13,0.030876,5.57577,-0.115,0.031433,5.57552,0.115,0.115,5.5074,0.115,0.063694,5.53305,0.13,0.064306,5.53275,0.115,-0.041,5.5854,0.13,-0.041,5.5854,0.13,0.064306,5.53275,0.115,0.063694,5.53305,0.13,-0.041,5.59793,0.115,-0.041,5.59786,0.115,-0.041,5.60811,0.13,-0.041,5.60811,0.115,-0.041,5.5854,0.115,-0.041,5.59786,0.13,-0.041,5.59793,0.115,0.046738,5.56863,0.13,0.047251,5.5684,0.13,0.040524,5.57143,0.115,0.039967,5.57168,0.115,0.051497,5.56649,0.13,0.052038,5.56625,0.13,0.047251,5.5684,0.115,0.046738,5.56863,0.115,0.115,5.53791,0.13,0.115,5.53791,0.13,0.052038,5.56625,0.115,0.051497,5.56649,0.115,-0.041,5.60811,0.115,0.039967,5.57168,0.13,0.040524,5.57143],
            "skinWeights": [],
            "influencesPerVertex": 2,
            "bones": [],
            "morphTargets": [],
            "skinIndices": [],
            "animations": [],
            "faces": [42,0,1,2,0,0,1,2,0,1,2,42,0,2,3,0,0,2,2,0,2,3,42,4,3,5,0,0,2,3,1,3,1,42,0,6,1,0,0,4,1,0,4,1,42,7,6,4,0,4,4,0,5,4,1,42,7,4,8,0,4,0,5,5,1,1,42,7,9,10,0,4,6,7,5,1,6,42,7,10,11,0,4,7,4,5,6,7,42,12,13,14,0,8,9,10,8,9,10,42,12,14,15,0,8,10,10,8,10,11,42,16,15,17,0,8,10,11,8,11,8,42,18,19,17,0,12,13,11,12,8,8,42,18,17,20,0,12,11,12,12,8,13,42,21,22,23,0,14,12,15,8,14,15,42,24,18,22,0,16,12,12,16,12,14,42,24,22,25,0,16,12,14,16,14,16,42,26,27,6,0,17,17,4,17,18,4,42,28,29,26,0,18,17,17,17,17,17,42,28,26,6,0,18,17,4,17,17,4,42,28,6,7,0,18,4,4,17,4,5,42,30,18,20,0,19,12,12,17,12,13,42,31,30,20,0,20,19,12,5,17,13,42,31,20,32,0,20,12,20,5,13,18,42,26,33,34,0,17,21,20,17,17,19,42,26,34,32,0,17,20,20,17,19,18,42,26,32,27,0,17,20,17,17,18,18,42,35,33,26,0,17,21,17,20,17,17,42,28,36,29,0,18,17,17,17,14,17,42,36,28,7,0,17,18,4,14,17,5,42,36,7,11,0,17,4,4,14,5,7,42,30,37,22,0,19,20,12,17,17,14,42,30,22,18,0,19,12,12,17,14,12,42,31,37,30,0,20,20,19,5,17,17,42,38,22,37,0,20,12,20,19,14,17,42,39,40,3,0,22,22,2,21,22,3,42,41,39,3,0,22,22,2,23,21,3,42,41,3,2,0,22,2,2,23,3,2,42,42,15,14,0,23,10,10,21,11,10,42,42,14,43,0,23,10,23,21,10,24,42,44,15,42,0,23,10,23,23,11,21,42,45,42,46,0,24,23,23,21,21,25,42,47,41,44,0,22,22,23,26,23,23,42,47,44,42,0,22,23,23,26,23,21,42,47,42,45,0,22,23,24,26,21,21,42,48,41,2,0,25,22,2,27,23,2,42,49,50,48,0,26,27,25,28,27,27,42,49,48,2,0,26,25,2,28,27,2,42,51,2,52,0,26,2,1,27,2,28,42,53,54,55,0,28,29,11,27,27,27,42,53,55,15,0,28,11,10,27,27,11,42,53,15,44,0,28,10,23,27,11,23,42,56,57,53,0,30,29,28,27,27,27,42,48,53,44,0,25,28,23,27,27,23,42,48,44,41,0,25,23,22,27,23,23,42,58,56,53,0,31,30,28,27,27,27,42,59,60,53,0,27,31,28,27,27,27,42,59,53,48,0,27,28,25,27,27,27,42,49,27,50,0,26,17,27,28,18,27,42,27,51,52,0,17,26,1,18,27,28,42,27,52,6,0,17,1,4,18,28,4,42,54,20,55,0,29,12,11,27,13,27,42,56,32,20,0,30,20,12,27,18,13,42,56,20,57,0,30,12,29,27,13,27,42,58,27,32,0,31,17,20,27,18,18,42,58,32,56,0,31,20,30,27,18,27,42,59,27,60,0,27,17,31,27,18,27,42,61,62,63,0,32,33,3,29,30,31,42,61,63,3,0,32,3,2,29,31,3,42,61,3,40,0,32,2,22,29,3,22,42,64,65,61,0,34,33,32,30,30,29,42,66,43,14,0,35,23,10,30,24,10,42,67,68,66,0,36,37,35,30,30,30,42,67,66,14,0,36,35,10,30,30,10,42,69,14,70,0,36,10,9,30,10,30,42,71,11,10,0,38,4,7,30,7,6,42,72,36,11,0,39,17,4,15,14,7,42,72,11,73,0,39,4,38,15,7,30,42,74,38,75,0,40,20,41,30,19,6,42,38,74,23,0,20,40,15,19,30,15,42,38,23,22,0,20,15,12,19,15,14,42,76,77,78,0,42,43,44,8,8,8,42,76,78,40,0,42,44,22,8,8,22,42,79,76,40,0,45,42,22,8,8,22,42,79,40,47,0,45,22,22,8,22,26,42,79,47,80,0,45,22,46,8,26,8,42,81,78,82,0,34,44,43,8,8,8,42,76,83,77,0,42,17,43,8,16,8,42,79,83,76,0,45,17,42,8,16,8,42,83,79,80,0,17,45,46,16,8,8,42,83,80,35,0,17,46,17,16,8,20,42,84,85,82,0,17,47,43,8,8,8,42,84,82,83,0,17,43,17,8,8,16,42,86,84,36,0,48,17,17,8,8,14,42,86,36,72,0,48,17,39,8,14,15,42,87,88,43,0,49,23,23,1,0,24,42,89,90,46,0,50,51,23,1,1,25,42,91,92,46,0,52,50,23,32,32,25,42,91,46,88,0,52,23,23,32,25,0,42,93,94,88,0,37,52,23,1,1,0,42,93,88,87,0,37,23,49,1,0,1,42,95,31,34,0,53,20,20,1,5,19,42,95,34,90,0,53,20,51,1,19,1,42,96,97,38,0,54,55,20,1,1,19,42,96,38,31,0,54,20,20,1,19,5,42,98,38,99,0,56,20,55,33,19,33,42,75,38,100,0,41,20,56,6,19,0,42,101,102,103,0,57,58,59,30,30,30,42,101,103,46,0,57,59,23,30,30,25,42,104,46,105,0,57,23,51,30,25,30,42,106,107,47,0,60,46,22,29,30,26,42,106,47,103,0,60,22,59,29,26,30,42,108,103,109,0,60,59,58,30,30,29,42,101,110,102,0,57,61,58,30,30,30,42,110,104,105,0,61,57,51,30,30,30,42,110,105,34,0,61,51,20,30,30,19,42,106,35,107,0,60,17,46,29,20,30,42,35,108,109,0,17,60,58,20,30,29,42,35,109,110,0,17,58,61,20,29,30,42,111,13,112,0,37,9,62,34,9,34,42,111,112,113,0,37,62,63,34,34,34,42,114,115,116,0,13,53,63,31,34,34,42,114,116,117,0,13,63,62,31,34,34,42,118,119,120,0,64,65,16,30,30,35,42,118,120,121,0,64,16,54,30,35,30,42,122,114,119,0,53,13,65,29,31,30,42,122,119,123,0,53,65,64,29,30,30,42,124,125,126,0,66,67,68,36,37,38,42,124,126,127,0,66,68,69,36,38,39,42,128,129,130,0,70,71,67,40,41,42,42,128,130,131,0,70,67,66,40,42,43,42,132,133,134,0,15,41,71,38,38,38,42,132,134,135,0,15,71,70,38,38,38,42,136,120,137,0,54,16,69,38,35,44,42,136,137,138,0,54,69,68,38,44,44,42,139,140,141,0,34,72,73,34,45,45,42,139,141,63,0,34,73,3,34,45,31,42,142,143,144,0,47,5,73,34,31,46,42,142,144,145,0,47,73,72,34,46,46,42,146,147,148,0,74,75,48,30,30,29,42,146,148,149,0,74,48,6,30,29,35,42,143,150,151,0,5,47,75,31,30,30,42,143,151,152,0,5,75,74,31,30,30,42,153,154,155,0,76,77,78,38,38,38,42,153,155,156,0,76,78,79,38,38,38,42,157,158,159,0,80,81,77,38,47,48,42,157,159,160,0,80,77,76,38,48,38,42,161,162,163,0,39,7,81,38,38,38,42,161,163,164,0,39,81,80,38,38,38,42,149,165,166,0,6,48,79,35,38,49,42,149,166,167,0,6,79,78,35,49,49],
            "uvs": [[1,0.970207,1,0.970494,1,0,1,0.96087,1,1,1,0.967398,1,0.969298,1,0.963424,0,0.961243,0,0.96087,0,0,0,0.970494,0,1,0,0.967398,0,0.963738,0,0.963424,0,0.969298,0.942308,1,0.981438,1,0.019698,1,0.057692,1,0.927826,1,0.942308,0,0.057692,0,0.072174,0,0.942308,0.057692,0.94401,0.970494,0.942308,0.970494,0.057692,0.942308,0.029506,0.970494,0.057692,0.970494,0.489879,0.970494,0.942308,0.942308,0.96087,0.96087,0.942308,0.96087,0.057692,0.057692,0.055435,0.96087,0.057692,0.96087,0.963424,0.963424,0.942308,0.963424,0.055582,0.963424,0.057692,0.963424,0.942308,0.969507,0.942308,0.969487,0.942308,0.070384,0.942308,0.96978,0.942308,0.969799,0.942308,0.967398,0.942308,0.969298,0.057692,0.929616,0.057692,0.961217,0.057692,0.969799,0.057692,0.961216,0.057692,0.967398,0.057692,0.969298,0.057692,0.963715,0.057692,0.963715,0.05948,0.969799,0.08614,0.969799,0.940465,0,0.942252,0.969799,0.059535,1,0,0.963435,0.057692,0.96341,0.057692,0.968346,0,0.96834,0,0.96631,0.057692,0.966291,0.057692,0.966571,0,0.966592,0,0.966148,0.057692,0.966128,0.942308,0.963017,1,0.962991,1,0.968446,0.942308,0.96844,0.942308,0.965994,1,0.965975,1,0.966228,0.942308,0.966249,0.942308,0.965815,1,0.965795]],
            "metadata": {
                "vertices": 168,
                "generator": "io_three",
                "uvs": 1,
                "faces": 150,
                "materials": 1,
                "version": 3,
                "normals": 50,
                "morphTargets": 0,
                "bones": 0
            },
            "normals": [0.999969,0,0,1,0,0,0.577319,-0.577319,-0.577349,0.577349,0.577319,-0.577349,0.577349,-0.577349,0.577349,0.707083,0,0.707083,0.590014,0.807367,0,0.577349,0.577349,0.577349,-1,0,0,-0.791498,0.273293,0.546617,-0.577349,0.577349,-0.577319,-0.577319,-0.577319,-0.577349,-0.707083,0,0.707083,-0.577349,-0.577349,0.577349,-0.577349,0.577349,0.577349,-0.590014,0.807367,0,-0.999969,0,0,0,0,1,0,-0.707083,0.707083,0.577319,0.577349,0.577349,-0.577288,0.577441,0.577288,0,0,-1,-0.577319,0.577349,-0.577349,0,-0.707083,-0.707083,0.577349,0.577349,-0.577349,0.577288,0.577441,-0.577288,-0.577349,0.57741,-0.577227,0,-1,0,0,-0.999969,0,0,0.999969,0,0,1,0,0,0.850642,0.525712,0.999969,-0.001099,0,0.999969,-0.000977,0,0,0.447188,0.894406,0,0.542955,-0.839747,-3.1e-05,-0.410352,-0.911924,0,-0.410382,-0.911893,0,-0.410352,-0.911893,-3.1e-05,-0.410321,-0.911924,0,-0.410352,-0.911924,-9.2e-05,-0.410321,-0.911924,-6.1e-05,-0.410321,-0.911924,3.1e-05,-0.410352,-0.911924,6.1e-05,-0.410352,-0.911893,-6.1e-05,0.447188,0.894406,3.1e-05,0.447188,0.894406,3.1e-05,-0.410413,-0.911893,3.1e-05,-0.410382,-0.911893,-6.1e-05,-0.410352,-0.911893]
        },
        "uuid": "BB1FEC49-AD40-3BFB-88E3-89403FB223D3",
        "materials": [{
            "mapDiffuseWrap": ["RepeatWrapping","RepeatWrapping"],
            "colorDiffuse": [0.666667,0.666667,0.666667],
            "depthWrite": true,
            "DbgName": "Standard",
            "shading": "phong",
            "colorSpecular": [0.012549,0.012549,0.012549],
            "DbgIndex": 0,
            "transparent": false,
            "wireframe": false,
            "opacity": 1,
            "DbgColor": 15658734,
            "colorEmissive": [0,0,0],
            "visible": true,
            "colorAmbient": [0.666667,0.666667,0.666667],
            "specularCoef": 50,
            "depthTest": true,
            "mapDiffuseRepeat": [1,1],
            "blending": "NormalBlending",
            "mapDiffuse": "raster50_1195_a.jpg",
            "mapDiffuseAnisotropy": 1
        }]
    }],
    "images": [{
        "name": "raster50_1195_a.jpg",
        "uuid": "21EAE718-0EF4-31A5-BD33-163D10D09058",
        "url": "raster50_1195_a.jpg"
    }],
    "metadata": {
        "type": "Object",
        "version": 4.4,
        "generator": "io_three"
    }
}