{
    "animations": [{
        "name": "default",
        "fps": 29,
        "tracks": []
    }],
    "object": {
        "children": [{
            "name": "schiene",
            "uuid": "F061A09D-CB2A-3AD5-9EC1-BB6A3111B988",
            "matrix": [-1,0,0,0,0,0,1,0,0,1,0,0,0,0,0,1],
            "visible": true,
            "type": "Mesh",
            "material": "938C1B89-11B9-31B1-A879-E029ECAF81F2",
            "castShadow": true,
            "receiveShadow": true,
            "geometry": "BB1FEC49-AD40-3BFB-88E3-89403FB223D3"
        }],
        "uuid": "4351929D-6371-4BA0-8DE8-2ACD6257BACD",
        "type": "Scene",
        "matrix": [1,0,0,0,0,1,0,0,0,0,1,0,0,0,0,1]
    },
    "textures": [],
    "metadata": {
        "version": 4.4,
        "generator": "io_three",
        "type": "Object"
    },
    "geometries": [{
        "materials": [{
            "wireframe": false,
            "shading": "phong",
            "depthWrite": true,
            "DbgName": "Standard",
            "visible": true,
            "blending": "NormalBlending",
            "depthTest": true,
            "colorSpecular": [0.012549,0.012549,0.012549],
            "specularCoef": 50,
            "colorAmbient": [1,1,1],
            "DbgIndex": 0,
            "colorEmissive": [0,0,0],
            "transparent": false,
            "opacity": 1,
            "colorDiffuse": [1,1,1],
            "DbgColor": 15658734
        }],
        "uuid": "BB1FEC49-AD40-3BFB-88E3-89403FB223D3",
        "type": "Geometry",
        "data": {
            "bones": [],
            "vertices": [0.13,-0.111002,9.6282,0.13,-0.115,9.6302,0.13,-0.115,-9.975,0.13,0.115,-9.975,0.13,-0.111002,9.6282,0.13,0.115,9.5152,0.13,-0.115,9.975,0.13,-0.0552,9.975,0.13,-0.0552,9.6003,0.13,-0.0552,9.62302,0.13,0.115,9.54643,0.13,0.115,9.975,-0.13,0.109729,9.51784,-0.13,0.115,9.5152,-0.13,0.115,-9.975,-0.13,-0.115,-9.975,-0.13,0.109729,9.51784,-0.13,-0.115,9.6302,-0.13,-0.0552,9.975,-0.13,-0.0552,9.6003,-0.13,-0.115,9.975,-0.13,0.110085,9.54864,-0.13,0.115,9.975,-0.13,0.115,9.54643,-0.13,-0.0552,9.62302,-0.13,0.110085,9.54864,0.117,-0.1035,9.975,0.117,-0.115,9.975,0.12662,-0.0552,9.975,0.117,-0.0552,9.975,0.12662,-0.0552,9.975,0.13,-0.0552,9.975,-0.126442,-0.0552,9.975,-0.13,-0.0552,9.975,-0.117,-0.0552,9.975,-0.126442,-0.0552,9.975,-0.117,-0.115,9.975,0.112817,-0.0998,9.975,-0.117,-0.0998,9.975,0.117,-0.0998,9.975,0.117,0.115,9.975,-0.117,0.1035,9.975,-0.117,0.115,9.975,0.117,0.1035,-9.975,0.117,0.115,-9.975,0.117,-0.115,-9.975,-0.117,-0.1035,-9.975,-0.117,0.115,-9.975,-0.117,-0.115,-9.975,-0.112817,-0.0998,-9.975,-0.117,-0.0998,-9.975,0.117,-0.0998,-9.975,0.117,-0.115,-8.9775,0.117225,-0.115,9.6302,0.117,-0.115,9.6302,0.117225,-0.115,9.6302,0.13,-0.115,9.6302,-0.117,-0.115,8.9775,-0.125506,-0.115,9.6302,-0.13,-0.115,9.6302,-0.117,-0.115,9.6302,0.036115,-0.115,9.6302,0.117,-0.115,9.6302,0.036115,-0.115,9.6302,0.117,0.115,8.9775,0.124008,0.115,9.5152,0.13,0.115,9.5152,0.117,0.115,9.5152,-0.117,0.115,-8.9775,-0.1173,0.115,9.5152,-0.117,0.115,9.5152,-0.1173,0.115,9.5152,-0.13,0.115,9.5152,0.124415,0.115,9.54643,0.13,0.115,9.54643,0.117,0.115,9.54643,0.124415,0.115,9.54643,-0.117279,0.115,9.54643,-0.117,0.115,9.54643,-0.117279,0.115,9.54643,-0.13,0.115,9.54643,0.117,-0.084632,9.61502,0.117,-0.084147,9.61477,0.117,0.115,-7.65907,0.117,-0.088506,9.61695,0.117,-0.084632,9.61502,0.117,-0.088506,9.61695,0.117,-0.0998,9.6226,0.117,0.115,9.5152,0.117,-0.084147,9.61477,0.117,-0.0883,9.975,0.117,-0.0552,9.975,0.117,-0.0552,9.6003,0.117,-0.0552,9.62302,0.117,0.115,9.54643,-0.117,0.115,7.65907,-0.117,-0.0883,-9.975,-0.117,0.110076,9.51766,-0.117,-0.0998,9.6226,-0.117,0.110338,9.51753,-0.117,0.110076,9.51766,-0.117,0.115,9.5152,-0.117,0.110338,9.51753,-0.117,-0.0552,9.6003,-0.117,-0.0552,9.975,-0.117,-0.0552,9.62302,-0.117,0.110408,9.54849,-0.117,0.110653,9.54838,-0.117,0.110408,9.54849,-0.117,0.115,9.54643,-0.117,0.110653,9.54838,-0.106552,-0.0998,9.6226,-0.102606,-0.0998,9.6226,0.106364,-0.0998,-9.975,0.116812,-0.0998,9.6226,-0.102606,-0.0998,9.6226,-0.106364,-0.0998,9.975,-0.117,0.115,9.5152,-0.13,0.039494,9.55295,-0.117,0.040024,9.55269,-0.13,-0.0552,9.6003,-0.117,-0.0552,9.6003,-0.117,0.040024,9.55269,-0.13,0.039494,9.55295,-0.117,-0.0552,9.61163,-0.13,-0.0552,9.61157,-0.13,-0.0552,9.62302,-0.117,-0.0552,9.62302,-0.117,-0.0552,9.6003,-0.117,-0.0552,9.61163,-0.13,0.024158,9.5873,-0.117,0.024602,9.5871,-0.117,0.017158,9.59045,-0.13,0.016676,9.59067,-0.13,0.028462,9.58537,-0.117,0.028931,9.58516,-0.117,0.024602,9.5871,-0.13,0.024158,9.5873,-0.13,0.115,9.54643,-0.117,0.115,9.54643,-0.117,0.028931,9.58516,-0.13,0.028462,9.58537,-0.117,-0.0552,9.62302,-0.13,-0.0552,9.62302,-0.117,0.017158,9.59045,0.117,0.049576,9.54791,0.13,0.050106,9.54765,0.117,-0.0552,9.6003,0.13,-0.0552,9.6003,0.13,0.050106,9.54765,0.117,0.049576,9.54791,0.13,-0.0552,9.61283,0.117,-0.0552,9.61277,0.117,-0.0552,9.62302,0.13,-0.0552,9.62302,0.13,-0.0552,9.61283,0.117,0.032607,9.5835,0.13,0.033051,9.5833,0.13,0.026324,9.58633,0.117,0.025841,9.58655,0.117,0.037369,9.58136,0.13,0.037838,9.58115,0.13,0.033051,9.5833,0.117,0.032607,9.5835,0.117,0.115,9.54643,0.13,0.115,9.54643,0.13,0.037838,9.58115,0.117,0.037369,9.58136,0.13,-0.0552,9.62302,0.117,-0.0552,9.62302,0.117,0.025841,9.58655],
            "skinWeights": [],
            "uvs": [[0.017383,0.982617,-0,0.982717,-0,-0,1,-0,1,0.976952,-0,1,0.26,1,0.26,0.981218,0.26,0.982357,1,0.978518,1,1,0.022916,0.977085,-0,0.976952,1,0.982717,0.74,1,0.74,0.981218,0.021372,0.978628,-0,0.978518,0.74,0.982357,0.95,0.05,0.95,-0,1,-0,0.987,0.26,0.95,0.26,1,0.26,0.013684,0.26,0,0.26,0,-0,0.05,0.26,0.05,-0,0.933913,0.066087,0.05,0.066087,0.95,0.066087,0.95,1,0.05,0.95,0.05,1,0,1,0.95,0.05,0.95,-0,0.950864,0.982717,0.95,0.982717,0.017283,0.982717,0,0.982717,0,-0,0.05,-0,0.05,0.982717,0.638902,0.982717,0.023048,0.976952,0,0.976952,0.05,0.976952,0.951152,0.976952,0.95,0.976952,0.021482,0.978518,0,0.978518,0.05,0.978518,0.951074,0.978518,0.95,0.978518,0.867963,0.981956,0.865857,0.981944,-0,0.116087,0.88481,0.982053,0.933913,-0,0.933913,0.982336,0.883913,1,0.933913,1,1,0.883913,0.116087,-0,0.978591,0.977076,0.066087,0.982336,0.066087,-0,0.979731,0.977069,0.066087,1,0.980034,0.978621,0.981098,0.978616,0.909814,0.982336,0.894638,0.982336,0.090909,-0,0.95,0.982336,0.050723,0.982336,0.05,0.982336,0.909091,1,1,0.671713,0,0.671713,0.05,0.67402,0.95,0.67402,0.95,0.981786,1,0.981783,1,0.982357,0.95,0.982357,0.95,0.981218,1,0.981218,1,0.605034,0.95,0.606967,0.95,0.574602,0,0.605034,0.05,0.574602,0,0.572505,1,0.623748,0.95,0.625786,1,0.572505,0.95,0.715546,1,0.717853,0,0.717853,0,0.981846,0.05,0.981843,0.05,0.982357,0,0.982357,0,0.981218,0.05,0.981218,0.95,0.641768,1,0.643701,1,0.61445,0.95,0.612353,0.05,0.662475,0,0.664513,0,0.643701,0.95,0.662475,0.05,0.612353]],
            "faces": [42,0,1,2,0,0,1,2,0,0,1,42,0,2,3,0,0,2,3,0,1,2,42,4,3,5,0,0,3,4,3,2,4,42,0,6,1,0,0,5,1,0,5,0,42,7,6,4,0,6,5,0,3,5,3,42,7,4,8,0,6,0,7,3,3,0,42,7,9,10,0,6,8,9,3,3,0,42,7,10,11,0,6,9,10,3,0,6,42,12,13,14,0,11,12,2,7,7,8,42,12,14,15,0,11,2,3,7,8,9,42,16,15,17,0,11,3,13,7,9,10,42,18,19,17,0,14,15,13,7,7,10,42,18,17,20,0,14,13,10,7,10,11,42,21,22,23,0,16,5,17,7,12,10,42,24,18,22,0,18,14,5,10,7,12,42,24,22,25,0,18,5,16,10,12,10,42,26,27,6,0,19,20,21,13,14,5,42,28,29,26,0,22,23,19,13,15,13,42,28,26,6,0,22,19,21,13,13,5,42,30,6,31,0,22,21,24,15,5,15,42,32,33,20,0,25,26,27,13,15,11,42,34,35,20,0,28,25,27,15,15,11,42,34,20,36,0,28,27,29,15,11,14,42,26,37,38,0,19,30,31,13,15,16,42,26,38,36,0,19,31,29,13,16,14,42,26,36,27,0,19,29,20,13,14,14,42,39,37,26,0,32,30,19,17,15,13,42,28,40,29,0,22,33,23,13,12,15,42,40,30,31,0,33,22,24,12,15,15,42,40,31,11,0,33,24,10,12,15,6,42,32,41,22,0,25,34,5,13,15,12,42,32,22,33,0,25,5,26,13,12,15,42,34,41,35,0,28,34,25,15,15,15,42,42,22,41,0,35,5,34,18,12,15,42,43,44,3,0,34,35,36,19,20,2,42,45,43,3,0,29,34,36,21,19,2,42,45,3,2,0,29,36,2,21,2,1,42,46,15,14,0,19,3,10,22,9,8,42,46,14,47,0,19,10,33,22,8,23,42,48,15,46,0,20,3,19,21,9,22,42,49,46,50,0,30,19,32,22,22,24,42,51,45,48,0,31,29,20,25,21,21,42,51,48,46,0,31,20,19,25,21,22,42,51,46,49,0,31,19,30,25,22,22,42,52,45,2,0,37,38,3,26,21,1,42,53,54,52,0,39,40,37,26,26,26,42,53,52,2,0,39,37,3,26,26,1,42,55,2,56,0,39,3,13,26,1,27,42,57,58,59,0,34,41,42,26,26,26,42,57,59,15,0,34,42,43,26,26,9,42,57,15,48,0,34,43,44,26,9,21,42,60,58,57,0,45,41,34,27,26,26,42,52,57,48,0,37,34,44,26,26,21,42,52,48,45,0,37,44,38,26,21,21,42,61,60,57,0,46,45,34,27,27,26,42,62,63,57,0,40,46,34,26,26,26,42,62,57,52,0,40,34,37,26,26,26,42,53,27,54,0,39,33,40,26,14,26,42,27,55,56,0,33,39,13,14,26,27,42,27,56,6,0,33,13,10,14,27,5,42,58,20,59,0,41,36,42,26,11,26,42,60,36,20,0,45,35,36,27,14,11,42,60,20,58,0,45,36,41,27,11,26,42,61,27,36,0,46,33,35,27,14,14,42,61,36,60,0,46,35,45,27,14,27,42,62,27,63,0,40,33,46,26,14,26,42,64,65,66,0,34,47,48,28,28,28,42,64,66,3,0,34,48,43,28,28,2,42,64,3,44,0,34,43,44,28,2,20,42,67,65,64,0,49,47,34,29,28,28,42,68,47,14,0,37,38,3,28,23,8,42,69,70,68,0,50,51,37,28,28,28,42,69,68,14,0,50,37,3,28,28,8,42,71,14,72,0,50,3,4,30,8,29,42,73,11,74,0,52,36,53,28,6,28,42,75,40,11,0,54,35,36,28,12,6,42,75,11,76,0,54,36,52,28,6,28,42,77,42,78,0,55,33,56,30,18,28,42,42,79,80,0,33,55,9,18,30,28,42,42,80,22,0,33,9,10,18,28,12,42,81,82,83,0,57,58,59,7,31,7,42,81,83,44,0,57,59,2,7,7,20,42,84,85,44,0,60,57,2,7,7,20,42,84,44,51,0,60,2,61,7,20,25,42,86,51,87,0,60,61,62,7,25,32,42,88,83,89,0,12,59,58,7,7,7,42,81,90,82,0,57,63,58,7,7,31,42,84,90,85,0,60,63,57,7,7,7,42,90,86,87,0,63,60,62,7,7,32,42,90,87,39,0,63,62,64,7,32,17,42,91,92,89,0,14,15,58,7,7,7,42,91,89,90,0,14,58,63,7,7,7,42,93,91,40,0,18,14,5,10,7,12,42,93,40,94,0,18,5,17,10,12,7,42,95,96,47,0,65,66,3,0,0,23,42,97,98,50,0,67,68,69,0,33,24,42,99,100,50,0,70,67,69,34,34,24,42,99,50,96,0,70,69,66,34,24,0,42,101,102,96,0,4,70,66,0,0,0,42,101,96,95,0,4,66,65,0,0,0,42,103,104,38,0,7,6,71,0,0,16,42,103,38,98,0,7,71,68,0,16,33,42,105,106,42,0,8,72,10,3,0,18,42,105,42,104,0,8,10,6,3,18,0,42,107,42,108,0,73,10,72,3,18,3,42,109,42,110,0,9,10,73,0,18,3,42,111,112,113,0,74,75,76,28,28,28,42,111,113,50,0,74,76,38,28,28,24,42,111,50,98,0,74,38,77,28,24,33,42,114,87,51,0,78,79,44,28,32,25,42,114,51,113,0,78,44,76,28,25,28,42,114,113,115,0,78,76,75,28,28,28,42,111,116,112,0,74,80,75,28,28,28,42,116,111,98,0,80,74,77,28,28,33,42,116,98,38,0,80,77,33,28,33,16,42,114,39,87,0,78,35,79,28,17,32,42,39,114,115,0,35,78,75,17,28,28,42,39,115,116,0,35,75,80,17,28,28,42,117,72,118,0,33,10,81,35,29,35,42,117,118,119,0,35,82,83,35,35,35,42,120,121,122,0,24,23,84,29,35,36,42,120,122,123,0,26,83,82,29,36,36,42,124,125,126,0,85,86,87,28,30,28,42,124,126,127,0,85,87,88,28,28,28,42,128,120,125,0,89,90,86,30,29,30,42,128,125,129,0,89,86,85,30,30,28,42,130,131,132,0,91,92,93,37,38,39,42,130,132,133,0,94,95,96,37,39,37,42,134,135,136,0,97,98,92,37,40,41,42,134,136,137,0,97,92,91,37,41,42,42,138,139,140,0,10,33,98,39,42,39,42,138,140,141,0,10,98,97,39,39,39,42,142,143,133,0,23,24,99,42,42,37,42,142,133,144,0,28,96,95,42,37,43,42,67,145,146,0,33,100,101,29,35,35,42,67,146,5,0,35,102,36,29,35,4,42,147,148,149,0,28,26,102,29,29,44,42,147,149,150,0,23,101,100,29,44,44,42,151,152,153,0,103,104,105,28,28,28,42,151,153,154,0,103,105,106,28,28,28,42,148,147,152,0,107,108,104,29,29,28,42,148,152,155,0,107,104,103,29,28,30,42,156,157,158,0,109,110,111,45,46,47,42,156,158,159,0,109,111,112,45,47,48,42,160,161,162,0,113,114,115,40,49,41,42,160,162,163,0,116,110,109,40,41,50,42,164,165,166,0,35,36,114,39,39,51,42,164,166,167,0,35,114,113,39,51,52,42,168,169,170,0,26,28,117,42,42,53,42,168,170,158,0,24,112,111,42,53,47],
            "metadata": {
                "version": 3,
                "generator": "io_three",
                "vertices": 171,
                "normals": 54,
                "uvs": 1,
                "faces": 150,
                "bones": 0,
                "materials": 1,
                "morphTargets": 0
            },
            "name": "schieneGeometry",
            "normals": [1,0,0,0.577288,-0.577349,-0.57738,0.577349,0.577349,-0.577319,0.999969,0,0,0.791498,0.273293,0.546617,0.577319,-0.577349,0.577349,0.577349,0.577319,0.577349,-1,0,0,-0.577288,0.577349,-0.57738,-0.577319,-0.577349,-0.577319,-0.999969,0,0,-0.577349,-0.577319,0.577349,-0.577349,0.577349,0.577349,0,0,0.999969,0,-0.707083,0.707083,0,0,1,0.577349,0.577349,0.577349,-0.577319,0.577349,0.577319,0.577288,0.577349,0.57738,3.1e-05,0,-1,-0.577288,0.577349,-0.577349,0,-0.707083,-0.707083,0,0,-1,0.577349,0.577349,-0.577349,0.577349,0.577288,-0.577349,-0.577349,0.577319,-0.577349,0,-1,0,0,-0.999969,0,0,1,0,0,0.850642,0.525712,0,0.999969,0,-1,-3.1e-05,0,-0.707083,0.707083,0,0.707083,0.707083,0,1,-9.2e-05,0,0,0.447188,0.894406,0.000153,0.447188,0.894406,0,-0.410382,-0.911893,0,-0.410291,-0.911924,0,-0.410352,-0.911924,0,-0.410443,-0.911863,0,-0.410413,-0.911863,0,-0.410352,-0.911893,-3.1e-05,-0.410352,-0.911893,-0.000122,0.447188,0.894406,-6.1e-05,-0.410321,-0.911924,-0.000153,-0.410291,-0.911924,-9.2e-05,-0.410321,-0.911924,-3.1e-05,-0.410321,-0.911924,0,-0.410413,-0.911893,0,-0.410474,-0.911863,9.2e-05,-0.410352,-0.911924,0.000122,-0.410352,-0.911924,-9.2e-05,-0.410352,-0.911893],
            "morphTargets": [],
            "animations": [],
            "skinIndices": [],
            "influencesPerVertex": 2
        }
    }],
    "images": [],
    "materials": [{
        "specular": 197379,
        "depthTest": true,
        "name": "Standard",
        "uuid": "938C1B89-11B9-31B1-A879-E029ECAF81F2",
        "type": "MeshPhongMaterial",
        "depthWrite": true,
        "vertexColors": false,
        "blending": "NormalBlending",
        "ambient": 16777215,
        "emissive": 0,
        "color": 16777215,
        "shininess": 50
    }]
}