{
    "geometries": [{
        "uuid": "06F86342-7528-3807-B194-35D5635B475B",
        "data": {
            "skinIndices": [],
            "normals": [1,0,0,0.577319,-0.577349,0.577349,0.577349,-0.577349,-0.577349,0.577349,0.577349,-0.577319,0.577349,0.577349,0.577349,0.999969,0,0,0.577349,-0.577349,0.577319,0.707083,0.707083,0,0.707083,0,-0.707083,-1,0,0,-0.577349,0.577349,0.577349,-0.707083,0.707083,0,-0.577349,-0.577349,-0.577349,-0.577349,-0.577349,0.577349,-0.577349,0.577349,-0.577349,0,0,1,0,-0.707083,0.707083,0,0.707083,0.707083,0,0,-1,0,-0.707083,-0.707083,0,0.707083,-0.707083,0,0,-0.999969,0,-1,0,0.577349,-0.577349,-0.577319,0.577349,-0.577349,0.577349,0,1,0,0.577349,0.577349,-0.577349,0,0.999969,0,0,0,0.999969],
            "influencesPerVertex": 2,
            "skinWeights": [],
            "metadata": {
                "version": 3,
                "materials": 1,
                "uvs": 1,
                "faces": 105,
                "generator": "io_three",
                "morphTargets": 0,
                "normals": 29,
                "bones": 0,
                "vertices": 84
            },
            "name": "halter1Geometry",
            "morphTargets": [],
            "bones": [],
            "uvs": [[0.017333,0.982667,0,1,0,0.982667,0.027197,0.982667,1,0.982667,1,1,0.637333,0.362667,0.617333,0.382667,0,0.382667,0,0.362667,0.876154,0.377084,0.876154,0.382667,0.876154,0.362667,0.876154,0.123846,0.862308,0.137692,0.862308,-0,0.876154,-0,0.876154,0.326197,0.862308,0.362667,1,0.362667,0.137692,0.362667,0,-0,0.137692,-0,0.08,0.92,0,0,0.08,0,0.08,1,1,0,0.92,0.987226,0.92,0.862308,1,0.862308,0.92,1,0.92,0.876154,0.224405,0.876154,0.137692,0.862308,0.21636,0.876154,0.123846,0.876154,0,0.876154,0,0.862308,0.08,0.362667,0.08,0.92,0,1,0,0.362667,0.08,0.949013,0.08,0.982667,0.08,0.382667,0.968619,0.382667,1,0.382667,0.92,0.413653,0.92,0.362667,0.92,0.08,0.92,-0,1,-0,0.017333,0.982667,0,0.982667,0.027197,0.982667,0.92,0.982667,0.92,0.002318,1,0.695641,0.92,0.642308,0.92,0,0.92,0.795641,0,0.028974,0.08,0.026987,0.08,0.050667,0,0.029333,0.08,-0,0,-0,0.08,0.056,1,0.296,0.846111,0.362667,0.271889,-0,1,0.955394,0,0.409939,0.876818,1,0.013182,0,0.085348,0.876154,0.123182,0,0.87986,0.876154,0.08,0.876154,0.988451,0.876154,1,0.876154,0.877778,0.382667,0.92,0.382667,0,0.382667]],
            "faces": [42,0,1,2,0,0,1,2,0,1,2,42,3,1,0,0,3,1,0,0,1,0,42,1,3,4,0,1,3,4,1,0,3,42,1,4,5,0,1,4,5,1,3,4,42,6,7,8,0,6,7,8,0,5,6,42,6,8,9,0,6,8,9,0,6,2,42,10,11,7,0,10,11,7,0,4,5,42,10,7,6,0,10,7,6,0,5,0,42,12,6,13,0,10,6,12,5,0,7,42,14,15,16,0,13,14,15,0,0,2,42,14,16,17,0,13,15,16,0,2,8,42,18,19,15,0,17,18,14,0,2,0,42,18,15,14,0,17,14,13,0,0,0,42,13,19,18,0,12,18,17,7,2,0,42,20,21,22,0,6,1,9,9,10,11,42,21,20,23,0,1,6,19,10,9,12,42,21,23,24,0,1,19,5,10,12,13,42,25,22,26,0,20,9,21,12,11,14,42,25,26,27,0,20,21,22,12,14,12,42,28,21,24,0,23,1,24,15,10,13,42,28,24,29,0,23,24,25,15,13,16,42,30,21,28,0,26,1,23,17,10,15,42,28,29,1,0,23,25,27,15,16,1,42,30,28,1,0,26,23,27,17,15,1,42,30,1,5,0,26,27,5,17,1,4,42,31,32,27,0,28,29,30,18,19,12,42,31,27,26,0,28,30,5,18,12,14,42,31,26,33,0,28,5,31,18,14,20,42,34,35,36,0,32,33,34,21,18,18,42,34,36,32,0,32,34,29,21,18,19,42,37,36,35,0,35,34,33,18,18,18,42,38,36,37,0,36,34,35,18,18,18,42,36,38,17,0,34,36,37,18,18,8,42,36,17,16,0,34,37,38,18,8,2,42,39,40,24,0,39,40,41,19,22,13,42,39,24,23,0,39,41,42,19,13,12,42,41,24,40,0,43,41,40,22,13,22,42,29,24,41,0,26,41,43,16,13,22,42,29,42,2,0,26,44,4,16,23,2,42,29,2,1,0,26,4,5,16,2,1,42,43,39,44,0,45,39,6,24,19,22,42,43,44,45,0,45,6,7,24,22,22,42,46,45,44,0,46,7,6,22,22,22,42,46,44,9,0,46,6,19,22,22,2,42,46,9,8,0,46,19,47,22,2,6,42,47,48,22,0,48,49,19,25,25,11,42,30,47,22,0,31,48,19,17,25,11,42,30,22,21,0,31,19,5,17,11,10,42,49,33,26,0,50,51,52,25,20,14,42,48,49,26,0,49,50,52,25,25,14,42,48,26,22,0,49,52,19,25,14,11,42,50,5,4,0,53,41,54,25,4,3,42,51,5,50,0,55,41,53,25,4,25,42,52,30,5,0,56,31,41,26,17,4,42,52,5,51,0,56,41,55,26,4,25,42,53,23,54,0,57,27,58,21,12,18,42,53,54,55,0,57,58,59,21,18,21,42,39,23,53,0,60,27,57,19,12,21,42,56,25,57,0,61,30,29,18,12,19,42,25,56,55,0,30,61,59,12,18,21,42,25,55,54,0,30,59,58,12,21,18,42,53,55,58,0,57,59,62,21,21,18,42,39,53,58,0,60,57,62,19,21,18,42,39,58,9,0,60,62,24,19,18,2,42,56,57,19,0,61,29,38,18,19,2,42,56,19,58,0,61,38,62,18,2,18,42,56,58,55,0,61,62,59,18,18,21,42,59,60,61,0,63,64,65,22,22,22,42,32,59,61,0,66,63,65,19,22,22,42,32,61,27,0,66,65,67,19,22,12,42,62,57,25,0,68,39,42,22,19,12,42,62,25,61,0,68,42,65,22,12,22,42,62,61,60,0,68,65,64,22,22,22,42,59,16,63,0,63,52,69,22,2,22,42,59,63,60,0,63,69,64,22,22,22,42,32,16,59,0,66,52,63,19,2,22,42,62,19,57,0,68,19,39,22,2,19,42,19,62,60,0,19,68,64,2,22,22,42,19,60,63,0,19,64,69,2,22,22,42,64,65,66,0,19,12,16,0,7,7,42,64,66,67,0,19,16,52,0,7,0,42,68,69,66,0,70,71,51,27,25,7,42,68,66,65,0,70,51,49,27,7,7,42,13,70,69,0,42,67,71,7,25,25,42,13,69,68,0,42,71,70,7,25,27,42,71,72,43,0,72,73,8,0,0,24,42,71,43,73,0,72,8,47,0,24,0,42,52,42,72,0,4,2,73,26,23,0,42,52,72,71,0,4,73,72,26,0,0,42,64,74,75,0,19,47,11,0,0,7,42,64,75,65,0,19,11,12,0,7,7,42,76,77,42,0,74,75,60,18,18,23,42,76,42,52,0,74,60,31,18,23,26,42,4,2,77,0,41,24,75,3,2,18,42,4,77,76,0,41,75,74,3,18,18,42,78,79,80,0,76,77,78,15,15,28,42,79,78,81,0,77,76,79,15,15,15,42,79,81,43,0,77,79,25,15,15,24,42,82,8,11,0,80,27,81,15,6,4,42,8,82,80,0,27,80,78,6,15,28,42,8,80,79,0,27,78,77,6,28,15,42,83,68,65,0,82,70,49,25,27,7,42,83,65,75,0,82,49,83,25,7,7,42,11,13,68,0,84,42,70,4,7,27,42,11,68,83,0,84,70,82,4,27,25],
            "animations": [],
            "vertices": [0.01,-0.062747,0.0362,0.01,-0.065,0.0375,0.01,-0.065,0.0362,0.01,-0.061464,0.0362,0.01,0.065,0.0362,0.01,0.065,0.0375,0.01,0.017853,-0.0103,0.01,0.015253,-0.0088,0.01,-0.065,-0.0088,0.01,-0.065,-0.0103,0.01,0.0489,-0.009219,0.01,0.0489,-0.0088,0.01,0.0489,-0.009219,0.01,0.0489,-0.0103,0.01,0.0489,-0.028212,0.01,0.0471,-0.027173,0.01,0.0471,-0.0375,0.01,0.0489,-0.0375,0.01,0.0489,-0.013035,0.01,0.0471,-0.0103,-0.01,-0.017853,-0.0103,-0.01,0.065,0.0375,-0.01,0.065,-0.0103,-0.01,-0.065,-0.0103,-0.01,-0.065,0.0375,-0.01,0.0471,-0.0103,-0.01,0.065,-0.0375,-0.01,0.0471,-0.0375,-0.0084,0.0546,0.0375,-0.0084,-0.065,0.0375,-0.0084,0.065,0.0375,-0.0084,0.063339,-0.0375,-0.0084,0.0471,-0.0375,-0.0084,0.065,-0.0375,-0.0084,0.0489,-0.0375,0.005512,0.0489,-0.0375,0.007246,0.0471,-0.0375,0.005673,0.0489,-0.0375,0.007523,0.0489,-0.0375,-0.0084,-0.065,-0.0103,-0.0084,-0.065,0.0315,-0.0084,-0.065,0.033676,-0.0084,-0.065,0.0362,-0.0084,-0.065,-0.0088,0.002747,-0.065,-0.0103,0.002347,-0.065,-0.0088,0.009372,-0.065,-0.0088,-0.0084,0.065,-0.006476,-0.0084,0.065,-0.0103,-0.0084,0.065,-0.0315,0.009653,0.065,0.0362,0.009456,0.065,0.0362,-0.0084,0.065,0.0362,-0.0084,-0.064699,-0.0103,-0.01,0.025433,-0.0103,-0.0084,0.0185,-0.0103,-0.0084,0.038433,-0.0103,-0.0084,0.0471,-0.0103,0.01,-0.061233,-0.0103,-0.0084,0.0471,-0.035476,-0.0084,0.0471,-0.0337,-0.01,0.0471,-0.0353,-0.0084,0.0471,-0.0333,0.01,0.0471,-0.0153,-0.0084,0.065,-0.0103,-0.0084,0.0489,-0.0103,-0.0084,0.0489,-0.0375,-0.0084,0.065,-0.0375,-0.006922,0.0489,-0.0103,0.004562,0.0489,-0.0375,0.01,0.0489,-0.0375,-0.0084,0.065,0.034155,-0.0084,-0.065,-0.006755,-0.0084,0.065,-0.0088,-0.0084,0.065,-0.0088,-0.0084,0.0489,-0.0088,-0.007536,0.065,0.0362,0.009736,-0.065,0.0362,-0.008293,0.0489,-0.0088,-0.007536,-0.065,-0.0088,0.007597,0.0489,-0.0088,-0.0084,0.0489,-0.0088,0.009769,0.0489,-0.0088,-0.007556,0.0489,-0.0088]
        },
        "materials": [{
            "wireframe": false,
            "shading": "phong",
            "visible": true,
            "blending": "NormalBlending",
            "DbgName": "Physical",
            "colorEmissive": [0,0,0],
            "depthTest": true,
            "colorDiffuse": [0.690196,0.690196,0.690196],
            "depthWrite": true,
            "DbgIndex": 0,
            "transparent": false,
            "colorAmbient": [0.690196,0.690196,0.690196],
            "colorSpecular": [0.001176,0.001176,0.001176],
            "DbgColor": 15658734,
            "opacity": 1,
            "specularCoef": 50
        }],
        "type": "Geometry"
    },{
        "uuid": "D7E13E5F-692D-38E5-AA71-493556ECD579",
        "data": {
            "skinIndices": [],
            "normals": [-0.577349,-0.577349,-0.577349,-0.577319,-0.577349,0.577349,-1,0,0,-0.577349,0.577349,-0.577319,-0.577349,0.577349,0.577349,-0.577349,-0.577349,0.577319,-0.707083,0.707083,0,-0.999969,0,0,-0.707083,0,-0.707083,0.707083,0.707083,0,0.577349,0.577349,0.577349,1,0,0,0.577349,-0.577349,-0.577349,0.577349,-0.577349,0.577349,0.577349,0.577349,-0.577349,0,0,1,0,-0.707083,0.707083,0,0.707083,0.707083,0,-0.707083,-0.707083,0,0,-1,0,0.707083,-0.707083,0,0,-0.999969,0,-1,0,-0.577349,-0.577349,-0.577319,-0.577349,-0.577349,0.577349,0,1,0,-0.577349,0.577349,-0.577349,0,0.999969,0,0,0,0.999969],
            "influencesPerVertex": 2,
            "skinWeights": [],
            "metadata": {
                "version": 3,
                "materials": 1,
                "uvs": 1,
                "faces": 105,
                "generator": "io_three",
                "morphTargets": 0,
                "normals": 29,
                "bones": 0,
                "vertices": 84
            },
            "name": "halterGeometry",
            "morphTargets": [],
            "bones": [],
            "uvs": [[1,0.982667,1,1,0.982667,0.982667,0.972803,0.982667,0,0.982667,0,1,1,0.382667,0.382667,0.382667,0.362667,0.362667,1,0.362667,0.123846,0.382667,0.123846,0.377084,0.123846,0.362667,0.137692,-0,0.137692,0.137692,0.123846,0.123846,0.123846,-0,0.137692,0.362667,0.123846,0.326197,0,0.362667,1,-0,0.862308,0.362667,0.862308,-0,1,0,0.92,0.92,0.92,0,0.92,1,0,0,0,0.862308,0.08,0.862308,0.08,0.987226,0,1,0.08,1,0.862308,0.862308,0.775595,0.876154,0.08,0.876154,0.78364,0.876154,0.876154,0.876154,1,0.876154,1,0.862308,0.92,0.92,0.92,0.362667,0.92,0.949013,0,0.982667,0.92,0.982667,0.92,0.382667,0.031381,0.382667,0,0.362667,0,0.382667,0.08,0.362667,0.08,0.413653,0,-0,0.08,-0,0.08,0.08,0.08,0.982667,0,0.695641,0.08,0.002318,0.08,0.642308,0.08,0,0.08,0.795641,1,0.028974,1,0.029333,0.92,0.050667,0.92,0.026987,0.92,-0,0.92,0.056,0,0.296,0,-0,0.728111,-0,0.153889,0.362667,1,0.409939,0,0.955394,0,0.382667,0.986818,0,0.123182,1,0.12014,0.876154,0.876818,0,0.914652,0.876154,0.92,0.876154,0,0.876154,0.011549,0.876154,0.122222,0.382667,0.08,0.382667]],
            "faces": [42,2,1,0,0,0,1,2,0,1,2,42,0,1,3,0,2,1,3,2,1,2,42,4,3,1,0,4,3,1,3,2,1,42,5,4,1,0,5,4,1,4,3,1,42,8,7,6,0,6,7,8,5,2,2,42,9,8,6,0,9,6,8,0,5,2,42,7,11,10,0,7,10,11,2,4,2,42,6,7,10,0,8,7,11,2,2,2,42,13,6,12,0,12,8,11,6,2,7,42,16,15,14,0,13,14,15,0,2,2,42,17,16,14,0,16,13,15,8,0,2,42,15,19,18,0,14,17,18,2,0,2,42,14,15,18,0,15,14,18,2,2,2,42,18,19,13,0,18,17,12,2,0,6,42,22,21,20,0,9,1,8,9,10,11,42,23,20,21,0,19,8,1,12,11,10,42,24,23,21,0,5,19,1,13,12,10,42,26,22,25,0,20,9,21,14,9,12,42,27,26,25,0,22,20,21,12,14,12,42,24,21,28,0,23,1,24,13,10,15,42,29,24,28,0,25,23,24,16,13,15,42,28,21,30,0,24,1,26,15,10,17,42,1,29,28,0,27,25,24,1,16,15,42,1,28,30,0,27,24,26,1,15,17,42,5,1,30,0,5,27,26,4,1,17,42,27,32,31,0,28,29,30,12,18,19,42,26,27,31,0,31,28,30,14,12,19,42,33,26,31,0,32,31,30,20,14,19,42,36,35,34,0,33,34,35,19,19,21,42,32,36,34,0,29,33,35,18,19,21,42,35,36,37,0,34,33,36,19,19,19,42,37,36,38,0,36,33,37,19,19,19,42,17,38,36,0,38,37,33,8,19,19,42,16,17,36,0,39,38,33,0,8,19,42,24,40,39,0,1,40,41,13,22,18,42,23,24,39,0,9,1,41,12,13,18,42,40,24,41,0,40,1,42,22,13,22,42,41,24,29,0,42,1,26,22,13,16,42,2,42,29,0,43,44,26,0,23,16,42,1,2,29,0,31,43,26,1,0,16,42,44,39,43,0,8,41,45,22,18,24,42,45,44,43,0,7,8,45,22,22,24,42,44,45,46,0,8,7,46,22,22,22,42,9,44,46,0,47,8,46,0,22,22,42,8,9,46,0,48,47,46,5,0,22,42,22,48,47,0,47,49,50,9,25,25,42,22,47,30,0,47,50,32,9,25,17,42,21,22,30,0,31,47,32,10,9,17,42,26,33,49,0,51,52,53,14,20,25,42,26,49,48,0,51,53,49,14,25,25,42,22,26,48,0,47,51,49,9,14,25,42,4,5,50,0,0,1,2,3,4,25,42,50,5,51,0,2,1,3,25,4,25,42,5,30,52,0,1,32,54,4,17,26,42,51,5,52,0,3,1,54,25,4,26,42,54,23,53,0,55,27,56,19,12,21,42,55,54,53,0,57,55,56,21,19,21,42,53,23,39,0,56,27,58,21,12,18,42,57,25,56,0,29,28,59,18,12,19,42,55,56,25,0,57,59,28,21,19,12,42,54,55,25,0,55,57,28,19,21,12,42,58,55,53,0,60,57,56,19,21,21,42,58,53,39,0,60,56,58,19,21,18,42,9,58,39,0,23,60,58,0,19,18,42,19,57,56,0,39,29,59,0,18,19,42,58,19,56,0,60,39,59,19,0,19,42,55,58,56,0,57,60,59,21,19,19,42,61,60,59,0,61,62,63,22,22,22,42,61,59,32,0,61,63,64,22,22,18,42,27,61,32,0,20,61,64,12,22,18,42,25,57,62,0,9,41,65,12,18,22,42,61,25,62,0,61,9,65,22,12,22,42,60,61,62,0,62,61,65,22,22,22,42,63,16,59,0,66,51,63,22,0,22,42,60,63,59,0,62,66,63,22,22,22,42,59,16,32,0,63,51,64,22,0,18,42,57,19,62,0,41,47,65,18,0,22,42,60,62,19,0,62,65,47,22,22,0,42,63,60,19,0,66,62,47,22,22,0,42,66,65,64,0,16,12,19,6,6,2,42,67,66,64,0,67,16,19,2,6,2,42,66,69,68,0,52,68,69,6,25,27,42,65,66,68,0,49,52,69,6,6,27,42,69,70,13,0,68,20,9,25,25,6,42,68,69,13,0,69,68,9,27,25,6,42,43,72,71,0,6,70,71,24,2,2,42,73,43,71,0,72,6,71,2,24,2,42,72,42,52,0,70,0,4,2,23,26,42,71,72,52,0,71,70,4,2,2,26,42,75,74,64,0,10,72,19,6,2,2,42,65,75,64,0,12,10,19,6,6,2,42,42,77,76,0,58,73,74,23,19,19,42,52,42,76,0,32,58,74,26,23,19,42,77,2,4,0,73,23,1,19,0,3,42,76,77,4,0,74,73,1,19,19,3,42,80,79,78,0,75,76,77,28,15,15,42,81,78,79,0,78,77,76,15,15,15,42,43,81,79,0,25,78,76,24,15,15,42,11,8,82,0,79,27,80,4,5,15,42,80,82,8,0,75,80,27,28,15,5,42,79,80,8,0,76,75,27,15,28,5,42,65,68,83,0,49,69,81,6,27,25,42,75,65,83,0,82,49,81,6,6,25,42,68,13,11,0,69,9,6,27,6,4,42,83,68,11,0,81,69,6,25,27,4],
            "animations": [],
            "vertices": [-0.01,-0.062747,0.0362,-0.01,-0.065,0.0375,-0.01,-0.065,0.0362,-0.01,-0.061464,0.0362,-0.01,0.065,0.0362,-0.01,0.065,0.0375,-0.01,0.017853,-0.0103,-0.01,0.015253,-0.0088,-0.01,-0.065,-0.0088,-0.01,-0.065,-0.0103,-0.01,0.0489,-0.009219,-0.01,0.0489,-0.0088,-0.01,0.0489,-0.009219,-0.01,0.0489,-0.0103,-0.01,0.0489,-0.028212,-0.01,0.0471,-0.027173,-0.01,0.0471,-0.0375,-0.01,0.0489,-0.0375,-0.01,0.0489,-0.013035,-0.01,0.0471,-0.0103,0.01,-0.017853,-0.0103,0.01,0.065,0.0375,0.01,0.065,-0.0103,0.01,-0.065,-0.0103,0.01,-0.065,0.0375,0.01,0.0471,-0.0103,0.01,0.065,-0.0375,0.01,0.0471,-0.0375,0.0084,0.0546,0.0375,0.0084,-0.065,0.0375,0.0084,0.065,0.0375,0.0084,0.063339,-0.0375,0.0084,0.0471,-0.0375,0.0084,0.065,-0.0375,0.0084,0.0489,-0.0375,-0.005512,0.0489,-0.0375,-0.007246,0.0471,-0.0375,-0.005673,0.0489,-0.0375,-0.007523,0.0489,-0.0375,0.0084,-0.065,-0.0103,0.0084,-0.065,0.0315,0.0084,-0.065,0.033676,0.0084,-0.065,0.0362,0.0084,-0.065,-0.0088,-0.002747,-0.065,-0.0103,-0.002347,-0.065,-0.0088,-0.009372,-0.065,-0.0088,0.0084,0.065,-0.006476,0.0084,0.065,-0.0103,0.0084,0.065,-0.0315,-0.009653,0.065,0.0362,-0.009456,0.065,0.0362,0.0084,0.065,0.0362,0.0084,-0.064699,-0.0103,0.01,0.025433,-0.0103,0.0084,0.0185,-0.0103,0.0084,0.038433,-0.0103,0.0084,0.0471,-0.0103,-0.01,-0.061233,-0.0103,0.0084,0.0471,-0.035476,0.0084,0.0471,-0.0337,0.01,0.0471,-0.0353,0.0084,0.0471,-0.0333,-0.01,0.0471,-0.0153,0.0084,0.065,-0.0103,0.0084,0.0489,-0.0103,0.0084,0.0489,-0.0375,0.0084,0.065,-0.0375,0.006922,0.0489,-0.0103,-0.004562,0.0489,-0.0375,-0.01,0.0489,-0.0375,0.0084,0.065,0.034155,0.0084,-0.065,-0.006755,0.0084,0.065,-0.0088,0.0084,0.065,-0.0088,0.0084,0.0489,-0.0088,0.007536,0.065,0.0362,-0.009736,-0.065,0.0362,0.008293,0.0489,-0.0088,0.007536,-0.065,-0.0088,-0.007597,0.0489,-0.0088,0.0084,0.0489,-0.0088,-0.009769,0.0489,-0.0088,0.007556,0.0489,-0.0088]
        },
        "materials": [{
            "wireframe": false,
            "shading": "phong",
            "visible": true,
            "blending": "NormalBlending",
            "DbgName": "Physical",
            "colorEmissive": [0,0,0],
            "depthTest": true,
            "colorDiffuse": [0.690196,0.690196,0.690196],
            "depthWrite": true,
            "DbgIndex": 0,
            "transparent": false,
            "colorAmbient": [0.690196,0.690196,0.690196],
            "colorSpecular": [0.001176,0.001176,0.001176],
            "DbgColor": 15658734,
            "opacity": 1,
            "specularCoef": 50
        }],
        "type": "Geometry"
    },{
        "uuid": "6FA48242-4A37-3164-8001-8D25BC2E064F",
        "data": {
            "skinIndices": [],
            "normals": [0.577349,-0.577349,0.577349,0.577349,-0.577349,-0.577349,0.577349,0.577349,-0.577349,0.577349,0.577349,0.577349,-0.577349,0.577349,0.577349,-0.577349,0.577349,-0.577349,-0.577349,-0.577349,-0.577349,-0.577349,-0.577349,0.577349],
            "influencesPerVertex": 2,
            "skinWeights": [],
            "metadata": {
                "version": 3,
                "materials": 1,
                "uvs": 1,
                "faces": 12,
                "generator": "io_three",
                "morphTargets": 0,
                "normals": 8,
                "bones": 0,
                "vertices": 8
            },
            "name": "regalGeometry",
            "morphTargets": [],
            "bones": [],
            "uvs": [[0,1,0,0,1,0,1,1]],
            "faces": [42,0,2,3,0,0,1,2,0,1,2,42,0,3,1,0,0,2,3,0,2,3,42,4,6,7,0,0,1,2,4,5,6,42,4,7,5,0,0,2,3,4,6,7,42,4,5,0,0,0,1,2,4,7,0,42,4,0,1,0,0,2,3,4,0,3,42,7,6,3,0,2,3,0,6,5,2,42,7,3,2,0,2,0,1,6,2,1,42,5,7,2,0,0,1,2,7,6,1,42,5,2,0,0,0,2,3,7,1,0,42,1,3,6,0,0,1,2,3,2,5,42,1,6,4,0,0,2,3,3,5,4],
            "animations": [],
            "vertices": [2.25,-2.5,0.125,2.25,2.5,0.125,2.25,-2.5,-0.125,2.25,2.5,-0.125,-2.25,2.5,0.125,-2.25,-2.5,0.125,-2.25,2.5,-0.125,-2.25,-2.5,-0.125]
        },
        "materials": [{
            "wireframe": false,
            "mapDiffuseWrap": ["RepeatWrapping","RepeatWrapping"],
            "shading": "phong",
            "visible": true,
            "blending": "NormalBlending",
            "mapDiffuseRepeat": [1,1],
            "DbgName": "Standard",
            "colorEmissive": [0,0,0],
            "depthTest": true,
            "mapDiffuseAnisotropy": 1,
            "colorDiffuse": [1,1,1],
            "depthWrite": true,
            "DbgIndex": 0,
            "transparent": false,
            "colorAmbient": [1,1,1],
            "colorSpecular": [0.012549,0.012549,0.012549],
            "DbgColor": 15658734,
            "opacity": 1,
            "mapDiffuse": "eichekachel.jpg",
            "specularCoef": 50
        }],
        "type": "Geometry"
    }],
    "materials": [{
        "uuid": "BAA12A36-7C84-3F45-BBC9-C98F423700AF",
        "emissive": 0,
        "ambient": 11579568,
        "blending": "NormalBlending",
        "vertexColors": false,
        "specular": 0,
        "depthTest": true,
        "depthWrite": true,
        "color": 11579568,
        "type": "MeshPhongMaterial",
        "shininess": 50,
        "name": "Physical"
    },{
        "uuid": "93831B89-11B9-31B1-A879-E029ECAF81F2",
        "emissive": 0,
        "ambient": 16777215,
        "blending": "NormalBlending",
        "vertexColors": false,
        "specular": 197379,
        "depthTest": true,
        "depthWrite": true,
        "color": 16777215,
        "type": "MeshPhongMaterial",
        "shininess": 50,
        "name": "Standard",
        "map": "294CA821-5296-38EE-8B34-96C75BA90131"
    }],
    "object": {
        "uuid": "1A940BF2-2D1E-432A-BADE-904612CDD72E",
        "children": [{
            "name": "halter",
            "uuid": "194CBDF5-7923-3595-8ED9-4159C6EA139D",
            "matrix": [-5.6,0,0,0,0,0,5.6,0,0,5.6,0,0,-2.203,-0.2016,2.1362,1],
            "visible": true,
            "type": "Mesh",
            "material": "BAA12A36-7C84-3F45-BBC9-C98F423700AF",
            "castShadow": true,
            "receiveShadow": true,
            "geometry": "D7E13E5F-692D-38E5-AA71-493556ECD579"
        },{
            "name": "halter1",
            "uuid": "660A53DC-2785-3A65-80B4-861D0FECA711",
            "matrix": [-5.6,0,0,0,0,0,5.6,0,0,5.6,0,0,2.203,-0.2016,2.1362,1],
            "visible": true,
            "type": "Mesh",
            "material": "BAA12A36-7C84-3F45-BBC9-C98F423700AF",
            "castShadow": true,
            "receiveShadow": true,
            "geometry": "06F86342-7528-3807-B194-35D5635B475B"
        },{
            "name": "regal",
            "uuid": "0E012B89-A200-323D-84E4-447E76313465",
            "matrix": [-1,0,0,0,0,0,1,0,0,1,0,0,0,-0.1249,0,1],
            "visible": true,
            "type": "Mesh",
            "material": "93831B89-11B9-31B1-A879-E029ECAF81F2",
            "castShadow": true,
            "receiveShadow": true,
            "geometry": "6FA48242-4A37-3164-8001-8D25BC2E064F"
        }],
        "type": "Scene",
        "matrix": [1,0,0,0,0,1,0,0,0,0,1,0,0,0,0,1]
    },
    "textures": [{
        "uuid": "294CA821-5296-38EE-8B34-96C75BA90131",
        "minFilter": 1008,
        "magFilter": 1006,
        "wrap": [1000,1000],
        "mapping": 300,
        "image": "1204D9F8-3791-34D0-AE97-BA70E75B703C",
        "anisotropy": 1,
        "repeat": [1,1],
        "name": "eichekachel_jpg"
    }],
    "images": [{
        "url": "eichekachel.jpg",
        "uuid": "1204D9F8-3791-34D0-AE97-BA70E75B703C",
        "name": "eichekachel.jpg"
    }],
    "metadata": {
        "version": 4.4,
        "type": "Object",
        "generator": "io_three"
    },
    "animations": [{
        "fps": 29,
        "tracks": [],
        "name": "default"
    }]
}