{
    "textures": [],
    "images": [],
    "materials": [{
        "vertexColors": false,
        "specular": 328965,
        "uuid": "EBEEF0BF-3581-3563-AE10-379FF032D230",
        "depthWrite": true,
        "blending": "NormalBlending",
        "emissive": 0,
        "type": "MeshPhongMaterial",
        "depthTest": true,
        "shininess": 50,
        "side": 2,
        "color": 11383485,
        "ambient": 11383485,
        "name": "Physical1"
    },{
        "vertexColors": false,
        "specular": 197379,
        "uuid": "8B031FCE-3051-3CDF-BA91-1FA294050D03",
        "depthWrite": true,
        "blending": "NormalBlending",
        "emissive": 0,
        "type": "MeshPhongMaterial",
        "depthTest": true,
        "shininess": 50,
        "side": 2,
        "color": 16777215,
        "ambient": 16777215,
        "name": "Standard1"
    }],
    "animations": [{
        "fps": 29,
        "tracks": [],
        "name": "default"
    }],
    "geometries": [{
        "type": "Geometry",
        "uuid": "A43BA921-C13B-3DCC-AC54-6A73C9A1B256",
        "materials": [{
            "wireframe": false,
            "shading": "phong",
            "colorSpecular": [0.02,0.02,0.02],
            "colorAmbient": [0.678431,0.698039,0.741176],
            "colorDiffuse": [0.678431,0.698039,0.741176],
            "specularCoef": 50,
            "depthWrite": true,
            "DbgColor": 15658734,
            "blending": "NormalBlending",
            "DbgName": "Physical1",
            "visible": true,
            "depthTest": true,
            "doubleSided": true,
            "transparent": false,
            "colorEmissive": [0,0,0],
            "DbgIndex": 0,
            "opacity": 1
        }],
        "data": {
            "bones": [],
            "uvs": [[0,0.991153,0,0.981938,0.2004,1,0.0004,1,0.0004,0,0.2004,0,0.9996,1,0.7996,1,0.7996,0,0.9996,0,0.0004,0.991153,0.0004,0.981938,0.7996,0.991153,0.7996,0.981938,0,1,0,0.988481,1,1,0,0,1,0,0,0,0,0.009215,0,-0,0.0004,0.009215,0.0004,-0,0.7996,0.009215,0.7996,-0,0,0.018477,0,0.006958]],
            "skinIndices": [],
            "vertices": [0.375,-2.2498,1.9724,0.375,-2.1498,1.9724,0.375,-2.2498,1.9524,0.375,-2.1498,1.9524,-0.375,-2.1498,1.9724,-0.375,-2.2498,1.9724,-0.375,-2.1498,1.9524,-0.375,-2.2498,1.9524,0.375,-2.25,1.9916,0.375,-1.75,1.9916,0.375,-2.25,1.9666,0.375,-1.75,1.9666,-0.375,-1.75,1.9916,-0.375,-2.25,1.9916,-0.375,-1.75,1.9666,-0.375,-2.25,1.9666,0.375,-2.2498,-0.1587,0.375,-2.1498,-0.1587,0.375,-2.2498,-0.1787,0.375,-2.1498,-0.1787,-0.375,-2.1498,-0.1587,-0.375,-2.2498,-0.1587,-0.375,-2.1498,-0.1787,-0.375,-2.2498,-0.1787,0.375,-2.25,-0.1386,0.375,-1.75,-0.1386,0.375,-2.25,-0.1636,0.375,-1.75,-0.1636,-0.375,-1.75,-0.1386,-0.375,-2.25,-0.1386,-0.375,-1.75,-0.1636,-0.375,-2.25,-0.1636],
            "faces": [42,0,2,3,0,0,1,1,0,1,2,42,0,3,1,0,0,1,0,0,2,3,42,4,6,7,0,0,1,1,4,5,6,42,4,7,5,0,0,1,0,4,6,7,42,4,5,0,0,2,3,4,4,7,0,42,4,0,1,0,2,4,5,4,0,3,42,7,6,3,0,6,7,8,6,5,2,42,7,3,2,0,6,8,9,6,2,1,42,5,7,2,0,10,11,11,7,6,1,42,5,2,0,0,10,11,10,7,1,0,42,1,3,6,0,12,13,13,3,2,5,42,1,6,4,0,12,13,12,3,5,4,42,8,10,11,0,14,15,15,0,1,2,42,8,11,9,0,14,15,14,0,2,3,42,12,14,15,0,14,15,15,4,5,6,42,12,15,13,0,14,15,14,4,6,7,42,12,13,8,0,16,14,17,4,7,0,42,12,8,9,0,16,17,18,4,0,3,42,15,14,11,0,16,14,19,6,5,2,42,15,11,10,0,16,19,18,6,2,1,42,13,15,10,0,14,15,15,7,6,1,42,13,10,8,0,14,15,14,7,1,0,42,9,11,14,0,14,15,15,3,2,5,42,9,14,12,0,14,15,14,3,5,4,42,16,18,19,0,20,21,21,0,1,2,42,16,19,17,0,20,21,20,0,2,3,42,20,22,23,0,20,21,21,4,5,6,42,20,23,21,0,20,21,20,4,6,7,42,20,21,16,0,2,3,4,4,7,0,42,20,16,17,0,2,4,5,4,0,3,42,23,22,19,0,6,7,8,6,5,2,42,23,19,18,0,6,8,9,6,2,1,42,21,23,18,0,22,23,23,7,6,1,42,21,18,16,0,22,23,22,7,1,0,42,17,19,22,0,24,8,25,3,2,5,42,17,22,20,0,24,25,24,3,5,4,42,24,26,27,0,26,27,27,0,1,2,42,24,27,25,0,26,27,26,0,2,3,42,28,30,31,0,26,27,27,4,5,6,42,28,31,29,0,26,27,26,4,6,7,42,28,29,24,0,16,14,17,4,7,0,42,28,24,25,0,16,17,18,4,0,3,42,31,30,27,0,16,14,19,6,5,2,42,31,27,26,0,16,19,18,6,2,1,42,29,31,26,0,26,27,27,7,6,1,42,29,26,24,0,26,27,26,7,1,0,42,25,27,30,0,26,27,27,3,2,5,42,25,30,28,0,26,27,26,3,5,4],
            "influencesPerVertex": 2,
            "skinWeights": [],
            "metadata": {
                "generator": "io_three",
                "uvs": 1,
                "morphTargets": 0,
                "version": 3,
                "vertices": 32,
                "materials": 1,
                "faces": 48,
                "bones": 0,
                "normals": 8
            },
            "morphTargets": [],
            "normals": [0.577349,-0.577349,0.577349,0.577349,-0.577349,-0.577349,0.577349,0.577349,-0.577349,0.577349,0.577349,0.577349,-0.577349,0.577349,0.577349,-0.577349,0.577349,-0.577349,-0.577349,-0.577349,-0.577349,-0.577349,-0.577349,0.577349],
            "animations": [],
            "name": "halterungGeometry"
        }
    },{
        "type": "Geometry",
        "uuid": "6FA48242-4A37-3164-8001-8D25BC2E064F",
        "materials": [{
            "wireframe": false,
            "shading": "phong",
            "colorSpecular": [0.012549,0.012549,0.012549],
            "colorAmbient": [1,1,1],
            "colorDiffuse": [1,1,1],
            "specularCoef": 50,
            "depthWrite": true,
            "DbgColor": 15658734,
            "blending": "NormalBlending",
            "DbgName": "Standard1",
            "visible": true,
            "depthTest": true,
            "doubleSided": true,
            "transparent": false,
            "colorEmissive": [0,0,0],
            "DbgIndex": 0,
            "opacity": 1
        }],
        "data": {
            "bones": [],
            "uvs": [[0,0.466667,0,0,0.0625,0,0.0625,0.466667,0.9375,0.466667,0.9375,0,1,0,1,0.466667,0.000316,0.0625,0.000316,0,0.999684,0,0.999684,0.0625,0.000316,0.466667,0.999684,0.466667,0.0625,0.944444,0.0625,0.055556,1,0.055556,1,0.944444,0,0.944444,0,0.055556,0.9375,0.055556,0.9375,0.944444,-0,1,-0,0.0625,0.031646,0.0625,0.031646,1,1,0.0625,1,1,0.968354,1,0.968354,0.0625,-0,0.944444,-0,0.055556,0.031646,0.055556,0.031646,0.944444,0.968354,0.944444,0.968354,0.055556,0.000316,1,0.000316,0.9375,0.999684,0.9375,0.999684,1,0.000316,0.944444,0.000316,0.055556,0.999684,0.055556,0.999684,0.944444,0,1,-0,0,0,0.94,0,0.473333,0.0625,0.473333,0.0625,0.94,0.9375,0.94,0.9375,0.473333,1,0.473333,1,0.94,-0,0.94,-0,0.473333]],
            "skinIndices": [],
            "vertices": [3.9475,-2,-0.15,3.9475,-1.75,-0.15,3.9475,-2,-2.25,3.9475,-1.75,-2.25,-3.9475,-1.75,-0.15,-3.9475,-2,-0.15,-3.9475,-1.75,-2.25,-3.9475,-2,-2.25,-3.7,-1.75,2,-3.7,2,2,-3.7,-1.75,-2,-3.7,2,-2,-3.95,2,2,-3.95,-1.75,2,-3.95,2,-2,-3.95,-1.75,-2,3.95,-1.75,2,3.95,2,2,3.95,-1.75,-2,3.95,2,-2,3.7,2,2,3.7,-1.75,2,3.7,2,-2,3.7,-1.75,-2,3.9475,1.75,2,3.9475,2,2,3.9475,1.75,-2,3.9475,2,-2,-3.9475,2,2,-3.9475,1.75,2,-3.9475,2,-2,-3.9475,1.75,-2,3.95,-2,2.25,3.95,2,2.25,3.95,-2,2,3.95,2,2,-3.95,2,2.25,-3.95,-2,2.25,-3.95,2,2,-3.95,-2,2,3.95,-2,1.98,3.95,-1.75,1.98,3.95,-2,-0.12,3.95,-1.75,-0.12,-3.95,-1.75,1.98,-3.95,-2,1.98,-3.95,-1.75,-0.12,-3.95,-2,-0.12,3.95,-1.75,-2,3.95,2,-2,3.95,-1.75,-2.25,3.95,2,-2.25,-3.95,2,-2,-3.95,-1.75,-2,-3.95,2,-2.25,-3.95,-1.75,-2.25],
            "faces": [42,0,2,3,0,0,1,2,0,1,2,42,0,3,1,0,0,2,3,0,2,3,42,4,6,7,0,4,5,6,4,5,6,42,4,7,5,0,4,6,7,4,6,7,42,4,5,0,0,8,9,10,4,7,0,42,4,0,1,0,8,10,11,4,0,3,42,7,6,3,0,10,11,8,6,5,2,42,7,3,2,0,10,8,9,6,2,1,42,5,7,2,0,12,9,10,7,6,1,42,5,2,0,0,12,10,13,7,1,0,42,1,3,6,0,12,9,10,3,2,5,42,1,6,4,0,12,10,13,3,5,4,42,8,10,11,0,14,15,16,0,1,2,42,8,11,9,0,14,16,17,0,2,3,42,12,14,15,0,18,19,20,4,5,6,42,12,15,13,0,18,20,21,4,6,7,42,12,13,8,0,22,23,24,4,7,0,42,12,8,9,0,22,24,25,4,0,3,42,15,14,11,0,26,27,28,6,5,2,42,15,11,10,0,26,28,29,6,2,1,42,13,15,10,0,30,31,32,7,6,1,42,13,10,8,0,30,32,33,7,1,0,42,9,11,14,0,34,35,16,3,2,5,42,9,14,12,0,34,16,17,3,5,4,42,16,18,19,0,14,15,16,0,1,2,42,16,19,17,0,14,16,17,0,2,3,42,20,22,23,0,18,19,20,4,5,6,42,20,23,21,0,18,20,21,4,6,7,42,20,21,16,0,28,29,26,4,7,0,42,20,16,17,0,28,26,27,4,0,3,42,23,22,19,0,24,25,22,6,5,2,42,23,19,18,0,24,22,23,6,2,1,42,21,23,18,0,34,35,16,7,6,1,42,21,18,16,0,34,16,17,7,1,0,42,17,19,22,0,30,31,32,3,2,5,42,17,22,20,0,30,32,33,3,5,4,42,24,26,27,0,21,20,16,0,1,2,42,24,27,25,0,21,16,17,0,2,3,42,28,30,31,0,18,19,15,4,5,6,42,28,31,29,0,18,15,14,4,6,7,42,28,29,24,0,36,37,38,4,7,0,42,28,24,25,0,36,38,39,4,0,3,42,31,30,27,0,38,39,36,6,5,2,42,31,27,26,0,38,36,37,6,2,1,42,29,31,26,0,40,41,42,7,6,1,42,29,26,24,0,40,42,43,7,1,0,42,25,27,30,0,40,41,42,3,2,5,42,25,30,28,0,40,42,43,3,5,4,42,32,34,35,0,44,18,17,0,1,2,42,32,35,33,0,44,17,27,0,2,3,42,36,38,39,0,44,18,17,4,5,6,42,36,39,37,0,44,17,27,4,6,7,42,36,37,32,0,44,45,6,4,7,0,42,36,32,33,0,44,6,27,4,0,3,42,39,38,35,0,6,27,22,6,5,2,42,39,35,34,0,6,22,45,6,2,1,42,37,39,34,0,22,30,17,7,6,1,42,37,34,32,0,22,17,27,7,1,0,42,33,35,38,0,22,30,17,3,2,5,42,33,38,36,0,22,17,27,3,5,4,42,40,42,43,0,46,47,48,0,1,2,42,40,43,41,0,46,48,49,0,2,3,42,44,46,47,0,50,51,52,4,5,6,42,44,47,45,0,50,52,53,4,6,7,42,44,45,40,0,23,45,6,4,7,0,42,44,40,41,0,23,6,26,4,0,3,42,47,46,43,0,6,26,23,6,5,2,42,47,43,42,0,6,23,45,6,2,1,42,45,47,42,0,54,55,52,7,6,1,42,45,42,40,0,54,52,53,7,1,0,42,41,43,46,0,54,55,52,3,2,5,42,41,46,44,0,54,52,53,3,5,4,42,48,50,51,0,15,2,6,0,1,2,42,48,51,49,0,15,6,16,0,2,3,42,52,54,55,0,19,1,5,4,5,6,42,52,55,53,0,19,5,20,4,6,7,42,52,53,48,0,22,23,26,4,7,0,42,52,48,49,0,22,26,27,4,0,3,42,55,54,51,0,26,27,22,6,5,2,42,55,51,50,0,26,22,23,6,2,1,42,53,55,50,0,31,45,6,7,6,1,42,53,50,48,0,31,6,16,7,1,0,42,49,51,54,0,31,45,6,3,2,5,42,49,54,52,0,31,6,16,3,5,4],
            "influencesPerVertex": 2,
            "skinWeights": [],
            "metadata": {
                "generator": "io_three",
                "uvs": 1,
                "morphTargets": 0,
                "version": 3,
                "vertices": 56,
                "materials": 1,
                "faces": 84,
                "bones": 0,
                "normals": 8
            },
            "morphTargets": [],
            "normals": [0.577349,-0.577349,0.577349,0.577349,-0.577349,-0.577349,0.577349,0.577349,-0.577349,0.577349,0.577349,0.577349,-0.577349,0.577349,0.577349,-0.577349,0.577349,-0.577349,-0.577349,-0.577349,-0.577349,-0.577349,-0.577349,0.577349],
            "animations": [],
            "name": "regalGeometry"
        }
    }],
    "metadata": {
        "type": "Object",
        "generator": "io_three",
        "version": 4.4
    },
    "object": {
        "type": "Scene",
        "uuid": "CC97C50F-9DCA-4FE4-AF0B-226250D58B2F",
        "matrix": [1,0,0,0,0,1,0,0,0,0,1,0,0,0,0,1],
        "children": [{
            "name": "halterung",
            "uuid": "423B9680-CB13-31B1-8830-E29FF8A53699",
            "matrix": [-1,0,0,0,0,0,1,0,0,1,0,0,0,-2.2511,0,1],
            "visible": true,
            "type": "Mesh",
            "material": "EBEEF0BF-3581-3563-AE10-379FF032D230",
            "castShadow": true,
            "receiveShadow": true,
            "geometry": "A43BA921-C13B-3DCC-AC54-6A73C9A1B256"
        },{
            "name": "regal",
            "uuid": "0E012B89-A200-323D-84E4-447E76313465",
            "matrix": [-1,0,0,0,0,0,1,0,0,1,0,0,0,-2.2511,0,1],
            "visible": true,
            "type": "Mesh",
            "material": "8B031FCE-3051-3CDF-BA91-1FA294050D03",
            "castShadow": true,
            "receiveShadow": true,
            "geometry": "6FA48242-4A37-3164-8001-8D25BC2E064F"
        }]
    }
}