{
    "textures": [{
        "mapping": 300,
        "anisotropy": 1,
        "repeat": [1,1],
        "image": "0697E819-127D-3C2C-8B8B-A9E22CC1A795",
        "magFilter": 1006,
        "name": "raster50_1995_a_jpg",
        "minFilter": 1008,
        "wrap": [1000,1000],
        "uuid": "89526785-0CF7-3B90-99EB-DDF46FE822C6"
    }],
    "metadata": {
        "version": 4.4,
        "generator": "io_three",
        "type": "Object"
    },
    "images": [{
        "url": "raster50_1995_a.jpg",
        "name": "raster50_1995_a.jpg",
        "uuid": "0697E819-127D-3C2C-8B8B-A9E22CC1A795"
    }],
    "geometries": [{
        "materials": [{
            "mapDiffuse": "raster50_1995_a.jpg",
            "wireframe": false,
            "mapDiffuseRepeat": [1,1],
            "DbgName": "Standard",
            "DbgIndex": 0,
            "mapDiffuseWrap": ["RepeatWrapping","RepeatWrapping"],
            "colorEmissive": [0,0,0],
            "DbgColor": 15658734,
            "transparent": false,
            "colorAmbient": [0.666667,0.666667,0.666667],
            "specularCoef": 50,
            "colorSpecular": [0.012549,0.012549,0.012549],
            "visible": true,
            "opacity": 1,
            "depthWrite": true,
            "blending": "NormalBlending",
            "colorDiffuse": [0.666667,0.666667,0.666667],
            "mapDiffuseAnisotropy": 1,
            "depthTest": true,
            "shading": "phong"
        }],
        "type": "Geometry",
        "data": {
            "morphTargets": [],
            "name": "schieneGeometry",
            "influencesPerVertex": 2,
            "faces": [42,0,1,2,0,0,1,2,0,0,1,42,0,2,3,0,0,2,2,0,1,2,42,4,3,5,0,0,2,3,3,2,4,42,0,6,1,0,0,4,1,0,5,0,42,7,6,4,0,4,4,0,3,5,3,42,7,4,8,0,4,0,5,3,3,0,42,7,9,10,0,4,6,7,3,3,0,42,7,10,11,0,4,7,4,3,0,6,42,12,13,14,0,8,9,10,7,7,8,42,12,14,15,0,8,10,10,7,8,9,42,16,15,17,0,8,10,11,7,9,10,42,18,19,17,0,12,13,11,7,7,10,42,18,17,20,0,12,11,12,7,10,11,42,21,22,23,0,14,12,15,7,12,10,42,24,18,22,0,16,12,12,10,7,12,42,24,22,25,0,16,12,14,10,12,10,42,26,27,6,0,17,17,4,13,14,5,42,28,29,26,0,18,17,17,13,15,13,42,28,26,6,0,18,17,4,13,13,5,42,30,6,31,0,18,4,4,15,5,15,42,32,33,20,0,19,12,12,13,15,11,42,34,35,20,0,20,19,12,15,15,11,42,34,20,36,0,20,12,20,15,11,14,42,26,37,38,0,17,21,20,13,15,16,42,26,38,36,0,17,20,20,13,16,14,42,26,36,27,0,17,20,17,13,14,14,42,39,37,26,0,17,21,17,17,15,13,42,28,40,29,0,18,17,17,13,12,15,42,40,30,31,0,17,18,4,12,15,15,42,40,31,11,0,17,4,4,12,15,6,42,32,41,22,0,19,20,12,13,15,12,42,32,22,33,0,19,12,12,13,12,15,42,34,41,35,0,20,20,19,15,15,15,42,42,22,41,0,20,12,20,18,12,15,42,43,44,3,0,22,22,2,19,20,2,42,45,43,3,0,22,22,2,21,19,2,42,45,3,2,0,22,2,2,21,2,1,42,46,15,14,0,23,10,10,22,9,8,42,46,14,47,0,23,10,23,22,8,23,42,48,15,46,0,23,10,23,21,9,22,42,49,46,50,0,24,23,23,22,22,24,42,51,45,48,0,22,22,23,25,21,21,42,51,48,46,0,22,23,23,25,21,22,42,51,46,49,0,22,23,24,25,22,22,42,52,45,2,0,25,22,2,26,21,1,42,53,54,52,0,26,27,25,26,26,26,42,53,52,2,0,26,25,2,26,26,1,42,55,2,56,0,26,2,1,26,1,27,42,57,58,59,0,28,29,11,26,26,26,42,57,59,15,0,28,11,10,26,26,9,42,57,15,48,0,28,10,23,26,9,21,42,60,58,57,0,30,29,28,27,26,26,42,52,57,48,0,25,28,23,26,26,21,42,52,48,45,0,25,23,22,26,21,21,42,61,60,57,0,31,30,28,27,27,26,42,62,63,57,0,27,31,28,26,26,26,42,62,57,52,0,27,28,25,26,26,26,42,53,27,54,0,26,17,27,26,14,26,42,27,55,56,0,17,26,1,14,26,27,42,27,56,6,0,17,1,4,14,27,5,42,58,20,59,0,29,12,11,26,11,26,42,60,36,20,0,30,20,12,27,14,11,42,60,20,58,0,30,12,29,27,11,26,42,61,27,36,0,31,17,20,27,14,14,42,61,36,60,0,31,20,30,27,14,27,42,62,27,63,0,27,17,31,26,14,26,42,64,65,66,0,32,33,3,28,28,28,42,64,66,3,0,32,3,2,28,28,2,42,64,3,44,0,32,2,22,28,2,20,42,67,65,64,0,34,33,32,29,28,28,42,68,47,14,0,35,23,10,28,23,8,42,69,70,68,0,36,37,35,28,28,28,42,69,68,14,0,36,35,10,28,28,8,42,71,14,72,0,36,10,9,30,8,29,42,73,11,74,0,38,4,7,28,6,28,42,75,40,11,0,39,17,4,28,12,6,42,75,11,76,0,39,4,38,28,6,28,42,77,42,78,0,40,20,41,30,18,28,42,42,79,80,0,20,40,15,18,30,28,42,42,80,22,0,20,15,12,18,28,12,42,81,82,83,0,42,43,44,7,31,7,42,81,83,44,0,42,44,22,7,7,20,42,84,85,44,0,45,42,22,7,7,20,42,84,44,51,0,45,22,22,7,20,25,42,86,51,87,0,45,22,46,7,25,32,42,88,83,89,0,34,44,43,7,7,7,42,81,90,82,0,42,17,43,7,7,31,42,84,90,85,0,45,17,42,7,7,7,42,90,86,87,0,17,45,46,7,7,32,42,90,87,39,0,17,46,17,7,32,17,42,91,92,89,0,17,47,43,7,7,7,42,91,89,90,0,17,43,17,7,7,7,42,93,91,40,0,48,17,17,10,7,12,42,93,40,94,0,48,17,39,10,12,7,42,95,96,47,0,49,23,23,0,0,23,42,97,98,50,0,50,51,23,0,33,24,42,99,100,50,0,52,50,23,34,34,24,42,99,50,96,0,52,23,23,34,24,0,42,101,102,96,0,37,52,23,0,0,0,42,101,96,95,0,37,23,49,0,0,0,42,103,104,38,0,53,20,20,0,0,16,42,103,38,98,0,53,20,51,0,16,33,42,105,106,42,0,54,55,20,3,0,18,42,105,42,104,0,54,20,20,3,18,0,42,107,42,108,0,56,20,55,3,18,3,42,109,42,110,0,41,20,56,0,18,3,42,111,112,113,0,57,58,59,28,28,28,42,111,113,50,0,57,59,23,28,28,24,42,111,50,98,0,57,23,51,28,24,33,42,114,87,51,0,60,46,22,28,32,25,42,114,51,113,0,60,22,59,28,25,28,42,114,113,115,0,60,59,58,28,28,28,42,111,116,112,0,57,61,58,28,28,28,42,116,111,98,0,61,57,51,28,28,33,42,116,98,38,0,61,51,20,28,33,16,42,114,39,87,0,60,17,46,28,17,32,42,39,114,115,0,17,60,58,17,28,28,42,39,115,116,0,17,58,61,17,28,28,42,117,72,118,0,37,9,62,35,29,35,42,117,118,119,0,37,62,63,35,35,35,42,120,121,122,0,13,53,63,29,35,36,42,120,122,123,0,13,63,62,29,36,36,42,124,125,126,0,64,65,16,28,30,28,42,124,126,127,0,64,16,54,28,28,28,42,128,120,125,0,53,13,65,30,29,30,42,128,125,129,0,53,65,64,30,30,28,42,130,131,132,0,66,67,68,37,38,39,42,130,132,133,0,66,68,69,37,39,37,42,134,135,136,0,70,71,67,37,40,41,42,134,136,137,0,70,67,66,37,41,42,42,138,139,140,0,15,41,71,39,42,39,42,138,140,141,0,15,71,70,39,39,39,42,142,143,133,0,54,16,69,42,42,37,42,142,133,144,0,54,69,68,42,37,43,42,67,145,146,0,34,72,73,29,35,35,42,67,146,5,0,34,73,3,29,35,4,42,147,148,149,0,47,5,73,29,29,44,42,147,149,150,0,47,73,72,29,44,44,42,151,152,153,0,74,75,48,28,28,28,42,151,153,154,0,74,48,6,28,28,28,42,148,147,152,0,5,47,75,29,29,28,42,148,152,155,0,5,75,74,29,28,30,42,156,157,158,0,76,77,78,45,46,47,42,156,158,159,0,76,78,79,45,47,48,42,160,161,162,0,80,81,77,40,49,41,42,160,162,163,0,80,77,76,40,41,50,42,164,165,166,0,39,7,81,39,39,51,42,164,166,167,0,39,81,80,39,51,52,42,168,169,170,0,6,48,79,42,42,53,42,168,170,158,0,6,79,78,42,53,47],
            "vertices": [0.13,-0.111002,9.6282,0.13,-0.115,9.6302,0.13,-0.115,-9.975,0.13,0.115,-9.975,0.13,-0.111002,9.6282,0.13,0.115,9.5152,0.13,-0.115,9.975,0.13,-0.0552,9.975,0.13,-0.0552,9.6003,0.13,-0.0552,9.62302,0.13,0.115,9.54643,0.13,0.115,9.975,-0.13,0.109729,9.51784,-0.13,0.115,9.5152,-0.13,0.115,-9.975,-0.13,-0.115,-9.975,-0.13,0.109729,9.51784,-0.13,-0.115,9.6302,-0.13,-0.0552,9.975,-0.13,-0.0552,9.6003,-0.13,-0.115,9.975,-0.13,0.110085,9.54864,-0.13,0.115,9.975,-0.13,0.115,9.54643,-0.13,-0.0552,9.62302,-0.13,0.110085,9.54864,0.117,-0.1035,9.975,0.117,-0.115,9.975,0.12662,-0.0552,9.975,0.117,-0.0552,9.975,0.12662,-0.0552,9.975,0.13,-0.0552,9.975,-0.126442,-0.0552,9.975,-0.13,-0.0552,9.975,-0.117,-0.0552,9.975,-0.126442,-0.0552,9.975,-0.117,-0.115,9.975,0.112817,-0.0998,9.975,-0.117,-0.0998,9.975,0.117,-0.0998,9.975,0.117,0.115,9.975,-0.117,0.1035,9.975,-0.117,0.115,9.975,0.117,0.1035,-9.975,0.117,0.115,-9.975,0.117,-0.115,-9.975,-0.117,-0.1035,-9.975,-0.117,0.115,-9.975,-0.117,-0.115,-9.975,-0.112817,-0.0998,-9.975,-0.117,-0.0998,-9.975,0.117,-0.0998,-9.975,0.117,-0.115,-8.9775,0.117225,-0.115,9.6302,0.117,-0.115,9.6302,0.117225,-0.115,9.6302,0.13,-0.115,9.6302,-0.117,-0.115,8.9775,-0.125506,-0.115,9.6302,-0.13,-0.115,9.6302,-0.117,-0.115,9.6302,0.036115,-0.115,9.6302,0.117,-0.115,9.6302,0.036115,-0.115,9.6302,0.117,0.115,8.9775,0.124008,0.115,9.5152,0.13,0.115,9.5152,0.117,0.115,9.5152,-0.117,0.115,-8.9775,-0.1173,0.115,9.5152,-0.117,0.115,9.5152,-0.1173,0.115,9.5152,-0.13,0.115,9.5152,0.124415,0.115,9.54643,0.13,0.115,9.54643,0.117,0.115,9.54643,0.124415,0.115,9.54643,-0.117279,0.115,9.54643,-0.117,0.115,9.54643,-0.117279,0.115,9.54643,-0.13,0.115,9.54643,0.117,-0.084632,9.61502,0.117,-0.084147,9.61477,0.117,0.115,-7.65907,0.117,-0.088506,9.61695,0.117,-0.084632,9.61502,0.117,-0.088506,9.61695,0.117,-0.0998,9.6226,0.117,0.115,9.5152,0.117,-0.084147,9.61477,0.117,-0.0883,9.975,0.117,-0.0552,9.975,0.117,-0.0552,9.6003,0.117,-0.0552,9.62302,0.117,0.115,9.54643,-0.117,0.115,7.65907,-0.117,-0.0883,-9.975,-0.117,0.110076,9.51766,-0.117,-0.0998,9.6226,-0.117,0.110338,9.51753,-0.117,0.110076,9.51766,-0.117,0.115,9.5152,-0.117,0.110338,9.51753,-0.117,-0.0552,9.6003,-0.117,-0.0552,9.975,-0.117,-0.0552,9.62302,-0.117,0.110408,9.54849,-0.117,0.110653,9.54838,-0.117,0.110408,9.54849,-0.117,0.115,9.54643,-0.117,0.110653,9.54838,-0.106552,-0.0998,9.6226,-0.102606,-0.0998,9.6226,0.106364,-0.0998,-9.975,0.116812,-0.0998,9.6226,-0.102606,-0.0998,9.6226,-0.106364,-0.0998,9.975,-0.117,0.115,9.5152,-0.13,0.039494,9.55295,-0.117,0.040024,9.55269,-0.13,-0.0552,9.6003,-0.117,-0.0552,9.6003,-0.117,0.040024,9.55269,-0.13,0.039494,9.55295,-0.117,-0.0552,9.61163,-0.13,-0.0552,9.61157,-0.13,-0.0552,9.62302,-0.117,-0.0552,9.62302,-0.117,-0.0552,9.6003,-0.117,-0.0552,9.61163,-0.13,0.024158,9.5873,-0.117,0.024602,9.5871,-0.117,0.017158,9.59045,-0.13,0.016676,9.59067,-0.13,0.028462,9.58537,-0.117,0.028931,9.58516,-0.117,0.024602,9.5871,-0.13,0.024158,9.5873,-0.13,0.115,9.54643,-0.117,0.115,9.54643,-0.117,0.028931,9.58516,-0.13,0.028462,9.58537,-0.117,-0.0552,9.62302,-0.13,-0.0552,9.62302,-0.117,0.017158,9.59045,0.117,0.049576,9.54791,0.13,0.050106,9.54765,0.117,-0.0552,9.6003,0.13,-0.0552,9.6003,0.13,0.050106,9.54765,0.117,0.049576,9.54791,0.13,-0.0552,9.61283,0.117,-0.0552,9.61277,0.117,-0.0552,9.62302,0.13,-0.0552,9.62302,0.13,-0.0552,9.61283,0.117,0.032607,9.5835,0.13,0.033051,9.5833,0.13,0.026324,9.58633,0.117,0.025841,9.58655,0.117,0.037369,9.58136,0.13,0.037838,9.58115,0.13,0.033051,9.5833,0.117,0.032607,9.5835,0.117,0.115,9.54643,0.13,0.115,9.54643,0.13,0.037838,9.58115,0.117,0.037369,9.58136,0.13,-0.0552,9.62302,0.117,-0.0552,9.62302,0.117,0.025841,9.58655],
            "uvs": [[1,0.982617,1,0.982717,1,-0,1,0.976952,1,1,1,0.981218,1,0.982357,1,0.978518,0,0.977085,0,0.976952,0,-0,0,0.982717,0,1,0,0.981218,0,0.978628,0,0.978518,0,0.982357,0.95,1,0.987,1,0.013684,1,0.05,1,0.933913,1,0.95,-0,0.05,-0,0.066087,-0,0.95,0.05,0.950864,0.982717,0.95,0.982717,0.05,0.95,0.017283,0.982717,0.05,0.982717,0.638902,0.982717,0.95,0.95,0.976952,0.976952,0.95,0.976952,0.05,0.05,0.048848,0.976952,0.05,0.976952,0.978518,0.978518,0.95,0.978518,0.048926,0.978518,0.05,0.978518,0.95,0.981956,0.95,0.981944,0.95,0.116087,0.95,0.982053,0.95,0.982336,0.95,0.981218,0.95,0.982357,0.05,0.883913,0.05,0.977076,0.05,0.982336,0.05,0.977069,0.05,0.981218,0.05,0.982357,0.05,0.978621,0.05,0.978616,0.090186,0.982336,0.105362,0.982336,0.909091,-0,0.949277,0.982336,0.090909,1,0,0.978845,0.05,0.978832,0.05,0.981786,0,0.981783,0,0.980567,0.05,0.980557,0.05,0.980725,0,0.980735,0,0.98047,0.05,0.980459,0.95,0.978592,1,0.978579,1,0.981846,0.95,0.981843,0.95,0.980376,1,0.980366,1,0.980518,0.95,0.980529,0.95,0.980269,1,0.980258]],
            "skinWeights": [],
            "metadata": {
                "morphTargets": 0,
                "version": 3,
                "faces": 150,
                "normals": 54,
                "materials": 1,
                "generator": "io_three",
                "bones": 0,
                "vertices": 171,
                "uvs": 1
            },
            "animations": [],
            "skinIndices": [],
            "normals": [1,0,0,0.577288,-0.577349,-0.57738,0.577349,0.577349,-0.577319,0.999969,0,0,0.791498,0.273293,0.546617,0.577319,-0.577349,0.577349,0.577349,0.577319,0.577349,-1,0,0,-0.577288,0.577349,-0.57738,-0.577319,-0.577349,-0.577319,-0.999969,0,0,-0.577349,-0.577319,0.577349,-0.577349,0.577349,0.577349,0,0,0.999969,0,-0.707083,0.707083,0,0,1,0.577349,0.577349,0.577349,-0.577319,0.577349,0.577319,0.577288,0.577349,0.57738,3.1e-05,0,-1,-0.577288,0.577349,-0.577349,0,-0.707083,-0.707083,0,0,-1,0.577349,0.577349,-0.577349,0.577349,0.577288,-0.577349,-0.577349,0.577319,-0.577349,0,-1,0,0,-0.999969,0,0,1,0,0,0.850642,0.525712,0,0.999969,0,-1,-3.1e-05,0,-0.707083,0.707083,0,0.707083,0.707083,0,1,-9.2e-05,0,0,0.447188,0.894406,0.000153,0.447188,0.894406,0,-0.410382,-0.911893,0,-0.410291,-0.911924,0,-0.410352,-0.911924,0,-0.410443,-0.911863,0,-0.410413,-0.911863,0,-0.410352,-0.911893,-3.1e-05,-0.410352,-0.911893,-0.000122,0.447188,0.894406,-6.1e-05,-0.410321,-0.911924,-0.000153,-0.410291,-0.911924,-9.2e-05,-0.410321,-0.911924,-3.1e-05,-0.410321,-0.911924,0,-0.410413,-0.911893,0,-0.410474,-0.911863,9.2e-05,-0.410352,-0.911924,0.000122,-0.410352,-0.911924,-9.2e-05,-0.410352,-0.911893],
            "bones": []
        },
        "uuid": "BB1FEC49-AD40-3BFB-88E3-89403FB223D3"
    }],
    "animations": [{
        "tracks": [],
        "fps": 29,
        "name": "default"
    }],
    "object": {
        "children": [{
            "name": "schiene",
            "uuid": "F061A09D-CB2A-3AD5-9EC1-BB6A3111B988",
            "matrix": [-1,0,0,0,0,0,1,0,0,1,0,0,0,0,0,1],
            "visible": true,
            "type": "Mesh",
            "material": "93831B89-11B9-31B1-A879-E029ECAF81F2",
            "castShadow": true,
            "receiveShadow": true,
            "geometry": "BB1FEC49-AD40-3BFB-88E3-89403FB223D3"
        }],
        "type": "Scene",
        "matrix": [1,0,0,0,0,1,0,0,0,0,1,0,0,0,0,1],
        "uuid": "053B9D54-5A07-45D1-B9ED-DE156950F9E1"
    },
    "materials": [{
        "shininess": 50,
        "map": "89526785-0CF7-3B90-99EB-DDF46FE822C6",
        "depthTest": true,
        "name": "Standard",
        "type": "MeshPhongMaterial",
        "emissive": 0,
        "ambient": 11184810,
        "vertexColors": false,
        "depthWrite": true,
        "blending": "NormalBlending",
        "color": 11184810,
        "specular": 197379,
        "uuid": "93831B89-11B9-31B1-A879-E029ECAF81F2"
    }]
}