{
    "images": [],
    "textures": [],
    "animations": [{
        "fps": 29,
        "name": "default",
        "tracks": []
    }],
    "geometries": [{
        "uuid": "06BD157D-C476-3D86-BD68-22A0D615467D",
        "type": "Geometry",
        "data": {
            "morphTargets": [],
            "skinIndices": [],
            "animations": [],
            "vertices": [0.13,1.9502,10.9978,0.13,0.7002,11.2478,0.13,0.7002,10.9978,0.13,1.9502,10.9978,0.13,3.7002,10.9978,0.13,3.7002,11.2478,0.13,2.4502,10.8978,0.13,0.7002,10.8978,0.13,0.7002,10.6478,0.13,3.7002,10.6478,0.13,3.7002,10.8978,-0.13,2.4502,10.9978,-0.13,3.7002,11.2478,-0.13,3.7002,10.9978,-0.13,0.7002,10.9978,-0.13,0.7002,11.2478,-0.13,1.9502,10.8978,-0.13,3.7002,10.8978,-0.13,3.7002,10.6478,-0.13,0.7002,10.6478,-0.13,0.7002,10.8978,0.084,1.23097,11.2478,-0.082,3.14635,11.2478,-0.082,0.7002,11.2478,0.084,0.7002,11.2478,0.084,1.35114,11.2478,-0.082,3.7002,11.2478,0.084,1.23097,11.2478,0.084,3.7002,11.2478,0.084,1.35114,11.2478,0.084,3.16943,10.6478,-0.082,1.25405,10.6478,-0.082,3.7002,10.6478,0.084,3.7002,10.6478,0.084,3.04926,10.6478,-0.082,0.7002,10.6478,0.084,3.16943,10.6478,0.084,0.7002,10.6478,0.084,3.04926,10.6478,0.084,0.7002,10.754,-0.082,0.7002,11.137,0.084,0.7002,10.6478,0.084,0.7002,10.778,0.084,0.7002,10.754,0.084,0.7002,11.2478,0.084,0.7002,10.778,-0.082,0.7002,10.9978,-0.082,0.7002,10.8978,0.084,0.7002,10.9978,0.084,0.7002,10.8978,0.084,3.7002,10.6718,-0.082,3.7002,10.7586,0.084,3.7002,11.1416,0.084,3.7002,10.6718,0.084,3.7002,10.6478,0.084,3.7002,11.2478,0.084,3.7002,11.1416,-0.082,3.7002,10.9978,-0.082,3.7002,10.8978,0.084,3.7002,10.9978,0.084,3.7002,10.8978,-0.13,2.1402,10.9978,-0.13,2.2602,10.8978,0.13,2.3202,10.9978,0.13,2.3202,10.9978,0.13,2.0802,10.8978,0.13,2.0802,10.8978],
            "bones": [],
            "skinWeights": [],
            "normals": [1,0,0,0.577349,-0.577349,0.577349,0.577349,-0.577349,-0.577349,0.577349,0.577349,-0.577349,0.577349,0.577349,0.577349,-1,0,0,-0.577349,0.577349,0.577349,-0.577349,0.577349,-0.577349,-0.577349,-0.577349,-0.577349,-0.577349,-0.577349,0.577349,0,0,1,0,-0.707083,0.707083,0,0.707083,0.707083,0,0,0.999969,0,0,-1,0,0.707083,-0.707083,0,-0.707083,-0.707083,0,0,-0.999969,0,-1,0,0,-0.999969,0,0,0.999969,0,0,1,0,3.1e-05,0,-1],
            "metadata": {
                "morphTargets": 0,
                "uvs": 1,
                "faces": 84,
                "generator": "io_three",
                "vertices": 67,
                "bones": 0,
                "version": 3,
                "normals": 23,
                "materials": 1
            },
            "uvs": [[0.416667,0.583334,0,1,0,0.583334,1,0.583334,1,1,0.583333,0.416666,0,0.416666,0,-0,1,-0,1,0.416666,0.416667,0.583334,0.583333,0.416666,0.823077,0.176923,0.184615,0.815385,0.184615,0,0.823077,0,0.823077,0.216981,0.184615,1,0.823077,1,0,0,1,0,0.176923,0.823077,0.815385,0.184615,0.815385,1,0.176923,1,0.176923,0.783019,0.815385,0,0.176923,0,1,1,0,1,0.823077,0.176922,0.184615,0.815385,0.184615,-0,0.823077,-0,0.823077,0.216981,0.184615,1,0.823077,1,0.184615,0.583334,0,1,0,0.583334,0.184615,0.416666,0,0.416666,0,-0,0.823077,0.583334,0.823077,0.416666,0.176923,0.040057,0.815385,0.184615,0.176923,0.823078,0.176923,-0,0.815385,-0,0.815385,1,0.176923,1,0.815385,0.583334,0.815385,0.416666,0.176923,0.583334,0.176923,0.416666,1,0.48,0,0.52,0,0.54,0,0.54,1,0.46,1,0.46]],
            "influencesPerVertex": 2,
            "faces": [42,0,1,2,0,0,1,2,0,1,2,42,1,3,4,0,1,0,3,1,0,3,42,1,4,5,0,1,3,4,1,3,4,42,6,7,8,0,5,6,7,0,1,2,42,6,8,9,0,5,7,8,0,2,3,42,6,9,10,0,5,8,9,0,3,4,42,11,12,13,0,10,1,2,5,6,7,42,12,11,14,0,1,10,3,6,5,8,42,12,14,15,0,1,3,4,6,8,9,42,16,17,18,0,11,6,7,5,6,7,42,16,18,19,0,11,7,8,5,7,8,42,16,19,20,0,11,8,9,5,8,9,42,21,22,23,0,12,13,14,10,10,11,42,21,23,24,0,12,14,15,10,11,10,42,25,26,22,0,16,17,13,10,12,10,42,25,22,27,0,16,13,12,10,10,10,42,28,26,29,0,18,17,16,13,12,13,42,22,12,15,0,13,1,19,10,6,9,42,22,15,23,0,13,19,14,10,9,11,42,26,12,22,0,17,1,13,12,6,10,42,21,24,1,0,12,15,20,10,10,1,42,25,27,1,0,16,12,20,10,10,1,42,28,29,1,0,18,16,20,13,13,1,42,28,1,5,0,18,20,4,13,1,4,42,30,31,32,0,21,22,23,14,14,15,42,30,32,33,0,21,23,24,14,15,14,42,34,35,31,0,25,26,22,14,16,14,42,34,31,36,0,25,22,21,14,14,14,42,37,35,38,0,27,26,25,17,16,17,42,31,19,18,0,22,8,28,14,8,7,42,31,18,32,0,22,28,23,14,7,15,42,35,19,31,0,26,8,22,16,8,14,42,30,33,9,0,21,24,29,14,14,3,42,34,36,9,0,25,21,29,14,14,3,42,37,38,9,0,27,25,29,17,17,3,42,37,9,8,0,27,29,7,17,3,2,42,39,40,35,0,30,31,32,18,18,16,42,39,35,41,0,30,32,33,18,16,18,42,42,23,40,0,34,35,31,18,11,18,42,42,40,43,0,34,31,30,18,18,18,42,44,23,45,0,36,35,34,19,11,19,42,46,40,15,0,37,31,38,8,18,9,42,46,15,14,0,37,38,39,8,9,8,42,23,15,40,0,35,38,31,11,9,18,42,47,20,19,0,40,41,42,9,9,8,42,47,19,35,0,40,42,32,9,8,16,42,44,48,2,0,36,43,3,19,2,2,42,44,2,1,0,36,3,4,19,2,1,42,39,41,8,0,30,33,8,18,18,2,42,42,43,8,0,34,30,8,18,18,2,42,49,45,8,0,44,34,8,1,19,2,42,49,8,7,0,44,8,9,1,2,1,42,50,51,52,0,45,46,47,20,21,21,42,51,53,54,0,46,45,48,21,21,21,42,51,54,32,0,46,48,49,21,21,15,42,26,55,56,0,50,51,47,12,21,21,42,26,56,51,0,50,47,46,12,21,21,42,26,57,13,0,50,52,3,12,7,7,42,26,13,12,0,50,3,4,12,7,6,42,51,32,18,0,46,49,8,21,15,7,42,58,51,18,0,53,46,8,6,21,7,42,58,18,17,0,53,8,9,6,7,6,42,59,52,5,0,54,47,38,3,21,4,42,59,5,4,0,54,38,39,3,4,3,42,55,5,56,0,51,38,47,21,4,21,42,50,60,10,0,45,55,41,20,4,4,42,50,10,9,0,45,41,42,20,4,3,42,53,9,54,0,45,42,48,21,3,21,42,58,47,46,0,6,9,3,6,9,8,42,57,58,46,0,2,6,3,7,6,8,42,61,46,14,0,56,26,20,22,8,8,42,13,57,46,0,28,23,26,7,7,8,42,13,46,61,0,28,26,56,7,8,22,42,62,58,17,0,57,17,29,10,6,6,42,20,47,58,0,19,14,17,9,9,6,42,20,58,62,0,19,17,57,9,6,10,42,49,60,59,0,6,9,3,1,4,3,42,48,49,59,0,2,6,3,2,1,3,42,63,2,48,0,58,19,27,14,2,2,42,63,48,59,0,58,27,24,14,2,3,42,4,64,59,0,29,59,24,3,14,3,42,65,10,60,0,60,28,18,10,4,4,42,65,60,49,0,60,18,15,10,4,1,42,7,66,49,0,20,61,15,1,10,1],
            "name": "knickGeometry"
        },
        "materials": [{
            "specularCoef": 50,
            "transparent": false,
            "DbgColor": 15658734,
            "colorSpecular": [0.001176,0.001176,0.001176],
            "colorAmbient": [0.690196,0.690196,0.690196],
            "colorEmissive": [0,0,0],
            "depthTest": true,
            "colorDiffuse": [0.690196,0.690196,0.690196],
            "depthWrite": true,
            "wireframe": false,
            "blending": "NormalBlending",
            "shading": "phong",
            "DbgIndex": 0,
            "DbgName": "b0b0b0",
            "visible": true,
            "opacity": 1
        }]
    }],
    "metadata": {
        "version": 4.4,
        "type": "Object",
        "generator": "io_three"
    },
    "object": {
        "matrix": [1,0,0,0,0,1,0,0,0,0,1,0,0,0,0,1],
        "uuid": "CBA5B942-D412-4926-9C24-A4F778F6958B",
        "type": "Scene",
        "children": [{
            "name": "knick",
            "uuid": "E56746FF-9F57-348F-8247-C23A294B090E",
            "matrix": [-1,0,0,0,0,0,1,0,0,1,0,0,0,-10.9478,-1.0002,1],
            "visible": true,
            "type": "Mesh",
            "material": "B92F5ACA-E24A-3A69-B2DD-69B8C9C5682C",
            "castShadow": true,
            "receiveShadow": true,
            "geometry": "06BD157D-C476-3D86-BD68-22A0D615467D"
        }]
    },
    "materials": [{
        "uuid": "B92F5ACA-E24A-3A69-B2DD-69B8C9C5682C",
        "type": "MeshPhongMaterial",
        "color": 11579568,
        "depthTest": true,
        "vertexColors": false,
        "shininess": 50,
        "depthWrite": true,
        "ambient": 11579568,
        "blending": "NormalBlending",
        "emissive": 0,
        "name": "b0b0b0",
        "specular": 0
    }]
}