{
    "metadata": {
        "version": 4.4,
        "generator": "io_three",
        "type": "Object"
    },
    "materials": [{
        "shininess": 50,
        "color": 11579568,
        "emissive": 0,
        "blending": "NormalBlending",
        "uuid": "B92F5ACA-E24A-3A69-B2DD-69B8C9C5682C",
        "ambient": 11579568,
        "depthWrite": true,
        "name": "b0b0b0",
        "type": "MeshPhongMaterial",
        "specular": 131586,
        "depthTest": true,
        "vertexColors": false
    }],
    "object": {
        "uuid": "06D9323E-C9D6-46D5-8B1F-066EC6CB246D",
        "matrix": [1,0,0,0,0,1,0,0,0,0,1,0,0,0,0,1],
        "children": [{
            "name": "halter",
            "uuid": "194CBDF5-7923-3595-8ED9-4159C6EA139D",
            "matrix": [-0.79,0,0,0,0,0,0.9,0,0,1,0,0,0,-4.3249,0.0092,1],
            "visible": true,
            "type": "Mesh",
            "material": "B92F5ACA-E24A-3A69-B2DD-69B8C9C5682C",
            "castShadow": true,
            "receiveShadow": true,
            "geometry": "D7E13E5F-692D-38E5-AA71-493556ECD579"
        },{
            "name": "stange",
            "uuid": "8829E8E7-6F2F-3090-91EA-81698B20D70A",
            "matrix": [-1,0,0,0,0,0,1,0,0,0.99,0,0,0,0.1103,0,1],
            "visible": true,
            "type": "Mesh",
            "material": "B92F5ACA-E24A-3A69-B2DD-69B8C9C5682C",
            "castShadow": true,
            "receiveShadow": true,
            "geometry": "0C2AF9BB-3A43-322C-BE1E-174920572AA2"
        }],
        "type": "Scene"
    },
    "animations": [{
        "name": "default",
        "tracks": [],
        "fps": 29
    }],
    "textures": [],
    "geometries": [{
        "materials": [{
            "DbgName": "b0b0b0",
            "colorSpecular": [0.009961,0.009961,0.009961],
            "wireframe": false,
            "DbgIndex": 0,
            "colorEmissive": [0,0,0],
            "DbgColor": 15658734,
            "colorAmbient": [0.690196,0.690196,0.690196],
            "specularCoef": 50,
            "opacity": 1,
            "shading": "phong",
            "blending": "NormalBlending",
            "visible": true,
            "depthWrite": true,
            "transparent": false,
            "depthTest": true,
            "colorDiffuse": [0.690196,0.690196,0.690196]
        }],
        "uuid": "0C2AF9BB-3A43-322C-BE1E-174920572AA2",
        "data": {
            "morphTargets": [],
            "metadata": {
                "materials": 1,
                "morphTargets": 0,
                "faces": 84,
                "uvs": 1,
                "version": 3,
                "generator": "io_three",
                "bones": 0,
                "normals": 35,
                "vertices": 72
            },
            "animations": [],
            "uvs": [[0.416667,0.583333,-0,1,-0,0,0.416667,0,0.416667,1,0.583333,0.416667,0.583333,0,1,0,0.583333,1,1,1,0.583333,0.416667,0.186923,0.043191,0.812308,0.187692,0.186923,0.813077,0.186923,-0,0.812308,-0,0.812308,1,0.186923,1,1,-0,0.812308,0.416667,1,0.416667,0.812308,0.583333,1,0.583333,0.186923,0.416667,0,0.416667,0,-0,0.186923,0.583333,0,0.583333,0.813077,0.956809,0.187692,0.812308,0.813077,0.186923,0.813077,1,0.187692,1,0.187692,-0,0.813077,-0,0.187692,0.416667,0,1,0.187692,0.583333,0.813077,0.416667,0.813077,0.583333,0.186923,0.043191,0.186923,0,0.812308,0,0,0,0.813077,0.186923,0.187692,0,0.813077,0,0.813077,0.230114,0,0.512,1,0.488,1,0.486,0,0.514]],
            "skinWeights": [],
            "normals": [1,0,0,0.577349,-0.577319,0.577319,0.577319,-0.577349,-0.577319,0.577349,0.577349,-0.577349,0.577349,0.577349,0.577349,0.577349,-0.577349,-0.577349,0.577349,0.577319,-0.577319,0.577319,-0.577349,0.577319,0.577349,0.577319,0.577349,-1,0,0,-0.707083,0,-0.707083,-0.577349,-0.577319,-0.577319,-0.707083,0,0.707083,-0.577349,-0.577349,0.577319,-0.577349,0.577319,0.577319,-0.577349,0.577319,-0.577349,-0.999969,0,0,0,0,0.999969,3.1e-05,0,0.999969,0,0,1,0,-0.707083,0.707083,0,0.707083,0.707083,0.577349,0.577349,0.577319,0,0,-0.999969,3.1e-05,0,-0.999969,0,0,-1,0,0.707083,-0.707083,0,-0.707083,-0.707083,0.577349,-0.577349,-0.577319,-0.577349,-0.577319,-0.577349,0,-1,0,0,1,0,0,0.999969,0,-0.707083,0.707083,0,-0.707083,-0.707083,0],
            "bones": [],
            "skinIndices": [],
            "faces": [42,0,1,2,0,0,1,2,0,1,2,42,0,2,3,0,0,2,3,0,2,3,42,4,1,0,0,4,1,0,4,1,0,42,5,6,7,0,5,6,7,0,5,6,42,8,5,7,0,8,5,7,7,0,6,42,8,7,9,0,8,7,9,7,6,8,42,10,11,12,0,10,6,7,9,10,11,42,13,10,12,0,8,10,7,12,9,11,42,13,12,14,0,8,7,9,12,11,13,42,15,16,17,0,0,1,2,9,14,15,42,15,17,18,0,0,2,3,9,15,10,42,19,16,20,0,4,1,0,12,14,16,42,21,22,23,0,11,12,13,17,18,17,42,22,24,25,0,12,11,14,18,19,19,42,22,25,26,0,12,14,15,18,19,20,42,27,28,29,0,16,17,13,21,19,19,42,27,29,22,0,16,13,12,21,19,18,42,22,26,1,0,12,15,18,18,20,1,42,30,22,1,0,19,12,18,22,18,1,42,30,1,4,0,19,18,20,22,1,4,42,27,31,8,0,16,21,22,21,1,7,42,27,8,9,0,16,22,9,21,7,8,42,21,32,13,0,11,23,24,17,19,12,42,21,13,14,0,11,24,25,17,12,13,42,24,14,25,0,11,25,14,19,13,19,42,33,23,16,0,26,13,1,19,17,14,42,33,16,19,0,26,1,27,19,14,12,42,28,16,29,0,17,1,13,19,14,19,42,34,35,36,0,28,29,30,23,24,23,42,35,37,38,0,29,28,31,24,25,25,42,35,38,39,0,29,31,32,24,25,26,42,40,41,42,0,33,34,30,27,25,25,42,40,42,35,0,33,30,29,27,25,24,42,40,43,3,0,33,35,24,27,6,3,42,40,3,2,0,33,24,2,27,3,2,42,35,39,7,0,29,32,36,24,26,6,42,44,35,7,0,37,29,36,28,24,6,42,44,7,6,0,37,36,27,28,6,5,42,45,36,12,0,38,30,7,25,23,11,42,45,12,11,0,38,7,20,25,11,10,42,41,12,42,0,34,7,30,25,11,25,42,34,46,18,0,28,39,22,23,29,10,42,34,18,17,0,28,22,9,23,10,15,42,37,17,38,0,28,9,31,25,15,25,42,47,48,49,0,40,12,13,30,30,30,42,48,50,51,0,12,40,41,30,30,30,42,48,51,40,0,12,41,42,30,30,27,42,26,52,53,0,16,17,13,20,30,30,42,26,53,48,0,16,13,12,20,30,30,42,48,40,2,0,12,42,7,30,27,2,42,26,48,2,0,16,12,7,20,30,2,42,26,2,1,0,16,7,9,20,2,1,42,47,49,14,0,40,13,36,30,30,13,42,47,14,12,0,40,36,43,30,13,11,42,50,12,51,0,40,43,41,30,11,30,42,52,14,53,0,17,36,13,30,13,30,42,54,55,39,0,44,29,45,31,31,26,42,54,39,56,0,44,45,46,31,26,31,42,57,27,55,0,47,32,29,32,21,31,42,57,55,58,0,47,29,44,32,31,31,42,59,27,60,0,31,32,47,31,21,31,42,55,9,7,0,29,36,43,31,8,6,42,55,7,39,0,29,43,45,31,6,26,42,27,9,55,0,32,36,29,21,8,31,42,54,56,17,0,44,46,7,31,31,15,42,57,58,17,0,47,44,7,32,31,15,42,59,60,17,0,31,47,7,31,31,15,42,59,17,16,0,31,7,9,31,15,14,42,43,44,31,0,3,6,8,6,28,1,42,30,43,31,0,4,3,8,22,6,1,42,61,3,43,0,48,43,45,31,3,6,42,61,43,30,0,48,45,32,31,6,22,42,4,61,30,0,36,48,32,4,31,22,42,62,44,6,0,49,42,7,30,28,5,42,8,31,44,0,9,16,42,7,1,28,42,8,44,62,0,9,42,49,7,28,30,42,46,63,64,0,3,6,8,29,33,33,42,65,46,64,0,4,3,8,34,29,33,42,66,63,67,0,50,46,7,31,33,31,42,68,64,63,0,9,31,46,31,33,33,42,68,63,66,0,9,46,50,31,33,31,42,69,70,46,0,51,43,41,30,30,29,42,69,46,65,0,51,41,17,30,29,34,42,71,69,65,0,36,51,17,30,30,34],
            "name": "stangeGeometry",
            "influencesPerVertex": 2,
            "vertices": [0.13,-0.05,1.875,0.13,-0.3,11.25,0.13,-0.3,-11.25,0.13,-0.05,-11.25,0.13,-0.05,11.25,0.13,0.05,-1.875,0.13,0.05,-11.25,0.13,0.3,-11.25,0.13,0.05,11.25,0.13,0.3,11.25,-0.13,-0.05,-1.875,-0.13,-0.05,-11.25,-0.13,-0.3,-11.25,-0.13,-0.05,11.25,-0.13,-0.3,11.25,-0.13,0.05,1.875,-0.13,0.3,11.25,-0.13,0.3,-11.25,-0.13,0.05,-11.25,-0.13,0.05,11.25,-0.13,0.05,1.875,-0.0814,-0.274086,11.25,0.0812,-0.187385,11.25,-0.0814,0.187846,11.25,-0.0814,-0.274086,11.25,-0.0814,-0.3,11.25,0.0812,-0.3,11.25,0.0812,0.3,11.25,-0.0814,0.3,11.25,-0.0814,0.187846,11.25,0.0812,-0.05,11.25,0.0812,0.05,11.25,-0.0814,-0.05,11.25,-0.0814,0.05,11.25,-0.0814,0.274086,-11.25,0.0812,0.187385,-11.25,-0.0814,-0.187846,-11.25,-0.0814,0.274086,-11.25,-0.0814,0.3,-11.25,0.0812,0.3,-11.25,0.0812,-0.3,-11.25,-0.0814,-0.3,-11.25,-0.0814,-0.187846,-11.25,0.0812,-0.05,-11.25,0.0812,0.05,-11.25,-0.0814,-0.05,-11.25,-0.0814,0.05,-11.25,-0.0814,-0.3,-10.2782,0.0812,-0.3,-7.02692,-0.0814,-0.3,7.04423,-0.0814,-0.3,-10.2782,-0.0814,-0.3,-11.25,-0.0814,-0.3,11.25,-0.0814,-0.3,7.04423,-0.0814,0.3,-7.04423,0.0812,0.3,7.02692,-0.0814,0.3,-11.25,-0.0814,0.3,-6.07244,-0.0814,0.3,-7.04423,-0.0814,0.3,11.25,-0.0814,0.3,-6.07244,0.13,-0.05,0.27,0.13,0.05,-0.27,-0.0814,-0.05,-11.25,-0.0814,-0.05,11.25,-0.0814,0.05,11.25,-0.13,-0.05,-0.315002,-0.13,-0.05,-11.25,-0.13,-0.05,11.25,-0.13,0.05,0.315002,-0.13,0.05,-11.25,-0.13,0.05,11.25]
        },
        "type": "Geometry"
    },{
        "materials": [{
            "DbgName": "b0b0b0",
            "colorSpecular": [0.009961,0.009961,0.009961],
            "wireframe": false,
            "DbgIndex": 0,
            "colorEmissive": [0,0,0],
            "DbgColor": 15658734,
            "colorAmbient": [0.690196,0.690196,0.690196],
            "specularCoef": 50,
            "opacity": 1,
            "shading": "phong",
            "blending": "NormalBlending",
            "visible": true,
            "depthWrite": true,
            "transparent": false,
            "depthTest": true,
            "colorDiffuse": [0.690196,0.690196,0.690196]
        }],
        "uuid": "D7E13E5F-692D-38E5-AA71-493556ECD579",
        "data": {
            "morphTargets": [],
            "metadata": {
                "materials": 1,
                "morphTargets": 0,
                "faces": 192,
                "uvs": 1,
                "version": 3,
                "generator": "io_three",
                "bones": 0,
                "normals": 90,
                "vertices": 100
            },
            "animations": [],
            "uvs": [[0.5,0.333333,0.5,1,0.477759,1,0.477759,0.333333,0.456897,1,0.456897,0.333333,0.438966,1,0.438966,0.333333,0.456897,1,0.456897,0.333333,0.477759,1,0.477759,0.333333,0.438965,1,0.438965,0.333333,0.561035,0.333333,0.561035,1,0.543103,1,0.543103,0.333333,0.522241,1,0.522241,0.333333,0.522241,1,0.522241,0.333333,0.561034,1,0.561034,0.333333,0.5,0.586207,0.477759,0.583276,0.5,0.5,0.456897,0.574655,0.438966,0.561034,0.425345,0.543103,0.416724,0.522241,0.413793,0.5,0.416724,0.477759,0.425345,0.456897,0.438966,0.438965,0.456897,0.425345,0.477759,0.416724,0.5,0.413793,0.522241,0.416724,0.543103,0.425345,0.561035,0.438965,0.574655,0.456897,0.583276,0.477759,0.586207,0.5,0.583276,0.522241,0.574655,0.543103,0.561035,0.561034,0.543103,0.574655,0.522241,0.583276,0.5,0,0.370517,0.333333,0.370517,0,0.25,0.333333,0.25,0,0.146379,0.333333,0.146379,0,0.370517,0.333333,0.370517,0,0.25,0.333333,0.25,0,0.146379,0.333333,0.146379,0,0.853621,0,0.853621,0.333333,0.75,0.333333,0.75,0,0.629483,0.333333,0.629483,0,0.853621,0.333333,0.853621,0,0.5,1,0.370517,0.982931,0.25,0.932931,0.146379,0.853621,0.067069,0.75,0.017069,0.629483,0,0.5,0.017069,0.370517,0.067069,0.25,0.146379,0.146379,0.25,0.067069,0.370517,0.017069,0.629483,0.017069,0.75,0.067069,0.853621,0.146379,0.932931,0.25,0.982931,0.370517,1,0.5,0.982931,0.629483,0.932931,0.75,0.853621,0.853621,0.75,0.932931,0.629483,0.982931,0.5,-0]],
            "skinWeights": [],
            "normals": [0,0.734275,-0.678823,0,0.734275,0.678823,0.189734,0.709189,0.678945,0.189703,0.709189,-0.678976,0.365093,0.636586,0.679281,0.365093,0.636586,-0.679281,0.519822,0.519822,0.677847,0.519822,0.519822,-0.677847,0.636586,0.365093,0.679281,0.636555,0.365093,-0.679281,0.709189,0.189734,0.678945,0.709189,0.189734,-0.678976,0.734275,0,0.678823,0.734275,0,-0.678823,0.709189,-0.189734,0.678976,0.70922,-0.189734,-0.678945,0.636586,-0.365093,0.679281,0.636586,-0.365093,-0.679281,0.519822,-0.519822,0.677847,0.519852,-0.519822,-0.677847,0.365123,-0.636586,0.679281,0.365123,-0.636586,-0.679281,0.189734,-0.709189,0.678945,0.189734,-0.709189,-0.678945,0,-0.734275,0.678823,0,-0.734275,-0.678823,-0.189734,-0.709189,0.678945,-0.189734,-0.709189,-0.678945,-0.365123,-0.636586,0.679281,-0.365123,-0.636586,-0.679281,-0.519822,-0.519822,0.677847,-0.519822,-0.519822,-0.677847,-0.636586,-0.365093,0.679281,-0.636586,-0.365093,-0.679281,-0.709189,-0.189734,0.678976,-0.70922,-0.189734,-0.678945,-0.734275,0,0.678823,-0.734275,0,-0.678823,-0.709189,0.189734,0.678945,-0.709189,0.189734,-0.678976,-0.636586,0.365093,0.679281,-0.636586,0.365093,-0.679281,-0.519822,0.519852,0.677877,-0.519852,0.519822,-0.677847,-0.365093,0.636586,0.679281,-0.365123,0.636586,-0.679281,-0.189734,0.709189,0.678945,-0.189734,0.709189,-0.678945,0,0,-1,0,0,1,0.190283,0.709189,0.678823,0.190283,0.709189,-0.678823,0.366832,0.635853,0.679037,0.366832,0.635853,-0.679037,0.519333,0.519333,0.67861,0.519333,0.519333,-0.67861,0.635853,0.366832,0.679037,0.635853,0.366832,-0.679037,0.709189,0.190283,0.678823,0.709189,0.190283,-0.678823,0.709189,-0.190283,0.678823,0.709189,-0.190283,-0.678823,0.635853,-0.366802,0.679037,0.635853,-0.366832,-0.679037,0.519333,-0.519333,0.67861,0.519333,-0.519333,-0.67861,0.366832,-0.635853,0.679037,0.366802,-0.635853,-0.679037,0.190313,-0.709189,0.678823,0.190283,-0.709189,-0.678823,-0.190313,-0.709189,0.678823,-0.190283,-0.709189,-0.678823,-0.366832,-0.635853,0.679037,-0.366802,-0.635853,-0.679037,-0.519333,-0.519333,0.67861,-0.519333,-0.519333,-0.67861,-0.635853,-0.366832,0.679037,-0.635853,-0.366832,-0.679037,-0.709189,-0.190283,0.678823,-0.709189,-0.190283,-0.678823,-0.709189,0.190283,0.678823,-0.709189,0.190283,-0.678823,-0.635853,0.366832,0.679037,-0.635853,0.366832,-0.679037,-0.519333,0.519333,0.67861,-0.519333,0.519333,-0.67861,-0.366802,0.635853,0.679037,-0.366802,0.635853,-0.679037,-0.190283,0.709189,0.678823,-0.190283,0.709189,-0.678823],
            "bones": [],
            "skinIndices": [],
            "faces": [42,0,24,25,0,0,1,2,0,1,2,42,0,25,1,0,0,2,3,0,2,3,42,1,25,26,0,3,2,4,3,2,4,42,1,26,2,0,3,4,5,3,4,5,42,2,26,27,0,5,4,6,5,4,6,42,2,27,3,0,5,6,7,5,6,7,42,3,27,28,0,7,6,8,7,6,8,42,3,28,4,0,7,8,9,7,8,9,42,4,28,29,0,9,8,10,9,8,10,42,4,29,5,0,9,10,11,9,10,11,42,5,29,30,0,11,10,1,11,10,12,42,5,30,6,0,11,1,0,11,12,13,42,6,30,31,0,0,1,2,13,12,14,42,6,31,7,0,0,2,3,13,14,15,42,7,31,32,0,3,2,4,15,14,16,42,7,32,8,0,3,4,5,15,16,17,42,8,32,33,0,5,4,12,17,16,18,42,8,33,9,0,5,12,13,17,18,19,42,9,33,34,0,14,15,16,19,18,20,42,9,34,10,0,14,16,17,19,20,21,42,10,34,35,0,17,16,18,21,20,22,42,10,35,11,0,17,18,19,21,22,23,42,11,35,36,0,19,18,1,23,22,24,42,11,36,12,0,19,1,0,23,24,25,42,12,36,37,0,0,1,18,25,24,26,42,12,37,13,0,0,18,19,25,26,27,42,13,37,38,0,19,18,16,27,26,28,42,13,38,14,0,19,16,17,27,28,29,42,14,38,39,0,17,16,15,29,28,30,42,14,39,15,0,17,15,14,29,30,31,42,15,39,40,0,14,15,16,31,30,32,42,15,40,16,0,14,16,17,31,32,33,42,16,40,41,0,17,16,20,33,32,34,42,16,41,17,0,17,20,21,33,34,35,42,17,41,42,0,21,20,1,35,34,36,42,17,42,18,0,21,1,0,35,36,37,42,18,42,43,0,0,1,18,37,36,38,42,18,43,19,0,0,18,19,37,38,39,42,19,43,44,0,19,18,16,39,38,40,42,19,44,20,0,19,16,17,39,40,41,42,20,44,45,0,17,16,22,41,40,42,42,20,45,21,0,17,22,23,41,42,43,42,21,45,46,0,7,6,4,43,42,44,42,21,46,22,0,7,4,5,43,44,45,42,22,46,47,0,5,4,2,45,44,46,42,22,47,23,0,5,2,3,45,46,47,42,23,47,24,0,3,2,1,47,46,1,42,23,24,0,0,3,1,0,47,1,0,42,0,1,48,0,24,25,26,0,3,48,42,1,2,48,0,25,27,26,3,5,48,42,2,3,48,0,27,28,26,5,7,48,42,3,4,48,0,28,29,26,7,9,48,42,4,5,48,0,29,30,26,9,11,48,42,5,6,48,0,30,31,26,11,13,48,42,6,7,48,0,31,32,26,13,15,48,42,7,8,48,0,32,33,26,15,17,48,42,8,9,48,0,33,34,26,17,19,48,42,9,10,48,0,34,35,26,19,21,48,42,10,11,48,0,35,36,26,21,23,48,42,11,12,48,0,36,37,26,23,25,48,42,12,13,48,0,37,38,26,25,27,48,42,13,14,48,0,38,39,26,27,29,48,42,14,15,48,0,39,40,26,29,31,48,42,15,16,48,0,40,41,26,31,33,48,42,16,17,48,0,41,42,26,33,35,48,42,17,18,48,0,42,43,26,35,37,48,42,18,19,48,0,43,44,26,37,39,48,42,19,20,48,0,44,45,26,39,41,48,42,20,21,48,0,45,46,26,41,43,48,42,21,22,48,0,46,47,26,43,45,48,42,22,23,48,0,47,48,26,45,47,48,42,23,0,48,0,48,24,26,47,0,48,42,25,24,49,0,48,24,26,2,1,49,42,26,25,49,0,47,48,26,4,2,49,42,27,26,49,0,46,47,26,6,4,49,42,28,27,49,0,45,46,26,8,6,49,42,29,28,49,0,44,45,26,10,8,49,42,30,29,49,0,43,44,26,12,10,49,42,31,30,49,0,42,43,26,14,12,49,42,32,31,49,0,41,42,26,16,14,49,42,33,32,49,0,40,41,26,18,16,49,42,34,33,49,0,39,40,26,20,18,49,42,35,34,49,0,38,39,26,22,20,49,42,36,35,49,0,37,38,26,24,22,49,42,37,36,49,0,36,37,26,26,24,49,42,38,37,49,0,35,36,26,28,26,49,42,39,38,49,0,34,35,26,30,28,49,42,40,39,49,0,33,34,26,32,30,49,42,41,40,49,0,32,33,26,34,32,49,42,42,41,49,0,31,32,26,36,34,49,42,43,42,49,0,30,31,26,38,36,49,42,44,43,49,0,29,30,26,40,38,49,42,45,44,49,0,28,29,26,42,40,49,42,46,45,49,0,27,28,26,44,42,49,42,47,46,49,0,25,27,26,46,44,49,42,24,47,49,0,24,25,26,1,46,49,42,50,74,75,0,49,0,50,0,1,50,42,50,75,51,0,49,50,51,0,50,51,42,51,75,76,0,51,50,52,51,50,52,42,51,76,52,0,51,52,53,51,52,53,42,52,76,77,0,53,52,54,53,52,54,42,52,77,53,0,53,54,55,53,54,55,42,53,77,78,0,55,54,52,55,54,56,42,53,78,54,0,55,52,53,55,56,57,42,54,78,79,0,53,52,50,57,56,58,42,54,79,55,0,53,50,51,57,58,59,42,55,79,80,0,51,50,0,59,58,12,42,55,80,56,0,51,0,49,59,12,13,42,56,80,81,0,49,0,56,13,12,60,42,56,81,57,0,49,56,57,13,60,61,42,57,81,82,0,57,56,58,61,60,62,42,57,82,58,0,57,58,59,61,62,63,42,58,82,83,0,59,58,60,63,62,64,42,58,83,59,0,59,60,61,63,64,65,42,59,83,84,0,62,63,64,65,64,66,42,59,84,60,0,62,64,65,65,66,67,42,60,84,85,0,65,64,66,67,66,68,42,60,85,61,0,65,66,67,67,68,69,42,61,85,86,0,67,66,0,69,68,24,42,61,86,62,0,67,0,49,69,24,25,42,62,86,87,0,49,0,66,25,24,70,42,62,87,63,0,49,66,67,25,70,71,42,63,87,88,0,67,66,64,71,70,72,42,63,88,64,0,67,64,65,71,72,73,42,64,88,89,0,65,64,63,73,72,74,42,64,89,65,0,65,63,62,73,74,75,42,65,89,90,0,62,63,64,75,74,76,42,65,90,66,0,62,64,65,75,76,77,42,66,90,91,0,65,64,66,77,76,78,42,66,91,67,0,65,66,67,77,78,79,42,67,91,92,0,67,66,0,79,78,36,42,67,92,68,0,67,0,49,79,36,37,42,68,92,93,0,49,0,66,37,36,80,42,68,93,69,0,49,66,67,37,80,81,42,69,93,94,0,67,66,64,81,80,82,42,69,94,70,0,67,64,65,81,82,83,42,70,94,95,0,65,64,68,83,82,84,42,70,95,71,0,65,68,69,83,84,85,42,71,95,96,0,55,54,52,85,84,86,42,71,96,72,0,55,52,53,85,86,87,42,72,96,97,0,53,52,50,87,86,88,42,72,97,73,0,53,50,51,87,88,89,42,73,97,74,0,51,50,0,89,88,1,42,73,74,50,0,51,0,49,89,1,0,42,50,51,98,0,70,71,26,0,51,48,42,51,52,98,0,71,72,26,51,53,48,42,52,53,98,0,72,73,26,53,55,48,42,53,54,98,0,73,74,26,55,57,48,42,54,55,98,0,74,75,26,57,59,48,42,55,56,98,0,75,76,26,59,13,48,42,56,57,98,0,76,77,26,13,61,48,42,57,58,98,0,77,78,26,61,63,48,42,58,59,98,0,78,79,26,63,65,48,42,59,60,98,0,79,80,26,65,67,48,42,60,61,98,0,80,81,26,67,69,48,42,61,62,98,0,81,49,26,69,25,48,42,62,63,98,0,49,82,26,25,71,48,42,63,64,98,0,82,83,26,71,73,48,42,64,65,98,0,83,84,26,73,75,48,42,65,66,98,0,84,85,26,75,77,48,42,66,67,98,0,85,86,26,77,79,48,42,67,68,98,0,86,87,26,79,37,48,42,68,69,98,0,87,88,26,37,81,48,42,69,70,98,0,88,89,26,81,83,48,42,70,71,98,0,89,90,26,83,85,48,42,71,72,98,0,90,91,26,85,87,48,42,72,73,98,0,91,92,26,87,89,48,42,73,50,98,0,92,70,26,89,0,48,42,75,74,99,0,92,70,26,50,1,49,42,76,75,99,0,91,92,26,52,50,49,42,77,76,99,0,90,91,26,54,52,49,42,78,77,99,0,89,90,26,56,54,49,42,79,78,99,0,88,89,26,58,56,49,42,80,79,99,0,87,88,26,12,58,49,42,81,80,99,0,86,87,26,60,12,49,42,82,81,99,0,85,86,26,62,60,49,42,83,82,99,0,84,85,26,64,62,49,42,84,83,99,0,83,84,26,66,64,49,42,85,84,99,0,82,83,26,68,66,49,42,86,85,99,0,93,82,26,24,68,49,42,87,86,99,0,81,93,26,70,24,49,42,88,87,99,0,80,81,26,72,70,49,42,89,88,99,0,79,80,26,74,72,49,42,90,89,99,0,78,79,26,76,74,49,42,91,90,99,0,77,78,26,78,76,49,42,92,91,99,0,76,77,26,36,78,49,42,93,92,99,0,75,76,26,80,36,49,42,94,93,99,0,74,75,26,82,80,49,42,95,94,99,0,73,74,26,84,82,49,42,96,95,99,0,72,73,26,86,84,49,42,97,96,99,0,71,72,26,88,86,49,42,74,97,99,0,70,71,26,1,88,49],
            "name": "halterGeometry",
            "influencesPerVertex": 2,
            "vertices": [0,0.0408,-6.8251,0.0129,0.0391,-6.8251,0.025,0.0341,-6.8251,0.0354,0.0262,-6.8251,0.0433,0.0158,-6.8251,0.0483,0.0037,-6.8251,0.05,-0.0092,-6.8251,0.0483,-0.0221,-6.8251,0.0433,-0.0342,-6.8251,0.0354,-0.0446,-6.8251,0.025,-0.0525,-6.8251,0.0129,-0.0575,-6.8251,0,-0.0592,-6.8251,-0.0129,-0.0575,-6.8251,-0.025,-0.0525,-6.8251,-0.0354,-0.0446,-6.8251,-0.0433,-0.0342,-6.8251,-0.0483,-0.0221,-6.8251,-0.05,-0.0092,-6.8251,-0.0483,0.0037,-6.8251,-0.0433,0.0158,-6.8251,-0.0354,0.0262,-6.8251,-0.025,0.0341,-6.8251,-0.0129,0.0391,-6.8251,0,0.0408,-6.6251,0.0129,0.0391,-6.6251,0.025,0.0341,-6.6251,0.0354,0.0262,-6.6251,0.0433,0.0158,-6.6251,0.0483,0.0037,-6.6251,0.05,-0.0092,-6.6251,0.0483,-0.0221,-6.6251,0.0433,-0.0342,-6.6251,0.0354,-0.0446,-6.6251,0.025,-0.0525,-6.6251,0.0129,-0.0575,-6.6251,0,-0.0592,-6.6251,-0.0129,-0.0575,-6.6251,-0.025,-0.0525,-6.6251,-0.0354,-0.0446,-6.6251,-0.0433,-0.0342,-6.6251,-0.0483,-0.0221,-6.6251,-0.05,-0.0092,-6.6251,-0.0483,0.0037,-6.6251,-0.0433,0.0158,-6.6251,-0.0354,0.0262,-6.6251,-0.025,0.0341,-6.6251,-0.0129,0.0391,-6.6251,0,-0.0092,-6.8251,0,-0.0092,-6.6251,0,0.2808,-6.9251,0.0751,0.2709,-6.9251,0.145,0.2419,-6.9251,0.2051,0.1959,-6.9251,0.2511,0.1358,-6.9251,0.2801,0.0659,-6.9251,0.29,-0.0092,-6.9251,0.2801,-0.0843,-6.9251,0.2511,-0.1542,-6.9251,0.2051,-0.2143,-6.9251,0.145,-0.2603,-6.9251,0.0751,-0.2893,-6.9251,0,-0.2992,-6.9251,-0.0751,-0.2893,-6.9251,-0.145,-0.2603,-6.9251,-0.2051,-0.2143,-6.9251,-0.2511,-0.1542,-6.9251,-0.2801,-0.0843,-6.9251,-0.29,-0.0092,-6.9251,-0.2801,0.0659,-6.9251,-0.2511,0.1358,-6.9251,-0.2051,0.1959,-6.9251,-0.145,0.2419,-6.9251,-0.0751,0.2709,-6.9251,0,0.2808,-6.8251,0.0751,0.2709,-6.8251,0.145,0.2419,-6.8251,0.2051,0.1959,-6.8251,0.2511,0.1358,-6.8251,0.2801,0.0659,-6.8251,0.29,-0.0092,-6.8251,0.2801,-0.0843,-6.8251,0.2511,-0.1542,-6.8251,0.2051,-0.2143,-6.8251,0.145,-0.2603,-6.8251,0.0751,-0.2893,-6.8251,0,-0.2992,-6.8251,-0.0751,-0.2893,-6.8251,-0.145,-0.2603,-6.8251,-0.2051,-0.2143,-6.8251,-0.2511,-0.1542,-6.8251,-0.2801,-0.0843,-6.8251,-0.29,-0.0092,-6.8251,-0.2801,0.0659,-6.8251,-0.2511,0.1358,-6.8251,-0.2051,0.1959,-6.8251,-0.145,0.2419,-6.8251,-0.0751,0.2709,-6.8251,0,-0.0092,-6.9251,0,-0.0092,-6.8251]
        },
        "type": "Geometry"
    }],
    "images": []
}